{
    "Article": "（原标题：女子1500元工资藏旧鞋子里竟被盗门锁完好无损怀疑熟人作案）#endText.video-infoa{text-decoration:none;color:#000;}#endText.video-infoa:hover{color:#d34747;}#endText.video-listli{overflow:hidden;float:left;list-style:none;width:132px;height:118px;position:relative;margin:8px3px0px0px;}#entText.video-lista,#endText.video-lista:visited{text-decoration:none;color:#fff;}#endText.video-list.overlay{text-align:left;padding:0px6px;background-color:#313131;font-size:12px;width:120px;position:absolute;bottom:0px;left:0px;height:26px;line-height:26px;overflow:hidden;color:#fff;}#endText.video-list.on{border-bottom:8pxsolid#c4282b;}#endText.video-list.play{width:20px;height:20px;background:url(http://img1.cache.netease.com/video/img14/zhuzhan/play.png);position:absolute;right:12px;top:62px;opacity:0.7;color:#fff;filter:alpha(opacity=70);_background:none;_filter:progid:DXImageTransform.Microsoft.AlphaImageLoader(src=\"http://img1.cache.netease.com/video/img14/zhuzhan/play.png\");}#endText.video-lista:hover.play{opacity:1;filter:alpha(opacity=100);_filter:progid:DXImageTransform.Microsoft.AlphaImageLoader(src=\"http://img1.cache.netease.com/video/img14/zhuzhan/play.png\");}if(/(iPhone|iPad|iPod|Android|NETEASEBOBO|blackberry|bbd+)/ig.test(navigator.userAgent)||/safari|chrome|firefox/i.test(navigator.userAgent)&&navigator.plugins&&!navigator.plugins[\"ShockwaveFlash\"]){varstr1='<videocontrols=\"controls\"preload=\"auto\"width=\"100%\"poster=\"http://vimg3.ws.126.net/image/snapshot/2017/12/L/M/VD5VQ7ILM.jpg\"style=\"max-height:100%\">';varstr2='<sourcetype=\"video/mp4\"src=\"http://flv.bn.netease.com/videolib3/1712/30/PzLvo2997/SD/PzLvo2997-mobile.mp4\">您的浏览器暂时无法播放此视频.</video>';document.getElementById(\"FPlayer1404863609673\").parentNode.innerHTML=str1+str2;}女子1500元工资藏旧鞋子里竟被盗门锁完好怀疑熟人作案（来源：~）window.NTES&&function(d){varf=function(c){varb=c.getAttribute(\"flashvars\"),a=c.getAttribute(\"repovideourl\").replace(\".flv\",\"-mobile.mp4\");h=d(c.parentNode.parentNode.parentNode),g='<embedsrc=\"http://v.163.com/swf/video/NetEaseFlvPlayerV3.swf\"flashvars=\"'+b+'\"allowfullscreen=\"true\"allowscriptaccess=\"always\"quality=\"high\"wmode=\"opaque\"width=\"100%\"height=\"100%\"type=\"application/x-shockwave-flash\"/>';if(/(iPhone|iPad|iPod|Android|NETEASEBOBO|blackberry|bbd+)/ig.test(navigator.userAgent)){g='<videocontrols=\"controls\"preload=\"auto\"width=\"100%\"height=\"100%\"><sourcetype=\"video/mp4\"src=\"'+a+'\">您的浏览器暂时无法播放此视频.</video>';}h.$(\".video\")[0].innerHTML=g;},e=function(b){vara=d(b.parentNode.parentNode.parentNode);a.$(\"li\").removeCss(\"on\"),b.addCss(\"on\"),a.$(\".video-title\")[0].innerHTML=\"string\"==typeofb.textContent?b.textContent:b.innerText,a.$(\".video-title\")[0].setAttribute(\"href\",b.getAttribute(\"url\")),a.$(\".video-from\")[0].innerHTML=\"（来源：\"+b.getAttribute(\"source\")+\"）\",f(b);};window.continuePlay=function(){vara,b=d(d(\".video-list.on\")[0].nextSibling);3==b.nodeType&&(b=d(b.nextSibling));if(b&&d(\".video-innerinput\")[0].checked){e(b);}},function(){vara={init:function(){if(d(\".video-listli\")[0]){d(d(\".video-listli\")[0]).addCss(\"on\"),this.eventBind();}},eventBind:function(){d(\".video-listli\").addEvent(\"click\",function(b){e(d(this)),b.preventDefault();});}};a.init();}();}(NTES);上周五，在湖北襄阳市樊城松鹤路乔营一组租房住的小陈，下班回到家，准备取点钱出去买菜，却发现自己放在卧室包包里的两千七百块钱不翼而飞了。小陈怀疑家里进了贼，赶紧跑到对面邻居小万那里，告诉对方自己的遭遇，而这也引起了小万的警觉。小万经过检查，也发现大事不妙。小万说，她租的这间房子很小，没有可以藏东西的地方。就怕东西被偷，她才将刚领的一千五百块钱工资，藏在衣柜下的一双旧鞋子内，本以为这样很隐蔽，可没想到竟还是被人偷走了。现场的门窗锁都完好无损，房间里面毫无翻动的痕迹。据两名失主介绍，她们租住的这栋楼内，除了她俩之外，楼上还有两户是后来的房客。大家白天都在外忙着上班，很少回家。房东平时也不在这住，只是偶尔来一下。因为其他租客手里有大门钥匙和失主两家的房门钥匙，失主怀疑是熟人作案。另外，二人也不排除有盗贼技术开锁。眼下，她们已经更换了房门锁芯，警方也已介入侦查。本文来源：看看新闻Knews责任编辑：张宪超_NN9310",
    "PublishTime": "12/30/201714:00:03",
    "URL": "http://news.163.com/17/1230/14/D6TKFBFN0001875P.html",
    "Comment": {
        "Content": "你不是外国人报警无用的。 这点小钱，就不要报警了，否则民警来了，还要骂你浪费警力 积极两字最关键,有多少事,本可以在造成大错之前处理好,就是没有这个心去主动及时的解决矛盾 哪怕是一个嘿人报案，那都是当天就能破案。一等那啥二等那啥三等四等 我只能告诉你，不够5000不予以立案！ 我家去年也是这样，没有任何翻动的痕迹，就只有钱丢了，丢了八千多，报案了，但是！没有后续了 够5000也没用，JC叔叔忙着扫黄呢 内鬼作案 是不是被装了隐形摄像头 这几个小钱也偷，实在是太卑鄙了。 为嘛回复都对Jc如此失望… 内鬼作案 你不是外国人报警无用的。 这点小钱，就不要报警了，否则民警来了，还要骂你浪费警力 积极两字最关键,有多少事,本可以在造成大错之前处理好,就是没有这个心去主动及时的解决矛盾 我只能告诉你，不够5000不予以立案！ 我家去年也是这样，没有任何翻动的痕迹，就只有钱丢了，丢了八千多，报案了，但是！没有后续了 请大家注意好自己的财物安全. 够5000也没用，JC叔叔忙着扫黄呢 哪怕是一个嘿人报案，那都是当天就能破案。一等那啥二等那啥三等四等 ",
        "Link": "http://comment.news.163.com/news_shehui7_bbs/D6TKFBFN0001875P.html",
        "Total": 119,
        "Reply": 12
    },
    "Source": "Netease",
    "Title": "女子1500元工资藏旧鞋里被盗 门锁无损疑熟人作案_网易新闻",
    "KeyWords": "偷盗,违法,工资,市井"
}