{
    "Article": "网易体育12月29日报道：阿森纳客场战胜水晶宫，桑切斯4分钟内梅开二度再次靠一己之力挽救全队，从上赛季到现在智利人是英超客场参与进球最多的球员之一。桑切斯本场触球101次，射门四次三次射中门框范围，收获两个进球还给队友创造了两次射门机会，这样的大腿枪手怎么能不留？",
    "URL": "http://sports.163.com/17/1229/07/D6QC2G5S00058781.html",
    "Source": "Netease",
    "KeyWords": "桑切斯,阿森纳",
    "Comment": {
        "Reply": 91,
        "Link": "http://comment.sports.163.com/sports2_bbs/D6QC2G5S00058781.html",
        "Total": 1017,
        "Content": "温格：374老夫给你30.1万磅的周薪你别走 二十年来无他俩破厂从末跌出前四 在巴萨见过世面了，娜娜这种没心气的队呆久了却是看不惯 枪手太子爷666 第一个球射的漂亮，第二个球太子传的精彩😂 现在勉强争四，失去272374的话保6吧 真大腿。昨晚厄齐尔发挥不如威尔谢尔 有无大腿均可争四[窃笑] 拼巴萨？？？阿森纳够资格吗…… 关键是遇强不强吖，在强强对话中，很少看到他进球！ 踢球到了374这个级别，或为名或为利，在娜娜名利皆空，换个地方至少有一样吧 争四呗 大腿大眼都呆不下去了…… 多年无冠，薪水又谈不拢 放心，也是争四 八都争不到 桑切斯就是个彩笔，19轮联赛打进5个进球 毕竟娜婊 有了二位大腿是争四，没有也能争四<br>所以有没有二位大腿没有大的区别 之前还喷人家出工不出力，身在曹营心在汉，这些小便真是。。 辣四必须的 真不敢想象没有桑切斯和厄齐尔阿森纳会怎样 进来的都是我的亲人和球迷！谢谢大家. 是30.0001万磅好吗[窃笑] 赢了是大腿，输了是罪人…… 用着国际的人赢着乡下的队[窃笑] 为什么执意要走呢 前两天还上班打卡，这一场比赛就变成传奇了.......变化太快了！ 有了他们才能争个四好吗 保温杯不是冠军？！ 走不走 妈的昨天还说是出工不出力的混子，牛逼 12-13賽季就沒有，還不是第四名 打成这个样子，不知道的还以为枪手在拼巴萨。 现在利物浦不是买了个后卫吗之后估计争不到了[微笑] 暴击 别扯了，没他俩的时候没掉过前四 转会前的面试吧 争6比较现实一点。 那是以前，现在真不行 1、3楼就是那种才看一两年球出来装B的。 走吧 赶紧卖个高价 贝莱林早该卖了，传中从来不负责，甚至都不看看人在哪就一脚传出去，现在防守合作漏人，传球还老丢 巴萨该收回来 踢球到了374这个级别，或为名或为利，在娜娜名利皆空，换个地方至少有一样吧 争四呗 我明明记得教授是说给30万零1磅的 现在娜婊又叫人家大腿了 毕竟娜婊 怕是争十四 桑婊和厄婊哪個先出爐 枪手太子爷666 走不走 用着国际的人赢着乡下的队[窃笑] 为什么执意要走呢 打臉媒體，之前不是説桑切斯不行嗎？吊 前两天还上班打卡，这一场比赛就变成传奇了.......变化太快了！ 有了二位大腿是争四，没有也能争四<br>所以有没有二位大腿没有大的区别 妈的昨天还说是出工不出力的混子，牛逼 只能争六了，四爷666 打成这个样子，不知道的还以为枪手在拼巴萨。 别扯了，没他俩的时候没掉过前四 贝莱林感觉也是高开低走。 估计得到英冠争4 温格：374老夫给你30.1万磅的周薪你别走 二十年来无他俩破厂从末跌出前四 在巴萨见过世面了，娜娜这种没心气的队呆久了却是看不惯 然而不是你想留，想留就能留。 球迷都不傻，媒体最现实！ 真大腿。昨晚厄齐尔发挥不如威尔谢尔 呵呵，娜娜官博下面的娜迷，全是叫他做球蹲，真是一群贱骨头 拼巴萨？？？阿森纳够资格吗…… 有这俩货也争不了前四啊 多年无冠，薪水又谈不拢 现在勉强争四，失去272374的话保6吧 那是以前，现在真不行 依然可以争四，信不？ 给这个球迷点赞 辣四必须的 真不敢想象没有桑切斯和厄齐尔阿森纳会怎样 进来的都是我的亲人和球迷！谢谢大家. 想多了 铁打的温四流水的球星 这图太渣了了应该放小视频 保温杯不是冠军？！ 发挥越好，越能待价而估。 12-13賽季就沒有，還不是第四名 贝莱林真是烂透了 前两天还有一堆温格球迷喷人家<br>说人家场上打卡呢 太子就是太子，真不能小看 温格：374老夫给你30.1万磅的周薪你别走 真不敢想象没有桑切斯和厄齐尔阿森纳会怎样 4001万买人的埂可以玩一辈子！<br>争4一直是娜娜的目标！<br>大腿超值啊，这种物美价廉的货有多少来多少！反正不缺钱！<br>实在不行，在引进几个有潜力的小将！ 对强队又萎了 你有能力拿高薪水，但是单位只想吃老本，毫无上进心，你也会想走的，不然你就会慢慢变平庸，心气也会消耗在那了。 有四爷就行，夺冠别想第四就稳 拿经验走人 关键是遇强不强吖，在强强对话中，很少看到他进球！ 制胜球就是打到对方一点都碰不到而且令到自己得分的球. 争四呗 大腿大眼都呆不下去了…… 是30.0001万磅好吗[窃笑] 放心，也是争四 是三十万零一镑，剩下的999镑你出ma 桑切斯就是个彩笔，19轮联赛打进5个进球 巴黎：大腿，就这状态30周薪怎么给呀。大腿：你等着… 有没有都没影响好不好？铁打的温格流水的兵一样的争四。<br>破厂问题不是一两个人解决的。 再过两天就可以自由谈判了，去留一目了然 四爷拿出雄心来！ 不是说他出工不出力吗？成为更衣室公敌吗？今年冬窗不把他卖出明年就是曼城的囊中物。 争个屁去年都拿不到今晚没有这两个人等死吧 大腿会迟到，但不会缺席。 你上去190轮都未必能进一个 进球就夸，不进就骂，你说了算 赢了是大腿，输了是罪人…… 为什么执意要走呢 科斯切尔尼可以走了 有了他们才能争个四好吗 第一个球射的漂亮，第二个球太子传的精彩😂 现在也是争四啊 现在利物浦不是买了个后卫吗之后估计争不到了[微笑] 暴击 多年无冠，薪水又谈不拢 前阵子还说出工不出力，这下子一下高潮。 争6比较现实一点。 是留不住！ 桑神最近拼命是给自己涨合同身价那 转会前的面试吧 我厂20年来首次无缘前四就是他俩带队！没他俩怎么样还用张？ 之前还喷人家出工不出力，身在曹营心在汉，这些小便真是。。 374，3500万，272，2000万打包 然并卵，<br>明年夏天坐家里看电视吧！ "
    },
    "Title": "4分钟2球制胜!这样的桑神怎能不留 球迷:你是传奇_网易体育",
    "PublishTime": "12/29/201707:35:29"
}