{
    "URL": "http://ent.163.com/17/1231/21/D710UVJN00038FO9.html",
    "Article": "纪凌尘、陈翔合唱《亲爱的你》纪凌尘、陈翔合唱《亲爱的你》网易娱乐12月31日报道湖南卫视跨年演唱会直播现场。因综艺《亲爱的客栈》人气大增的模特纪凌尘，在湖南卫视跨年现场与陈翔合唱《亲爱的你》，带来LIVE首秀。本就不是歌手出身的纪凌尘现场表现似乎并不理想。网友评论：继汪峰之后，再一位证明现场真唱的艺人。表演结束后，陈翔与纪凌尘来到采访间，陈翔表示：自己是选秀（直播）比赛出身，不会很紧张，但纪凌尘是LIVE表演首秀，非常紧张。本文来源：网易娱乐责任编辑：张楠_NK4501",
    "KeyWords": "纪凌尘,陈翔,湖南卫视",
    "Source": "Netease",
    "Comment": {
        "Reply": 12,
        "Content": "纪老师唱歌水平在节目中就懂得了，没有出大车祸就是万幸[窃笑] 大傻子 今晚没感觉 尘翔组合竟然上跨年了真是想不到[微笑]清子不来真是可惜又吵架了？ 人家就不是专业歌手 紧张正常 大傻子哪次不跑调？ 我觉得已经超常发挥了，为纪小哥点赞 尘翔组合竟然上跨年了真是想不到[微笑]清子不来真是可惜又吵架了？ 大傻子 我觉得已经超常发挥了，为纪小哥点赞 人家就不是专业歌手 纪老师唱歌水平在节目中就懂得了，没有出大车祸就是万幸[窃笑] 紧张正常 看过亲爱的客栈都知道，纪凌尘跑调才是正常的……不过我看重播好像他只唱了第一句，后面几乎都是陈翔的声音，是被关了话筒吗？ 尘翔组合竟然上跨年了真是想不到[微笑]清子不来真是可惜又吵架了？ 今晚没感觉 老纪挺有意思的，整天唱歌跑调还爱唱rap，大傻子一个性格可爱 大傻子哪次不跑调？ 纪凌尘太好笑了 尘翔组合竟然上跨年了真是想不到[微笑]清子不来真是可惜又吵架了？ ",
        "Total": 140,
        "Link": "http://comment.ent.163.com/ent2_bbs/D710UVJN00038FO9.html"
    },
    "PublishTime": "12/31/201721:36:01",
    "Title": "纪凌尘跑调？陈翔护友：他是LIVE表演首秀太紧张_网易娱乐"
}