{
    "PublishTime": "12/31/201710:29:46",
    "Comment": {
        "Total": 928,
        "Reply": 43,
        "Link": "http://comment.news.163.com/news_shehui7_bbs/D6VQR1500001875P.html",
        "Content": "直接枪毙吧 这些偷猎的、电鱼的就该让他们把牢底坐穿！ 直接剁手可好 40天来,雷昌桂等人每天组织多名猎捕人员用鸟网捕捉25万余只野生鸟类,并低价收购野生鸟,打包后高价出售至外地,非法牟利45万余元，真是有够高价的，这些人是得有多穷。 买鸟的也要惩罚 傻逼你以为只有广东人才吃鸟？ 不是崩10次，是应该满门抄斩！ 按照那个掏鸟男孩的量刑标准，这几个货崩10次都有富裕。 妈<br>的<br>！<br>杀了这些残害鸟类的人渣喂狗！<br>在灭他们九族！ 将这些人渣绞成肉渣，扔到里外喂鸟 看看怎么处理 能不能判个无期开个头，小时候到处鸟语花香，现在看鸟得上动物园 重判二十年以上，强烈要求网易继续关注 株连九族差不多 举报！又是举报！就没看到过主动出击的时候！ [微笑]来人，放广西人 别忘了还有买鸟的那些人，有买的有卖的，同罪 掏鸟十年,这个要判两万五千年? 天堂早就塞满南京人了<br>广东人看来只能去地狱 农村没有动物园，我们只能在野外田里看看小鸟 你行善积德只是帮助他人发家致富，你诚实守信只会沦为笑柄，你遵纪守法却得到怀璧其罪....猪圈里流泪的那只会被视为多愁善感的神经病；这就是你的世界！ 广东人吃野生动物最多。广东人吃的动物种类是世界第一，广东最突出的特点就是贪吃、贪财、贪色，疯狂纵欲，毫无节制，就象畜生。他们拼命地赚钱，赚钱的目的就是想拼命地纵欲，像动物一样追求各种感官刺激，把肉体的享受当成他们生命的终极目标，一些跟“吃”毫不相关的东西，也生拉活扯地要和“吃”沾上边，比如，“目录”他们都叫作“菜单”，成套的模式他们都叫作“套餐”，他们只讲究低级趣味，追求于动物本能的满足，根本就不知道“人”是怎么回事，不知道“人”该做什么。 这些断子绝孙的人渣如没报应真是没天理了。 好便宜，良好价！一只鸟，才两元钱 他们将捕捉、收购来的野生鸟类进行喂养,再将养肥后的野生鸟类采用棚中热死、袋中闷死等方法处理后装袋,加冰打包出售至广东等地。 枪毙 每天六千个，太可怕了！ 什么时候圈养25万个这样罪犯，如法炮制 枪毙吧 别再伤害动物了！ 举头望明月低头看小鸟。捉鸟判无期？砍人的怎判？ 重判二十年以上，强烈要求网易继续关注 毙了吧。留着是个祸害 有些人还怪猫捉了鸟，破坏生态。看看人类自己吧。 广东真是个傻逼地方，人真傻逼 吃的应该也入刑 可怕的广东人！愿天堂没有广东人 要是死二十五万人就对了！ 直接枪毙吧 这些偷猎的、电鱼的就该让他们把牢底坐穿！ 这帮人要死了，气死你爹了！ 直接剁手可好 40天来,雷昌桂等人每天组织多名猎捕人员用鸟网捕捉25万余只野生鸟类,并低价收购野生鸟,打包后高价出售至外地,非法牟利45万余元，真是有够高价的，这些人是得有多穷。 买鸟的也要惩罚 湖南人有这个能立的 傻逼你以为只有广东人才吃鸟？ 不是崩10次，是应该满门抄斩！ 按照那个掏鸟男孩的量刑标准，这几个货崩10次都有富裕。 妈<br>的<br>！<br>杀了这些残害鸟类的人渣喂狗！<br>在灭他们九族！ 将这些人渣绞成肉渣，扔到里外喂鸟 每年一次，还能叫新闻吗？ 看看怎么处理 能不能判个无期开个头，小时候到处鸟语花香，现在看鸟得上动物园 重判二十年以上，强烈要求网易继续关注 株连九族差不多 举报！又是举报！就没看到过主动出击的时候！ [微笑]来人，放广西人 别忘了还有买鸟的那些人，有买的有卖的，同罪 掏鸟十年,这个要判两万五千年? 天堂早就塞满南京人了<br>广东人看来只能去地狱 农村没有动物园，我们只能在野外田里看看小鸟 你行善积德只是帮助他人发家致富，你诚实守信只会沦为笑柄，你遵纪守法却得到怀璧其罪....猪圈里流泪的那只会被视为多愁善感的神经病；这就是你的世界！ 广东人吃野生动物最多。广东人吃的动物种类是世界第一，广东最突出的特点就是贪吃、贪财、贪色，疯狂纵欲，毫无节制，就象畜生。他们拼命地赚钱，赚钱的目的就是想拼命地纵欲，像动物一样追求各种感官刺激，把肉体的享受当成他们生命的终极目标，一些跟“吃”毫不相关的东西，也生拉活扯地要和“吃”沾上边，比如，“目录”他们都叫作“菜单”，成套的模式他们都叫作“套餐”，他们只讲究低级趣味，追求于动物本能的满足，根本就不知道“人”是怎么回事，不知道“人”该做什么。 这些断子绝孙的人渣如没报应真是没天理了。 好便宜，良好价！一只鸟，才两元钱 他们将捕捉、收购来的野生鸟类进行喂养,再将养肥后的野生鸟类采用棚中热死、袋中闷死等方法处理后装袋,加冰打包出售至广东等地。 枪毙 草你妹，25万只，迟早麻雀也成保护动物 每天六千个，太可怕了！ 所以我现在家里的苍蝇蟑螂都不舍得全打死。要是弄灭种了以后小孩要看苍蝇蟑螂得去动物园买票看，这门票多贵啊，贵不算，还得花时间啊。 枪毙吧 别再伤害动物了！ 举头望明月低头看小鸟。捉鸟判无期？砍人的怎判？ 什么时候圈养25万个这样罪犯，如法炮制 重判二十年以上，强烈要求网易继续关注 毙了吧。留着是个祸害 有些人还怪猫捉了鸟，破坏生态。看看人类自己吧。 广东真是个傻逼地方，人真傻逼 吃的应该也入刑 可怕的广东人！愿天堂没有广东人 要是死二十五万人就对了！ "
    },
    "Title": "团伙40天非法捕捉野生鸟类25万余只 7名嫌犯被批捕_网易新闻",
    "Source": "Netease",
    "KeyWords": "野生鸟类,违法犯罪,捕捉,鸟类,保护动物",
    "URL": "http://news.163.com/17/1231/10/D6VQR1500001875P.html",
    "Article": "（原标题：40天非法捕捉野生鸟类25万余只7名嫌疑人被批捕）正义网讯在简陋的大棚里,查获了近5万只野生鸟类。40天来,雷昌桂等人每天组织多名猎捕人员用鸟网捕捉25万余只野生鸟类,并低价收购野生鸟,打包后高价出售至外地,非法牟利45万余元。近日,湖南省临湘市检察院对雷昌桂等7名犯罪嫌疑人批准逮捕。目前,此案正在进一步侦查中。2017年10月30日,临湘市森林公安局民警接到举报,称该市坦渡镇坦渡村近来有人大量收购野生鸟类。警方于当晚迅速组织民警与林业局执法大队工作人员赶赴现场开展调查,当场抓获正在清点野生鸟类的4名犯罪嫌疑人,另外3名犯罪嫌疑人趁乱逃跑。在一大片空地上,矗立着38个喂养鸟类的大棚,走进棚内,黑压压的一片全是关在笼子里的野生鸟类,地上还散落着大量小型鸟类尸体。10月31日,湖南省林业厅、岳阳市林业局以及有关部门专家到现场开展技术鉴定。经鉴定,现场查获的野生鸟类有三道眉草鹀、小鹀、灰头鹀、黄眉柳莺及强脚树莺等国家保护的鸟类,共计49313只。工作人员当场打开笼子,将其中的活体鸟类放飞。由于案情复杂、涉案人员众多,临湘市公安机关及时请求检察机关提前介入侦查。临湘市检察院承办检察官在听取前期侦查办案情况、审查讯问笔录等案卷材料后,又到案发现场进行了实地察看,提出了侦查建议。经查,从9月21日开始,雷昌桂等7人共同出资6万多元,从事非法猎捕、收购野生鸟类并养肥后出售营利的犯罪活动。他们将捕捉、收购来的野生鸟类进行喂养,再将养肥后的野生鸟类采用棚中热死、袋中闷死等方法处理后装袋,加冰打包出售至广东等地。本文来源：正义网责任编辑：张宪超_NN9310"
}