{
    "Article": "（原标题：马化腾天天在看我们微信？腾讯今天紧急回应，网友评论亮了）“我心里就想，马化腾肯定天天在看我们的微信，因为他都可以看，随便看。”昨日（1日），在2018正和岛新年论坛上吉利董事长李书福说，现在的人几乎是全透明的，没有任何隐私和信息安全。李书福认为，面对这样的一个问题，他是比较苦恼的，因为很多商业上的秘密都被暴露在人眼前了。而在2017年12月6日的全球财富论坛上，腾讯董事会主席兼CEO马化腾在接受采访时曾表示，腾讯通过十亿张照片的大数据，已掌握几乎每个中国人的长相变化，能预测未来样貌。马化腾强调，腾讯有一个更强大的能力就是，几乎掌握了每个中国人过去十几年来的面容变化，因为很多人从年轻开始，就一直在腾讯的平台上传照片。所以，甚至可以预测其老的时候是什么样子。今天上午，腾讯通过官方微信“微信派”作出回应，1、微信不留存任何用户的聊天记录，聊天内容只存储在用户的手机、电脑等终端设备上；2、微信不会将用户的任何聊天内容用于大数据分析；3、因微信不存储、不分析用户聊天内容的技术模式，传言中所说“我们天天在看你的微信”纯属误解。请大家放心，尊重用户隐私一直是微信最重要的原则之一，我们没有权限、也没有理由去“看你的微信”。今早，腾讯公司公关总监张军也在个人微博表示，微信不会留存任何用户的聊天记录，不会将用户的聊天内容用作大数据分析。此事引发网友广泛关注。@博览君：数据太多看不过来。@大漠石魂FJJ：哈哈，不留存不等于不看，也不等于不过安检！@但以理王：意思是朋友圈的广告都是瞎推送的吗？@大头sky：不管你信不信，反正我是信了@今年今月今日_此时此分此秒：我说的话我自己都不信南都君综合本文来源：南方都市报责任编辑：王凤枝_NT2541",
    "Title": "马化腾天天看我们微信？腾讯回应，网友评论亮了_网易科技",
    "PublishTime": "01/02/201815:28:32",
    "Source": "Netease",
    "Comment": {
        "Content": "都特么心里一个个比谁都清楚~所以我很纳闷为什么有二逼总拿别人当傻子~有的时候大家混口饭吃，表面不说罢了，我特佩服那些自以为是的 我信你麻花疼 也不是腾讯要看，是另外一些人要看 马化腾垃圾 服务器不记录聊天内容，怎么能到聊天记录漫游，聊天记录恢复？ 幸福的描述总是这么简单，却总是那么难得！ 至少敏感字过滤是会有的，那能做敏感字过滤的话，不看记录也总能截取某些记录 无法想象一楼活的有多不堪啊，脑子被洗残了，难道躯体也蒸发了。我没有隐私，但不代表你可以任意的看。如果一楼有天和女朋友去住旅店，被人用摄像头偷窥，一楼是不是就忍了。看就看吧，反正也没少一块肉。 他不看不代表他不给“别人”看 推送的时候那么精准。。 在这片土地上，你一个聊天软件不监控个人信息，还能保护屁民的隐私早被拿下了。比如GOOGLE 关键字都会跟踪吗？比如富强民主自由反*************** 谁特么天天没事看着破玩意，也就是几个重点监控对象看看而已，屁民谁管你，自作多情 既然这样那我每天拉屎的照片也上传 一楼个傻逼，现在的数据分析，能从你的聊天记录里分析出你的爱好，购物需求等有商业价值的东西，这些数据就等于利益，就等于钱。你把💰放着一块肥肉放在猫儿窝里，猫儿给你说它绝不偷吃你信吗？他们比猫儿还有优势，就是它偷们吃了你还不没有办法知道，你只能从没有监督下人能否控制欲望的常识判断，你觉得他们不会偷吃吗？ 加密聊天工具肯定会被禁的。 实名举报腾讯违反反恐法 马化腾在内部员工大会上说：我自己对外部说的话，我自己都不信。 跟贴被火星网友带走啦~ 我给我国内朋友发“低短人kou”，对方根本收不到 南京人果然思想觉悟高啊 不用信息审查？ 二楼你是井底蛙，新疆网友说的一点没错。本人亲身经历，狗日的腾讯，不要脸。我在群里开了些敏感的玩笑，派出所的找上门来了，聊天内容比我还记得清楚，还说没监控我们的聊天记录？狗日的还提供给政府一起监控 他不看，不代表它们不看 你也说是乱说话肯定违规啊 这鬼话都能说？ 普通人的人家不带了看，想看的人家不给看 我们这微信敢乱说话，分分钟带走。 他敢不给那个“别人”看吗 什么屁的大数据实际上就是盗取私人信息搞的高大上 那怎么知道谁是重点？ 它们不是人？ 看不看和你能不能看是两码事，一楼多跪会 无论文章还是评论都太直白了，这样太危险啦~ 觉得苹果侵犯隐私，不用苹果手机就是了，觉得微信侵犯隐私不用微信就好了。又不是菜米油盐必需品，多大的事？对不？ 很多年前就有腾讯配合公安部门调取QQ聊天记录破案的报道。现在你说微信没在服务器上留记录？ 不要跟傻逼讲道理 我说的话连我自己都不信。+1 不看怎么推送怎么搞大数据什么屁的大数据实际上就是盗取私人信息搞的高大上 麻花腾肯定不会自己看啊，他只看分析报告，和马云的微信，哈哈 机器战警时代，幸福还是悲哀？ 衙门要看的 它是人称？ 我信你麻花疼 也不是腾讯要看，是另外一些人要看 所以大公司都有企业通讯 你的值得官家看？想多了 好象在网上乱说就没事似的。 换一个例子吧，你随便手机百度一个东西，关了百度再开，这时的推送就全是这个类型的消息了 网易和淘宝京东都有这套路，我线下都买好了它们还在推送。 棱镜 实名举报腾讯违反反恐法 谁特么天天没事看着破玩意，也就是几个重点监控对象看看而已，屁民谁管你，自作多情 官方推送的？我怎么没有？ 人在做，天在看 套路！！ 二楼你是井底蛙，新疆网友说的一点没错。本人亲身经历，狗日的腾讯，不要脸。我在群里开了些敏感的玩笑，派出所的找上门来了，聊天内容比我还记得清楚，还说没监控我们的聊天记录？狗日的还提供给政府一起监控 他不看，不代表它们不看 这鬼话都能说？ 我们这微信敢乱说话，分分钟带走。 它们只是扫描过滤违法违规的，对人正常生活难道影响了？ 确实如此 qq聊天，输入电影马上就有弹窗推荐上映的电影 瞎说，可以看的， 苹果要没有了微信,让那些晚上做生意的怎么接! 看不看和你能不能看是两码事，一楼多跪会 都实名了，省的分析了，专挖明星企业家隐私，谁让傻逼在微信说隐私 又是一群断章取意的人人家都说了是qq空间微信是微信QQ是QQ 新疆我信 一楼个傻逼，现在的数据分析，能从你的聊天记录里分析出你的爱好，购物需求等有商业价值的东西，这些数据就等于利益，就等于钱。你把💰放着一块肥肉放在猫儿窝里，猫儿给你说它绝不偷吃你信吗？他们比猫儿还有优势，就是它偷们吃了你还不没有办法知道，你只能从没有监督下人能否控制欲望的常识判断，你觉得他们不会偷吃吗？ 至少敏感字过滤是会有的，那能做敏感字过滤的话，不看记录也总能截取某些记录 它是人称？ 马化腾垃圾 肯定犯错才能被抓呀，无缘无故难道也抓？说的是隐私问题，这个是个危险信号知道吗，他可以从你聊天记录判断你的商业动向，也可以故意给你一些错误信号，从聊天内容判断你是否被误导，如果垄断或者覆盖面够广，完全可以时不时的不断强化你对错误信号的信任。垄断社交通讯最可怕了 你这明显是抬杠吧！旅店被人偷窥和这个是一回事吗？那个是针对你个人了好吧！一楼虽然话不怎么中听但道理没错不是你没有隐私，是人家真的不会去注意！ 自从出了摄像头人脸识别的新闻，感觉回到1984了。 这只是广告吧！有什么不正常吗？ 腾讯不看，不代表其他人不看，腾讯不保存，不代表其他机构不保存。 不用微信可以用短信啊，不给腾讯看可以给运营商看啊，反正公司都不看，谁看谁知道 无法想象一楼活的有多不堪啊，脑子被洗残了，难道躯体也蒸发了。我没有隐私，但不代表你可以任意的看。如果一楼有天和女朋友去住旅店，被人用摄像头偷窥，一楼是不是就忍了。看就看吧，反正也没少一块肉。 比如Gmail 关键字都会跟踪吗？比如富强民主自由反*************** 我想不明白，朋友圈推送的广告怎么那么契合我的一些关注 既然这样那我每天拉屎的照片也上传 在这片土地上，你一个聊天软件不监控个人信息，还能保护屁民的隐私早被拿下了。比如GOOGLE 讲真这就是技术垄断如果真的那么在乎隐私的人可以选择不用 我早就知道有这天，故意一张图都没留。当然你肯定还能挖出点东西，但是我的网络画像绝对比大多数人模糊。 跟贴被火星网友带走啦~ 你也说是乱说话肯定违规啊 既然是大数据，那也只针对违法违规的，不然为什么被抓？ 你太天真了 把你按传播黄色图片处理 照你这个说法，只要能交流的软件大家都不要用了，通话有通话记录，信息也有记录，我们真的都不能用了；退一步说，他们就算这样做，是在害你？是在侵犯你的利益？ 它们不是人？ 微信是不存聊天记录，可是微信将用户的指纹信息上传到服务器。苹果不同意腾讯的做法，腾讯没办法只能妥协；现在华为也不愿意支持腾讯的做法，未来会有越来越多的手机厂商不愿意微信在自家的手机系统上直接将用户的指纹信息上传到服务器端。 其实要保存也是有时限的，毕竟保存也是要成本的，而且，成本巨大。<br><br>话说，如果想要微信保存记录，估计是VIP的功能才行。 我从不在微信上约炮 微信不会将用户的任何聊天内容用于大数据分析。随便找一条出来都可以找到证据反驳微信了，是谁之前统计出来网友们聊天最爱用捂脸表情的？ 明显的是吉利公司老总博取关注度的招数！他好像还说过什么到处是监控不方便！那政府的天网工程是不是该撤了？ 衙门要看的 .... 也不是腾讯要看，是另外一些人要看 欲盖弥彰。其实可以看是很正常的，只是不能随便看，即便是产品的开发者拥有者也不能随便看。什么人需要什么手续才能看要有相应的法律法规来限制，不能说你随随便便就能拿大家的聊天记录做数据分析。但是，国内的隐私保护就是坨…[微笑] 不留存不代表不看，卡巴斯基为什么被美国禁了，一个道理 幸福的描述总是这么简单，却总是那么难得！ 无论文章还是评论都太直白了，这样太危险啦~ 没人跟贴没天理的事情 说的我都好像信了 他不看不代表他不给“别人”看 推送的时候那么精准。。 谁特么天天没事看着破玩意，也就是几个重点监控对象看看而已，屁民谁管你，自作多情 微信上发一个明天要去炸XXX，看看第二天能不能看见第二天的太阳 服务器不记录聊天内容，怎么能到聊天记录漫游，聊天记录恢复？ 加密聊天工具肯定会被禁的。 他敢不给那个“别人”看吗 为了国家信息安全必须保护每一天信息 我给我国内朋友发“低短人kou”，对方根本收不到 南京人果然思想觉悟高啊 不用信息审查？ 跟贴被火星网友带走啦~ 他不看，不代表它们不看 除了晚上关灯与老婆睡觉，中国人已经没有任何隐私。逛街、购物、乘车、娱乐、公司上班，哪里没有摄像头？上网聊天聊微信，有隐私吗？你懂的。 李总这忧天忧的不是地方，真正看了你聊天记录对你有影响的不是腾讯，而是…… 没看，我发四！ 普通人的人家不带了看，想看的人家不给看 什么屁的大数据实际上就是盗取私人信息搞的高大上 那怎么知道谁是重点？ 马化腾在内部员工大会上说：我自己对外部说的话，我自己都不信。 不愧是精赵之榜样 都特么心里一个个比谁都清楚~所以我很纳闷为什么有二逼总拿别人当傻子~有的时候大家混口饭吃，表面不说罢了，我特佩服那些自以为是的 觉得苹果侵犯隐私，不用苹果手机就是了，觉得微信侵犯隐私不用微信就好了。又不是菜米油盐必需品，多大的事？对不？ 很多年前就有腾讯配合公安部门调取QQ聊天记录破案的报道。现在你说微信没在服务器上留记录？ 我说的话连我自己都不信。+1 它想看谁敢不给它看 不看怎么推送怎么搞大数据什么屁的大数据实际上就是盗取私人信息搞的高大上 麻花腾肯定不会自己看啊，他只看分析报告，和马云的微信，哈哈 怎么可能只储存在用户的设备上，那你告诉我各个终端里信息同步是咋回事？ 机器战警时代，幸福还是悲哀？ 说的连自己都快相信了 ",
        "Reply": 94,
        "Link": "http://comment.tech.163.com/tech_bbs/D75GNH2I00097U7R.html",
        "Total": 1444
    },
    "KeyWords": "马化腾,微信,腾讯,大数据",
    "URL": "http://tech.163.com/18/0102/15/D75GNH2I00097U7R.html"
}