{
    "PublishTime": "01/02/201806:13:58",
    "Comment": {
        "Total": 39176,
        "Link": "http://comment.ent.163.com/ent2_bbs/D74H03PP00038FO9.html",
        "Reply": 1853,
        "Content": "妻禽猛货 老汉推车 淫才 三批天下 吃b之战 煮酒轮小鹿 你们想多了，皮几万只不过是来和嫂子包饺子。 辕门射妓 空城妓 舌战群乳 丞相不可啊！ 火骚心也 尼玛，都是人才 吾奶常山罩子龙 桃园三批 我从来没有见过如此厚颜无耻之人！ 亮有一妓 真下真是家耐亮了 小路一般人喂不饱[窃笑] “戏子啊戏子，多么肮脏的名字？”——郑智化 马苏尴尬不 你们想多了，皮几万只不过是来和嫂子包饺子。 看来马苏在里面没起什么好作用 草床借贱 青青草原欢迎你 妓生绿，何生亮 皮几万玩得刺激呀！ 都带男人去自家屋里玩了你还在外面祝母子圣诞快乐哈哈不要紧的我相信璐璐为人 汝妻子，操养之！ 皮璐亮绿 厉害了 越玩越大……😄 那么多年看的都是《三国演妓》？ 离婚得了，太恶心了 七进七出 哈哈，都是人才 相奸何太急 蛋到赴会 枪出淫龙 贵圈真令我大开眼界，男女都这个样，服了！ 擦，三国没办法看了 当然选择原谅她啊 宁可我操天下妓绝不让天下妓操我 妓从何来 看到了 看来马苏在里面没起什么好作用 看来马苏在里面没起什么好作用 应该允许人才继续，😄 皮蕉肉璐 这娱乐圈一天到晚就知道整点事情出来博眼球引关注，炒作炒作再炒作 不要紧的=喜欢松的！ 绿园三结义，宝强，羽凡，奶亮 包完饺子玩嫂子 吃b之战 pgone不是一双鞋子的名字么😂 心疼亮亮 你们想多了，皮几万只不过是来和嫂子包饺子。 好东西 淫乐圈 无语 亮有一妓 666 小贾呀，想开点。。没有过不去的坎，想想王宝强就过去了 哈哈哈哈哈 这衣服搭配的真难看！ 马苏就是现代版的王婆子 应该还吃了豆腐和火腿 屁几万:嫂子我先来段夜光rap 好东西 淫贼 对呀，瞧把你们给紧张的，这叫包完饺子吃嫂子，哦不对，是吃饺子😄 跟贴被火星网友带走啦~ 火骚连淫 ONE月渡璐，深入不毛 看来马苏在里面没起什么好作用 原谅军团，开工了 真的好 看到了 都带男人去自家屋里玩了你还在外面祝母子圣诞快乐哈哈不要紧的我相信璐璐为人 见朕骑妓的时候到了 璐水夫妻到此结束！楼下封顶 好凶残，偷人都带家里去了 看来马苏在里面没起什么好作用 呵呵 油菜 一杯敬宝强一杯敬乃亮守着你的善良选择了原谅<br>所以羽凡的绿从此不再漫长<br>帽子不在无处安放<br>查看全部条 好东西 ONE月渡璐，深入不毛 看来马苏在里面没起什么好作用 一妓绝尘好深法 妓从何来 贵圈真令我大开眼界，男女都这个样，服了！ 好大一棵树，绿色的祝福 子午骑妓 小浪蹄子 好东西 打开进去看国外的：t.c易n/RHlJVCH(先删除个易字) 好东西 李小璐家里有孩子和保姆 哈哈哈 😌😌 老鸡伏丽，大意失精粥，七步成湿 太特么吊了 三顾毛璐 嫂子好玩，没玩。饺子好吃，没吃。 就这逼还不知道让多少人睡过呢。 卧槽，还他妈真是的！！！ 拍视频...累了还可以客串几分钟[大笑] 璐林好汉 你们想多了，皮几万只不过是来和嫂子包饺子。 璐出马脚，贾装没事！ 现在的中国女人，内心深处的淫荡已经被彻底诱导出来了，个个都是性饥渴的动物，在男女关系方面特别的放荡，偷情出轨早就是家常便饭了，有不少更是玩起了3P，多P，聚众群交，同房交换，乱伦...比男人还要放荡，什么小小年纪乱性的，有了男朋友还乱搞的，结了婚还偷情出轨的...多如牛毛。很多女人没到30岁就已经体验过四五十个男人了，可她们对此却感到很自豪很有成就感。随着道德进一步崩溃，各种偷情出轨乱交乱性将成为中国女人的新常态，中国女人的淫荡无耻程度远远超出你我的想象。 逐璐中原 啊？莫非好吃不过饺子好玩不过嫂子？！。。万能搜狗输入法啊我就打一个好吃后面全出来了。。。 合影 妓从何来？ 大神 公千里走单妓 亮有一妓 这事是马苏拉的皮条…… 贵圈真令我大开眼界，男女都这个样，服了！ 哦，说的不错！👍<br>尼玛贵姓？！我要找她做个活动！ 兄弟妻不可欺勾引2嫂天理难容 作为老公贾乃亮算不错了，作死 有病 照顾大嫂天经地义！ 看来马苏在里面没起什么好作用 铁定是绿了 白看了这么多年三国 奇耻大乳！ 都尼玛人才 大家好，我是Pigone 不知道老铁们有没有发现名字里面有璐的女的都特别骚 插刀的时候被诅咒了 66 就是当初插兄弟的刀，今天让人插了老婆，呵呵，风水轮流转，看看网络能放过谁 女生发动直觉的时候想象力仅次于梵高；女生抓奸的时候智商仅次于爱因斯坦；女生失恋的时候文笔仅次于莫言！ 悲剧啦，我身边没有名字带璐的[大哭] 大家好，我是PGONE，请大家欣赏我的新rap《好吃不过饺子》：<br>comeon！<br>乃亮大哥，有些话不能多说。<br>你家的饺子味道真不错！<br>你的头发有点绿。<br>你的眼神有点忧郁。<br>你的人生就像言情剧。<br>哦，爸爸去哪儿了。<br>哦，嫂子去哪儿了。<br>嫂子和兄弟一起去哪儿了。<br>她挽着我的手。<br>她搂着我的头。<br>她把白白的饺子塞到我的口。<br>她在我的身下尽情的嘶吼。<br>one！two！three！four！<br>two！two！three！four！<br>three！two！three！four！<br>onceagainoh～yeah～<br>和我一起说唱！<br>嘿，乃亮！<br>不仅你的奶亮，你的头也亮！<br>嫂嫂说去做头发，我的小名就叫头发！<br>你天天喊我弟弟，嫂嫂也喊我弟弟，我还有个弟弟！<br>嫂嫂玩着你的弟弟，还玩着我的弟弟！<br>就问你刺不刺激！yeah！ 餃子好吃，嫂子更好吃。亮綠燈 老鸡伏丽，大意失精粥，七步成湿。。。。 子午骑妓 当然是选择插你一刀啊 去年过年是王宝强，今年过年是贾乃亮，娱乐圈总会带给我们惊喜，娱乐圈名副其实，的确很娱乐。 马苏本来就是个靠搭男人上位的货色。 如果是真的，鄙视李小璐 李小璐的闺蜜马苏确实不是什么好鸟，看来真是人以类聚啊 屁几万飞叶骑露…… 我就想问问这事儿里马苏算哪根葱？ 老鸡伏丽，大意失精粥，七步成湿。 现在不仅仅是娱乐圈这样吧，现在的社会出轨偷吃背叛婚姻的有太多太多了，只不过娱乐圈会被公众拿来议论。 封楼 单妓赴会 辕门射妓 话说天下大妓，分久B合，合久B分 包很弹、饺子多汁 爱是一道光绿到你发光 单雕赴会 666 他们夫妻俩的样子早就觉得不对劲了不是老万以后也会爆别的出来 操仁真爽 妓从何来 人才都是！咔嚓！合影！[窃笑] 多操该操的人，少操不该操的心 亮本布衣，苟全性命于乱世 青青草原 pgone人品极差，比赛的时候就跟个二五似的……生活也玩恩人的妾 再来大战三百回合。 此贴见证网易人才处处…… 这个楼牛逼了 旁捅浆干 你们想多了，皮几万只不过是来和嫂子包饺子。 合影，留名！ 婚姻中善良的一方没错！任何借人善良而为所欲为的另一方只能是人渣 就知道打扮，玩和享受，现在又出这种恶心事，这样的老婆还要着干嘛？！！ 贵圈很流行绿色,男女都爱绿. 璐璐，有个小伙子嘴皮子挺厉害的，我试过了，你要不要试试？ 妓躬尽瘁，爽而后已---李小璐 亮有一妓 屁鸡吧万！ 结合苍老师结婚新闻，感叹古人诚不欺我啊：宁要婊子从良，不要红杏出墙。 草原三结义 过5关，占6妓 好乱…… 自古男女，分久必合，合久必分 璐遥吃马力 当然是选择原谅她啊 真下真是家耐亮了 有些人说捕风捉影，麻烦自己去看看视频，已婚女和男的提包挽手抚腰，动作亲密自然不做作，明显不一般，在开车途中停了两次，时间都比较久，在打飞机？一夜在屁几万家，早上屁几万开车专门送小路，结果快到小路家马上换小路开，需要这么麻烦？没办法叫闺蜜做证，闺蜜说我是在里面，可我在喝酒看电影1点就睡了，小路声明说我是在开会，讨论嘻哈电影，贾乃亮说我相信他们，可是我真的不知道我媳妇在我兄弟家睡觉 [微笑][微笑][微笑] 既生pang,何生亮 合影！ 大家好，我是PGONE，请大家欣赏我的新rap《好吃不过饺子》：<br>comeon！<br>乃亮大哥，有些话不能多说。<br>你家的饺子味道真不错！<br>你的头发有点绿。<br>你的眼神有点忧郁。<br>你的人生就像言情剧。<br>哦，爸爸去哪儿了。<br>哦，嫂子去哪儿了。<br>嫂子和兄弟一起去哪儿了。<br>她挽着我的手。<br>她搂着我的头。<br>她把白白的饺子塞到我的口。<br>她在我的身下尽情的嘶吼。<br>one！two！three！four！<br>two！two！three！four！<br>three！two！three！four！<br>onceagainoh～yeah～<br>和我一起说唱！<br>嘿，乃亮！<br>不仅你的奶亮，你的头也亮！<br>嫂嫂说去做头发，我的小名就叫头发！<br>你天天喊我弟弟，嫂嫂也喊我弟弟，我还有个弟弟！<br>嫂嫂玩着你的弟弟，还玩着我的弟弟！<br>就问你刺不刺激！yeah！ 璐宿一夜，贾装没事。 看来马苏在里面没起什么好作用 我也来合个影 他们可能是想打响2018年第一炮😂 皮条客 亮不才！昨晚夜观天象！知今会有东风骑璐而来！愿帮汝等草船借贱！尔等莫要着慌！速速去排队是也！ 璐不思亮 还能不能消停了 合影 兄弟妻不可欺勾引2嫂天理难容 好玩不过嫂子 小弟！大哥的女人你也敢碰？看来还是嫂子好玩！ 谁家过年不吃嫂子，我呸说错了，饺子 王婆改姓马了。 打错字了，是假奶量[不屑][不屑][不屑] 妓从何来 66 明明是假奶靓 关你们什么事？都闲的蛋疼吧！ 辕门射妓 就是包个火腿肠馅的饺子，你们别带节奏了[微笑] 当然选择原谅她啊 可怜了甜馨，有这样的妈。。。 陈冠吸张柏汁谢霆疯，屁鸡玩李小露假奶亮！这么多年了，终于对上了。 小亮做节目时是小璐他俩在家玩，平时都是3人一起玩O(∩_∩)O哈哈~ 贾装没事～ 真正有良知的人不要喷贾乃亮及小甜馨！他俩不应该受到嘲讽 绿园三结义，宝强，羽凡，奶亮 三顾逼门而不入 借一部说话 羽凡不算亮哥估计默默忍受很久了 闻鸡起舞 一妓不如一妓 千里嫖人妻 不要紧的，你们随便 丞相不可啊！ 36妓，璐为上 整篇评论舅扶你(((o(*ﾟ▽ﾟ*)o))) 群雄逐璐 有些人说捕风捉影，麻烦自己去看看视频，已婚女和男的提包挽手抚腰，动作亲密自然不做作，明显不一般，在开车途中停了两次，时间都比较久，在打飞机？一夜在屁几万家，早上屁几万开车专门送小路，结果快到小路家马上换小路开，需要这么麻烦？没办法叫闺蜜做证，闺蜜说我是在里面，可我在喝酒看电影1点就睡了，小路声明说我是在开会，讨论嘻哈电影，贾乃亮说我相信他们，可是我真的不知道我媳妇在我兄弟家睡觉 屁鸡万！ 璐瑶之马力日久见人心 老妓扶立 这婚姻岌岌可危了 马苏，秦岚都不是好表！她们合伙帮李小路出轨，能是好闺蜜的做为吗？难怪豪门不要娱乐圈的女人做媳妇儿 说不定三人一起玩呢 一洞淫液厅 看来马苏在里面没起什么好作用 亮有一妓 有些人说捕风捉影，麻烦自己去看看视频，已婚女和男的提包挽手抚腰，动作亲密自然不做作，明显不一般，在开车途中停了两次，时间都比较久，在打飞机？一夜在屁几万家，早上屁几万开车专门送小路，结果快到小路家马上换小路开，需要这么麻烦？没办法叫闺蜜做证，闺蜜说我是在里面，可我在喝酒看电影1点就睡了，小路声明说我是在开会，讨论嘻哈电影，贾乃亮说我相信他们，可是我真的不知道我媳妇在我兄弟家睡觉 现在的中国女人，内心深处的淫荡已经被彻底诱导出来了，个个都是性饥渴的动物，在男女关系方面特别的放荡，偷情出轨早就是家常便饭了，有不少更是玩起了3P，多P，聚众群交，同房交换，乱伦...比男人还要放荡，什么小小年纪乱性的，有了男朋友还乱搞的，结了婚还偷情出轨的...多如牛毛。很多女人没到30岁就已经体验过四五十个男人了，可她们对此却感到很自豪很有成就感。随着道德进一步崩溃，各种偷情出轨乱交乱性将成为中国女人的新常态，中国女人的淫荡无耻程度远远超出你我的想象。 奶亮应该报复，把马苏上了！ 当我们还在瑟瑟寒风中迎接新年的时候，你的头上已是春意盎然！更我学绕口令：亮虑璐缕绿亮，璐怒亮缕撸璐 为环保事业添砖加瓦 茎侯佳阴……喵人缝……一洞连襟 合影 贾乃亮到底是有多神经大条，这都被人家欺负上门了。 出师婊 有些人说捕风捉影，麻烦自己去看看视频，已婚女和男的提包挽手抚腰，动作亲密自然不做作，明显不一般，在开车途中停了两次，时间都比较久，在打飞机？一夜在屁几万家，早上屁几万开车专门送小路，结果快到小路家马上换小路开，需要这么麻烦？没办法叫闺蜜做证，闺蜜说我是在里面，可我在喝酒看电影1点就睡了，小路声明说我是在开会，讨论嘻哈电影，贾乃亮说我相信他们，可是我真的不知道我媳妇在我兄弟家睡觉 雏湿婊 点没点数得看速度快不快，时间长不长。 三英战小璐 留名 都带男人去自家屋里玩了你还在外面祝母子圣诞快乐哈哈不要紧的我相信璐璐为人 厉害了，我的哥 pgone是谁 现在的中国女人，内心深处的淫荡已经被彻底诱导出来了，个个都是性饥渴的动物，在男女关系方面特别的放荡，偷情出轨早就是家常便饭了，有不少更是玩起了3P，多P，聚众群交，同房交换，乱伦...比男人还要放荡，什么小小年纪乱性的，有了男朋友还乱搞的，结了婚还偷情出轨的...多如牛毛。很多女人没到30岁就已经体验过四五十个男人了，可她们对此却感到很自豪很有成就感。随着道德进一步崩溃，各种偷情出轨乱交乱性将成为中国女人的新常态，中国女人的淫荡无耻程度远远超出你我的想象。 亲弟弟一样的意思，就是新JJ的意思。70后80后的贾乃亮们长点心吧！别被人把自己老婆操的不要不要的，自己都不知道呢！现在的女人比男人还好色！ PGone:呦呦，切克闹，好吃不过饺子，好玩不过嫂子，一边吃嫂子包的饺子，一边玩包饺子的嫂子。。吃着滚烫的饺子，玩着最浪的嫂子！！呦呦，来来来，我说亮哥，你说绿，亮哥，绿，亮哥，绿！ 足球也有主场和作客两回合制，合理 卓伟真是娱乐圈纪检委，千万要挺住，别被他们糖衣炮弹腐蚀了 😄 离婚得了，太恶心了 真以为弄个直爽的人设就是好人了 现在的中国女人，内心深处的淫荡已经被彻底诱导出来了，个个都是性饥渴的动物，在男女关系方面特别的放荡，偷情出轨早就是家常便饭了，有不少更是玩起了3P，多P，聚众群交，同房交换，乱伦...比男人还要放荡，什么小小年纪乱性的，有了男朋友还乱搞的，结了婚还偷情出轨的...多如牛毛。很多女人没到30岁就已经体验过四五十个男人了，可她们对此却感到很自豪很有成就感。随着道德进一步崩溃，各种偷情出轨乱交乱性将成为中国女人的新常态，中国女人的淫荡无耻程度远远超出你我的想象。 路是人走出来的 屁急跳露 贵圈真令我大开眼界，男女都这个样，服了！ 现在的中国女人，内心深处的淫荡已经被彻底诱导出来了，个个都是性饥渴的动物，在男女关系方面特别的放荡，偷情出轨早就是家常便饭了，有不少更是玩起了3P，多P，聚众群交，同房交换，乱伦...比男人还要放荡，什么小小年纪乱性的，有了男朋友还乱搞的，结了婚还偷情出轨的...多如牛毛。很多女人没到30岁就已经体验过四五十个男人了，可她们对此却感到很自豪很有成就感。随着道德进一步崩溃，各种偷情出轨乱交乱性将成为中国女人的新常态，中国女人的淫荡无耻程度远远超出你我的想象。 当然选择原谅她啊 就这么个货能起什么好作用 一洞连襟 B没点数？ 妓从何来 合影，留名！ 绿园三结义，宝强，羽凡，奶亮 [微笑] 其实是马苏看上了贾乃亮给李小璐下了个套结果就是这样啦 媒体这是要把人家往黄了整啊 人才倍出啊 大意失精州 一洞连襟！好兄弟 青青河边草 结合苍老师结婚新闻，感叹古人诚不欺我啊：宁要婊子从良，不要红杏出墙！！！ 亮有一妓 大家好，我是PGONE，请大家欣赏我的新rap《好吃不过饺子》：<br>comeon！<br>乃亮大哥，有些话不能多说。<br>你家的饺子味道真不错！<br>你的头发有点绿。<br>你的眼神有点忧郁。<br>你的人生就像言情剧。<br>哦，爸爸去哪儿了。<br>哦，嫂子去哪儿了。<br>嫂子和兄弟一起去哪儿了。<br>她挽着我的手。<br>她搂着我的头。<br>她把白白的饺子塞到我的口。<br>她在我的身下尽情的嘶吼。<br>one！two！three！four！<br>two！two！three！four！<br>three！two！three！four！<br>onceagainoh～yeah～<br>和我一起说唱！<br>嘿，乃亮！<br>不仅你的奶亮，你的头也亮！<br>嫂嫂说去做头发，我的小名就叫头发！<br>你天天喊我弟弟，嫂嫂也喊我弟弟，我还有个弟弟！<br>嫂嫂玩着你的弟弟，还玩着我的弟弟！<br>就问你刺不刺激！yeah！ 就服你 你们特喵的都是人才[狗] 马苏这婊子，老孔不要绝对是对的 一洞连襟！好兄弟 666[喷水] 亮，学五禽，之绿毛老🐢 人才啊 [窃笑][窃笑][窃笑] 马苏也不是什么好东西。 看来马苏在里面没起什么好作用 我就来看看璐死谁手 我操猛的打钱 🌱🌱🌱🌱 没事，还有三次机会…… 插刀教里两个人都是绿的了 璐思谁手？ 绿园三结义，宝强，羽凡，奶亮 亮！没事，咱不是还有2手恩佐吗？ 666 希望出现再国内偷拍系列中 也是草够了就甩了。现在成公交车加老鸨了。 真情像草原广阔…… 你们想多了，皮几万只不过是来和嫂子包饺子。 哥[微笑] 李小璐去死吧！ 反正是惯犯了，反正能原谅五次，不知道这是第几次 以后骂人就叫哥 逛五窑奸六妓 来迟了 one贱齐发 这个屁猪瘟又是谁啊？？现在怎么好像满大街都是明星一样？？ 真他妈人才 这个年过的会很难忘。 我在等91和1024还有春暖花开 包饺子很累的，就睡着了 我也喜欢角色扮演 也是草够了就甩了。现在成公交车加老鸨了。 应该封杀过洋节的明星！！！ 我敢确定马苏也不是好鸟，坐等她的新闻 妓从何来 绿帽隊再得一分 都是一群人才、 "
    },
    "Article": "网易娱乐1月2日报道近日，李小璐和PGONE因同返男方家中且彻夜未出，陷入“出轨疑云”。虽然当事人双方均发博澄清了绯闻，但依然有不少网友“深扒”二人微博及两人之间的各种互动，质疑二人关系似过于亲密。今日（1月1日）又有媒体曝光，在去年圣诞节当天，李小璐同PGONE及一众好友聚会后，PGONE又单独打车前往李小璐家。2017年最后一天，有媒体爆料李小璐与PGONE两人约饭后一同返回PGONE家并彻夜未出，引发网友热议。之后，当事人双方就当晚情况进行了澄清，表明二人只是单纯的姐弟关系。今日（1月1日），又有媒体放料称去年圣诞节当天，李小璐、PGONE及一众好友聚会后，李小璐与PGONE分别乘车返回李小璐家。据悉，贾乃亮当日正在外地工作，且发出李小璐和孩子的合影祝网友圣诞节快乐。圣诞节参与聚会的好友马苏事后（12月27日）晒出当晚合照，其中却并没有PGONE的身影。目前，贾乃亮圣诞节发出的微博已被删除。本文来源：网易娱乐责任编辑：宋玉鑫_NK6612",
    "Source": "Netease",
    "Title": "曝PGONE圣诞节夜访李小璐家 贾乃亮当日在外拍戏_网易娱乐",
    "KeyWords": "李小璐,贾乃亮,pg one",
    "URL": "http://ent.163.com/18/0102/06/D74H03PP00038FO9.html"
}