{
    "PublishTime": "01/02/201800:11:50",
    "Comment": {
        "Total": 635,
        "Link": "http://comment.news.163.com/news_shehui7_bbs/D73S90RN0001875P.html",
        "Reply": 49,
        "Content": "你成功盗好多钱，只要暂时没被抓，你也会有女朋友 哈哈哈哈 还有女朋友为他哭。真是扎心了 关键他女朋友还有车啊 感谢警察 女人喜欢这样的[不屑] 卧槽，特朗普要从楼梯上倒下来我都不扶，就扶三楼。 亮点啊 他是罪犯，但，他有车有女朋友……，这就是中国 他白天无证驾驶晚上也无证驾驶 跟贴被火星网友带走啦~ 哎，我30了，还没女朋友，现在跨年和过年是我最讨厌的日子，因为又老一岁，我可能这辈子不会结婚了，祝大家能结婚吧 他盗窃，他无证驾驶，他钻下水道，但是他有女朋友啊。 惊呆了 老哥稳 男子本意想来个野战 吓得我不敢说话了 哥扎心了[大哭] 这不马上就没了吗？ 扎心吧你就😂 亲,你确认没有写错字?嚎啕大哭和嚎啕大哭,都是大声哭叫 做贼心虚！ 自己吓破胆了，不淡定就别装老大。 别说了，说得我快哭晕在厕所了，我的五姑娘。 他女朋友还为他哭 富士康北门的艺剪坊（清湖形象店）<br>坑爹五步曲————————————坑爹的理发店<br>第一步，装热情——刚一走到门口，几个人围着你上来，那叫一个热情啊。只要你说了一句“洗剪吹”，全部人都散了……（钱少啊）<br>第二步，套关系——那个理发师（我们暂且叫他SB）会主动问你是哪里的人，但不管你说自己是哪里的人，SB都会说“哦，老乡啊”，然后会编出一个跟你同省的城市（最有可能的就是省府），让你放松警惕，开始下手宰你……<br>第三步，故意下套，让你钻——洗完头发，他会问你：“你头发有点弯，要不要梳直？”刚洗完头发，这么乱，当然要梳直啦。你中了，不是中奖，而是中了他的套套。里面的人马上又“热情”起来，两三个人会迫不及待的拿药水给你涂上，这就是钱啊……<br>第四步，“教导”你——等你发现后，店长（暂且就叫GRD吧）说这是你无知，不懂理发店的潜规则（靠，听起来怎么像圈圈里面的事），然后还教师口气的对你说，这次他“好心”告诉你，下次你就不会上当了（来他那里就是买教训的？），FUCK，强盗还讲起理来了！！！<br>第五，威逼胁迫——几个人“围着”你，然后绞尽脑汁给你“想办法、出主意”，押厂牌啊，押手机啊，“陪”你去取钱啊，真感觉自己处在Hongkong电影里<br>同仁们，希望大家记住富士康北门这个店——艺剪坊（清湖形象店）。现在我们被无数的无良商家残害，毒害、欺诈，我们这些“上帝”再也伤不起了，我们不能严惩他们，但至少可以抵制他们。 我记得他说了互捅？然后被网易删了？？ 他盗窃，他无证驾驶，他钻下水道，但是他有女朋友啊。 感谢警察 这种侥幸心理还是不要有的好 他是罪犯，但，他有车有女朋友……，这就是中国 你可以学他，首先，盗窃。 我三十六岁有房有车还没有女朋友，而且还是处男，我也最怕过年过节的，过年过节的朋友亲戚在一起别人都结婚，小孩都很大了，看着心里自己难受，我也这辈子结不了婚了的！祝大家都早日结婚！ 闭嘴！无耻老贼！ 还是心虚耶[鄙视][鄙视][鄙视] 替我们单身🐶出了一口恶气 你意思是说：不贪污就没小秘是吧！你是反革反政府言论懂不？是要枪毙的⋯年轻人令语不言啦！ 也许正因为他盗窃、他无证驾驶、他钻下水道，才有女朋友的呢。 老哥稳 自己吓破胆了，不淡定就别装老大。 三楼呢？？？哪位老哥说一下三楼讲了什么啊 扎心吧你就😂 亲,你确认没有写错字?嚎啕大哭和嚎啕大哭,都是大声哭叫 做贼心虚！ ？？？ 这也没谁了。 别说了，说得我快哭晕在厕所了，我的五姑娘。 吓得我不好说话了。 他女朋友还为他哭 他盗窃，他无证驾驶，他钻下水道，但是他有女朋友啊 这车不是他偷的吧 你成功盗好多钱，只要暂时没被抓，你也会有女朋友 哈哈，这样的情况都有 2楼89年生人？ 一个女傻逼！ 关键他女朋友还有车啊 还有女朋友为他哭。真是扎心了 女人喜欢这样的[不屑] 卧槽，特朗普要从楼梯上倒下来我都不扶，就扶三楼。 亮点啊 男子本意想来个野战 他白天无证驾驶晚上也无证驾驶 哈哈哈哈 哎，我30了，还没女朋友，现在跨年和过年是我最讨厌的日子，因为又老一岁，我可能这辈子不会结婚了，祝大家能结婚吧 白被日了！ 太励志了 哥扎心了[大哭] 这不马上就没了吗？ 都笑什么啊 操！！这回尴尬了吧！ 哭跪了..哈哈哈 "
    },
    "Article": "（原标题：无证男遇查弃车钻进下水道，急得女友哇哇大哭，一查是网逃）#endText.video-infoa{text-decoration:none;color:#000;}#endText.video-infoa:hover{color:#d34747;}#endText.video-listli{overflow:hidden;float:left;list-style:none;width:132px;height:118px;position:relative;margin:8px3px0px0px;}#entText.video-lista,#endText.video-lista:visited{text-decoration:none;color:#fff;}#endText.video-list.overlay{text-align:left;padding:0px6px;background-color:#313131;font-size:12px;width:120px;position:absolute;bottom:0px;left:0px;height:26px;line-height:26px;overflow:hidden;color:#fff;}#endText.video-list.on{border-bottom:8pxsolid#c4282b;}#endText.video-list.play{width:20px;height:20px;background:url(http://img1.cache.netease.com/video/img14/zhuzhan/play.png);position:absolute;right:12px;top:62px;opacity:0.7;color:#fff;filter:alpha(opacity=70);_background:none;_filter:progid:DXImageTransform.Microsoft.AlphaImageLoader(src=\"http://img1.cache.netease.com/video/img14/zhuzhan/play.png\");}#endText.video-lista:hover.play{opacity:1;filter:alpha(opacity=100);_filter:progid:DXImageTransform.Microsoft.AlphaImageLoader(src=\"http://img1.cache.netease.com/video/img14/zhuzhan/play.png\");}if(/(iPhone|iPad|iPod|Android|NETEASEBOBO|blackberry|bbd+)/ig.test(navigator.userAgent)||/safari|chrome|firefox/i.test(navigator.userAgent)&&navigator.plugins&&!navigator.plugins[\"ShockwaveFlash\"]){varstr1='<videocontrols=\"controls\"preload=\"auto\"width=\"100%\"poster=\"http://vimg3.ws.126.net/image/snapshot/2018/1/P/B/VD6632BPB.jpg\"style=\"max-height:100%\">';varstr2='<sourcetype=\"video/mp4\"src=\"http://flv.bn.netease.com/videolib3/1801/02/ytQLZ3571/SD/ytQLZ3571-mobile.mp4\">您的浏览器暂时无法播放此视频.</video>';document.getElementById(\"FPlayer1404863609673\").parentNode.innerHTML=str1+str2;}无证男遇查弃车钻进下水道急得女友哇哇大哭（来源：56网）window.NTES&&function(d){varf=function(c){varb=c.getAttribute(\"flashvars\"),a=c.getAttribute(\"repovideourl\").replace(\".flv\",\"-mobile.mp4\");h=d(c.parentNode.parentNode.parentNode),g='<embedsrc=\"http://v.163.com/swf/video/NetEaseFlvPlayerV3.swf\"flashvars=\"'+b+'\"allowfullscreen=\"true\"allowscriptaccess=\"always\"quality=\"high\"wmode=\"opaque\"width=\"100%\"height=\"100%\"type=\"application/x-shockwave-flash\"/>';if(/(iPhone|iPad|iPod|Android|NETEASEBOBO|blackberry|bbd+)/ig.test(navigator.userAgent)){g='<videocontrols=\"controls\"preload=\"auto\"width=\"100%\"height=\"100%\"><sourcetype=\"video/mp4\"src=\"'+a+'\">您的浏览器暂时无法播放此视频.</video>';}h.$(\".video\")[0].innerHTML=g;},e=function(b){vara=d(b.parentNode.parentNode.parentNode);a.$(\"li\").removeCss(\"on\"),b.addCss(\"on\"),a.$(\".video-title\")[0].innerHTML=\"string\"==typeofb.textContent?b.textContent:b.innerText,a.$(\".video-title\")[0].setAttribute(\"href\",b.getAttribute(\"url\")),a.$(\".video-from\")[0].innerHTML=\"（来源：\"+b.getAttribute(\"source\")+\"）\",f(b);};window.continuePlay=function(){vara,b=d(d(\".video-list.on\")[0].nextSibling);3==b.nodeType&&(b=d(b.nextSibling));if(b&&d(\".video-innerinput\")[0].checked){e(b);}},function(){vara={init:function(){if(d(\".video-listli\")[0]){d(d(\".video-listli\")[0]).addCss(\"on\"),this.eventBind();}},eventBind:function(){d(\".video-listli\").addEvent(\"click\",function(b){e(d(this)),b.preventDefault();});}};a.init();}();}(NTES);楚天都市报1月1日讯无证驾驶员遇交警检查突然逃跑，钻进下水道“闭门不出”，同车女友当场嚎啕大哭！2017年12月31日上午，湖北省公安厅高警总队黄陂大队民警颇费周折将其逮住，发现他逃跑的原因不是因为无证驾驶，而因为他是一名警方通缉的逃犯。12月31日上午9时30分许，省公安厅高警总队黄陂大队民警在沪蓉高速永佳河收费站执勤时发现，不远处停着一辆银灰色轿车，迟迟不敢靠近，随即上前检查。一名男子走出驾驶室，自称没带驾驶证，停车是想让女朋友来开车，希望民警照顾一下。正当民警准备核查时，男子悄悄踱到一旁，突然拔腿逃跑！高速公路护栏外都是农田、灌木，为防止发生意外，民警沿着男子逃跑的方向追去。追到不远的一处高速公路涵洞时，男子跳进水坑，钻进了下水道。由于天气寒冷，且下水道内污浊不堪，民警只好在下水道两头堵截，不断喊话要求男子上岸。此时，其女友又惊又怕，嚎陶大哭。5分钟后，男子在污水中实在受不了自己爬了上来，企图再次逃跑，但已经筋疲力尽，跑了没多远，被民警和随后赶来的女友一把拉住。民警找来衣物让其换上。经查，该男子姓张，是武汉市新洲人，准备开车带着女友从红安去武汉，上高速时突然发现有交警检查，张某由于没有驾驶证，便想换女友开车，但还是被交警发现。民警深入调查发现，张某逃跑的原因不是因为无证驾驶，而是其2017年10月份参与盗窃被公安机关列为网上逃犯，而其女友对此一无所知，还以为只是无证驾驶。目前，张某被移交红安永佳河派出所进一步调查处理。本文来源：荆楚网-楚天都市报责任编辑：杨强_NN6027",
    "Source": "Netease",
    "Title": "咋回事?男子遇查弃车钻进下水道 急得女友嚎啕大哭_网易新闻",
    "KeyWords": "驾驶证,盗窃,女友,下水道",
    "URL": "http://news.163.com/18/0102/00/D73S90RN0001875P.html"
}