{
    "Comment": {
        "Link": "http://comment.news.163.com/news_shehui7_bbs/D6KUE7V50001875P.html",
        "Reply": 237,
        "Content": "跟干部平分反而没事了<br>现在的状况就是，好人做不得！ 你想法真简单....这个村长其实不错了算是个好官了 低保户有名额的，他们村就是没有非常贫困的，给谁大家都不满意，都会有人举报！<br>都觉得给自己合适，给别人不行，你说该怎么办？ 因为他们知道，干了活就没得低保，没干活才有低保，索性就干脆不干吃救济，多爽嘛反正就是哪样生活 你违规发放最后没人知道。你平均分了低保户就会举报你。你就得出事 清官 这就是庸官如果是那样干脆不要搞低保这种东西了，这种东西就是给与一些经济能力非常弱的人，上来就评分就好吗？ 低保就是个笑话，五保还可以体谅，现在有手有脚的人都不会饿死，我们这很多低保户每月拿了钱就去喝酒，最后喝到酒精肝死了还得国家报销医药费。很多来扶贫的送他猪苗鸡苗，转个眼就杀来吃了。他们不是饿死的，而是懒死的 全村每人分五百多，对于正常家庭来讲，这一年五百多用处不大，对于真正需要帮助的低保户来讲，那笔钱事关以后生存的尊严，不用去乞讨或者犯罪。 尊重民意的村干部，极其罕见，竟是如此下场！ 这尼玛是好干部啊！ 有时候清廉的庸官的危害比有能力的贪官要大 比那些把自己亲戚、朋友、巴结虫都办成低保户的货，强多了 一个村子将近一半人吃低保，这是个很严峻的问题，57.6万分给低保户也就1200，单纯输血就是个无底洞。如果村干部能申请把资金集中利用起来，这些钱足够在当地办一个可观的产业了。可能不足以发家致富，但也足够村民提高收入，改善生活了。 中央干部怕这样的官平分了低保金，以后中国13亿人平分百万亿。得先福中央。 多简单的事情，就是说他们那个村子要不就是贫富差距不大，或者就是贫困名额有限，然后符合标准的人太多，引起矛盾。关于是这个名额他是没有办法的，于是就想出这样的办法。脱离实际谈问题都是耍流氓，我也是猜测的... 感觉此人不是村霸，判刑似乎有点过了 好干部 不算是坏透的。 这样的领导是平均主义，也不是很坏，只是法律意识淡薄，应该说服教育，判刑太重了。 如果此干部将低保金以扶贫的民义瓜分给自己的亲朋好友，说不定还评为扶贫优秀干部！ 只想问一句，这种自己没贪一分钱，只不过是违规发放的判了刑，那些只给自己亲戚，自己又贪污的，怎么处理？ 这样的好官不多了 有点逼数吗？这么好的村干部哪里找去，怪不得好人难当官，mlgb！ 没装进自己腰包，平均分也算不坏。 这个是我在网易上看到的最好的村官了！ 不知道你在说些啥，如果是村干部自己贪了，低保户去告，全村人都会支持，因为人在不牵扯自己利益的时候，大多是“道德”的，现在什么情况？低保户去告了，全村人得把装进口袋的钱拿出来，你觉得他们乐意么？既然是低保户，肯定就是有各方面困难，也最需要乡亲互助的人群的，现在把全村人都得罪了，你觉得日子会好过？那个更坏些？ 某民政局70%工作人员的亲属违规领低保，弱弱问一句:它们判刑了吗？ 看新闻来说，绝对是一个好官，要是贪官的话，绝对是跟村干部平均分了， 低保金有发放规则，是高压线。 这个必须抓，绝不能开这个先例！！你都给村民分了，干部们咋办？还有上面领导咋办？！把大家的钱发给村民给你自己赚民意？！抓！ 二楼是说做坏事升官的能力！ 虽然这村长水平有限但做法比其他很多自己亲戚领低保啊村民领低保然后给他返钱这些行为好多了 总比有些人公饱私囊的好 所谓低保户，很多都是干部家属，<br>所以这个村干部，是包青天，难得的好官 比我村干部好多了…干部的亲人友人情人领低保…严重的都没抓 我觉得举报的低保户有点。。。。。<br>下次换个人来当你们村长，你连平均数都拿不到了。 最坏的就是这种，比自己贪了还坏，如果是自己贪了，那些低保户去告就好了，这种平分的，低保户去告了，还会导致全村人的白眼，对他们的生活都会带来困扰，岂不是更坏？ 你不选我我能给你低保吗！你整天监督我我能给你低保吗！像这样平均分的好官不多见。为和谐社会做贡献了 我猜测事情是这样的：村里申报贫困人员的时候大家就存在分歧，谁都想得点好处，村干部应该是许诺了申请下来款项大家均分，这才报的480人。等钱下来了，又有人觉得不平衡，这才告的。 只不过是法盲，想法可以理解。 村长的丈母娘小三的妈 不是说说那么简单的，我看朋友下乡的照片，垃圾站就在20来米远的地方，一户村民把垃圾都丢在自己门口的废弃猪圈里，那味道根本不是人能待下去的，而且有些人吃饭得要靠救济了，钱发到手里，还得去搓几把麻将 是好人，但是个昏官。 你怎么知道是真正的低保户去告了，而不是些贪得无厌的人或者跟他有仇的人做的？ 一千人的村，480的低保户，你觉得村民的生活会有什么区别吗？要是千里挑一好办，找最穷的就行，一半一半？怎么分？这不是给低保，是二桃杀三土 可能是个好人 多好的干部，没有中饱私囊 我回帖不是为了充气娃娃，特此声明🙌 他就是法盲，很多村干部都觉得村里的事只要通过表决就是合法，其实这是为了讨好多数人欺负少数派的做法，完全不合法律 跟干部平分反而没事了<br>现在的状况就是，好人做不得！ 你想法真简单....这个村长其实不错了算是个好官了 你们说的都是极少数情况。事实是没有领头的人，大多数人都想致富，可是都没有致富的门路，出去打工赚的钱扣除房租生活费之类的，比低保的收入高不了多少，所以他门选择了吃低保。你们要知道吃低保正常情况下会被人鄙视。所以说他们只是没有手段去致富罢了。 四川四大民族，从来就不是平等的！甘孜州、阿坝州、凉山州、川东北、这些地方可以不属于四川。 这说明这个村官的底子不硬！要是县里有人！市里有人！花点钱不就摆平了吗！要是我们村官想也别想还分给村民！还不如自己用了啊！谁也不知道多好！ 看新闻来说，绝对是一个好官，要是贪官的话，绝对是跟村干部平均分了， 专吃共享的人干活不行，打官司有能耐，法院也乐意为这类人争一口气，落下清明大老爷名声。 廉租房院里也停着不少奔驰宝马。 一个村真正富裕的不会在乎这点钱，剩下的情况都差不多，除个别真正需要的外，这样平分确实是最公正的！ 对百姓好，也有错吗？？ 所以要判刑啊 贫困户百分之九十九都是假的 我们村也是这么干的[大笑] 红你妈穴！ 能量包括潜能和显能，显能决定现在，潜能决定未来，开发潜能会导致早衰——红浅学 最典型的是经适房，都是有权有关系的分了 不算是坏透的。 有些地方，你怎么扶贫都不可能变富的，因为根本没有可以致富的资源，非要搬迁到另一个地方不可，但基本上都不愿意搬，所以，扶贫真是很难的 只想问一句，这种自己没贪一分钱，只不过是违规发放的判了刑，那些只给自己亲戚，自己又贪污的，怎么处理？ 四川四大民族，从来就不是平等的！甘孜州、阿坝州、凉山州、川东北、这些深度贫困的地方，可以不属于四川。 中央干部怕这样的官平分了低保金，以后中国13亿人平分百万亿。得先福中央。 这样无王法为何不枪毙？判刑也太轻，是谁在护着他们？ 四川四大民族，从来就不是平等的！甘孜州、阿坝州、凉山州、川东北、这些深度贫困的地方，可以不属于四川。 如果四川，引进河南或者东部地区的人去发展，结果会是大不一样的！ 不患寡而患不均，不患贫而患不安 这个是我在网易上看到的最好的村官了！ 四川四大民族，从来就不是平等的！甘孜州、阿坝州、凉山州、川东北、这些地方可以不属于四川。 我们哪里、、以前发的低保粮食、、村长自己家吃了、、发的物质、、自己给情人了、、关系好的人了。。 你违规发放最后没人知道。你平均分了低保户就会举报你。你就得出事 居然不是干部含泪那个啥了 我亲眼看见，和听到，识得人，人家亲戚在派出所当官和村长都是亲戚，把低保费比他亲戚 那叫挪用扶贫资金，判得比现在还重 村干部理解的透彻 先统一全国最低工资标准，不要再人为制造地区不均衡发展！统一用工形式，让基层劳动者就业有正规渠道，找份工作不再缴费几百上千元，再来谈劳动法！ 首先，国家保障就应该人人有份，部分贫富人人享有，应当按年龄段分配国家保障，再根据具体情况，对困难者给予额外保障，让所有人都享有国家保障。其次，职业保障和商业保障，再按照职业和缴纳情况给予差别化保障。第三，现在的社会保障只给予体制内的人、缴纳费用的人以及名额有限的人给予保障，存在极大问题。应当明确将国家保障和社会保障无条件按年龄段给予每个人，这是国家的责任。然后再建立职业保障和商业保障体系作为补充。 虽然这村长水平有限但做法比其他很多自己亲戚领低保啊村民领低保然后给他返钱这些行为好多了 首先，国家保障就应该人人有份，不分贫富，人人享有，应当按年龄段分配国家保障，再根据具体情况，对困难者给予额外保障，让所有人都享有国家保障。其次，职业保障和商业保障，再按照职业和缴纳情况给予差别化保障。第三，现在的社会保障只给予体制内的人、缴纳费用的人以及名额有限的人给予保障，存在极大问题。应当明确将国家保障和社会保障无条件按年龄段给予每个人，这是国家的责任。然后再建立职业保障和商业保障体系作为补充。 四川越穷逼的地方，越是自私窝里斗！深度贫困地区，都tm揭不开锅饿极了，凭哪一个都可以拿得出手，当然还是程度不一样。腐败苍蝇也确实太tm多！ 每个人都得一点，总比他一个人得了好吧。 19岁大学毕业时找工作，面试时对面坐着的漂亮女白领，是人力资源部经理，她问我：你能干多长时间？我有些诧异，但还是老老实实回答：一般半个小时，状态好的时候四十分钟。她低声说：我是说你在这儿能干多久？我环顾四周，有些羞涩的说：这我可能放不开，我从没当着这么多人，真的不太习惯。三天后我被录取了，知道她原来是老板娘。她送给我一本《能量决定命运》，让我学习红浅学。三个月后她挺着肚子辞职离开公司，临行前嘱咐我一定认真学习，不学红浅学，赶不上马化腾，娶不起林志玲。不读《能量决定命运》，富不过刘强东，跑不过贾跃亭。二十年后孩子会来认你的。 哎，我还觉得他们是好干部呢，考虑了村里实际情况才这样分的，可惜啊县里不会管这些，所以啊他们一直是贫困的 村干部比上面还贪全国皆知而且不受管(没有入党) 越穷越窝里斗的傻逼！当然...都是饿急了，身高低一点，目光短浅一点也不奇怪。 这就是庸官如果是那样干脆不要搞低保这种东西了，这种东西就是给与一些经济能力非常弱的人，上来就评分就好吗？ 最坏的就是这种，比自己贪了还坏，如果是自己贪了，那些低保户去告就好了，这种平分的，低保户去告了，还会导致全村人的白眼，对他们的生活都会带来困扰，岂不是更坏？ 这是少数服从多数。虽然有各种毛病。但是绝对比多数服从少数好得多。能避免最坏的情况。 除了电影里的，这是我所知的最好的村官。 我亲眼看见，和听到，识得人，人家亲戚在派出所当官和村长都是亲戚，把低保费比他亲戚 看来这村不穷，不需要低保，扶贫，扶贫扶了好吃懒做的穷人，苍蝇蚊子到有机会养肥了，真是浪费了纳税人的钱！ 某民政局70%工作人员的亲属违规领低保，弱弱问一句:它们判刑了吗？ 吃低保会被人鄙视吧？ 残疾、长期生病的低保户可以理解，我们村90%的低保户啥毛病没有，就是懒 这🐶 首先，国家保障就应该人人有份，部分贫富人人享有，应当按年龄段分配国家保障，再根据具体情况，对困难者给予额外保障，让所有人都享有国家保障。其次，职业保障和商业保障，再按照职业和缴纳情况给予差别化保障。第三，现在的社会保障只给予体制内的人、缴纳费用的人以及名额有限的人给予保障，存在极大问题。应当明确将国家保障和社会保障无条件按年龄段给予每个人，这是国家的责任。然后再建立职业保障和商业保障体系作为补充。 至少有一部分人不该拿低保。。。<br>但是你有什么办法呢。 比如收入是1000块为标准，那么月收入1001的就不是贫困户而999的是贫困户。而1001和999的差别不过是2.但是评选了贫困户就有1000的补助，你觉得什么是公平？这也就是为什么削减了脑袋都要往里面钻的原因。如果能分级扶贫，就好很多。其次是有劳动能力的，提供劳动机会比直接给钱要好很多，这样机不至于养懒汉，也不至于饿死人。之前就有人为了当选贫困户，故意不工作，因为一旦她工作有了收入就不符合贫困户的标准。扶贫扶贫是为了都摆脱贫困而不是养懒汉。而对于失去劳动能力，适当的多增加补助。你非要钻政策的空子自残失去劳动能力，这也没办法的事。 比我村干部好多了…干部的亲人友人情人领低保…严重的都没抓 当一个村支书比当一个市长难多了，市长官大，说一不二，没人敢反驳，村支书在有些地方就是一个受气包，我有个亲戚以前就是当村支书的，低保的钱他分给了那些有需要的人，结果他哥的儿子没分到很是不满，扬言跟他没完，他说比你困难的人多了，总不能因为你是我哥的儿子就把这些钱分给你吧，然后就和他哥的儿子吵架了，两家人不相往来。 村干部比上面还贪全国皆知而且不受管(没有入党) 他们亲戚把钱那来吃白粉， 四川四大民族，从来就不是平等的！甘孜州、阿坝州、凉山州、川东北、这些深度贫困的地方，可以不属于四川。 这还是好村官。 这东西本来就是给一些经济条件比较差的，什么都分就好？上大学助学金被班长全班平分了，很多需要的贫困学生却没得到，分的钱都吃喝了，剩下的助学金被用来请老师吃饭了，感觉喝的就是血。 这算是好官了。虽然违规，但比那些只给亲属办低保的强太多了。 中国农村，实在是太落后了，各个方面，特别是人。觉得对教育多投入应该是根本，如果不惜一切代价，投入教育，发展教育，几十年甚至上百年后，应该会有很大的改观，但是谁会牺牲现在的利益为百年后的人口素质多投入呢？ 而那些将低保分给七大姑八大姨的村干部反而没有事！ 你违规发放最后没人知道。你平均分了低保户就会举报你。你就得出事 低保就是个笑话，五保还可以体谅，现在有手有脚的人都不会饿死，我们这很多低保户每月拿了钱就去喝酒，最后喝到酒精肝死了还得国家报销医药费。很多来扶贫的送他猪苗鸡苗，转个眼就杀来吃了。他们不是饿死的，而是懒死的 我相信这个的确是村民意愿。。农村里面，真的很难理解的，全平均的确是没人再说闲话了 他自己不嫌味吗？ 就是，贪官可以把钱都贪下来，56万办个企业，实体经济。比这个发下去消费了强多了，是吧？ 多好的干部啊，竟然给判刑啦**，哥们，以后不要平分，给有权有势的多分点，保你你没事。 有时候清廉的庸官的危害比有能力的贪官要大 比那些把自己亲戚、朋友、巴结虫都办成低保户的货，强多了 一个村子将近一半人吃低保，这是个很严峻的问题，57.6万分给低保户也就1200，单纯输血就是个无底洞。如果村干部能申请把资金集中利用起来，这些钱足够在当地办一个可观的产业了。可能不足以发家致富，但也足够村民提高收入，改善生活了。 难道又是南京法官给这个村干部判的刑？冤枉啊——————！ 那当然，低保户得多难才办得到，投资不得收回成本啊，你特么居然跟人家平分 现在教育的投入已经不错了，只是现在教师过得太tmd舒服了，以前老师是个受人尊重的职业，老师也尽职尽责，现在tmd除了收红包，还能干啥？ 一年都不洗澡的人会闻到别人有体味吗 不算是坏透的。 在农村这不算什么。 好官个屁，不守规则的官永远不是好官，只能说这两个村官很有心机，拿这个钱来收买人心，以后有机会就是巨贪。。 这也是违法，每笔资金是什么用途，就应该用于什么，他那么喜欢搞平均化，为啥不把全村人的钱财集中起来平均了？ 所以说他要被整倒嘛，反而是哪些开着好车吃低保的没事 慷他人之慨，让人作呕，有本事把你自己的所有财产捐出来平分啊狗东西 本来可以拿1000的人只拿到了500，他们会服吗？ 有点逼数吗？这么好的村干部哪里找去，怪不得好人难当官，mlgb！ 看新闻来说，绝对是一个好官，要是贪官的话，绝对是跟村干部平均分了， 因为他们知道，干了活就没得低保，没干活才有低保，索性就干脆不干吃救济，多爽嘛<br>反正就是哪样生活，没钱找政府，没问题 收入的分配应该遵循多劳多得，复杂劳动比简单劳动收入高，技术型劳动比非技术型劳动收入高。高危险劳动比低危险劳动收入高。这是劳动分配的自然法则。<br>离开这种法则的收入分配改革就是人为给某些人增加收入。收入分配改革不是给某些人谋福利，不是劫贫济富，防止被某些人利用来为一些冒牌的改革受益对象增加<br>劳动收入。我们不要总是让一部分人先富起来，这些先富起来的人不会带动其他人共同致富，相反一部分人是占有了大多数人的劳动果实才富起来的，他们的富有导致<br>大多数人的贫穷。收入分配改革不是要激励某些人增收，而是要把现有的收入分配不合理改革成按自然法则形成的分配标准，否则改革就是为高收入的人提高收入创造机会。<br>国家投资建了大量的廉租房，保障房后给有钱人创造了发财机会。他们把保障房分给不该分的人，分到保障房的人又把钱给了分房人。<br>这样国家投资的钱就到了个人手中。还有国家下拨的解困资金，真正到困难户手中的也不是很多。我们天天反腐，但又给腐败分子创造贪腐的机会。贪婪是<br>所有动物的本性。人生下来就懂得占有食物。很少见到幼儿愿意将自己的玩具与他人共享。所以要抑制腐败，就要从社会分配上采取科学的分配方案。建保障房<br>是为了让穷人有房可住，但穷人有多少是不劳而获的人呢，他们低价拥有住房对于辛苦工作挣钱买房的人公平吗？降低房价，让大多数人买得起房，就不用建<br>保障房了。现在有多少房子空着？房地产行业泡沫已经破裂了，很多行业的产能回到正常产量，减少的部分产能靠什么来弥补呢？靠减少进口，让国民更多的<br>使用国货。限制国企管理人员的工资，提高职工的工资水平。让外行人当一个企业的负责人，会让产品质量下降。社会上人的智力水平差别<br>很大，智力低下的人生下来就是社会的负担，这些人一生中会损坏很多物品，即使社会给他再多的帮助，他们也只能将这些钱用于挥霍，永远也富不起来。 虽然这村长水平有限但做法比其他很多自己亲戚领低保啊村民领低保然后给他返钱这些行为好多了 这个是我在网易上看到的最好的村官了！ 慷他人之慨，让人作呕，有本事把你自己的所有财产捐出来平分啊狗东西 56万，一个人1200元，这一个村得有多少贫困户啊，莫非一半都是贫困户，还是国家给的钱太多了 看新闻来说，绝对是一个好官，要是贪官的话，绝对是跟村干部平均分了， 有病，打人比杀人好多了，难道就可以同情了 看着不错，就是没脑子啊。 这是村干部主要经济来源啊！！！如果一查每条村都有这个问题！！这一块是个肥缺啊！！！ 不贪都难呀…… 煞笔，不分你，你也是干瞅着 如果提议把村子里最富的几家财产拿来全村平分肯定绝大部分也都同意！嘿嘿！ 好心办坏事了！ 数额巨大，影响恶劣，居然是缓刑！掏一窝鸟就被判十年的冤不冤，玩玩具木仓被判无期的，冤不冤。 同年10月底，雄哇村对该村480名贫困人员名单予以公示，二人再次开会强调各莫乡政府给480名贫困人员发放扶贫资金和物资“要按照之前商量的意见”，平均分配给全村1072名村民。 破坏规矩，必须重判 我觉得古人看事看的特别透，不患寡而患不均，不患贫而患不安 最坏的就是这种，比自己贪了还坏，如果是自己贪了，那些低保户去告就好了，这种平分的，低保户去告了，还会导致全村人的白眼，对他们的生活都会带来困扰，岂不是更坏？ 人民群众喜闻乐见的，他们一定要打击批判！ 这个提议能通过，因为是多数人同意的，多数人用票数对少数人进行掠夺，正常人群对特殊人群的侵占，违背了公平原则，因为公平不是平均。 可是现实中那些给亲朋违规领低保的，没见处理啊？ 村长黄世仁，村支书南霸天，会真的去救助穷人吗？剥削谁去？晚上如何找喜儿ABC陪睡，太天真，阶级斗争不会消失。 这是一个好村长 这个如同报班里的贫困生。有点假。要想都到位，你得有社区服务人员（西方义工之类的），才能落实。。你讲风格，把名额让给别人，没人领你的情，村里还不都穷吗，有闲钱还待村里，富的只是少部分人。 除非这个村子个个不需要低保，否则的话，就是富人欺负穷人 多简单的事情，就是说他们那个村子要不就是贫富差距不大，或者就是贫困名额有限，然后符合标准的人太多，引起矛盾。关于是这个名额他是没有办法的，于是就想出这样的办法。脱离实际谈问题都是耍流氓，我也是猜测的... 好官，感动中国 能领低保的也都不简单 事实上这种事，不管怎么做村里肯定有人不满的，都觉得自己困难，都想领低保，都觉得不公平。 智商有点缺的好官 如果不平分，就不会穿帮了 还抵制，不直接给亲属办低保户，都是好官了 低保户有名额的，他们村就是没有非常贫困的，给谁大家都不满意，都会有人举报！<br>都觉得给自己合适，给别人不行，你说该怎么办？ 还严惩，<br>你能不能搞笑，<br>有几个低保户不是干部家属 看新闻来说，绝对是一个好官，要是贪官的话，绝对是跟村干部平均分了， 如果真这样就没事了，关键没这么做，所以人不为己天诛地灭 清官 我觉得举报的低保户有点。。。。。<br>下次换个人来当你们村长，你连平均数都拿不到了。 只不过是法盲，想法可以理解。 收入的分配应该遵循多劳多得，复杂劳动比简单劳动收入高，技术型劳动比非技术型劳动收入高。高危险劳动比低危险劳动收入高。这是劳动分配的自然法则。<br>离开这种法则的收入分配改革就是人为给某些人增加收入。收入分配改革不是给某些人谋福利，不是劫贫济富，防止被某些人利用来为一些冒牌的改革受益对象增加<br>劳动收入。我们不要总是让一部分人先富起来，这些先富起来的人不会带动其他人共同致富，相反一部分人是占有了大多数人的劳动果实才富起来的，他们的富有导致<br>大多数人的贫穷。收入分配改革不是要激励某些人增收，而是要把现有的收入分配不合理改革成按自然法则形成的分配标准，否则改革就是为高收入的人提高收入创造机会。<br>国家投资建了大量的廉租房，保障房后给有钱人创造了发财机会。他们把保障房分给不该分的人，分到保障房的人又把钱给了分房人。<br>这样国家投资的钱就到了个人手中。还有国家下拨的解困资金，真正到困难户手中的也不是很多。我们天天反腐，但又给腐败分子创造贪腐的机会。贪婪是<br>所有动物的本性。人生下来就懂得占有食物。很少见到幼儿愿意将自己的玩具与他人共享。所以要抑制腐败，就要从社会分配上采取科学的分配方案。建保障房<br>是为了让穷人有房可住，但穷人有多少是不劳而获的人呢，他们低价拥有住房对于辛苦工作挣钱买房的人公平吗？降低房价，让大多数人买得起房，就不用建<br>保障房了。现在有多少房子空着？房地产行业泡沫已经破裂了，很多行业的产能回到正常产量，减少的部分产能靠什么来弥补呢？靠减少进口，让国民更多的<br>使用国货。限制国企管理人员的工资，提高职工的工资水平。让外行人当一个企业的负责人，会让产品质量下降。社会上人的智力水平差别<br>很大，智力低下的人生下来就是社会的负担，这些人一生中会损坏很多物品，即使社会给他再多的帮助，他们也只能将这些钱用于挥霍，永远也富不起来。 全村每人分五百多，对于正常家庭来讲，这一年五百多用处不大，对于真正需要帮助的低保户来讲，那笔钱事关以后生存的尊严，不用去乞讨或者犯罪。 尊重民意的村干部，极其罕见，竟是如此下场！ 这尼玛是好干部啊！ 还不算太坏，至少没贪，处分一下行了 不算是坏透的。 严惩个屁，比贪官强多了。 呵呵。。。。 感觉此人不是村霸，判刑似乎有点过了 好干部 md，本来就不符合低保，而村里争取到的低保，这下好了，所有人都拿不到低保了。 现在社会的主要矛盾是不患贫而患不均 如果此干部将低保金以扶贫的民义瓜分给自己的亲朋好友，说不定还评为扶贫优秀干部！ 做法确实不妥，不过半村的低保户名额，每家的情况都差不多，给谁不给谁，最后还不打成一锅粥，方法可行就是没有做好全村的工作 工作不可能做好的，低保本身就是个混乱之源，你把他解决了，你不挨揍谁挨揍，人都自私的， 我读大学的时候，贫困助学金也是全班均分了，一人800. 这样的好官不多了 楼上脑子装的啥？既然是低保户，肯定是各方面的障碍，没办法像正常人那样谋生，一个半身不遂的人，你给予基本的生活保障，和听天由命，那个有尊严？ 虽然这村长水平有限但做法比其他很多自己亲戚领低保啊村民领低保然后给他返钱这些行为好多了 真不坏 这算是好的了，有些干部直接自己全贪了，那才不是人 这个必须抓，绝不能开这个先例！！你都给村民分了，干部们咋办？还有上面领导咋办？！把大家的钱发给村民给你自己赚民意？！抓！ 想的美，和自己老婆小舅子平分 臭不要脸的恶霸，我们那里也是这么搞的 这是低保户的意思吗？严惩！！！ 这个必须抓，绝不能开这个先例！！你都给村民分了，干部们咋办？还有上面领导咋办？！把大家的钱发给村民给你自己赚民意？！抓！ 比起贪吃低保的，这还算个好村官。 该严惩的不严惩，不该严惩的严惩。 所谓低保户，很多都是干部家属，<br>所以这个村干部，是包青天，难得的好官 19岁大学毕业时找工作，面试时对面坐着的漂亮女白领，是人力资源部经理，她问我：你能干多长时间？我有些诧异，但还是老老实实回答：一般半个小时，状态好的时候四十分钟。她低声说：我是说你在这儿能干多久？我环顾四周，有些羞涩的说：这我可能放不开，我从没当着这么多人，真的不太习惯。三天后我被录取了，知道她原来是老板娘。她送给我一本《能量决定命运》，让我学习红浅学。三个月后她挺着肚子辞职离开公司，临行前嘱咐我一定认真学习，不学红浅学，赶不上马化腾，娶不起林志玲。不读《能量决定命运》，富不过刘强东，跑不过贾跃亭。二十年后孩子会来认你的。 一年500就不用乞讨了，你就有尊严了？ 也许这个村里都是很穷的人，所以掰不开了。 这智商还能当干部！ 不过是把小部分分给大家以平众人之口，大头还不是自己人吞了 我猜测事情是这样的：村里申报贫困人员的时候大家就存在分歧，谁都想得点好处，村干部应该是许诺了申请下来款项大家均分，这才报的480人。等钱下来了，又有人觉得不平衡，这才告的。 全国有多少村干部？一年造成多少损失？一年贪污受贿吃拿卡要多少钱？能不能统计一下 一个国家的强盛一是看它全国民的科技水平有多高.二是看它拥有多少资源.中国的人口实在是太多.会很快把国内的资源消耗掉.<br>人老不可怕,60-70岁人退休后仍可为社会做一些贡献.70-80岁的人仍可自理.80以上的人去敬老院也没有问题。社会财富的多少和<br>财富分配是否公平是决定百姓生活和国家强盛的关键因素.延迟退休年龄，会给就业带来负担，60岁退休都有太多大学毕业生找不到工作，<br>65岁退休会使5年内毕业的大学生没有工作，这是对人才的巨大浪费，浪费人才就是浪费资源。因为有知识人的生活成本<br>比无知识人的生活成本低很多，无知识的人一生中要损坏好多东西，创造的东西却有限。这一点在每个家庭都会感受到。<br>养老金的亏空可以采取少发一点，平均一点的办法解决。现在养老金的分配差距很大，公务员及企业退休的干部等一个月能拿到7，8千，<br>而企业的工人和技术人员就能拿到1-2千。而在岗工作的科技人员和工人工资也就2千左右。把养老金的发放合理分配，就能解决<br>养老金不足的问题，又能解决就业问题。如果65岁退休，会有好多人不交养老保险，养老金的缺口更解决不了。现在找工作还很难，<br>不行贿国企的领导就不让你进。有钱的退休人员和企业领导由于钱多得花不了，就去赌博，旅游，造成铁路运力紧张。买房出租，造成房价<br>上涨，装修房屋，造成环境污染，破坏楼房的承重结构，降低楼房使用寿命。浪费自然资源。以前考虑农村养老问题允许生2个孩子，<br>结果农村人口暴涨，30年的土地承包政策使得年轻人没有土地被迫到城市打工。迫于生计的农民在城市日夜劳作，根本没时间照顾农村的<br>老人。问题的关键是把农村的养老系统建立起来，创办县级消费品企业，解决农村人口多，土地不足的问题。农民工在城市主要从事建筑，<br>保姆，妓女，酒店饭店服务员，环卫临时工等工作。建筑行业已经下马，会使大量农民工找不到工作，这是一个相当大的问题。我建议农村<br>的土地10年一调，如果一直不变，那新生的小孩怎么办，逝世的人土地怎么处理？林地可以出租，苗木可以现金补偿。限制大城市的扩张，<br>加强中小城市的建设，让各行业在全国范围内均匀的分布，这样可以减少商品销售的运输费用。让农村人能到附近的二线城市打工。 村民却没有一个抵制的，自古如此呀。 能你妈穴！ 低保本身就是不稳定之源，本来是公平，突然天出横财，不争才怪。 也许这是明智之举 但他程序不合法啊，!其他的你看了程序都合法的啊，那就是漏洞啊，村长也是蠢了，买想清楚这个钱是谁的，他没有权力去私自处理。自作自受 人性本恶 均贫不平富靠 低保金是国家照顾贫困户的，截留私分就是犯罪。 现在的政策就是扶贫愚昧的懒人。勤快、好学的打工人员在他乡被人地域歧视、还使劲的被压榨、排斥、身无所处......偷窃年轻人创造力、个人作品......乃至付出年轻的生命！ 平均分比绝大多数分法公平。不了解中国农村实际情况的别瞎起哄。 算是好干部了 农村人生活水平基本差不多。这样的好领导比滥用职权发放给关系户强多了，低保并不一定发给穷人。村干不说你够标准你才够！全国各事物哪个没规则。你看哪个又有规则了！ 老家都说咯哦里 多好的干部，没有中饱私囊 全村每人分五百多，对于正常家庭来讲，这一年五百多用处不大，对于真正需要帮助的低保户来讲，那笔钱事关以后生存的尊严，不用去乞讨或者犯罪。 .... 那些贫困人员是不是真的贫困？ 逆淘汰 说民意你就输了 这样的领导是平均主义，也不是很坏，只是法律意识淡薄，应该说服教育，判刑太重了。 穷不能靠给钱了事 应该直接枪毙，由于他的二次分配完全有可能造成低保人员的生命的危害。 没装进自己腰包，平均分也算不坏。 农村的低保出现问题大的地方，有关地方政府部门的负责人，一定要追责。 这种人枪毙就行，什么都是民意？ 关键是国家的政策太宽泛，很多人根本不够贫困条件，我们这里很多村能给50个名额，很多聪明的村干部只要10个，省得大部分村民提意见，一个村里真正贫困的就那么几户，国家能把几十户的政策给这几户就帮大忙了 全村1072，贫困人员480？看来还是懒得比较多。 哗众取宠 尊敬的各位家长：您好！为进一步规范学生仪容仪表，培养学生良好的行为习惯，营造文明的校园文化氛围。现对学生仪容仪表要求重审如下：1、男生不准留长发，不剃光头，不准理怪异发型；2、女生不准染发、烫发，不留奇型发型；3、不准穿拖鞋回学校；4、每天穿好校服，衣服要整洁干净（最好在校服上写上孩子的名字）；5、每天上学进校门时必须佩戴好红领巾；6、注意定期修剪手指甲。希望各位家长督促孩子做好以上工作，谢谢您的配合！ 是个好毛，看得懂事情吗?<br>本来只有低保户才能领的钱，利用大家意愿为借口给分了，叫好人？<br>假如你上班成绩优秀，公司给你一笔奖金，你组长说为了你好，全组人来表决，把你这笔钱分了吧，你会觉得他是好人? 😄😄😄 有作为，各个有钱分 低保金有发放规则，是高压线。 钱该给谁就给谁，够格才能领，低保金不是你家的个人财产，拿着去借花献佛想给谁给谁，还是判的轻了。 真正贫困的不好拿。 连根带叶都烂了 多好的干部，没有中饱私囊 好干部也 处罚是应该的，可是像比他们这样滥用国家权力多得很，并且还要严重得多的却并没有得到处罚。被处罚的他们两个人充其量算个小猴子。 好心办坏事，人不坏。 置政策法规于不顾，该打！ 草泥马！为什么不发到贫困户卡上？ 你不选我我能给你低保吗！你整天监督我我能给你低保吗！像这样平均分的好官不多见。为和谐社会做贡献了 不作为，乱作为 工作欠妥，也可能是庸官，但至少不是自己贪污！ 那低保户呢？ 这些人官要当事又敢做 请到江西兴国县均村中坊村来仔细查一翻 是好人，但是个昏官。 跟贴被火星网友带走啦~ sb 绝对好人，不像我们江西省吉水县白沙镇飞行村村支书吃低保的要返3千一年给他。 知足吧，我这边更黑，给死了好几年的孤寡老人盖房子。有人举报到市里，才发现好多死了好多年的人“没死”，一直在领钱，“死人不死账”。 可能是个好人 我回帖不是为了充气娃娃，特此声明🙌 全村一半多低保人员啊 低保户和贫困户的钱，全村平分是好事，这样做是没有假的，我支持？要不全部取消吧！这才是好政策？ 以您的逻辑是不是你家要拆迁，拆迁款也全村一起分？钱是谁的就给谁，够低保的给低保，够贫困的给贫困，国家的政策本意也是这个，您都开豪车住洋房了，平分给你你良心何在？ 你们那的大虾味道怎么样？ 低保是发给有需要的人。 有这么多低保款 总比有些人公饱私囊的好 中国的法律就像脱掉裤子放了个大屁，当官的基本是缓刑，有钱有势也是，至于穷人嘛，大家都懂 好人！ ",
        "Total": 6148
    },
    "Article": "（原标题：伪造签名全村平分57万多低保金阿坝一村书记和主任被判刑）“以后所有物资全体村民都平均分配，大家说好不好？”在取得了全体与会人员同意后，村委会主任和支部书记将57.6万元的低保资金以每人537元的标准平均分给了全体村民，之后再伪造贫困人员的签名交给乡政府。按照村干部的说法，他们的本意是“为了村民不因为钱而引起争斗”，但此举还是引起了村民的不满：贫困人员发现到手的资金变少，遂将二人举报。12月26日，记者从四川省高级人民法院“打击扶贫攻坚领域职务犯罪”新闻发布会获悉，二人以滥用职权罪于近日被阿坝县人民法院判处有期徒刑一年六个月，缓刑三年。事件57.6万低保金全村平分伪造贫困户签名应付检查在阿坝县各莫乡雄哇村被确定为帮扶村后，2015年9月，时任村支书尚某某和村委主任求某某召集该村六大组织成员在村委会二楼会议室开会，会上提出将乡政府以后发放给村里的扶贫资金和物资平均分配给全村村民，参会人员均同意。同年10月底，雄哇村对该村480名贫困人员名单予以公示，二人再次开会强调各莫乡政府给480名贫困人员发放扶贫资金和物资“要按照之前商量的意见”，平均分配给全村1072名村民。2016年8月15日，各莫乡政府将雄哇村低保资金57.6万元取现到该乡，由于时间紧，又恰逢大部分村民在山上挖药材，乡政府决定让村两委代为保管和发放低保资金。同年9月24日、28日，被告人尚某某、求某某分两次将57.6万元低保资金以每人537元的标准均分给该村全体村民。按规定，贫困人员领取低保资金后要在名单上签字，以备核查。为此，求某某在将这笔钱平分给所有村民后，特意安排村里四个小组组长，在上交给各莫乡人民政府的《发放低保花名册》上伪造了贫困人员的签名，试图掩盖平均分配低保资金的事实。本案书记员告诉记者，“全体村民平均分配低保资金”的做法引起了低保人员的不满，于是将尚某某和求某某举报。2016年10月，二人被阿坝县公安局刑事拘留随后被检察院取保候审。辩解是尊重村民意愿而非个人行为2016年10月，在检察机关介入后，被告人尚某某、求某某将违法发放给各莫乡雄哇村非贫困人员的低保资金一一收回，并上交到阿坝县人民检察院。各莫乡政府在2016年11月11日将阿坝县人民检察院返还的低保资金重新发放，发放给了应享受低保的人员。2017年8月21日，阿坝县人民法院公开审理了此案。庭审中，尚某某表示，将雄哇村贫困人员低保资金平均分配给全村村民是按照村民意愿，“是当初开了会大家一致同意的”，并非个人行为，请求从轻处罚。而求某某则解释，之所以这样分，“是为了村民不因为钱而引起争斗”。对于尚某某、求某某提出的“低保资金均分给全体村民并非个人行为”的辩解，检方认为这违背了低保政策的规定，因此辩解理由不能成立。判决不谋私利亦违法村干部被判一年半法院经审理认为，被告人尚某某、求某某在任职期间，明知低保资金发放政策却利用职务的便利将低保资金平均分配给该村全体村民，并伪造虚假花名册，损害了该村480名贫困人员的利益，其行为已经构成滥用职权罪，判处二人有期徒刑一年六个月，缓刑三年四川省高级人民法院的刑庭工作人员在通报此案时表示，低保金是救命钱，必须用于真正贫困的人，尚某某和求某某作为村委干部未按照低保资金发放政策，和乡政府的要求发放低保金，因此予以处罚。而本案的书记员则告诉记者，该村低保人员本应每人分到1200元，但“吃大锅饭”使得他们领取的金额减少。两人虽然没有直接谋取私利的行为，但这样做使得低保人员不能足额领到低保金，侵犯到了低保人员的权益，所以依法同样要予以惩处。本文来源：成都商报责任编辑：乔敬_NN6607",
    "PublishTime": "12/27/201705:01:02",
    "URL": "http://news.163.com/17/1227/05/D6KUE7V50001875P.html",
    "Title": "村干部将低保金全村平分被判刑 辩称是为尊重民意_网易新闻",
    "KeyWords": "低保金,全村,低保,乡政府",
    "Source": "Netease"
}