{
    "Article": "（原标题：哈里王子姻缘命中注定？占星家称28年前就已看穿）哈里王子与梅根海外网1月3日电英国哈里王子与美国女演员梅根的婚事一经发布就引发全球瞩目，对于这段有些令人意外的“英美联姻”，戴安娜王妃的友人兼御用占星家却表示，自己早在1990年就曾通过星象图看到哈里的未来与美国有所联系。据英国《每日邮报》2日报道，占星家黛比在1989年的一家餐厅内碰到戴安娜王妃，两人一见如故，而彼此间的朋友关系也一直维持到戴安娜在1997年去世。黛比表示，戴安娜王妃曾让其在1990年解读时年6岁的哈里王子的星象图，这位占星家发现，这位小王子的未来与美国联系在了一起。这也暗示了哈里与梅根的姻缘可能是命中注定。谈到两人的这段姻缘，黛比也表示，戴安娜会很高兴地看到自己的儿子与他喜欢的人结婚，而不是选择一位典型的贵族新娘。“梅根与众不同，她值得哈里王子做出这样的选择。”哈里和梅根的结合也打破了一系列英国王室的传统，不过黛比表示，她确信戴安娜会对两人破除约定俗成事物的做法予以赞同，而梅根和戴安娜热情温暖的个性也很相似。这位占星家还表示，戴安娜也曾担心过哈里的未来，她害怕自己的儿子在王室生活的限制下，失去其顽皮捣蛋的一面。据海外网早前报道，英国哈里王子与其美国女友梅根·马克尔将于2018年5月19日正式举行婚礼。哈里王子与梅根的婚礼将在温莎城堡的圣乔治教堂举行，婚礼大部分费用由王室支付，英国女王届时将出席婚礼。在美国加州长大的梅根也成为了90年来，首位与英国王室成员订婚的美国人。婚礼过后，她也将成为首位获得“殿下”称号的美国人。本文来源：海外网责任编辑：李天奕_NN7528",
    "URL": "http://news.163.com/18/0103/14/D780ICDL0001875O.html",
    "KeyWords": "哈里王子,姻缘,戴安娜,英国",
    "PublishTime": "01/03/201814:43:49",
    "Title": "哈里姻缘命中注定？戴安娜友人占星家:28年前看穿_网易新闻",
    "Comment": {
        "Content": "马后炮 嗯事后诸葛亮 ",
        "Link": "http://comment.news.163.com/news_guoji2_bbs/D780ICDL0001875O.html",
        "Total": 2,
        "Reply": 2
    },
    "Source": "Netease"
}