{
    "Article": "网易体育12月27日报道：英超第20轮的比赛中，热刺在主场5-2大胜南安普敦，刚刚在不久前当选韩国足球先生的孙兴慜发挥高光，打入一球并助攻两次，一共制造了三个进球，为热刺的大胜立下战功。孙兴慜在德甲的勒沃库森效力期间发挥出色，是球队的主力球员，在球队的三个赛季，每个赛季都能打入10个以上的德甲进球。而在2015年的夏天，韩国人被热刺买入，在白鹿巷，孙兴慜的发挥也是渐入佳境。2015-2016赛季，孙兴慜还只是热刺的主力替补，英超单赛季出战28场，但是仅有13场比赛首发，出场时间为1107分钟，最终交出了4球1助攻的数据。但是在上个赛季，孙兴慜火速崛起，为热刺在英超出战34场，其中23场比赛首发，打入了14个进球助攻6次，他也成为了队内仅次于凯恩与阿里的第三号射手。孙兴慜是一位万金油球员，几乎可以踢中前场的所有位置，这也是其深受波切蒂诺信任的原因之一。在英超第20轮对战南安普敦的比赛中，孙兴慜出任球队的左边翼，灵动的跑位以及不俗的脚法也让其全场闪耀，打入一个进球并助攻两次。比赛第39分钟，阿里在禁区前得球，孙兴慜机敏的往禁区内插，而阿里的传球也随即来到孙兴慜身前，面对着出击的门将，孙兴慜本有射门的机会，但是他却冷静的将球横传到禁区中路，帮助凯恩打空门得手，这个进球显示了孙兴慜的前插意识以及不贪功的心态。第49分钟，阿里凭借个人能力在禁区左侧晃开角度后射门得分，而这个进球也来自孙兴慜的助攻。新科韩国足球先生的表演还没有结束，第51分钟，跑位飘忽的孙兴慜在球场的右侧活动，在禁区内接到阿里的斜传后在禁区内小角度打门得分，这个进球中，孙兴慜精湛的脚法尽显无疑。一个进球两个助攻，孙兴慜制造了三个进球，这场比赛对于他来说可谓完美。在最近的一段时间，韩国人显示出不俗的竞技状态，在最近的六轮英超联赛中，孙兴慜一共制造了七个进球，其中打入4球助攻3次。而在热刺本赛季的主场温布利，孙兴慜过去八次首发出战的比赛中制造了8个进球，打入5球助攻3次。前不久，英国媒体《天空体育》评选出2017年欧洲联赛最强球员名单中，孙兴慜位居第26位，看到如此发挥的孙兴慜，韩国人获得这一排名实至名归。本文来源：网易体育作者：塞尔吉责任编辑：姚成浩_NS4810",
    "Source": "Netease",
    "KeyWords": "孙兴慜,英超,热刺",
    "Title": "GIF-真亚洲一哥!孙兴慜2传1射 6轮英超开挂造7球_网易体育",
    "Comment": {
        "Total": 3136,
        "Content": "范大将军只不过是当时英甲球队的队长，论成就可能还比不上中村俊辅，更别提中田英寿和现在的香川真司 是体制强 哈哈……你是来搞笑的吧，那样的话现在西甲冠军都没有皇马什么事了！！不说还以为是恒大抢了申花的冠军了，还是说恒大上了上港的冠军？？所以说人不要脸天下无敌了，敢情恒大的亚冠也是靠你申花还是上港赏赐才拿到的！！谢谢你们啊！！！！哈哈！！！真是服了！！！ 那你又在哪里看到恒大球迷吹了？！挂着大上海的ip也不少啊，而且吹又怎样了，这么多冠军难道就没有吹的资本，你们不吹是因为你们还做不到而已，要不然更膨胀都有，也不看看上港今年都吹成什么样子了，所以别像个怨妇一样，整天拿恒大说事，现在给你家的俱乐部提提建议看怎样提高点竞争力再说吧，整个楼层都看到是谁在扯皮，就是看不惯你这种怨妇又没本事改变现状的嘴脸！！ 大陆的粪粪就会天天意淫，造谣。 我就问你为什么无缘无故罚下莫雷诺，有理由吗？？ 强行欧冠主力，他也只是弗格森手下常用轮换，孙肯定是亚洲第一人了，单月英超最佳球员，就不是朴这种干脏活累活的后腰型球员一辈子得不到的 一楼拿腚眼看球的吧 可惜了孙兴慜这么好的状态了，过段时间还得去服兵役…… 记住，马克莱莱永远不能和罗纳尔多比 恒大太厉害了，有德国外援郜林斯曼，有横扫英超的球王郑智化，有和圣卡西齐名的圣曾诚，还有正在考虑皇马合同的张莫斯。<br>恒大球员随便一个带球，突破，传球，过人，射门，守门都是世界级的。 恒大太厉害了，有德国外援郜林斯曼，有横扫英超的球王郑智化，有和圣卡西齐名的圣曾诚，还有正在考虑皇马合同的张莫斯。<br>恒大球员随便一个带球，突破，传球，过人，射门，守门都是世界级的。 孙是踢的不错，但你能不能不装逼？你是中国朝鲜族的把，找个毛优越感，恶心人。 中田英寿表示？？？ 暂时来说，还是朴智星第一，不过孙还年轻，很有机会超越。 为什么楼上突然高潮成这样，谁来解释一下？ 又开始吹冠军了，自己冠军怎么来的心里没点逼数嘛？？和申花那场比赛要不是无缘无故罚下莫雷诺，偷走3分，有你恒大什么事？。。 你把三肺放哪。欧冠冠军主力。 不管什么新闻都有傻逼在提C罗，表面看是黑他，实际是在为C罗刷存在感，C罗要是没有你们这帮傻逼天天提天天刷，有几个人知道C罗这种3流球员？ 亚洲历史第一人 3楼这S.B，还信这种脑残谣言，这智商。。。 无论谁都是韩国人。不喜欢棒子，但是不得不服气人家的足球人才！ 又开始吹冠军了，自己冠军怎么来的心里没点逼数嘛？？和申花那场比赛要不是无缘无故罚下莫雷诺，偷走3分，有你恒大什么事？。。 心态也很重要。你看看孙的比赛（别只看集锦和GIF），其实孙在对抗上也占不到特别大的优势，也没有绝对的速度优势（没有姆巴佩那种跑起来后卫追不上那种速度优势），但是他踢球聪明又敢做动作，而且技术也挺全面的，难得的人才 讲道理孙兴民已经比抡空气的C罗强不少了 我觉得是范志毅 上港球迷：武磊去英超完爆孙兴愍！！！[微笑] 孙能踢英超最重要的是对抗跟得上，虽然是韩国人，但是他16岁就加盟汉堡青训，受到欧洲足球的训练方式和思维模式。所以能发现他和其他亚洲球员不一样，他不会像三肺一样做蓝领，也不会像李青龙一样甘当绿叶把射门机会给队友。很多时候他甚至都不会传球给凯恩而自己去选择射门，他完全是一个欧洲人的踢球方式，非常有自我的想法，而不是很多亚洲人去英超给队内大哥打下手 他进的那个球是阿里拿球后他从后场狂奔跑到前锋位置拿球射门的就这个拼劲儿问问国足的那个情况下谁会跑 身体素质不一样，你叫其它亚洲人去踢下英超前锋？？要爆发没爆发，要体力没体力，能踢20分钟算赢 2个亚冠冠军的亚冠联赛没和申花踢过吧。 妈的，我就想问，到底他妈什么时候才去当兵？ 不好意思，至少申花球迷不会吹牛比。。。。。。 恒大是东坑一家，西坑一家，拿的冠军 这么厉害不当兵可惜了 恒大太厉害了，有德国外援郜林斯曼，有横扫英超的球王郑智化，有和圣卡西齐名的圣曾诚，还有正在考虑皇马合同的张莫斯。<br>恒大球员随便一个带球，突破，传球，过人，射门，守门都是世界级的。 你懂球？张稀哲身体就不行。再说了，身体技术缺一不可，单独拿来比较本身就是球盲。能在高强度对抗下保持细腻技术的更厉害。如果单独比技术，你去找花球运动员吧，一小时花式颠球，有屁用？还有，你根据什么得出的结论，张稀哲单比技术强于孙新民？你是随队教练还是球探？靠看集锦？真可笑 哈哈哈，这SB申花球迷笑炸老子了 我们亚洲的骄傲！ 每个人的踢法位置不同，朴打的是中场，就是蓝领。孙的位置更前，攻击力更强。孙能有这么大的上限首先是离不开韩国这个足球土壤，其次是韩国足协自己出资在他十六岁时和另外还有两个韩国球员送去德甲锻炼，最后才能在德甲成长起来在英超创造辉煌。反观中国足协，他们做了什么？中国俱乐部有这么大方放人吗？他们都精于计算，攻于心计，每个人心中都有一个小算盘。有多少个人是真心为中国足球付出？ 懂球的都看得出，其实张稀哲的小技术比孙兴明好，只可惜没能在豪门出场。 韩国人就是比中国人强 三肺朴确实也厉害，但是反复评估，个人还是认为孙兴敏更不容易，综合能力更强一些。 哈哈，不好意思那场比赛我没看，不清楚，不过真的是抱歉啊，如果那个判罚抢走了申花7次联赛冠军和2次亚冠冠军的话！！影响那么大，难怪都对你造成永久性的心理伤害了！！ 韩国烤肉越来越厉害了 过奖了，申花只要集齐四大恶人卡，基本是无敌的状态了！！再加上世界级球王特维斯，谁与争锋？！！[窃笑][窃笑][窃笑] 懂球的都能看出饮水机的小技术比孙兴民好。哈哈哈哈 还不是得服兵役 当日韩球员在欧洲顶级联赛大放异彩时，中国还在让顶级外援带着国家队意淫亚冠斩杀日韩！这差距真悲哀。 这是实话，基本功垃圾 可他16之前受到的他爸的技术训练也是很足的，要不然技术达不到欧洲标准。 孙这次跑位是带了脑子的，从左边跑到右边。武磊的话肯定直线跑，最后撞上前面的凯恩。 冠军那个赛季三肺不是主力吧 不要说那么直白 你是有多恨恒大？ 孙兴慜作为亚洲球员已经足够优秀了，朴智星的成就他还未超越吧。朴智星当年是曼联欧冠夺冠的绝对主力。啥时候我们能出个这么样的呢。 还是亚洲百年一遇的人才，我曾经也派了一批十多岁的留洋！不管谁是亚洲的第一，但都是韩国人，可悲的是10多亿人口啊！ 这个韩国人怎么喷？坐等 韩国球迷真幸福，隔三差五就能高潮！ 武磊会跑，无奈射术太烂[可怜] 可惜了孙兴慜这么好的状态了，过段时间还得去服兵役…… 现役亚洲第一人，我国要是出个这，绝逼被媒体吹上天了！ 懂球的都看得出，其实张稀哲的小技术比孙兴明好，只可惜没能在豪门出场。 不服不行 这货有速度，能射能传能突破，亚洲人没谁了！ 速度力量是基础，亚洲人努力也是可以的，杨晨虽然成就上没他厉害，但也证明了能在德甲碾压式进球 没能力不打下手怎么混 踢得这么好，不去服兵役可惜了 孙是踢的不错，但你能不能不装逼？你是中国朝鲜族的把，找个毛优越感，恶心人。 不得不说韩国人有种 你牛逼在韩国点头哈腰的 我最恶心的就是朝鲜族，在韩国非法打工，丢尽中国人的脸。 车范根应该不会比他差 16岁加盟的是奥格斯堡青训 你说的是没脑子的傻跑 大亚洲也就出这么一个能踢球会踢球还能进球的，日本的也不错，权贵士，冈崎慎司，香川真司都是英超主力，中国足球体制不变不知道要多少年才能出一个能在欧洲主流联赛踢上主力的球员，穷人家的孩子踢不上，富人家的看不上，有钱想踢的资质跟不上。 我们亚洲？呵呵，要点脸吧 你这水军一天不把你爹妈贡献出来艹就浑身难受，草泥马！ 轮换主力比较正确，夺欧冠那年半决赛首发，决赛没有，第二年决赛首发了。 恒大太厉害了，有德国外援郜林斯曼，有横扫英超的球王郑智化，有和圣卡西齐名的圣曾诚，还有正在考虑皇马合同的张莫斯。<br>恒大球员随便一个带球，突破，传球，过人，射门，守门都是世界级的。 三肺说白了也就是个主力替补，真没这个son强 那朴三肺解释一下 嗯，孙兴民是中国人 这SB，朝鲜族去韩国给几百块签证费就能拿到H2五年签证，F4是不想回国的为了长期居留才去考的。 亚洲历史第一人 又开始吹冠军了，自己冠军怎么来的心里没点逼数嘛？？和申花那场比赛要不是无缘无故罚下莫雷诺，偷走3分，有你恒大什么事？。。 是啊，那也是为国家去的，我们的国猪们呢？平均收入在亚洲最高的国足世界杯没出现了吧，甚至连亚洲杯都没出现，最应该为了国家服兵役的是国足！！ 朴智星 上港球迷：武磊去英超完爆孙兴愍！！！[微笑] 点赞 申花黑黑上港就得了，和恒大差距十万八千里，挨的着么 孙能踢英超最重要的是对抗跟得上，虽然是韩国人，但是他16岁就加盟汉堡青训，受到欧洲足球的训练方式和思维模式。所以能发现他和其他亚洲球员不一样，他不会像三肺一样做蓝领，也不会像李青龙一样甘当绿叶把射门机会给队友。很多时候他甚至都不会传球给凯恩而自己去选择射门，他完全是一个欧洲人的踢球方式，非常有自我的想法，而不是很多亚洲人去英超给队内大哥打下手 他进的那个球是阿里拿球后他从后场狂奔跑到前锋位置拿球射门的就这个拼劲儿问问国足的那个情况下谁会跑 我们亚洲的骄傲！ 当日韩球员在欧洲顶级联赛大放异彩时，中国还在让顶级外援带着国家队意淫亚冠斩杀日韩！这差距真悲哀。 羡慕嫉妒恨都不重要，<br>重要的是怎样学学人家，同为东亚人种，学学应该怎样踢足球. 赶紧的去当兵吧，是在世界杯之前吧？ 位置不一样 这么厉害不当兵可惜了 快过年了不要讲笑话了 毕竟一个是中场苦力，一个是前锋，肯定前锋有优势 你把三肺放哪。欧冠冠军主力。 武球王[微笑][微笑][微笑] 民族自卑感太强烈，容不得别人说实话 손흥민역시아시아최고... 前有朴智星后有孙兴慜，看来棒子球员很适合英超 都会跑，就是跑不动，或者跑人堆里面，然后丢球。或者拿球然后回传 有态度网友06nd2H//什么叫非法管理？应该是出入境管理所吧，我看你也是个打工的留学生，赶紧写论文，毕业后回国吧，别在这丢人现眼。 懂球的都能看出饮水机的小技术比孙兴民好。哈哈哈哈 2个亚冠冠军的亚冠联赛没和申花踢过吧。 范大将军只不过是当时英甲球队的队长，论成就可能还比不上中村俊辅，更别提中田英寿和现在的香川真司 孙兴慜年薪肯定高过武磊啊，人家这个水平还是挣的欧元英镑，乘以十再来比 没毛病 这新闻是怎么联系到恒大的。。。 能换个词儿调侃吗？脑子一根筋。 大陆的粪粪就会天天意淫，造谣。 强行欧冠主力，他也只是弗格森手下常用轮换，孙肯定是亚洲第一人了，单月英超最佳球员，就不是朴这种干脏活累活的后腰型球员一辈子得不到的 人家当兵是你定的啊？放心一定会让你失望的 那赢棒子是狗屎运，棒子核心都不在 一大波反韩人士呼吁抵制韩国的太监正在路上 你的思维注定你是垃圾，俱乐部和国家队是不能相提并论的，俱乐部都是外援又怎么样，能拿到成绩就行了，谁在乎有没有本国或者本地球员，国家队就不一样了！但中国国家队谁会期望她能有好的成绩呢？ 三国时期，东吴打不过魏，选择北上阀公孙，开辟高丽，东吴姓什么，自己琢磨 妈的，我就想问，到底他妈什么时候才去当兵？ 呵呵！光有不给人打下手的心就行？ 他俩要是同时代，韩国队就更好看了 中国足球就靠你了 孙是踢的不错，但你能不能不装逼？你是中国朝鲜族的把，找个毛优越感，恶心人。 未来可能是 这意识太强了 4楼真有趣 不可能吧，马上就要打世界杯了 楼主你放心，人家一定会让你这种内心充满嫉妒恨的人失望的。 朴智星没他腻害！ 香川最近有点萎了，但是才到曼联和在多特的时候不比孙兴慜差 这调侃充满了心酸、无望、愤懑、伤心、醋意、眼热<br>楼下继续 对的位置不一样很难比的。。但从当时的曼联实力和现在的热刺比就行了。。不是说什么现在的热刺差三肺时的曼联整队实力差一到二个档无人不服吧。。。能是当年曼联队的常年主力还做过队长的人真是很难想像是亚洲人说真的。。这就可以看出来了。大家都是对当时的球队不可缺少的人。所以三肺是强过孙的 哈哈 为不去当兵而战！ 位置不同，论数据孙是前锋进的球这么多，数据很漂亮 状态这么好不去服兵役不可惜了 哈哈哈 孙在德甲的广告代言就是300欧元，在热刺听说年薪税前800万镑. 你把三肺放哪。欧冠冠军主力。 🇰🇷在世界杯连灭🇮🇹🇪🇸🇮🇩🇬🇷🇵🇹，五大欧洲劲旅及🇹🇬！日本赢的全是弱旅(🇷🇺🇹🇳🇩🇰🇨🇲)！ 孙兴民肯定完爆朴智星阿 亚洲历史第一人 三肺和他挺不好比的，风格不一样。一个是靠技术和射术进球。一个是靠体能和不知疲倦的奔跑当“搅屎棍”，但是都当得上亚洲之光这个称号 所以给他个绳儿，自己勒了算了。 快来入伍 孙能踢英超最重要的是对抗跟得上，虽然是韩国人，但是他16岁就加盟汉堡青训，受到欧洲足球的训练方式和思维模式。所以能发现他和其他亚洲球员不一样，他不会像三肺一样做蓝领，也不会像李青龙一样甘当绿叶把射门机会给队友。很多时候他甚至都不会传球给凯恩而自己去选择射门，他完全是一个欧洲人的踢球方式，非常有自我的想法，而不是很多亚洲人去英超给队内大哥打下手 主要还是实力，把中韩球员摆一排脱衣服比肌肉，估计国足没几个人可以一比 就算有人跑了，会传么 一楼说得没啥错啊，难道哪里不对劲？ 四楼说的有道理，我觉得和郝海东，李金玉弯弓射大雕还略有差距。 中国球员在实况和fifa中寻找存在感。 其实中田和中村都不如马达维基亚 要去当兵了 反正咱们中国人里很多人能从鸡蛋里挑出骨头来，可就是看不见自己的劣势 请专家从姓考证下，是否有中国血统 这么牛逼不去当兵可惜了 比武磊高几倍不止，广告收入就300万欧元 我就想知道，孙兴慜年薪高过武磊？ 难道他还是假亚洲一哥？亚洲之光——孙兴慜 就算有人跑了，会传么 还不是得服兵役 我们亚洲的骄傲！ 类型不一样。加图索和因扎吉不好比 他进的那个球是阿里拿球后他从后场狂奔跑到前锋位置拿球射门的就这个拼劲儿问问国足的那个情况下谁会跑 哦哦，原来如此。孙兴民有东吴血统。 你是傻逼吧？朝鲜族非法打工？只要是朝鲜族想要工作签证都能拿到，还非法打工，，f4签证 韩国猪 傻逼 东半球球王 不当兵可惜了 可惜了孙兴慜这么好的状态了，过段时间还得去服兵役…… 当日韩球员在欧洲顶级联赛大放异彩时，中国还在让顶级外援带着国家队意淫亚冠斩杀日韩！这差距真悲哀。 孙才去英超2年进球数就超越所有前辈了，前峰的影响力不是中场后卫能比的，冠军是可遇不可求的，张稀哲德国杯冠军，孙悦还有NBA总冠军戒指呢，而姚明没有，那孙悦有姚明的影响力吗？ 是体制强 抡你妹，孙什么时候有机会拿金秋？ 每个人的踢法位置不同，朴打的是中场，就是蓝领。孙的位置更前，攻击力更强。孙能有这么大的上限首先是离不开韩国这个足球土壤，其次是韩国足协自己出资在他十六岁时和另外还有两个韩国球员送去德甲锻炼，最后才能在德甲成长起来在英超创造辉煌。反观中国足协，他们做了什么？中国俱乐部有这么大方放人吗？他们都精于计算，攻于心计，每个人心中都有一个小算盘。有多少个人是真心为中国足球付出？ 好有喜感 比荣誉还是比朴差点 这么屌不去当兵可惜了 董方卓有欧冠 拉倒吧，武球王白叫的？郑智好歹还是亚洲足球先生！你这种为了其它目的看球的球盲。 明天到清华文史哲研究学院报道 三肺什么时候成过主力，即便首发出场也是战术要求 第二个散步球也算助攻？ 孙不错的 这个就不好说了，之前国王董不是一样么？孙的身体底子和技术都摆着呢，而且还一口流利的英语能很快融入球队，反正就是一个人能不能打出来，影响因素太多不好评判。 豆腐渣！ 肯定不算，那个阿里已经晃了一个角度打门的。 三国时期，东吴打不过魏，选择北上阀公孙，开辟高丽，东吴姓什么，自己琢磨 朴才退役几年？远古？有朴等于多了一个人在场上，你说能力强不强？能进个球才是能力？那守门员算个屁！ 恒大太厉害了，有德国外援郜林斯曼，有横扫英超的球王郑智化，有和圣卡西齐名的圣曾诚，还有正在考虑皇马合同的张莫斯。<br>恒大球员随便一个带球，突破，传球，过人，射门，守门都是世界级的。 如果孙以现在的水平在那年的曼联，绝对能跻身主力 亚洲第一应该是郝海东吧亚足联不是给予了亚洲第一前锋的称号吗 恒大太厉害了，有德国外援郜林斯曼，有横扫英超的球王郑智化，有和圣卡西齐名的圣曾诚，还有正在考虑皇马合同的张莫斯。<br>恒大球员随便一个带球，突破，传球，过人，射门，守门都是世界级的。 秦升分分钟教他做人 足协搞青训没油水，搞联赛表面看着热闹啊，政绩好嘛。无论是韩国日本还是德国法国，天才扎堆都是十年的时间在做青训，这个才是人家人才爆棚的主要原因。 敲这么多字不怕手机发热💥 他已经超越朴智星了吧，就是跟远古的车范根不知道如何 要是中国的，我能把他吹上天 姓孙的都很厉害，孙兴敏、孙继海、孙悟空 地球的骄傲 强壮的身体，不错的速度，射术精湛，护球也不错，具有很强的冲击力，身体结合球略有些不协调。可惜回国家队就完蛋了，因为那些家伙跟不上孙的节奏，不在跑动中接球，孙就白废，说白这哥们冲起来才可怕。 不骄傲，只是感慨日本韩国主力都在大俱乐部踢上主力了，而看郜林武磊之流踢球令我想笑 关键这孙子不但射门功夫不错，现在传球也很刁钻。 新闻都不想看，因为一想到我们的国家队……唉…… 昨晚酒都没醒，怎么跑 你把三肺放哪。欧冠冠军主力。 朴那批中场退役曼联中场就完犊子了 不管什么新闻都有傻逼在提C罗，表面看是黑他，实际是在为C罗刷存在感，C罗要是没有你们这帮傻逼天天提天天刷，有几个人知道C罗这种3流球员？ 亚洲历史第一人 心态也很重要。你看看孙的比赛（别只看集锦和GIF），其实孙在对抗上也占不到特别大的优势，也没有绝对的速度优势（没有姆巴佩那种跑起来后卫追不上那种速度优势），但是他踢球聪明又敢做动作，而且技术也挺全面的，难得的人才 这两个韩国球员都挺牛....... 请专家从姓考证下，是否有中国血统 上港球迷：武磊去英超完爆孙兴愍！！！[微笑] 孙能踢英超最重要的是对抗跟得上，虽然是韩国人，但是他16岁就加盟汉堡青训，受到欧洲足球的训练方式和思维模式。所以能发现他和其他亚洲球员不一样，他不会像三肺一样做蓝领，也不会像李青龙一样甘当绿叶把射门机会给队友。很多时候他甚至都不会传球给凯恩而自己去选择射门，他完全是一个欧洲人的踢球方式，非常有自我的想法，而不是很多亚洲人去英超给队内大哥打下手 他进的那个球是阿里拿球后他从后场狂奔跑到前锋位置拿球射门的就这个拼劲儿问问国足的那个情况下谁会跑 朴纯论实力不及孙。只不过符合战术意图，纵观曼联历史生涯，朴只是个轮换的角色。 身体素质不一样，你叫其它亚洲人去踢下英超前锋？？要爆发没爆发，要体力没体力，能踢20分钟算赢 🇰🇷在世界杯连灭🇮🇹🇪🇸🇮🇩🇬🇷🇵🇹，五大欧洲劲旅及🇹🇬！日本赢的全是弱旅(🇷🇺🇹🇳🇩🇰🇨🇲)！ 哈哈 咱们不莱梅的张玉宁也是早就去欧洲了啊，一直在那边，号称20岁的发胶代言人，怎么踢得还是像屎一样 郜武二人已经离不开外援了，没有外援在身边这俩人根本心里没底，还指望他们进球。对比下武磊的俱乐部和国家队单刀就明白了，私心太重，两个人很少互相传球，就怕对方盖过自己！ 讲道理孙兴民已经比抡空气的C罗强不少了 三肺欧冠英超都拿过，他不是亚洲人？ 现在肯定是的，3费当时的曼联是4年3决赛的水平的 你懂球？张稀哲身体就不行。再说了，身体技术缺一不可，单独拿来比较本身就是球盲。能在高强度对抗下保持细腻技术的更厉害。如果单独比技术，你去找花球运动员吧，一小时花式颠球，有屁用？还有，你根据什么得出的结论，张稀哲单比技术强于孙新民？你是随队教练还是球探？靠看集锦？真可笑 不是谁会去跑的问题，关键是球商低下，根本就不会跑，往哪线路跑。 亚洲第一 我们亚洲的骄傲！ 亚洲历史第一人 欧冠夺冠那年决赛的大名单都把他排除在外了。。。 懂球的都看得出，其实张稀哲的小技术比孙兴明好，只可惜没能在豪门出场。 🇰🇷在世界杯连灭🇮🇹🇪🇸🇮🇩🇬🇷🇵🇹，五大欧洲劲旅及🇹🇬！日本赢的全是弱旅(🇷🇺🇹🇳🇩🇰🇨🇲)！ 其实朴在埃因霍温的时候和孙是一个位置，只不过到曼联后才变成蓝领的，其实朴的技术并不差 韩国人就是比中国人强 算了吧 有实力就有自信心。 过奖了，申花只要集齐四大恶人卡，基本是无敌的状态了！！再加上世界级球王特维斯，谁与争锋？！！[窃笑][窃笑][窃笑] 一楼拿腚眼看球的吧 武磊 还是小时候基础打的好，个人也有一定天赋 足球永远是前锋地位高。这个真的没办法。进球前锋功劳，丢球后防问题，这也就是为啥金球全是c罗梅西不是小白布冯。 中国球员跟日韩球员真的没法比，中国球员留洋五大联赛能打首发国内的媒体就吹上天，助攻一球更吹到上天了... 横大球迷：呵呵，然而我们有巴甲MVP孔卡和高拉特，你们韩国棒子，有吗？ 呵呵 我只关心暴力鸟...哈哈 质变 还是三肺，毕竟是欧冠冠军主力，热刺和当年的曼联不是一个档次 还亚洲的骄傲，哈哈哈哈，宇宙国第一大前锋 亚洲历史第一人 没有拿到亚洲冠军跟奥运奖牌也绝缘~~ 16岁被韩国足协送去德甲锻炼。 记住，马克莱莱永远不能和罗纳尔多比 垃圾废物 车范根的主要荣誉是两夺联盟杯，不过那时候的联盟杯算是第三级别欧战奖杯，上面还有一个优胜者杯，当然车范根还拿过一次德甲MVP，这一点起码朴三肺还没达到，孙兴愍还要努力。 很难，别说欧冠冠军了，就英超冠军也很难啊，热刺这几年能拿冠军么 是的,2樓說過頭了,09和11件決賽星仔有上但是輸了,08年贏但爵爺把18人名單最后一個給了老臣西維斯特,西維斯特是99年夏加盟的剛好沒份拿對上一次歐冠獎牌,他馬上要走了,爵爺把那板凳給他好讓他有一塊牌.事後爵爺跟記者說挺對不起朴,因為四強淘汰巴薩朴有功勞 这也能扯上恒大？你老婆给你戴绿帽是不是也是恒大的原因？ 不去延坪岛当兵可惜了哈哈 武磊:咱俩拼拼谁能跑到底线！ 说来说去反正都是韩国人！ 厉害 亚洲之光 赛程过半张玉宁还没上场呢 少年强则少女扶墙，少女强则少年平躺。────鲁迅 🇰🇷在世界杯连灭🇮🇹🇪🇸🇮🇩🇬🇷🇵🇹，五大欧洲劲旅及🇹🇬！日本赢的全是弱旅(🇷🇺🇹🇳🇩🇰🇨🇲)！ 傻逼 网易现在怎么这么多你这种💩人 你把三肺放哪。欧冠冠军主力。 韩国有孙兴憨，我们中国有保利尼奥，谁牛还不好说 孙好像国外长大的吧，基本就是黄皮肤的白人 决赛没参加吧？ 朴智星共为曼联出场205次，打进27球，跟随曼联夺得了4个英超冠军，3个联赛杯冠军，2个社区盾冠军，1个欧冠冠军和1个世俱杯冠军。<br>三肺在进攻端还是差的远哈，孙确实历史第一 现在说得是历史第一人，不是能力强不强的问题。 讲道理孙兴民已经比抡空气的C罗强不少了 上港球迷：武磊去英超完爆孙兴愍！！！[微笑] 孙最先是在首尔FC青训，08年才去德国的。 恒大名宿更牛 他进的那个球是阿里拿球后他从后场狂奔跑到前锋位置拿球射门的就这个拼劲儿问问国足的那个情况下谁会跑 🇰🇷在世界杯连灭🇮🇹🇪🇸🇮🇩🇬🇷🇵🇹，五大欧洲劲旅及🇹🇬！日本赢的全是弱旅(🇷🇺🇹🇳🇩🇰🇨🇲)！ 这状态不当兵可惜了 比三肺还是差点，应该说是现役第一人。 这个韩国球员真不错，中国啥时候能出一个。。。。。。 我只想知道他踢英超前六名进了几个球？ 此时此刻，武球王，郜林斯曼全是屌丝！只能让顶级外援带着他们踢日韩俱乐部。 孙能踢英超最重要的是对抗跟得上，虽然是韩国人，但是他16岁就加盟汉堡青训，受到欧洲足球的训练方式和思维模式。所以能发现他和其他亚洲球员不一样，他不会像三肺一样做蓝领，也不会像李青龙一样甘当绿叶把射门机会给队友。很多时候他甚至都不会传球给凯恩而自己去选择射门，他完全是一个欧洲人的踢球方式，非常有自我的想法，而不是很多亚洲人去英超给队内大哥打下手 恒大太厉害了，有德国外援郜林斯曼，有横扫英超的球王郑智化，有和圣卡西齐名的圣曾诚，还有正在考虑皇马合同的张莫斯。<br>恒大球员随便一个带球，突破，传球，过人，射门，守门都是世界级的。 赞踢得好球的球员有天赋，有灵性，有扎实的基本功和超强的个人能力。 无聊 孙兴民跑位，速度，射门技术都有。 我们亚洲的骄傲！ 每个人的踢法位置不同，朴打的是中场，就是蓝领。孙的位置更前，攻击力更强。孙能有这么大的上限首先是离不开韩国这个足球土壤，其次是韩国足协自己出资在他十六岁时和另外还有两个韩国球员送去德甲锻炼，最后才能在德甲成长起来在英超创造辉煌。反观中国足协，他们做了什么？中国俱乐部有这么大方放人吗？他们都精于计算，攻于心计，每个人心中都有一个小算盘。有多少个人是真心为中国足球付出？ 历史第一我不知道现役第一妥妥的 这个棒子可以 厉害(ง•̀_•́)ง 孙有机会超越前辈 三肺朴确实也厉害，但是反复评估，个人还是认为孙兴敏更不容易，综合能力更强一些。 可惜不是我中国人 当前亚洲第一人，历史的话还差远了。慢慢来吧。 我只能呵呵了~~ 小技术比武磊还差点！ 怎么还不去当兵 打心底佩服。 如果他是中国人，应该影响力可以秒杀姚明易建联李娜孙杨丁俊晖等，成亿成亿的代言排队等着，可惜中国足球怎么出不了一个类似水平的球员 国足十二人，球迷😂 朴智星不以为然，老子有欧冠有联赛冠军在手呢，他有吗？ 孙最先是在首尔FC青训，08年才去德国的。 车范根 在武球王面前，还不是渣渣 亚洲一哥是吴磊，都别争！ 去欧洲豪门也可以立足 别给自己加戏了。。 讲道理你说话不太讲道理。 确实厉害，好羡慕人家 首先你都有这个把机会把握住的实力；欧洲青训的人不多？ 好像不是主力吧 无论谁都是韩国人。不喜欢棒子，但是不得不服气人家的足球人才！ 真特么屌，孙兴民 你把三肺放哪。欧冠冠军主力。 别贴金了，当时日韩世界杯，韩国第四，有记者去采访安贞焕，你们取得好成绩，为亚洲争光了，安贞焕回答：我们的成绩只代表韩国的成绩，不代表亚洲，我们是韩国的骄傲，不是亚洲的骄傲，孙兴慜确实是好球员，我也佩服，但是绝对不抱大腿强行贴金 技术流巅峰 可惜了没机会拿亚洲足球先生 武磊害臊吗 孙完全没法和武球王比，飞腿还是直拳武球王完爆孙，我们国家散打队无敌！还有个秦什么的简直就是拳坛骄傲 孙好像国外长大的吧，基本就是黄皮肤的白人 不如孙 亚洲历史第一人 还没服兵役呢 3楼这S.B，还信这种脑残谣言，这智商。。。 这小子什么时候回去服兵役，保管直接废掉。哈哈 朴三废 讲道理孙兴民已经比抡空气的C罗强不少了 上港球迷：武磊去英超完爆孙兴愍！！！[微笑] 你想累死熊猫们吗？ 他进的那个球是阿里拿球后他从后场狂奔跑到前锋位置拿球射门的就这个拼劲儿问问国足的那个情况下谁会跑 不得不服棒子的足球水平和精神意识 没啥吊用，棒子在亚洲连中国都是1赢1输，去了世界杯就是被欧美虐死的命 亚洲一哥是香川真司 不能只看进球和助攻，要看对整合球队的贡献。亚洲历史第一有点过，前三是肯定的。其实也真的分不出123来。比如中田英寿，对整个日本足球的发展贡献还是很大的，韩国的李东国，安贞焕也是一样。论取得的成就，朴三肺肯定第一。 看看别人，再看看国内那些郜林之类，真想不明白有什么颜脸耍大牌装逼！！？？差距何等之大！ 孙能踢英超最重要的是对抗跟得上，虽然是韩国人，但是他16岁就加盟汉堡青训，受到欧洲足球的训练方式和思维模式。所以能发现他和其他亚洲球员不一样，他不会像三肺一样做蓝领，也不会像李青龙一样甘当绿叶把射门机会给队友。很多时候他甚至都不会传球给凯恩而自己去选择射门，他完全是一个欧洲人的踢球方式，非常有自我的想法，而不是很多亚洲人去英超给队内大哥打下手 赞孙兴慜“万金油”本事，踢中前场哪个位置都行。_______本来就应该是这样。 确实，中超基本都是给外援打下手呢 看录像了，踢足球无非就是要配合默契，靠个人灵性，抓机会，抢点，还有要快。我国足的球员没做到，没做好而已。 我觉得如果孙兴民放到皇马给他c罗这样的支持表现肯定比c罗好。 我们亚洲的骄傲！ 还有车范根 三肺朴确实也厉害，但是反复评估，个人还是认为孙兴敏更不容易，综合能力更强一些。 吾有上将武磊，可斩孙兴民 赶紧服兵役去！ 就你嘴巴厉害.你咋不说你比梅西还厉害？ ",
        "Reply": 309,
        "Link": "http://comment.sports.163.com/sports2_bbs/D6LKGIS900058781.html"
    },
    "PublishTime": "12/27/201711:26:47",
    "URL": "http://sports.163.com/17/1227/11/D6LKGIS900058781.html"
}