{
    "Article": "张杰穿黑皮衣开唱劲歌热舞摇滚范爆棚近日《天籁之战》节目组放出一组张杰剧照，照片中张杰穿着黑色外套，戴着墨镜再度霸气开唱，据悉，本期节目中，张杰将挑战说唱，再度尝试川味rap。",
    "Source": "Netease",
    "KeyWords": "张杰,",
    "Title": "张杰穿黑皮衣开唱 劲歌热舞摇滚范爆棚_网易娱乐",
    "Comment": {
        "Total": 246,
        "Content": "永远支持一直喜欢着你到老的粉丝们，男歌手:张杰，非常庆幸和开心让我认识了你，还有你最经典的音乐代表作品（天下）（秋天的童话）（量身订做）（何必在一起）等等永远听不完，无论多少年以后，无论你变成什么模样，我依然永远陪伴你到老的，也祝:我们之间的友谊永远地久天长，不要忘记还有一位你的忠实粉丝哦，张杰我是刘奕含永远爱你呦！哈哈 没人比这人更土 闰土 runtwo 祝福你张杰 告示<br>因会长职位空缺，导致本会各方面工作出现不同程度混乱。经研究，即日起由前任会长姚小笛大美妞同志代理主持本会各项日常工作，直至新会长上任为止。即日始五个工作日内，凡对以上所述有意见者，请及时以书面或口头形式向姚笛国际后援会总部人事部反映。同时也欢迎各方仁人志士竞选本会会长。<br>姚笛国际后援会<br>2017年12月28日 闰土真恶心 怎么看怎么土……就是不洋气 还是土 告示<br>因会长职位空缺，导致本会各方面工作出现不同程度混乱。经研究，即日起由前任会长姚小笛大美妞同志代理主持本会各项日常工作，直至新会长上任为止。即日始五个工作日内，凡对以上所述有意见者，请及时以书面或口头形式向姚笛国际后援会总部人事部反映。同时也欢迎各方仁人志士竞选本会会长。<br>姚笛国际后援会<br>2017年12月28日 恭喜你，马上要当爸爸了！家庭事业双丰收 不说歌咋样。人为什么这么土。比宋小宝都土比王宝强都土 不要整天上头条秀自己，既然已经成为人夫为人父为人家庭主管了，那就好好回家照顾带小孩儿去哇！张杰哈哈 说不上来总之不好看 闰土 工地转转 煞笔！ 就是土 乡土气息扑面而来 闰土 runtwo 祝福你张杰 看到你们都这么说我就放心了 还是土 告示<br>因会长职位空缺，导致本会各方面工作出现不同程度混乱。经研究，即日起由前任会长姚小笛大美妞同志代理主持本会各项日常工作，直至新会长上任为止。即日始五个工作日内，凡对以上所述有意见者，请及时以书面或口头形式向姚笛国际后援会总部人事部反映。同时也欢迎各方仁人志士竞选本会会长。<br>姚笛国际后援会<br>2017年12月28日 不说歌咋样。人为什么这么土。比宋小宝都土比王宝强都土 不要整天上头条秀自己，既然已经成为人夫为人父为人家庭主管了，那就好好回家照顾带小孩儿去哇！张杰哈哈 没人比这人更土 气质这玩意儿是天生的吗 工地转转 煞笔！ 不要啊，大美妞我们一直支持你[可怜] 歌还可以就是娃娃脸 一个被唱歌耽误的西瓜地抓猹小能手 告示<br>因会长职位空缺，导致本会各方面工作出现不同程度混乱。经研究，即日起由前任会长姚小笛大美妞同志代理主持本会各项日常工作，直至新会长上任为止。即日始五个工作日内，凡对以上所述有意见者，请及时以书面或口头形式向姚笛国际后援会总部人事部反映。同时也欢迎各方仁人志士竞选本会会长。<br>姚笛国际后援会<br>2017年12月28日 告示<br>因会长职位空缺，导致本会各方面工作出现不同程度混乱。经研究，即日起由前任会长姚小笛大美妞同志代理主持本会各项日常工作，直至新会长上任为止。即日始五个工作日内，凡对以上所述有意见者，请及时以书面或口头形式向姚笛国际后援会总部人事部反映。同时也欢迎各方仁人志士竞选本会会长。<br>姚笛国际后援会<br>2017年12月28日 闰土真恶心 乡土气息扑面而来 怎么看怎么土……就是不洋气 科普下其实是raintwo哈哈这玩笑没开好把自己坑了 恭喜你，马上要当爸爸了！家庭事业双丰收 永远支持一直喜欢着你到老的粉丝们，男歌手:张杰，非常庆幸和开心让我认识了你，还有你最经典的音乐代表作品（天下）（秋天的童话）（量身订做）（何必在一起）等等永远听不完，无论多少年以后，无论你变成什么模样，我依然永远陪伴你到老的，也祝:我们之间的友谊永远地久天长，不要忘记还有一位你的忠实粉丝哦，张杰我是刘奕含永远爱你呦！哈哈 闰土 就是土 土逼 说不上来总之不好看 ",
        "Reply": 27,
        "Link": "http://comment.ent.163.com/ent2_bbs/PHOTJNM7000300AJ.html"
    },
    "PublishTime": "12/28/201710:30:12",
    "URL": "http://ent.163.com/photoview/00AJ0003/646855.html"
}