{
    "URL": "http://news.163.com/17/1227/15/D6M1C0UO0001899N.html",
    "Comment": {
        "Total": 12586,
        "Reply": 706,
        "Link": "http://comment.news.163.com/news2_bbs/D6M1C0UO0001899N.html",
        "Content": "是的。你完全不开药，谁给你回扣。 算了吧，你们牛！不孕不育，早生贵子。。 现在公立医院怀孕接生有不收红包的吗？做手术有不收红包的吗？当然不会明着要，你要是给了他就好好给你做，你要是不给，几百种办法折腾你。我就见识过，不给红包，当天的手术硬拖到第2天下午，给了后10分钟就能做，不给估计得拖到第三天。说是手术室满人。你没辙。 他算是捅蚂蜂窝了，哈哈！ 谢谢你的勇敢揭露真相！其实医院回扣还在继续，社会上都听说医生回扣已经从公开用信封装钱送医生转移到直接入账个人医生银行账户上！可恨！ 你不是说腐败泛滥咯？那你别去呀，就这么简单。不喜勿喷 实话不能实说 即便这个事情是假的，这样的人有职业道德吗？况且怎么证明是假的 红包不能明给，明给人家不会收的，你傻不拉唧的直接送到人家办公室，人家哪里敢收？要暗送，怎么暗送？比如把钱放检测报告里，检测报告对折下，递过去，医生接手时，你手指在报告上多按几下，眼睛多眨几下，人家都懂了。 有些事只能背里做，不能明着讲。现在好了，等死吧 有时候啊，脑子真是个好东西，可惜这个家伙没有。 劝人学医，天打雷劈！<br>快抢饭碗… 要是有部分医生可以吃回扣而另一部分医生不能，你觉得没得吃的医生可以为你守口如瓶？ 这位负责人称，“龚某确实是在开玩笑。他不是开处方的医生，也不和药发生关系，不可能拿回扣。”<br><br>哈哈，终于承认了，这不是变相承认开处方医生都有回扣吗？这还是白衣天使吗？简直就是吃人不吐骨头的王八蛋。 我哥肝移植，排队等肝源，医生看我哥家有条件治疗，直接开口要红包，这样才给你排队等肝源，给了三万红包，排了一个月配了三个肝才配上做的手术，同病房的几个没钱就在医院保守治疗， 我相信他拿了钱。问题：如果他不拿，这钱归谁？药费会下降吗？ 人家讲实话，自我检讨有什么问题呢？ 那些叫嚣医生工资低的打脸不？ 医院现在还不敢开除他，好尴尬 尼玛。全医院上下不得恨死你…… 亲眼见到过药贩个个科室送信封，明目张胆的。 二楼觉得腐败是最正常不过的 伟大祖国还有不泛滥的地方？ 乌鸦笑猪黑[微笑] 不辞退也会穿小鞋了，小伙子得抓住别人的把柄才能继续混下去 你就是脑残吧，跟你说的有什么关系吗。 劝人学医，天打雷劈！<br>欢迎抢饭碗👏 这会评论里怎么没有说劝人学医，天打雷劈的了呢？呵呵😏这帮孙子怕别人抢饭碗吧 医生工资是低啊，灰色收入也有，不然你让人家喝西北风吗？ 自以为是的你，不说了 2楼这傻B，人人都知道医院腐败拿回扣你也洗？在大上海，一些小病症，医生都推销一些不知名价格又奇高的药品，不是拿回扣谁信？ 劝人学医，天打雷劈！<br>快抢饭碗… 二楼，你得有多下流才会诅咒别人来满足自己？你就不怕别人同样的话回你？ 二楼不得好死，滚出公立！ 查查院长贪污受贿木有！ 这才是对症下药，看患者经济状况不好是不会跟你透露的 冰山一角！ 那你得病自己淘宝买药，优酷学手术，自己给自己开药、手术，谁也不拦着你。。。 在拆哪，说实话的人都得sisi 我是赣州大余的，没遇到你说的，有两个孩子，去年自己割阑尾也没有说遇到拖沓的医生…县里的人民医院 所有院长有屁股干净的么？！ 只不过说了两句实话而已，医院的内幕哪个不知哪个不晓 我相信他拿了钱。问题来了：如果他不拿，这钱归谁？ 一石激起千层浪，处理是要处理，不过医院也是洗不清的 中国大陆医生没有回扣，谁也不信啊！ 二楼脑回路异于常人，天赋异禀啊！看来是头聪明的猪，或者是只WU毛犬 医院是个腐败泛滥的地方！ 继续说，我们医生是弱势群体，我们苦，我们累，医患关系都是病人的错，背地里不都是药品拿回扣，骗医保，就是病人去你介绍的其他医院你们都没有回扣拿。 二楼你这是强词夺理，难道打击腐败在你看是错的？ 尼玛你看你说实话把，别人硬要说你说的是假话。 “他不是开处方的医生，不和药品发生关系，哪来的回扣”拿回扣还要跟药品发生关系[微笑] 说真话的下场 如果你是真的医务人员你的言论真对不起：救死扶伤这四字 我说我们这里的最好的三甲医院医生开一个120块钱的彩超可以拿50块钱提成，竟然很多人不信，真是见了鬼了 脑子进屎，鉴定完毕 建议各路媒体迅速跟进，此新闻绝对有后续。敏感点的纪委部门估计已经在查了 泄漏国家机密。 这丫在中国没前途了 公开的秘密了！ 都是公开的秘密，何必解释，越描越黑 虽然不是每个医生都有回扣拿，但是只要有这种现象，就是医生团队的整体污点，老百姓没有时间和精力去侦查哪个医生收红包拿回扣，所以只要继续有人拿，那正常人都会想一下自己面前的这个医生有没有拿好吧，你说医生大多数没拿到，不能说医生拿回扣，那是你自己立场决定了你的想法，和社会认知是相左的。虽然大家一棒子打死不符合实际情况，但舆论就是这样的。这种事情用道德是没法约束的，只能从体制上，医药分离，杜绝以药养医生，挂号费提高，180一个号（个人负担100，医保负担80），医生和医院按照比例分挂号费，医院不卖药，不设立药房。把医生和药厂的利益链条断开。医生的处方只提供成份名称，具体品牌有消费者自己选。大家基本会选负面新闻少的大厂药吧。医院收入来自挂号费后，要拿这部分钱采购设备，设备的检查费用降低，也不要让医生从检查费中捞油水。但是要让医生的收入足够过上体面的生活，每个月税后收入怎么的也得郊区的一平米房价吧，比如南京20000+。上海30000+，不够就继续提高挂号费用，然后立法药品的配方不受专利法保护，毕竟是救命的东西，就看谁家做的好。像常年需要开药，但是不需要检查的提供开处方窗口，窗口手续费5元自付，用一年内的医生处方存根或医院的记录来拿这个月的药。 现在的社会这么浮躁的？人家小伙子顶着压力讲实话，你就希望别人死？这么好的小伙子就不能盼着点好？ 我身为一个医务人员每次看到网友的评论大部分都说医生怎么怎么坏，不是所有的医生都是这样好吗？如果你觉得医生都是坏的生病自己治疗吧，不用求医生， 二楼，让你见识见识易友的力量 言论不当，行为属实 有些事只能背里做，不能明着讲。现在好了，等死吧 会不会有点困难。。 这是开药品的回扣，不是红包，这算是中饱私囊 用小米的大部分脑子都不大好吧 真的病不起我小孩这个月病了两次都是普通发烧一次花了400多一次花了300多还是有医保的基础上 院长没有躺枪吗 照你那样改革更完蛋，结果是挂号费贵了，药费也没有便宜下来，现在医院大夫都不喜欢开药，甚至希望患者去外面药店买药，因为硬性压药占比导致不敢开药。 瞎说大实话 这个没关系啊，都是按工作量来算。要是什么都不算，还有人工作。到底应该怎么给？ 现在公立医院怀孕接生有不收红包的吗？做手术有不收红包的吗？当然不会明着要，你要是给了他就好好给你做，你要是不给，几百种办法折腾你。我就见识过，不给红包，当天的手术硬拖到第2天下午，给了后10分钟就能做，不给估计得拖到第三天。说是手术室满人。你没辙。 什么医生这么牛逼，能拿税当工资 你让别人怎么办啊 傻呀，喝多了？怎么就实话实说了 现在医生大部分不会收红包，因为不值得，收红包的风险太大，医生的收入结构已经从红包转为提成与回扣了，这部分都在暗中进行，你患者既接触不到又抵抗不了， 省会一级的城市医院还收红包？也不怕被人举报。 说他不是开处方药不能拿回扣的医生挺懂的谁可以真的拿回扣嘛 不辞退也会穿小鞋了，小伙子得抓住别人的把柄才能继续混下去 医院，学校，国企，你们不用否认，大家都懂的 不要严肃处理，典型的好猫，要褒奖。 黑幕曝光 我挡一贯都是秉着实事求是的态度说话和做事，为啥人说真话就要被处理？难道赵高穿越回来了？ 回扣是违法的--- 这是个缺心眼吧 小伙子是在提醒这家医院有回扣！！！ 我上次在医院药房排队取药时候还真遇到一个传说中的医药代表。那人俯下身子小声对取药的医生说，※※药你们要吗，医生愣了愣说这个事你要问医生，那个代表又说怎么找医生，可能是我在旁边的原因，那个医生就拿起电话到旁边去打电话了。 他只是说了实话而已 因个人感情问题恶作剧----------好吧服你 那你得病自己淘宝买药，优酷学手术，自己给自己开药、手术，谁也不拦着你。。。 某些人就是不喜欢听实话。 我是赣州大余的，没遇到你说的，有两个孩子，去年自己割阑尾也没有说遇到拖沓的医生…县里的人民医院 欲盖弥彰 我觉得还说收红包的都是傻逼你见过医闹的有说塞医生红包的？这么大把柄在患者手里医生会安心？倒是有人找关系给一些名医塞钱来给家里人做手术这特么的钱你也好意思叫红包自己托关系找人才请来的医生给你做完手术就成了人家要红包了还不是你自己贱社会上求人办事你特么哪样不花钱 讲真话不可怕，可怕的是掩耳盗铃之徒。 继续捅。把这稀烂的社会炸了 让别人去炸，你来享受胜利果实是吧。 原来人民群众的钱是这样被坑的，小子有钱途 潜规则你拿到明处，别的伙伴肯定很生气 正义的力量！可是WU毛犬只认主子，不认正义 医院是个腐败泛滥的地方！ 狗杂请讲道理，不要光喷，我哪一句讲错了指出来 不会开除的，放心吧。比他分得多的人多了去了，要堵住他的嘴。 “他不是开处方的医生，不和药品发生关系，哪来的回扣”拿回扣还要跟药品发生关系[微笑] 既然是开玩笑的那就学某些人记过处分就行了嘛，干嘛要开除？ 我是医生，前一阵两个孩子发烧打针花了1000，外面药店买药的钱都没算进去 有不拿回扣和提成的大夫吗？ 看溏心风暴的多数是傻逼。 医院给五万，外面开会开刀上课演讲跑勤快一点五六万，再加上各种科研补贴，一个月15-20万，我要你药品回扣几千块？三甲副主任级学术界都是有名气的，都是和药厂合作办各种学术活动的当然你要是把吃饭什么的也算进去那是不止这个价的 说实话是要付出代价的 公开的秘密被公开了 这是公开的秘密，可惜了说真话要倒霉的 即便这个事情是假的，这样的人有职业道德吗？况且怎么证明是假的 有些事只能背里做，不能明着讲。现在好了，等死吧 真的病不起我小孩这个月病了两次都是普通发烧一次花了400多一次花了300多还是有医保的基础上 言论不端，严肃处理。。。[窃笑] 脑袋被门夹的不轻啊 失恋了，蓝瘦，香菇😢😢 这是在变相的拍医改的马屁吗，就没听说过医改后，医生的收入提高的，都是减少了。 人家讲实话，自我检讨有什么问题呢？ 赶紧来抢饭碗，欢迎欢迎 处理的主要原因是泄密 这个地方，需要实话么？ 这绝不仅仅只是一个医生的问题，也不是一家医院的问题，这是一个全国性的严重问题！希望当局能够出台惠及全国人民的就医政策，严厉打击抬高就医费用的全部犯罪行为！ 傻B货，没有脑子 江西老表真的很实在 就你这智商，怎么考上研究生的？！ 尼玛。全医院上下不得恨死你…… 劝人学医，天打雷劈！<br>欢迎抢饭碗👏 真的假不了，假的真不了 这人是废了 那你得病自己淘宝买药，优酷学手术，自己给自己开药、手术，谁也不拦着你。。。 劝人学医，天打雷劈！<br>欢迎抢饭碗👏 一般而言，每月归还的房贷金额不得超过收入的50%<br>按此规定，不虚开收入，很多人即便贷几十年的款，也买不起一年就翻番的房子。 就你这情商，活该被人甩！ 我只想问，这事情是不是真的？ 呵呵 劝人学医，天打雷劈！<br>欢迎抢饭碗👏 这会评论里怎么没有说劝人学医，天打雷劈的了呢？呵呵😏这帮孙子怕别人抢饭碗吧 现在的社会哪还有道德，都烂透了 省市级三甲医院待遇根本不需要收这点红包，更何况收了还有巨大风险，我们这边外科医生现在也不太收了，真的要送都是送点礼品什么的。药品回扣确实有，但现在基本上要副主任以上才有机会，到那种级别其实也不缺钱了，拿不拿无所谓。。 这个和医生有关系么？ 只要说他们不喜欢听的真话，都会说成是谣言或恶作剧！ 瞎说什么大实话呢 WU毛犬就是这样，别跟它们一般见识。倒是它们背后的主子真可恨！！！ 能讲出来的人，都是没得到利益的人。大家也不要围观了，就像马云说他不爱钱，刘强东说自己脸盲一个道理，都是哄屌丝的[大笑] 就你这智商，怎么考上研究生的？！ 二楼，你得有多下流才会诅咒别人来满足自己？你就不怕别人同样的话回你？ 有希望了 悄悄地进村 现在公立医院怀孕接生有不收红包的吗？做手术有不收红包的吗？当然不会明着要，你要是给了他就好好给你做，你要是不给，几百种办法折腾你。我就见识过，不给红包，当天的手术硬拖到第2天下午，给了后10分钟就能做，不给估计得拖到第三天。说是手术室满人。你没辙。 回扣全国沦陷好吧，只不过是上面的人，揣着明白装糊涂！ 祝你全家学医！ 我是赣州大余的，没遇到你说的，有两个孩子，去年自己割阑尾也没有说遇到拖沓的医生…县里的人民医院 劝人学医，天打雷劈！<br>快抢饭碗… 虽然有些事情你知道、我知道、大家都知道，但是表面上还是得装的大家都不知道。你看一曝光傻了吧，估计你心里想的是大家都这样怕个鸟！ 恶作剧，呵呵，我们都懂的 言下之意就是开处方的就有回扣 医院是个腐败泛滥的地方！ 连嘉诚兄都不敢说自己不缺钱！你给介绍下副主任以上的咋就能做到不缺钱了？他们工资一个月多少？ 301《骨科6的张主任》的和武汉协和《耳鼻喉科的女医生》的真没收我们地方的医院给他不拒绝我自己轻生经历不得不说301真的是从上到下透露着正规与和谐别人说他们是君威和尾声部同时发待遇我没去北京真不知道原来看病可以这么便宜和什么叫病人的尊重[微笑]给301和武汉协和点赞 什么加工资，回扣，奖金，各种福利都是严格保密的 现在的医生啊，想象不到的有钱，一年百十万跟玩似的 广东这边珠三角还是比较好的，除此之外，其他地方就不是这么一回事了。不过也看有些医生，年初我爸住院，那医生年纪跟我相仿，就是不肯收，而同在这家医院里当医生的我的发小，自己坦言我爸的主治医生人品好，因为我发小他自己也收红包！ 现在公立医院怀孕接生有不收红包的吗？做手术有不收红包的吗？当然不会明着要，你要是给了他就好好给你做，你要是不给，几百种办法折腾你。我就见识过，不给红包，当天的手术硬拖到第2天下午，给了后10分钟就能做，不给估计得拖到第三天。说是手术室满人。你没辙。 这会评论里怎么没有说劝人学医，天打雷劈的了呢？呵呵😏这帮孙子怕别人抢饭碗吧 说实话有什么错 WU毛犬就是这样，别跟它们一般见识。倒是它们背后的主子真可恨！！！ 我身为一个医务人员每次看到网友的评论大部分都说医生怎么怎么坏，不是所有的医生都是这样好吗？如果你觉得医生都是坏的生病自己治疗吧，不用求医生， 我给你开几种疗效特别好的药，就是有点贵，先给你开1个月的，我给你开张单子，你拿着单子去楼下药房交钱拿药，这药外面买不到的。 恶作剧？太牵强了吧？ 回扣收不收？这还是这个医生自己爆的…… 有些事只能背里做，不能明着讲。现在好了，等死吧 合法么？合法，有什么不端？不合法，为什么不起诉？ 搞急救的能吃药品回扣？你脑子进屎了吧 有时候啊，脑子真是个好东西，可惜这个家伙没有。 网易的医生太多了，只要稍微说医生的一点不好他们就高潮了，收红包还不让说，好像他们一个个的患者家属和医药代表的红包少拿了似的，估计没拿的都是一些没资格拿的，缝混上去了一样拿 回扣够，根本不屑红包这种高风险横财 做医生真好……… （多做好事，必有好报）美攻朝中收台战略对冲平衡（加快发展繁重工作替代性智能机器，不用延迟退休）公司上市后业绩异常下降，依法赔偿遏制骗钱（当务之急大小限减持和再融资要挂钩分红或回购，违则重罚，促进长期良好经营，缓解套现压力）尽快开征股指期货的印花税，才能降低杠杆及高频风险，限制其乱影响股市（基金只有盈利才收管理费，真正为投资者服务）连续2天涨跌停就限仓交易，共同受益，利国利民！ 身为医务人员你更不该发这贴出来⋯你从事的职业是救死扶伤！病人找你是你应该做的用求来说话……你是畜生…… 人家讲实话，自我检讨有什么问题呢？ 120医生没什么处方的，不过就是送病人有讲究能捞点外快。 看来医院一定会杀了这名医生！ 你有医保吗？ 简单说2句。首先，我相信小伙子是反讽，不是什么炫耀。<br>药品提成5500。。那么小伙子收入不会低，但却用个998的小米MAX。可能么？当然，你也许会说低调。<br>医改后，药品零差价，医生收入更低了，怎么可能赚的越来越多？ 病人给的红包，收了，然后直接充到他的医疗卡里。不拿，会担心我们不认真做手术。哎。 一般而言，每月归还的房贷金额不得超过收入的50%<br>按此规定，不虚开收入，很多人即便贷几十年的款，也买不起一年就翻番的房子。 先试试能不能评论 他说错了什么吗？ “他不是开处方的医生，不和药品发生关系，哪来的回扣”拿回扣还要跟药品发生关系[微笑] 目测已没有了 其实就是回扣也正常，哪个行业没回扣？？？？ 说实话的人遭了 人家说的是回扣，你们说红包，回扣是那些药厂销售给的 终生禁止行医 有些人就是这样，人家在医院工作的现身说法用数据讲道理，而他就咬死了医生都收红包却拿不出证据。 2楼这傻B，人人都知道医院腐败拿回扣你也洗？在大上海，一些小病症，医生都推销一些不知名价格又奇高的药品，不是拿回扣谁信？ 这医生谁他妈以后敢用，不光收回扣，而且还爆出来，这是多脑残 我觉得这个医生是为了揭露黑幕作出自我牺牲，以免被医院报复，现在医院只会认为他是个爱炫的傻b…… 为什么实在人都会被穿鞋? 绝对是真的！！！！ 一般而言，每月归还的房贷金额不得超过收入的50%<br>按此规定，不虚开收入，很多人即便贷几十年的款，也买不起一年就翻番的房子。 那你得病自己淘宝买药，优酷学手术，自己给自己开药、手术，谁也不拦着你。。。 就是说开处方的就能拿 我是赣州大余的，没遇到你说的，有两个孩子，去年自己割阑尾也没有说遇到拖沓的医生…县里的人民医院 这个社会容不下说实话的人 只是说了个实话而已，没把他送精神病院就不错了 不给红包？？？嘿嘿嘿，确实不用给。你放心吗？ 说了实话，丢了工作。可惜了，一代读书人！ 神州大地还有净土吗？ 别人回扣拿的比他多的都不得瑟，装逼遭雷劈啊[微笑] 体制内的瞎说什么大实话，拿了💰偷着乐呗这下好了 信吗??? 我孩子出生，我妈做手术，我爸住院这些情况，我从来没给过红包，没见医生护士态度不好，故意拖延这些啊！其他病人也没谁给红包 院方向红星新闻表示，经初步调查，当事医生系因个人感情问题恶作剧。这医院公关幼儿园毕业的吧，能找出这么拙劣的借口。 医院是个腐败泛滥的地方！ 实在啊！ 不作死就不会死！ 我们在讨论医患关系，哪里的野狗跑进来了？ 实话实说的下场[大笑] 因为失恋所以乱说,鬼话 小伙子再爆点黑料吧纪委需要你 实话实说 希望是2017年最后一个大傻逼！真他妈的日鬼了！ 全国才铲工开财务公开要价马上降70% 闷声发大财 实话不能实说 你也信？幼儿园毕业了吗？ 医者和患者都要达成谅解 有时候啊，脑子真是个好东西，可惜这个家伙没有。 闷声发大财，戴眼镜的没教你吗[微笑] 瞎说实话。 言外之意：“若是开处方的医生，和药品发生关系，才有回扣的”！ 骗医保？好像只有病人才这么干吧。介绍去其他医院只要不是莆田系，那也是为病人考虑，何来回扣？再说就是拿回扣又干你什么事？不拿回扣医疗费就便宜了？ 回扣不算贪污吗？两千就可以立案 关键是现在的医生绝大部份都是黑心的，而且1楼说的话也有问题啊，那我可以告诉你，如果你以后觉得很多老师都黑，要红包，那你就不送你小孩去读书了吗？ 医院现在还不敢开除他，好尴尬 检察院必须介入。调查医院。查清事实回应公众。 狗杂喷子，医生公务员网络主播等等都是纳税人，不要以为只有搬砖才纳税 那些说没收回扣的赤脚医生还不出来洗地？ 开除了怕鱼死网破般的爆料 敢说，佩服你 闷声发大财 如果你是真的医务人员你的言论真对不起：救死扶伤这四字 怎么言论不端了，只不过是揭开了某些人仅剩下的遮羞布而已!医改改了谁?富了谁? 已经混不下去了 我承认不是所有医生都这么干，你摸着自己的良心说说这么干的医生少吗?讳疾忌医说的是你们吧！ 母亲患病以后的这一年见过太多好医生坏医生了，一个医生是好是坏，医术和德行是成正比的，遇到的好医生都是德才兼备。所以我非常感谢上海的吴小华教授，我母亲可能只是他千千万万病人中的一个，而我却只有这一个妈妈，谢谢吴小华教授。 还是研究生毕业，真是天晓得，没脑子的人当医生，不要把病人给吓坏了 除非你说的是实话。 “药品”是个女孩子，“回扣”是个BB 智商 我身为一个医务人员每次看到网友的评论大部分都说医生怎么怎么坏，不是所有的医生都是这样好吗？如果你觉得医生都是坏的生病自己治疗吧，不用求医生， 丁丁当当 27日，院方向红星新闻表示，经初步调查，当事医生系因个人感情问题恶作剧。——————————这个理由清新脱俗，好！ 闷声发大财 难怪乙肝攻克不了 泄密，必须严惩！ 傻逼 一定要和药品发生性关系才算！！ 故意的吧。 仔细看看，就是开玩笑说的 “他不是开处方的医生，也不和药发生关系，不可能拿回扣。”那么背后和药发生关系的开方医生呢，情况又如何？ 我觉得医院不应该处理他，处理他是因为领导们心虚了吧？这么说话引来调查组就傻了。[微笑][微笑] 院前120是最低级的做的，自己是拿不到什么药品回扣的 继续说，我们医生是弱势群体，我们苦，我们累，医患关系都是病人的错，背地里不都是药品拿回扣，骗医保，就是病人去你介绍的其他医院你们都没有回扣拿。 尼玛你看你说实话把，别人硬要说你说的是假话。 “他不是开处方的医生，不和药品发生关系，哪来的回扣”拿回扣还要跟药品发生关系[微笑] 日期9月6日，卧槽 医生，老师，警察，这些美好的职业，，，， 坏了规矩你还怎么在医院混？ 揭了医生界的底，必须严肃处理，否则众医护人员还怎么过 是的。你完全不开药，谁给你回扣。 现在公立医院怀孕接生有不收红包的吗？做手术有不收红包的吗？当然不会明着要，你要是给了他就好好给你做，你要是不给，几百种办法折腾你。我就见识过，不给红包，当天的手术硬拖到第2天下午，给了后10分钟就能做，不给估计得拖到第三天。说是手术室满人。你没辙。 小伙子是好人。 不能说实话 地球的职业你们火星人就不要操心了，连个网名都没整明白，点你痛处了？只能说活该！狗人！ 有多远滚多远，闭好你的肛门，点到你痛处了？装几把火星人？草！ 不给红包？？？嘿嘿嘿，确实不用给。你放心吗？ 即便这个事情是假的，这样的人有职业道德吗？况且怎么证明是假的 孩子在临沂人民医院产三科出生，从产检到剖腹分娩一直都是由一位年龄五十左右到主任医师负责。一分钱红包没给。人家态度也特别好，整个生产过程都很和蔼负责。别把所有医生都想象那么坏。还有楼上，正因为你这种奴性心态的人太多，才了整个社会不良风气，何止医院？还有学校等各种机构部门.....搞得有些有良心的人不收红包都觉得对不起你的智商 大家暂时可以安心了，这个理由还是比较硬的，应该可以混过去。风头过去了再说，大家引以为戒~~~ 小伙子发的两条微博里，好多人看到的是他又领了五千多回扣，可是在我看来这不是重点，重点是这句话:医改后，我们要赚翻了！ 全世界的人都知道是实话实说，只有你们定性为恶作剧，你们说了算你们赢了 要是有部分医生可以吃回扣而另一部分医生不能，你觉得没得吃的医生可以为你守口如瓶？ 一楼做的什么高尚职业说出来让大伙膜拜一下？ 我相信他拿了钱。问题：如果他不拿，这钱归谁？药费会下降吗？ 主管药品采购的领导，拿回扣自认天经地义。 我以为我是你爹，点到你痛处只能说活该。狗逼！ 人人都知道的事，你非摆面儿上， “他不是开处方的医生，不和药品发生关系，哪来的回扣”大实话啊…… 桂林灵川保健院，生小孩还真的没见过收红包的，我家几个表姐都生几个小孩了也没有给过红包 经初步调查，当事医生系因个人感情问题恶作剧。院方负责人表示，当事医生仍在停职中，将会严肃处理。-------------我差点就信了！ 27日，院方向红星新闻表示，经初步调查，当事医生系因个人感情问题恶作剧。——————————这个理由清新脱俗，好！ 明显开玩笑的话怎么就涉及职业道德了 没见过?,.... 福建省延平区产科医生是魔鬼转世，可能产妇没给红包就态度恶劣，听说她孩子出车祸快死了。 有些玩笑不能开，开了就把自个开死了…… 一个不尊重老师，医生，警察的社会，喷子屌丝以为自己是什么东西啊？最应该修理的就是这些狗喷子。 不立案受贿的事情，却处理“言论不端”，好奇怪 是恶搞还是实情，是个问题！ 福建省南平市延平区第一医院产科医生就是产妇没给红包态度恶劣，听说她孩子出了车祸快死了。 医生和教师是腐败的重灾区，可惜没人管 真假明知，医院不要再胡来了 一个优秀的共XXX，一个实事求是的人 你直接说中国没希望多好，卫生教育公安全骂，你以为你是什么东西。 现在真没好医生包括那些牛逼闪电的护士和前台导诊，态度不好没耐性不说，还糊弄事，拿个破设备照一下几秒钟就收百八的说治疗费，能用不能用的药都给你开了。一个医生一个老师一个警察，真该好好修理一下。 你作为事业编制的医务人员没权力用威胁和恐吓的手段，用颐指气使和居高临下的口气给你的顾客，也就是上帝这么说话 言论不端，将严肃处理 有处方权的医生才能吃回扣？你信不信？要是真的话那被人捅破是迟早的事，只有大家都有得吃才会没事。 真的拿回扣的医生才不会把这些发上网呢 混不好就黑同事黑同行，这么低智商的傻比是如何怎么毕业的？ 没想一下为什么会是这样吗？哪个行业不是？连个推销的都要回扣，不给没人干 南昌市第二医院相关负责人认为，龚某发表的这些不端言论已给医院形象及整个行业造成极大负面影响，“建院（1950年）以来，都没有发生这样的事。”——————————也就是说，1950年以来没人说真话 我知道我身边的朋友在医院做手术，一般都会给主刀医生送红包，他们说送的钱不会亏，不然医生会给你开大量的高额检查费，手术时间也会一拖再拖，多的钱都会花出去。 这事还能说？确实是处事不端不处分你难平众努啊 我是赣州大余的，没遇到你说的，有两个孩子，去年自己割阑尾也没有说遇到拖沓的医生…县里的人民医院 贼喊捉贼！他只是动了你们的蛋糕而已！ 同邵阳县的，第一人民医院，我老婆第一胎，八斤的闺女，医生叫我们放心，顺产的，根本没有1楼说的红包！办出生证明时没盖章，几十号人在等那个主任送章，那个主任怀孕8个多月了，别人还大老远的送来的，从一人民医院老地址送的，路程最少半小时，大过年加中午，根本没你们说的摆架子！ 医院是个腐败泛滥的地方！ 不开方子，医药代表怎么会理你？ 开了 这头医生受处分是因为它说了实话！ “他不是开处方的医生，不和药品发生关系，哪来的回扣”拿回扣还要跟药品发生关系[微笑] 说真话的下场 是不是太少了 没事不要作死，无论真假，你都让领导没面子了 "
    },
    "Article": "（原标题：江西一医生晒5500元回扣院方:言论不端，将严肃处理）日前，江西省南昌市第二医院一医生发微博称收到5500元药品回扣。此事经网络迅速传播，引发热议。26日，当事医生删除“回扣”微博，并澄清称当时发微博是因“失恋心情不好”。27日，院方向红星新闻表示，经初步调查，当事医生系因个人感情问题恶作剧。院方负责人表示，当事医生仍在停职中，将会严肃处理。龚某曾发微博晒回扣2017年9月6日下午18时52分，网友@Tao韬GT通过个人账号发布了一条微博：“今天又领了5500元药品回扣，好开心，又可以买东西了，做医生真好……”同时，晒出一张手持多张百元钞票的照片。近日，这则微博被网友“揪”出，引发关注。@Tao韬GT微博基本信息显示，其系南昌市第二医院医生。27日上午，南昌市第二医院相关负责人向红星新闻证实，@Tao韬GT是该院肛肠科龚某，“经初步调查，那段时间，他因为个人感情问题（失恋），就搞了恶作剧。他不是开处方的医生，不和药品发生关系，哪来的回扣。”同时，该负责人也否认了院方拿回扣的说法。龚某12月26日晚，龚某承认，“当时失恋，心情不好，抑郁……所以发了那个微博发泄情绪……找骂。当时发完后，3个月都没人评论，以为不会看的，所以就没管。谁知今天被翻出来了，郁闷。自作自受。红星新闻注意到，龚某的“大胆”言论并非仅此一例，在他发布晒回扣微博3天后，他曾称，“医改后，我们要赚翻了，太棒了，好开心，门诊量越多，我们工资越高，哈哈哈，我的宝马车马上到了，好激动。”南昌市第二医院相关负责人认为，龚某发表的这些不端言论已给医院形象及整个行业造成极大负面影响，“建院（1950年）以来，都没有发生这样的事。”在龚某的微博相册中，红星新闻发现，其于2013年毕业于江西某中医药大学。南昌市第二医院告诉红星新闻，龚某2013年研究生毕业后进入该院工作，“在肛肠科待了几个月后，2014年5月，被派往120驻点，从事急救工作。”龚某发微博道歉这位负责人称，“龚某确实是在开玩笑。他不是开处方的医生，也不和药发生关系，不可能拿回扣。”他强调，院内处分共有8条，从警告到解聘不等，“龚某仍在停职中，医院会严肃处理他，但具体如何处分，还在讨论。”目前，龚某已将微博名称改为“溏心风暴tvb”。昨晚至今，他连发4条微博反悔自己的言行，“我整个人不在状态，天塌了一样。不想让父母知道我的傻事，不想让他们担心……我认识到自己的错误……不管以后做什么工作，我都会以成熟、理智、积极向上的心态去面对，这个教训我会铭记一生。”本文来源：红星新闻责任编辑：张海桐_NN9053",
    "KeyWords": "药品,肛肠科,微博,医生",
    "Source": "Netease",
    "Title": "江西一医生晒5500元回扣 院方:言论不端 严肃处理_网易新闻",
    "PublishTime": "12/27/201715:11:30"
}