{
    "URL": "http://news.163.com/17/1227/13/D6LRRDLL00018AOQ.html",
    "Comment": {
        "Total": 75,
        "Reply": 15,
        "Link": "http://comment.news.163.com/news2_bbs/D6LRRDLL00018AOQ.html",
        "Content": "貌似我还是没听过中国火车脱轨新闻， 女人还劈腿呢，何况火车出轨呢！哈哈 怎么不派航母去接回来啊？别忘了带小旗子 与正常世界脱轨了啊 胶东那么严重的出轨，以前更多 不能评论吗？ 做个调查物，价油价房价上涨感觉生存压力越来越大的点支持 黑暗所以没有报道出来 呼叫吴远诛 貌似我还是没听过中国火车脱轨新闻， 不能评论吗？ 胶东那么严重的出轨，以前更多 .......tuile 黑暗所以没有报道出来 欧元区列车正加速脱轨! 呼叫吴远诛 女人还劈腿呢，何况火车出轨呢！哈哈 广东持续暴雨致京广线多趟旅客列车停运. 怎么不派航母去接回来啊？别忘了带小旗子 与正常世界脱轨了啊 接壤的国家不远，远的才诛 做个调查物，价油价房价上涨感觉生存压力越来越大的点支持 我要去法国.求延误.求滞留. 专业办理去法国后延误.滞留.定居。打钱。 "
    },
    "Article": "（原标题：俄罗斯列车脱轨致中国旅客滞留官方称保障必需品）中新网12月27日电据俄罗斯卫星通讯社报道，俄罗斯外贝加尔铁路公司发言人向媒体表示，跨西伯利亚大铁路外贝加尔地区货运列车当地时间12月26日脱轨，北京—莫斯科客运列车旅客因此滞留希洛克火车站，他们的所有必要需求都可得到保障。此前，俄罗斯铁路公司发布消息称，跨西伯利亚大铁路外贝加尔段发生货运列车16节车厢脱轨事故，该段列车已经停运，北京—莫斯科客运列车被迫滞留。俄罗斯交通调查委员会东西伯利亚调查局发布消息称，12节车厢脱轨。目前正在展开调查，列车已双向停运，正在展开恢复工作。发言人对卫星通讯社表示：“北京—莫斯科列车上共计有130名旅客，其中包括4名儿童。车厢内维持着必要的温度和饮食条件。第19次列车停靠在希洛克火车站。”据铁路工作人员介绍，目前很难说要滞留多长时间。跨西伯利亚大铁路是复线铁路，每个方向都只有一条铁道。发言人表示，滞留的火车客车还有2列，分别是第7次新西伯利亚—符拉迪沃斯托克和第100次符拉迪沃斯托克—莫斯科。据俄罗斯紧急情况部外贝加尔边疆区分局局长称，该局救援队和希洛克消防队已前往事发地点。为恢复事故造成的影响，从希洛克、乌兰乌德和赤塔三个火车站向事发地点派出了三辆修复火车。本文来源：中国新闻网责任编辑：王征_NN7526",
    "KeyWords": "俄罗斯,铁路,莫斯科,旅客",
    "Source": "Netease",
    "Title": "俄罗斯列车脱轨致中国旅客滞留 官方称保障必需品_网易新闻",
    "PublishTime": "12/27/201713:30:00"
}