{
    "URL": "http://news.163.com/17/1228/22/D6PC4P3K0001875P.html",
    "Article": "（原标题：【信报调查】年轻女子被一男子暴抽一旁还有数名黑衣男子围观）#endText.video-infoa{text-decoration:none;color:#000;}#endText.video-infoa:hover{color:#d34747;}#endText.video-listli{overflow:hidden;float:left;list-style:none;width:132px;height:118px;position:relative;margin:8px3px0px0px;}#entText.video-lista,#endText.video-lista:visited{text-decoration:none;color:#fff;}#endText.video-list.overlay{text-align:left;padding:0px6px;background-color:#313131;font-size:12px;width:120px;position:absolute;bottom:0px;left:0px;height:26px;line-height:26px;overflow:hidden;color:#fff;}#endText.video-list.on{border-bottom:8pxsolid#c4282b;}#endText.video-list.play{width:20px;height:20px;background:url(http://img1.cache.netease.com/video/img14/zhuzhan/play.png);position:absolute;right:12px;top:62px;opacity:0.7;color:#fff;filter:alpha(opacity=70);_background:none;_filter:progid:DXImageTransform.Microsoft.AlphaImageLoader(src=\"http://img1.cache.netease.com/video/img14/zhuzhan/play.png\");}#endText.video-lista:hover.play{opacity:1;filter:alpha(opacity=100);_filter:progid:DXImageTransform.Microsoft.AlphaImageLoader(src=\"http://img1.cache.netease.com/video/img14/zhuzhan/play.png\");}if(/(iPhone|iPad|iPod|Android|NETEASEBOBO|blackberry|bbd+)/ig.test(navigator.userAgent)||/safari|chrome|firefox/i.test(navigator.userAgent)&&navigator.plugins&&!navigator.plugins[\"ShockwaveFlash\"]){varstr1='<videocontrols=\"controls\"preload=\"auto\"width=\"100%\"poster=\"http://vimg3.ws.126.net/image/snapshot/2017/12/Q/3/VD5RI9SQ3.jpg\"style=\"max-height:100%\">';varstr2='<sourcetype=\"video/mp4\"src=\"http://flv.bn.netease.com/videolib3/1712/28/CMNHq0414/SD/CMNHq0414-mobile.mp4\">您的浏览器暂时无法播放此视频.</video>';document.getElementById(\"FPlayer1404863609673\").parentNode.innerHTML=str1+str2;}年轻女子被一男子暴抽一旁还有数名黑衣男子围观（来源：~）window.NTES&&function(d){varf=function(c){varb=c.getAttribute(\"flashvars\"),a=c.getAttribute(\"repovideourl\").replace(\".flv\",\"-mobile.mp4\");h=d(c.parentNode.parentNode.parentNode),g='<embedsrc=\"http://v.163.com/swf/video/NetEaseFlvPlayerV3.swf\"flashvars=\"'+b+'\"allowfullscreen=\"true\"allowscriptaccess=\"always\"quality=\"high\"wmode=\"opaque\"width=\"100%\"height=\"100%\"type=\"application/x-shockwave-flash\"/>';if(/(iPhone|iPad|iPod|Android|NETEASEBOBO|blackberry|bbd+)/ig.test(navigator.userAgent)){g='<videocontrols=\"controls\"preload=\"auto\"width=\"100%\"height=\"100%\"><sourcetype=\"video/mp4\"src=\"'+a+'\">您的浏览器暂时无法播放此视频.</video>';}h.$(\".video\")[0].innerHTML=g;},e=function(b){vara=d(b.parentNode.parentNode.parentNode);a.$(\"li\").removeCss(\"on\"),b.addCss(\"on\"),a.$(\".video-title\")[0].innerHTML=\"string\"==typeofb.textContent?b.textContent:b.innerText,a.$(\".video-title\")[0].setAttribute(\"href\",b.getAttribute(\"url\")),a.$(\".video-from\")[0].innerHTML=\"（来源：\"+b.getAttribute(\"source\")+\"）\",f(b);};window.continuePlay=function(){vara,b=d(d(\".video-list.on\")[0].nextSibling);3==b.nodeType&&(b=d(b.nextSibling));if(b&&d(\".video-innerinput\")[0].checked){e(b);}},function(){vara={init:function(){if(d(\".video-listli\")[0]){d(d(\".video-listli\")[0]).addCss(\"on\"),this.eventBind();}},eventBind:function(){d(\".video-listli\").addEvent(\"click\",function(b){e(d(this)),b.preventDefault();});}};a.init();}();}(NTES);信息日报客户端报道：12月27日晚间，微博上一则“年轻女孩被一男子暴打”的视频在社交网络上迅速传播，在视频中，一名看上去很年轻的女子蓬头散发，被一白衣青年用皮带暴抽几十下，在女子哭喊声中，该青年一边用地抽打她，一边飙着带地方口音的脏话，“给劲吗？”“刺激吗？”“你知道我啥脾气”……随后，青年又转向屋内的另一名穿着黑色上衣的女子，说了句“老妹”，然后又拿皮带暴抽这名女子。记者注意到，屋内还有第三名女子，中长发，着蓝衣。屋子内陈设有白沙发，白被子，白墙上挂着红双喜。此外，在青年暴打女子之时，旁边靠门处，数名黑衣男子无动于衷，仿佛在围观看戏。发帖网友：事发地点不详希望警方彻查信息日报客户端记者注意到，该微博的发布者系微博网友@澎湃之音，他发帖称：“这名女子疑似被非法拘禁，在房间内遭一男子暴打，旁边的数名男子无动于衷。求扩散，严惩施暴者！”此外，据澎湃之音介绍，微博中的视频是转发网友@沈城还暖的秒拍视频。视频一经发布，就引来众多网友转发，有网友提出，视频中青年的口音似乎是东北、山东地区的，希望转到当地警方介入调查。@人生中一丶小白留言：可能是传销，也可能是被拐卖的！希望知情人和警方取得联系！！网友@用户5599430184等则@公安部打四黑除四害@公安部刑侦局@中国警察网，希望引起公安部门关注。视频上传者@沈城还暖称：这个视频是今天晚上一个网友发来的，他是在网上看到，详细情况也是不了解，所以让我发到微博上。希望相关部门介入调查。该视频在另一平台上配文“抓奸现场”网友：不像出轨12月28日早，记者在百度平台上看到了同样的视频，自媒体@秦岭二月于昨日下午17时33分在微博、百度等平台发布了这则视频，视频简介是“小小年纪玩出轨，遭捉奸后女的被打惨了，这对白亮了”。但这遭到了不少网友的质疑——“这不像出轨，倒像是一个团伙把这些女的控制住了”。网友质疑这些年轻女子被非法拘禁，可能是被迫卖淫或陷入传销团伙，即便不是，如此暴打，也违反法律。截止28日上午10时许，百度平台上发布的这则视频评论数已超过6000余条。记者随后私信发布者@秦岭二月，询问这则视频的最早出处。@秦岭二月告诉记者，这是一个视频群发的，我问发视频的人了，具体情况他也不知道。“这个视频发了后，群里最大的议论是听不懂的方言，好像有亮点，我随手发看，群里分享时的‘视频简介’就是这个(女孩出轨遭捉奸)”。记者了解到，目前，山东省淄博公安局官方微博@淄博警方已注意到此条微博，并联系上发帖博主，询问视频发生地点，“请您向该网友确定该视频所录事件的确切发生地，公安机关办案要根据属地管辖原则。”本文来源：信息日报责任编辑：赵亚萍_NN9005",
    "Source": "Netease",
    "PublishTime": "12/28/201722:17:30",
    "KeyWords": "出轨,抽打,暴力,捉奸",
    "Comment": {
        "Content": "据说这是造谣贴，警方正在搜捕贴主 广东的表示没看到有拒绝招工四川人的[微笑] 山东人表示没看到什么拒绝四川人的 不好意思，不玩地域，实事求是，如果我没记错，地域这个概念最早就是从四川开始的，N多年以前，深圳很多公司明文规定，招工绝不用四川人… 别说了，丢人！少帅面儿挂不住……[大笑] 你要这样说丢下老婆女儿给日本人的是哪里的人？最后那个地方的人出粮出人去打的内战东北军装备比日本人还好最后要拿火药枪的四川人帮你们打回去？你有脸？ 这些都是不在家帮父母种地，非要跑到城市又好吃懒做的小摇子，没钱买药咋办啊，就去舞厅让人家捏扎，10块钱一首曲，再发展发展就去KTV里边坐台3小时200。厕所干完多加点，出台就500-1000。。然后赚了钱拿回去给她们的对象花。。也是村里跑出来冬天还露脚脖子的。。。哎呀反正在我们这，这类人都叫老倒子。 东北三个省加起来有四川人多吗？为啥网上不黑四川人？心里没点逼数吗？四川人出来打工就踏踏实实的打工，工地上一群四川人，你们东北人吃的了这个苦吗？ 我在三亚，对东北人是真的烦 一句老妹，懂了一切！ 四川人表示这个锅背不动啊。 我会持续关注此次事件，请大家多多关注，给受害者讨一个公道。 东北沦陷了吧 下手这么重，把人打成这样，我好心疼 天津的表示没看到拒招四川人的 你提四川人干啥？哪个省没打工的人？ 弱弱的问一句，杀害夜跑女教师的退伍兵是哪的？ 福建表示也没看见拒招四川人。东北卵子瞎喷，挺四川[大笑] 四川人为人热情善良，特别是对待外地人，不信来一次四川就知道了。居然会被黑，真是眼瞎。感谢楼上所有挺四川人的朋友，谢谢拉！！！ 打脸了东北人 看了视频，一股气在腹中翻滚，那一声声的CNM,那噼里啪啦的皮鞭声仍旧在我耳边环绕，如果让我遇到这种事情，不管女孩是否有错，我都要让那皮鞭的B崽子付出代价，凌迟都不足以平复我的愤怒。 哎老妹会啥活啊 北京的表示没看到拒招四川人的 河北的表示没看到拒招四川人的 这女的要是有兄弟，能把这伪爷们儿前列腺打到喉咙里 山西的表示我们这边招工还喜欢招四川人，反而不喜欢用本地人，因为干活没四川人踏实。 一看就知道是强迫卖淫[微笑] 呵呵 人渣太多，如果一人在外一定要多加小心 江苏的没有看见拒招四川人 听口音是那旮瘩的！应该是从事非法皮肉生意！女孩不愿做！惩罚那女孩~警察应该主动查一查处理这人渣！ 江苏的表示没看到有什么拒绝招工四川人的。 东北口音，又在逼良为昌吧，不怪全国人民声讨你们 福建的表示没看到有什么拒绝招工四川人的。 被骗卖淫的 你这编的好不用东北和河南是真的四川没听说过东北人也是醉了被黑就被黑嘛还拉四川人下水你们在全国人民心中什么逼样没电逼数么？快手 江苏人表示最喜欢四川工人，吃苦耐劳不请假 我最北边到北京还没去过东北，此生是不愿意去了~ 此生无悔入暴漫 难得一见的力挺四川的。不过要说怕老婆几乎中国男人也怕，疼老婆让老婆，话说耙耳朵倒是从那里出来的！ 四川人很老实本分的 干点正事吧，警察同志，逮到这打人的狗垃圾，让他做几天监狱 上海没看到拒绝招工四川人的 面对不公，如果今天你无动于衷，明天就轮到你自己了！ 汕头的表示没看到拒招四川人的 我去四川宜宾找同学玩时，当地人都是这么叫年轻小妹的，“老闷儿”，同学还笑我学的不像。 第一狗仔卓伟爆出鹿晗与关晓彤酒店嘿嘿嘿完整版<br>不要费用看（HLWGGLm。CoM）直接复制就行 太假了，那皮带擦着头发就过去了，要真是被皮带狂抽，那女人的手和脸早就又红又肿了，被抽的女人，脸和手背都没有一点红肿的迹象 太赤鸡了 上海的表示四川的保姆阿姨最受欢迎，做菜好吃人勤快 你个瓜皮，骂东北的非要带上河南！四川男的就是瘪三，都靠女的养！ 另外还有黑衣服姑娘，长头发姑娘，至少是三个姑娘在屋里，出什么轨一个屋那么多个年轻姑娘？ 东北三个省加起来有四川人多吗？为啥网上不黑四川人？心里没点逼数吗？四川人出来打工就踏踏实实的打工，工地上一群四川人，你们东北人吃的了这个苦吗？ 一句老妹，懂了一切！ 打的这么狠，还是人吗？ 东北老爷们真带种 四川人点操各种东北装逼篮子 不敢点开视频，就直接进来看评论了 据说这是造谣贴，警方正在搜捕贴主 听口音是东北人[不屑]可怜的女子 第一狗仔卓伟爆出鹿晗与关晓彤酒店嘿嘿嘿完整版<br>不要费用看（HLWGGLm。CoM）直接复制就行 找存在感！ 不吹不黑，在这边跟东北人接触多了就不怎么喜欢那边人，做事不怎么样嘴炮功夫倒了得…… 绝对真实 老妹，给劲不，给劲就双击66 东北人最切、最黑、纯粹是人渣、必须严惩凶手 复制eeQwhv04pj然后打开支付宝.自动跳出红包.领去吧.星期六星期天红包翻倍哦[强][强] 绝大部分四川人在外地打工确实踏实！印象好！除了一部分彝族人！ 川军爷们，东北人，算了吧 这个到是，我自己都承认有些人太能吹，我在自己老家吉林也都被嘴炮忽悠了几回，不过那个地方到底还是好人多一点，碰到忽悠人的，也碰到很多实在人。 四川人为人热情善良，特别是对待外地人，不信来一次四川就知道了。居然会被黑，真是眼瞎。感谢楼上所有挺四川人的朋友，谢谢拉！！！ 警察是血肉之躯，不是万能。 哪都有好有坏，但是四川比东北的强多了！ 全国人民没有问题啊，分离你们出去，你们就等着吃粑粑吧 没看到完整视频，不清楚情况。 好好好给你道歉 复制eeQwhv04pj然后打开支付宝.自动跳出红包.领去吧.星期六星期天红包翻倍哦[强][强] 咱东北的石油、煤炭、矿产资源和产粮足够养活自己了用不着吃你爹 你可以不养啊！ 我觉得能及时问问应该是很尽责的，不要以偏概全。希望，网警能迅速查到第一发视频的人，当面询问视频来源。 以其人之道还治其人之身，鞭刑至残疾，就好，别弄出人命。 你不要管。 到了年关。各单位要考核了吧。这事件发生在哪个地区，这个地区相关部门要减分了吧 警方再次，打人者势力再大，警方也不会掩盖这么缺德事 他说你你别带别的地狱OK 复制eeQwhv04pj然后打开支付宝.自动跳出红包.领去吧.星期六星期天红包翻倍哦[强][强] 这是哪个傻逼求人肉，有种找个男来练练打个女的懦夫！祝他全家都死绝 厉害了 警察牺牲，就不管了。 淄博警方已注意到此条微博，并联系上发帖博主，询问视频发生地点，“请您向该网友确定该视频所录事件的确切发生地，公安机关办案要根据属地管辖原则。”————这都要网友替你们去追问？！让他去找打吗？太坑了吧？！又懒又冷血，老百姓养你们何用？ 我店里就和人事说了不要河南东北的！ 看年纪小女孩年纪不大，把骗她们的人凌迟处死 这样打人不应该 黑暗提现到更多的方面了 其实哪的人没关系这种地域看看就好哪的人都有好有坏我不怕黑就是东北的东北人也不是都不好快手那些傻逼也不是到处都有不过说实话东北人的素质真的不高有兴趣可以来东北逛逛没想象那么差但是绝对不好 看着想哭，姑娘，有一天，一定要报仇！ 你提四川人干啥？哪个省没打工的人？ 你这编的好不用东北和河南是真的四川没听说过东北人也是醉了被黑就被黑嘛还拉四川人下水你们在全国人民心中什么逼样没电逼数么？快手 在杭州开店的喜欢四川人拒招东北的 老子北京都没去过这辈子也不会去长江以北全是垃圾原子弹把什么宫都炸掉吧毫无价值 智障打的是头看不到？ 看了视频，一股气在腹中翻滚，那一声声的CNM,那噼里啪啦的皮鞭声仍旧在我耳边环绕，如果让我遇到这种事情，不管女孩是否有错，我都要让那皮鞭的B崽子付出代价，凌迟都不足以平复我的愤怒。 劳资最服的就是四川人怎么的？ 讲个笑话，很多地方招工不招四川人！ 人渣 妈个逼的！ 没看到视频不清楚情况，但是如果是文章说的，男的那么说的话，那基本就是出轨了，不然他说什么得劲刺激什么的？ 我最北边到北京还没去过东北，此生是不愿意去了~ 复制eeQwhv04pj然后打开支付宝.自动跳出红包.领去吧.星期六星期天红包翻倍哦[强][强] 键盘侠 带手套抓奸？明显的有组织非法拘禁。 这男的估计被戴帽了 快手太多傻逼是东北的，这你得承认，出去混的东北人大多补给东北人长脸这个你也的承认 速度破案 东北人下贱 没看到东北的在干工地 东北纯爷们，你们喷毛啊！！ 这一股子东北味 川痞不要太多了！ 。。。 性行为 完蛋了，这下引起公愤了，童鞋，不鸣则已一鸣惊人啊。。。民意不可违 在广州工作多年，从来没听过不招四川人，反而东北的不招，东北的就一把嘴厉害，有事跑的快 谁也没叫你去，放心吧 说的在理，也很实在！ 不吹不黑，在这边跟东北人接触多了就不怎么喜欢那边人，做事不怎么样嘴炮功夫倒了得…… 老百姓也能杀死你。官员也能祸害你。 你提四川人干啥？哪个省没打工的人？ 顶四川人东北的真搞笑 那么多直播平台没统计过，这就是你要的根据，你片面的观点代表不了所有，我也没权利教导你，我只是老百姓、我只知道做人的尊严和相互尊重这是最基本的素质。 搞地域黑的你们自信哪里来的？有那时间干点什么不好，坑蒙拐骗全国各地那的人没有，北京也被八国联军祸害过，老百姓能决定什么？一个个别拿臆想说事，能体现你们什么呀！爱国！到是像敌特搞分裂。 我要灭那打人者的一家 确实没有不用四川和东北的，那都是很久前的事了，这样的企业也不值得去工作，也不配存在 东北人怎么这么招人恨，全国都黑呢？瞅啥呢？削你信不？ 川军爷们，东北人，算了吧 你的爸妈生你出来，像小公主一样呵护长大，不是让你在任何男人面前受委屈的。他有什么权利这样对你 可能是逼卖淫、或逼传销，敢快抓人[暴怒]要不然这社会不得了。 四川人为人热情善良，特别是对待外地人，不信来一次四川就知道了。居然会被黑，真是眼瞎。感谢楼上所有挺四川人的朋友，谢谢拉！！！ 希望警方早日查证 愿大家在欲望膨胀的年代多保留一点人性 四川人口8000万，东三省1.1亿，差不多 反正重庆人打死也不认为自己是四川的，你说他们那里地图炮开的响不响 那你应该多看看回帖3楼脸都被打烂了 不好意思，不玩地域，实事求是，如果我没记错，地域这个概念最早就是从四川开始的，N多年以前，深圳很多公司明文规定，招工绝不用四川人… [鄙视][鄙视][鄙视] 你们东北人要真是有点血性，麻烦你们东北人自己把他人肉出来。不要让全国人民看不起。八十年前丢了土地，老一辈帮你们拿了回来。八十年后，地没丢，但是脸丢完了，没人能帮你们捡起来。得靠你们自己了！堂堂七尺男儿啊！ 钟国真心不该成为一个那啥 人性本恶。 说的在理希望东北人自己清理门户 打女人的男人都是畜牲！就该被凌迟处死，看它下手那个狠劲，不是畜牲干不出来 朋友，铁骨铮铮郭沫若是哪的？ 人渣 东北的，快手上这样的很多，我想开地图炮可以吗？ 警察容易被煽动。 地域黑也是无力吐槽了，哪个地方没有坏人？建国初期，没有东北的资源和重工业产品输出到其他的地方，支援祖国建设，哪有今天的现代化建设的成果，客观点说话，不要觉得在网上说话，就可以不负责任。 东北的自己什么逼样自己没个逼数？全国各地怎么看待东北的？ 绝对真实 会所里面都是我来自黑龙江，辽宁，去过会所的男人都知道 警察受伤牺牲，就是失败。 厉害了 第一狗仔卓伟爆出鹿晗与关晓彤酒店嘿嘿嘿完整版<br>不要费用看（HLWGGLm。CoM）直接复制就行 东北三个省加起来有四川人多吗？为啥网上不黑四川人？心里没点逼数吗？四川人出来打工就踏踏实实的打工，工地上一群四川人，你们东北人吃的了这个苦吗？ 我最北边到北京还没去过东北，此生是不愿意去了~ 公安局要是查不出来，全国的警察都回家种田去 看了视频，一股气在腹中翻滚，那一声声的CNM,那噼里啪啦的皮鞭声仍旧在我耳边环绕，如果让我遇到这种事情，不管女孩是否有错，我都要让那皮鞭的B崽子付出代价，凌迟都不足以平复我的愤怒。 东北那里的没听出来，估计是强迫卖淫的，这个警察要管一管，吉林或者沈阳，反正不是黑龙江的。我老家吉林的，听着象，但音质太差，我感觉象吉林省内的，但是具体那个市的听不出来。 我想知道会有警方介入调查吗？这都查不出来吗？心痛 作为东北人的我，心里已有逼数了！同时也奉劝东北的老少爷们、大姑娘小媳妇，有时间把家乡建设好了，自身素质提高了！ 哎，棒打落水狗哦 最后有个黑衣男的踢了一脚白衣男的，说明这白衣男的就是团伙里的底层 “老妹”一词用的尤为绝妙，充分的显示了那种淳朴，憨厚的本性。 浙江对四川人也不反感，反而喜欢招一批，吃苦耐劳！ 你我都懂 东北人我CNM spanking 新加坡、马来西亚表示没听说过不用四川的，不过东北的确有看到过 东北纯爷们，你们喷毛啊！！ 这些都是不在家帮父母种地，非要跑到城市又好吃懒做的小摇子，没钱买药咋办啊，就去舞厅让人家捏扎，10块钱一首曲，再发展发展就去KTV里边坐台3小时200。厕所干完多加点，出台就500-1000。。然后赚了钱拿回去给她们的对象花。。也是村里跑出来冬天还露脚脖子的。。。哎呀反正在我们这，这类人都叫老倒子。 东北三个省加起来有四川人多吗？为啥网上不黑四川人？心里没点逼数吗？四川人出来打工就踏踏实实的打工，工地上一群四川人，你们东北人吃的了这个苦吗？ 东北的傻缺也就这出息了 东北人嘛，我可以理解的 秦岭二月这煞笔就是转移视线的，尼玛的你自己都不知道咋回事，就说女孩出轨遭暴打？！明显在淡化事情经过，给不查案情找借口！！ 北方，特别是山东东北这些地方，大男子主义和重男轻女现象十分严重，就知道欺负弱者。一遇到强者，比如日本人打来了，就成怂逼了。 比横店的还狠啊，活生生的现实天堂。 视频看完没 要是出轨，就活该。要是没第二个女孩还像，这俩女的有点不像是出轨。 好吃懒做 哪里的方言啊，易友这么厉害，没听出来具体地方的吗？ 你提四川人干啥？哪个省没打工的人？ 如果一瓶酒能让我咽下2017年所有的心酸，那么我先干为敬，如果再来一瓶酒能让我2018年的一切顺利，那么我再干为敬，如果再来一瓶酒能让爱我的人和我爱的人一切顺利，那么我一口气吹三瓶，如果再来一瓶能让我原谅对我不好的人，不好意思，我喝多了，愿“友情如初、从此深情不被辜负！”敬往事一杯酒，过去的不回头、未来的不将就，我干杯、你随意。 东北这哥们，你是在中国吗? 川军爷们，东北人，算了吧 你们使劲黑，敲敲键盘这么解气的事儿多干点，你们多黑两句让国家赶紧把东三省扔了吧，求你们了喷子们。要是没那能耐就把那张嘴闭上吧，能开地图炮的你们有几个好货？ 东北这哥们，你是在中国吗? 说“老妹”的都是东北渣男 没办法，世仇了，但是那天东北三十万大军来攻打四川和重庆，我相信这个时候还是能一致对外的 造谣啥？拍的啊？ 神马东东？ 川军想想都感动 厉害了 印象中东北人没有吃苦耐劳，大多带女孩卖，混赌场。 把这男先打一千大板，的拖出去五马分尸，剁了碎了，喂狗 一看就是女的搞破鞋让男的发现了打的没毛病 老兄，业务挺熟啊 这下手真重还下下打头，真狠啊 这你可真黑错了，东北可没重男轻女，抗战时期最早沦陷东北也是上面的不抵抗，攘外必先安内，再说东北抗联也不是光说不练的 东北男银…就这能耐 第一狗仔卓伟爆出鹿晗与关晓彤酒店嘿嘿嘿完整版<br>不要费用看（HLWGGLm。CoM）直接复制就行 真厉害 东北轻工业：喊麦！快手！鸡头！坐台老妹儿！ 人渣 qnmlgb sm 据说这是造谣贴，警方正在搜捕贴主 视频一经发布，就引来众多网友转发，有网友提出，视频中青年的口音似乎是东北、山东地区的<br><br>这网友耳朵瞎了？<br><br>这新闻我第一反应就想到了一个轻重工业出名的大省！果然没错！ 这都没人管??好和谐 东北人真垃圾，就会玩直播打女人，真打仗的时候怂得连只鸡都不如，918的时候怎么没见这么屌呢？一堆垃圾败类，渣渣。反观四川男人平时怕老婆，打起仗来却不怂，抗日主力 东北纯爷们 坏人 不敢看，看了会气半天，对这世道越来越失望 必须严惩 绝对真实 此生无悔入暴漫 是我，我会反抗，大不了同归于尽！ 看了视频，一股气在腹中翻滚，那一声声的CNM,那噼里啪啦的皮鞭声仍旧在我耳边环绕，如果让我遇到这种事情，不管女孩是否有错，我都要让那皮鞭的B崽子付出代价，凌迟都不足以平复我的愤怒。 SB东北人屁事不知道 重庆和成都真是不可调和了 人家在玩sm有什么大惊小怪的。 别打脸啊 老百姓也能杀死你。官员也能祸害你。 据说这是造谣贴，警方正在搜捕贴主 日！ 法来晚了，就能杀死你。 你见过几次东北人惹是生非呀？每天流行在全国各地祸害无数人的传销、诈骗、假冒伪劣商品都是东北人干的吗？ 不好意思，不玩地域，实事求是，如果我没记错，地域这个概念最早就是从四川开始的，N多年以前，深圳很多公司明文规定，招工绝不用四川人… 造谣？打人下这么毒的手？ 这是炒作还是真的 听这女的声音应该是经常被打要不热得是撕心裂肺的哭啊 简直不是人，查不出来嘛！ 最讨厌东北人经常说不干就跑还威胁你懒爱吹牛四川人很好现在不照东北人 东北三个省加起来有四川人多吗？为啥网上不黑四川人？心里没点逼数吗？四川人出来打工就踏踏实实的打工，工地上一群四川人，你们东北人吃的了这个苦吗？ 扩散 死没死？ 你这话就放屁了和着我们东北都好吃懒做似的你能代表谁？你是不是连你那小比地方都没出去过就在家听到点只言片语就在网络上比比给你三个字cnm 我不是成都人，我在成都也没感觉到，假，可能指的老一辈成都人？年轻一辈的暂时没发觉哈 第一狗仔卓伟爆出鹿晗与关晓彤酒店嘿嘿嘿完整版<br>不要费用看（HLWGGLm。CoM）直接复制就行 怎么全国都报到了，就我广西没来？广西表示不搞地狱黑 [鄙视]没人报案，没人管 浙江人表示没看到什么拒绝四川人的，但是有见过拒招东北人的，不吹不黑 你提四川人干啥？哪个省没打工的人？ 又是快手，唉呀妈呀大哥用抽俺吧 搞地域黑的你们自信哪里来的？有那时间干点什么不好，坑蒙拐骗全国各地那的人没有，北京也被八国联军祸害过，老百姓能决定什么？一个个别拿臆想说事，能体现你们什么呀！爱国！到是像敌特搞分裂。 聊城那个十几个大汉侮辱别人母亲的怎么算 可以抓起来了 啧啧 贱命没办法 。。。 实在不敢看 我是四川人在北京，表示周围所有人都一致喜欢四川。我见到的东北人是所有来京人中素质最低，最咋咋呼呼，爱搞小团体，最偷懒和溜须拍马的。不是为黑而黑，只是个人所见。 不是逼迫买淫就是陷传销。 关键是因为啥挨揍，啥也没搞清楚，这视频拍的掐头去尾的，又何居心？ 做生意不愿与东北人合作，朋友介绍了个大单，听是东北的，直接否决。整天嘴上不差钱，要钱就没钱了。 新疆这边也是，两面三刀的东北人！烦都烦死了！ 1楼，有妈吗？有亲戚姐妹吗？ 24楼你是在搞四川分裂吗？ 我95出生的，爸爸妈妈姑姑在我没出生的时候就来深圳工作了，你几时听说深圳许多公司不招四川人了，你来过深圳没有啊！还说不是地域黑！ 查，严查！办，重办！ 你这么清楚？入行几年了？ 人脸识别系统呢 看的都让人心疼[可怜][可怜] 打你妈是吗 哎，看标题就知道是哪的人了 持续关注，期待罪犯伏法 东北人啊，你们就不能有点长进？ 东北人就是毒瘤 别的我不知道，就说青岛吧，你那些老乡说的话，干的事儿，我们可都是看在眼里，记在心上…… 我也经常打女人，别问为什么，爽！ 一楼从10块钱一首曲干到了出台就500-1000啊[窃笑][窃笑][窃笑][窃笑] 其实我想问问这些视频是怎么传出来的 你们在搞四川分裂吗 这些都是不在家帮父母种地，非要跑到城市又好吃懒做的小摇子，没钱买药咋办啊，就去舞厅让人家捏扎，10块钱一首曲，再发展发展就去KTV里边坐台3小时200。厕所干完多加点，出台就500-1000。。然后赚了钱拿回去给她们的对象花。。也是村里跑出来冬天还露脚脖子的。。。哎呀反正在我们这，这类人都叫老倒子。 东北轻工业：喊麦！快手！鸡头！坐台老妹儿！ 你身边的人，应该提前杀死你，以绝后患。 强迫卖淫吧 东北人到哪里都是毒瘤走哪里祸害到哪里就是一颗老鼠屎 看来日本当年还是没教育好，不然应该是很有礼貌的地方，咱不说点头哈腰了起码素质应该在全国前列，可现在看看青岛和海南...唉！ 呵呵，看什么看多了吧，是鬼吧，回病院去吧。哈哈 看了视频，一股气在腹中翻滚，那一声声的CNM,那噼里啪啦的皮鞭声仍旧在我耳边环绕，如果让我遇到这种事情，不管女孩是否有错，我都要让那皮鞭的B崽子付出代价，凌迟都不足以平复我的愤怒。 19楼的真逗，我一海口的哥们带我去三亚玩，到没说东北人怎样，就是说很讨厌三亚人，哈哈，啪啪打脸 哥们，你要是这样认为的话只能说明你没拿你当朋友的真兄弟 不要骂人嘛，招也好，不招也好，无所谓的，本来这个就是雇佣双方共同决定的，买卖不成仁义在嘛～我们东北人只要做好自己的事就好了，踏踏实实做事，本本分分做人，愿意接触我们的，我们当然愿意和他做朋友，对我们有偏见的，我们也当做玩笑话一笑置之，不要较真了～～做好自己，提升自己的素质和形象就够了～ 成都人假全省出了名的川内谁不知道？ 我们辛辛苦苦盖的高层哪去了，被雾霾笼罩住了吗 南方男人共同点都差不多不惹事不喜欢大嗓门说话但是惹急了都是不要命都南方女人嘛吵架特别厉害没人拉能炒一天 支持 陕西的大多数农民工都是四川人！ 鞑子鬼子毛子，三姓家奴么 四川人热情好客，不排外，曾经在辽宁呆过特别瞧不起四川人，经常有人问我你们四川人在外打工人才多是不是特穷，那装逼样就好像多有钱一样 逼良为猖， 东北口音跟山东口音能一样吗？ 东北三个省加起来有四川人多吗？为啥网上不黑四川人？心里没点逼数吗？四川人出来打工就踏踏实实的打工，工地上一群四川人，你们东北人吃的了这个苦吗？ 我也是四川的，感谢楼下挺四川的。欢迎你们 这不是东北口音吗 三十万男儿齐卸甲，从此东北无男儿！快手也有资格黑四川？ 说到重男轻女，广东潮汕说排第二，没人敢说第一 山东人的可能性不大，山东人没有叫老妹的习惯， 满洲时期，东北人是被管治得服服贴贴的，但经济也是最发达的。 你提四川人干啥？哪个省没打工的人？ 我要是女的我半夜不把他杀喽在把脑袋割下来这种狗篮子就该杀 去就死那吧 要是打死人了这事就闹大了，围观的也就一起有责任了 这个渣男真装逼，小逼崽子哪有这么打人的？抓住他！判刑！！ 在抗战这事上东北永远在四川人面前抬不起头 出门在外千万别说自己是东北人 抓起来 公安去那了 老妹得劲不 怎么全国都报到了，就我广西没来？广西表示不搞地狱黑 前2天隔壁2口子打架男的脸被抓的稀烂女的点事没有还张的特漂亮我还笑那哥们叫他出去戴个口罩他也只是苦笑（重庆男人苦啊不是人过的日子) 绝对是控制女孩，强迫卖淫 北方，特别是山东东北这些地方，大男子主义和重男轻女现象十分严重，就知道欺负弱者。一遇到强者，比如日本人打来了，就成怂逼了。 赶紧管管 不好意思，不玩地域，实事求是，如果我没记错，地域这个概念最早就是从四川开始的，N多年以前，深圳很多公司明文规定，招工绝不用四川人… 操，管山东啥事 同感 川军对满军？你说的是那个不放一枪一炮的把后花园拱手让人的吗？你知道川军做了什么吗？论血性，服桂军川军。 东北煞笔 你依赖兄弟们，说明你独自不行。 身正不怕影子斜，我说的是实话，13年在厚街励泰皮具厂一厂，我在哪里当主任确实告诉过招聘不要那边的人 山东的没听过拒绝四川人，反倒是对那三省的没个好印象。 我日！我受不了了！都是爹生娘养的，小逼崽子老子想活剥他的皮！ 我最喜欢看重庆女人或者成都女人骂男朋友了那个爽这两地方女人吵架真是一绝 新疆四川人也很多，人挺好的，东北的算了吧！在这边的很多人都不喜欢东北人，因为东北的喝了酒最喜欢惹事，说话最喜欢两面三刀！隔壁KTV打架的十次有九次都是东北的！三更半夜冷的要死吵吵个不停！ 估计是强迫卖淫 嗯，我也喜欢看，但是不喜欢我老婆跟我闹的时候 我希望能看到接下来的发展情况，能不能找到施暴者。 我觉得可以 你说实话小心喷你！ 你妈的，人渣！ 不是在玩sm？ 傻逼快手拉低下线 看了视频，一股气在腹中翻滚，那一声声的CNM,那噼里啪啦的皮鞭声仍旧在我耳边环绕，如果让我遇到这种事情，不管女孩是否有错，我都要让那皮鞭的B崽子付出代价，凌迟都不足以平复我的愤怒。 东北人老牛逼了！！ 各路兄弟们告诉我地址，我去手撕了这几个后生仔 这男的细胳膊细腿的，耐揍不？ 我最北边到北京还没去过东北，此生是不愿意去了~ 别总拿历史说事，小屁民你懂的啥啊，历史不是你一两句就能总结的 ",
        "Total": 77299,
        "Link": "http://comment.news.163.com/news_shehui7_bbs/D6PC4P3K0001875P.html",
        "Reply": 3374
    },
    "Title": "年轻女子被一男子暴抽 旁边还有数名黑衣男围观_网易新闻"
}