{
    "Title": "苹果的套路扎了亿万果粉的心，到用脚投票的时候了_网易科技",
    "URL": "http://tech.163.com/17/1226/07/D6IKAG5M00097U7S.html",
    "Source": "Netease",
    "Comment": {
        "Total": 1891,
        "Reply": 212,
        "Content": "你哥们是你亲爹吧 没觉得我的果果有什么不一样，用了二代了 谁给你的脸代表我们苹果用户了？ 这还要洗地啊？果粉信仰乃真信仰！ 反正以后买手机，不升级系统了。或者是不买苹果了 看了评论，喷的全是小米，我说你们瞎操什么心呢 那是你没更新11系统 肯定买华为啊，史上最诚信的公司，童叟无欺 安装一个描述文件就好了 我还在用9.3.5这个版本不过这两天电池还有百分之二十左右也会关机！ 华为一般都是有关部门送，自费的就不要出来跟着别人秀优越了。 真的，我们苹果用户真的不用你们媒体操心。 你是有多穷，靠手机装B 嗯，华为不错，下次一定买苹果 傻逼你买华为呀 支持苹果 自作孽不可活！苹果离死不远了。别人不知道，我是再也不买苹果手机了。 据美国的数据，只有2%的企业能活过50岁，时间就是价值。我不是果粉，所以在感觉手机不好用时坚决的换了华为，并不是华为等国产手机比他好，而是用着堵心……随意，钱虽然是你的，消费也要理智，否则，帮它活，他还认为你是老傻。 其实降频也比同样适用时间的安卓流畅。。。 不升也不是办法的，首先隔三差五弹出要升级的烦人提示，其次很多app都为了适应新ios而改版了，你不得有的app就用不了了 肯定买小米啊，买CPU送手机，只要处理器好，其他的渣点都无所谓了。 垃圾6，日常使用毫无压力，比用了两年的安卓机顺畅多了 快点乔布斯的棺材吧压不住了不知道创新去吸引顾客换新而用如此卑劣手段 换个电池一百多块，马上就和新手机一样了。我的5s和6p刚换了电池，总共花了270块钱，速度飞起来了，电池也很耐用。 再怎么限制也绝不会用国产的山寨垃圾，在后台盗取复制用户数据，随时泄漏用户隐私，用苹果或三星绝不会用国产 主要是苹果用了好几年都还能用，什么华为小米之流的用一阵就呵呵了，根本不需要这么麻烦[微笑] 如果安卓软件市场管理像appstore这样规范，早特么把苹果扔了 果粉果然是厉害，死鸭子嘴硬，支持你们一直坚持自己的选择，在黑华为的道路上一直走下去 华为在日本卖的竟然更便宜 看你舔的胡子上都是屎 反正我的6P已经很好的证实了这一点，版本更新完还没千元智能机流畅！我想骂那个GAY了！老乔会不会气的诈尸？ 苹果限制性能对中国果粉没影响，也就国外果粉穷逼才起诉，国内果粉就是被限制也高呼苹果万岁。建议库克继续限制性能，反正国内果粉随便宰。 充电宝的普及让苹果意识到，电池老化后不能简单开盖换电池而续航下降已经不足以让消费者们产生足够的换机动力了，所以只能一面非常下作地偷偷把老机子降频变卡逼用户换机，另一方面还误导消费者把变卡的锅甩到软件开发者身上 慢点儿没事儿啊，反正买苹果也是用来装B的 楼上两位的苹果更新系统还能用吗，我的6s已经扔了，果断换安卓了，苹果这次吃相太难看。 哈哈哈哈哈！😂 年初原价买了个华为p9，一个月后出了p10，过了两个月系统提示升级，之后电池续航就下降了一半，当然用的6s也是这个套路。都很黑 而且他最可怜的地方，就是连这点装逼的成本都负担不起了 为顾客着想也要先告知顾客，并且方便让顾客选择，背后来阴的还强制执行，这和流氓软件有什么本质区别？ 我自己有十几万的小车，我老板的车六十多万的可是他用的是不到一千块的手机，我的也是一千多的国产手机，不懂觉得用苹果就觉得高端的人是什么心理。 没关系，果粉都很有钱。每年不换新手机不是好果粉 文章的一起是买华为呢还是小米呢？ 笑死我了<br>现在地铁上都是拿老款苹果的<br>请问，还怎么装逼？老掉牙的造型<br>我拿出s8+，先虹膜解锁，再加上全视曲面屏，难道不比你苹果更炫？<br>我一哥们说的对————买三星是装逼，买苹果是装傻逼 不懂得开好车就觉得高端的人是什么心理 谢谢广告，准备换8 我特么是自动更新的，之后运行变卡了，有时候会死机，打字的时候更不流畅，让我感觉像多年前的安卓 对，更新了很卡 一群不用苹果的在这里喷的有劲的很呢 开车装呗，眼看电能源的汽车普及了，苹果汽车是不是越开越慢变老头乐 果狗定律doublekill😂 我的5s最新系统用着感觉还挺流畅 我也是最新的系统，换了就不卡了。测了频率回到1400了 所以我建议你花个一百多块去换下电池，保证速度飞起来，到时候再来谢我也不迟。 慢点没事啊反正一年一换 而且他最可怜的地方，就是连这点装逼的成本都负担不起了 苹果觉得，他们应该把苹果定位为奢侈品，什么叫奢侈品？出了新的不用旧的才叫奢侈品，用两天坏了再换个新的，才叫奢侈品，永远保持新款式新型号，外表漂亮易识别，这才叫奢侈品。耐用？呵呵，耐用从来不是奢饰品考虑的东西，苹果就不该耐用。 毫无疑问，苹果是最好的手机 那是你没更新11系统 不过话说回来，就算慢了，也还是比安卓快。不是黑安卓，一般人，用了iphone，就不愿用安卓了，那是真的越用越慢。。。还有windows也越来越慢，是不是也一个套路啊。。。 肯定买华为啊，史上最诚信的公司，童叟无欺 我还在用9.3.5这个版本不过这两天电池还有百分之二十左右也会关机！ 华为一般都是有关部门送，自费的就不要出来跟着别人秀优越了。 你是有多穷，靠手机装B 二楼的肯定没更新系统，更新11以后6S都卡出翔，我以及周围的人只要是7以前的机型，更新了11系统的，现在差不多都换安卓了，特么的听个音乐有时候都会卡。 公务机 iphone4升级以后特别卡，当我猜到这个原因以后，再也没买过苹果设备。 只有蘋果機才最适合裝逼。 我四年前的i74770K+华硕主板，跟新的一样流畅，6年前的AMDX4630开机照样打魔兽，也没给我限制主频啊，听说现在威锋论坛，iphone贴吧都变成了电池论坛，电池吧，不少果粉还自己买工具换电池，还有一个月换几块电池的，苹果这次培养了很多果粉的动手能力。 尼玛手机系统不是越升级越顺畅，而且越升级越卡，自己作死 库克从来都以耍猴为己任，年年提高iphone均价，iphone6一个外壳设计用四年，死基佬不得好死 我自己有十几万的小车，我老板的车六十多万的可是他用的是不到一千块的手机，我的也是一千多的国产手机，不懂觉得用苹果就觉得高端的人是什么心理。 放心，在中国不管苹果怎么对待中国用户，用户还是会买的，具体原因就不细说了。 连3000多的苹果7都买不起，这就是自己能力的问题了，不是装逼的问题。 换个电池一百多块，马上就和新手机一样了。我的5s和6p刚换了电池，总共花了270块钱，速度飞起来了，电池也很耐用。 一楼穿裤子也是为了装B吗？ 当年iphone4升级7.0系统，就明白了苹果的险恶用心，那时天真的以为是手机带不动系统了，呵呵，直到后来大部分APP只支持7.0以上系统，才发现这是苹果下的好大一步棋啊。 老机型慢难道不是软件升级后硬件设施跟不上造成的？跟台式电脑用久了照样卡顿不是一样道理么！我一门外汉也能知道这个原理啊，你用老机型搭载最新软件运行，还指望它快的像⚡️，你觉得可能吗？ ios7是第一次！ 赶快买个iphonex压压惊 so？还不是一样卖肾都要买。 真心不想用苹果了！ 华为在日本卖的竟然更便宜 文章的一起是买华为呢还是小米呢？ 这个黑没毛病 自媒体高潮迭起了 不懂得开好车就觉得高端的人是什么心理 能不能好好说话，还什么“图样图森破”，要用英文就用英文 慢点儿没事儿啊，反正买苹果也是用来装B的 我买华为我后悔，当初4+++多少来着我忘记了，128G运行6G的迈特9，现在3500左右。可能还不到。我才用了多久，不到五个月啊， 官媒，无底线 现在的安卓机做的也相当好了，刚入手了一个小米玩的很嗨，考虑安全性日常用苹果，娱乐用安卓 用苹果的都是傻子，拿个诺基亚一样的手机 从iPhone1用到x，早就知道苹果升了系统就变卡再升就卡出翔，但是其他系统手机实在让人不习惯，用久了不升系统也卡 换了电池比之前好点，但还是会卡11系统 一直不用采用大电池方案也是出于此目的 不知道国产手机是否也是这样。十月份苹果手机摔破了屏幕，用了7年苹果了，感觉华为的口碑不错，就决定换一个。买了个高配的华为P9，可是真的很难用，包括携程，淘宝，天猫等在内的常用软件经常运行到一般就自己退出了，很失望。以为是买了个翻新机，结果上网一查，华为手机各种APP自动退出的现象非常普遍。不知道是什么情况。 傻逼喷子，你不是干这行的你自己敢拆开来换吗？就算你敢，你自己换一下时间都不够这些钱。人家十几分钟就给你换好了不是技术是什么？网易怎么这么多喷子？ 哪是自媒体，一波官媒，无底线 我老板身价几个亿，可是他开的是一辆十几万的车。不懂觉得开个六十万的车就觉得高端的人是什么心理。 我还以为你后悔卡了什么的，原来是降价啊，降价不好吗？让更多人买的起！就像降房价一样，不好吗？ 为顾客着想也要先告知顾客，并且方便让顾客选择，背后来阴的还强制执行，这和流氓软件有什么本质区别？ 现在来装有卵用，要么就根本没怎么用过苹果的东西，这套路好多年前就这么搞了，还要来说现在才指导，这是蠢呢还是坏的 是啊，高通2121.3G的主频都能用，苹果600MHZ+信仰加成，应该不是不能用 有什么技术？？？？？你说芯片级维修要技术我理解。这个换电池，你只要不是脖子一下瘫痪的弱智，用脚都能换。 苹果觉得，他们应该把苹果定位为奢侈品，什么叫奢侈品？出了新的不用旧的才叫奢侈品，用两天坏了再换个新的，才叫奢侈品，永远保持新款式新型号，外表漂亮易识别，这才叫奢侈品。耐用？呵呵，耐用从来不是奢饰品考虑的东西，苹果就不该耐用。 谁给你的脸代表我们苹果用户了？ 要是不穷，还需要手机装B吗？ 太无耻，这就是苹果 一旦升级，完了。用了半个月受不了直接摔坏，发誓不会再买苹果手机！ 你们这帮用了好几年的老设备的贱人，你们果爹是没给你们换电池人机会吗？你麻痹，一手机电池你想用多久？万年不衰减？抱着回棺材里面用？电池消耗了，本来就是硬件问题了，要不关机，要不运行慢，你们选哪个？难道选关机直接不能用？你们是他妈的傻逼？果爹给你们继续用下去的机会，还他妈逼的BB没完了！<br><br>果爹，可以把脑门的枪放下了吗？ 别让人失望😞，怎么大的公司，我在看着你苹果。 谁买谁傻逼 奶奶的，为了个游戏。。。从10.2升级到了11.2.1。。。 放你妈屁 用苹果的产品必须得注册苹果他们的ID，想要你的数据秒秒钟的事情 应该是苹果体验差十倍吧，emmc5.1索尼2.07年的旗舰都敢用，给你两台emmc和UFS的机子，不检测你也用不出差别，苹果把6S，7降到600MHZ的主频，连6年的iPhone4S都不如啊，不知道你们个个表示的流畅是不是只打电话发短信啊？ 真的，我们苹果用户真的不用你们媒体操心。 天下乌鸦一般黑，不过等我这个手机差不多了，不换苹果了。从4s到5s再到6s，用了三代，审美疲劳了。而且苹果确实让人失望。。。 南方流氓报 又给跪舔苹果的人一击 华为定律 慢点儿没事儿啊，反正买苹果也是用来装B的 你是有多差，穷，思想脏，要用一个通信工具来装逼？？？ 主要是苹果用了好几年都还能用，什么华为小米之流的用一阵就呵呵了，根本不需要这么麻烦[微笑] 幸好乔布斯已经死了，不然乔布斯会被现在的苹果气死。现在换个壳就叫换代了。。。 还想转用苹果呢 意思楼上不承认有人买苹果是为了装逼？ 我就喜欢看中国人骂完搞完一通最后还是的舔着脸买苹果 这个相比华为混用闪存谁的体验更差？为什么网易双标思想这么严重，一边是被骂到飞起，一边是这个正常。难道就是因为苹果用户多？ 肯定买华为啊，史上最诚信的公司，童叟无欺 我说怎么苹果越升级越慢的呢！ 再怎么限制也绝不会用国产的山寨垃圾，在后台盗取复制用户数据，随时泄漏用户隐私，用苹果或三星绝不会用国产 平安果 不算果粉，家里三台华为两台苹果，而且还是苹果5s和se这两个机型，相比华为的机子，苹果变慢速度其实已经好很多了。se暂时没有变慢的感觉，5s是明显有一些卡顿。然而华为的机子使用体验是一年左右就开始慢。实话实说，表喷。。。 测电池软件也有问题，两天前损耗24%，今天就44%了，电池有这么快的损耗吗？明明就是软件搞鬼。垃圾 对，用苹果的都是傻币 内存.疏油层什么的都是子虚乌有 原来一直以来网易这么多用着600MHZ主频，续航靠关机的果粉嘲笑安卓卡，要知道高通212都有1.3GHZ,果粉网上打肿脸充胖子，背后用得想砸手机！幸好苹果承认了，要不然果粉肯定说是卓狗造谣。 说的也是 就像穷比思考了三个月，终于咬咬牙吃了一顿必胜客！他坐在橱窗边，透过玻璃看着街对面肯德基里拥挤的人群，觉得他们肯定是穷比，舍不得吃必胜客，只能吃便宜的肯德基！吃完必胜客朋友圈里猛发照片，见人就问人家有没有吃过必胜客！在他眼里，吃必胜客是一种身份象征！所以，要理解他们 反正我的6P已经很好的证实了这一点，版本更新完还没千元智能机流畅！我想骂那个GAY了！老乔会不会气的诈尸？ 果粉用着600MHZ主频一天三充的6，6S在网上嘲笑安卓卡，新机出来纷纷表示手机的还能再战三年，这点我非常佩服，想想只要信仰足够诺基亚3300都再能战十年 我也不会用华为的[羞羞] 果粉出来洗地啦 就算这样也没办法啊……谁让安卓阵营的都不争气呢……今年买了几个骁龙835的机子都还不如去年的iPhone7好用！系统依然还是很辣鸡下个软件都没个正经靠谱的商店也是醉了 我请你用手机登录一下让大家看看，你用的什么手机？ 没用的QQ微信阿里百度甚至银行APP没有一个不收集你的信息的，仔细看安装软件的时候需要的权限你就明白了，譬如说微信不然读我的手机通讯录和定位就不让用。 大概一周前看到有个帖子说一个旧苹果换了电池后速度就快了。当时我还在想作者是不是sb了，换个电池，又不是加了内存。现在看来是真的啊。。。 哈哈哈哈哈！😂 但你不可否认，苹果用户看待小米跟华为时的浓重优越感 原来你需要用几千块钱的手机装逼啊？真可怜！ 您瞧您这话说的，那用华为手机的也有杀人犯，强奸犯，那我是不是可以说您不承认您是杀人犯咯 你是有多穷，靠手机装B 为顾客着想也要先告知顾客，并且方便让顾客选择，背后来阴的还强制执行，这和流氓软件有什么本质区别？ 我自己有十几万的小车，我老板的车六十多万的可是他用的是不到一千块的手机，我的也是一千多的国产手机，不懂觉得用苹果就觉得高端的人是什么心理。 手机都买不起估计吃饭都困难 文章的一起是买华为呢还是小米呢？ 以前苹果的操作系统的确好用，但现在安卓的也差不多了，所以下次换手机，不用苹果了，但绝不用华为，不是华为不好，而是用华为就不敢玩网易了，原因大家都懂得 我特么是自动更新的，之后运行变卡了，有时候会死机，打字的时候更不流畅，让我感觉像多年前的安卓 故意的吧 没觉得我的果果有什么不一样，用了二代了 换个电池一百多块，马上就和新手机一样了。我的5s和6p刚换了电池，总共花了270块钱，速度飞起来了，电池也很耐用。 好。 是说我的5s变卡了！ 三星爆炸频发，你还不是在用三星？ 嗯，华为不错，下次一定买苹果 反正不会买国产垃圾高配低价还不安全 电池老化了换电池就好了非要用这种降低性能的措施吗 要安全还是性能，最得有个选择 新品定价3000以下，国内某些消费者就很愤怒了 肯定买华为啊，史上最诚信的公司，童叟无欺 我还在用9.3.5这个版本不过这两天电池还有百分之二十左右也会关机！ 莫非果狗自己也觉得苹果不能装逼了？到明年把7系列也降频了你们再去跪舔苹果。 我的小米2s自从升级了米油9，一点也不卡了，还超好使！ 是苹果救活了充电宝行业！ 其实华为也这样，还有，我这次小米升级后也这样了，前几天小米玩网易终结者不卡，升级后就开始卡了 左手小米6，右手iPhoneX，明年继续一起升级。 电池是一个巨大瓶颈 自作孽不可活！苹果离死不远了。别人不知道，我是再也不买苹果手机了。 为啥苹果新闻一堆华为小米在喷呢？ 其实降频也比同样适用时间的安卓流畅。。。 你他妈的小米抄袭有什么脸在这里叽叽歪歪 我用用安卓千元机就行了，这玩意儿更新换代快，还是以实用为主 快点乔布斯的棺材吧压不住了不知道创新去吸引顾客换新而用如此卑劣手段 慢点儿没事儿啊，反正买苹果也是用来装B的 靠手机装逼的，会用慢的苹果吗？苹果6之前的安卓机.也没看到有多少人还在用啊 换个电池120块就行了 如果安卓软件市场管理像appstore这样规范，早特么把苹果扔了 我的MAC，系统升级有明显感觉，就是感觉文件读取没以前快了 。。 最后变成网易的华为定律 也就是几千块钱的手机罢了又不是几百万元的房子和几十万元的车想要的话稍微努力奋斗就会有的东西最烦那些成天哭穷或者骂那些果粉屌丝穷逼玩意的人其实自己就是loser 充电宝的普及让苹果意识到，电池老化后不能简单开盖换电池而续航下降已经不足以让消费者们产生足够的换机动力了，所以只能一面非常下作地偷偷把老机子降频变卡逼用户换机，另一方面还误导消费者把变卡的锅甩到软件开发者身上 黑心 看你舔的胡子上都是屎 我擦，魅族还没倒闭呢？ 就算是这样，还有很多人用，傻不傻 问题是我不知道投给谁 我也赶紧给我的6去换块电池[可怜] 苹果此举引发了美国众多消费者的愤怒和不满<br>怎么才能因为中国众多消费者的愤怒和不满呢 好像还是用的7还是8的系统，这三天两天的就让更新，有时一天显示几次，就怕点错了被更新了 楼上两位的苹果更新系统还能用吗，我的6s已经扔了，果断换安卓了，苹果这次吃相太难看。 早就发现了，垃圾苹果通过降频促使你换新手机，这类电子产品寿命其实根本不只2年的 呵呵 原来你需要用几千块钱的手机装逼啊？真可怜！ 不买苹果手机用oppo 我觉得这并不全是坏事，苹果只是告诉了你一个可以提速的办法，你们说呢？ 5s1206p150共花了270 你是有多穷，靠手机装B 为顾客着想也要先告知顾客，并且方便让顾客选择，背后来阴的还强制执行，这和流氓软件有什么本质区别？ 已经不是当年的苹果了。 已经换荣耀了，好用 ①非苹果用户，好不容易找到一个机会干嘛不喷？找找平衡感也不错。②苹果用户是真的有权说话的，特别是iPhone6那一批用户。③手机竞争对手：往死里整苹果，最好苹果公司明天就倒闭。 文章的一起是买华为呢还是小米呢？ 电池老化难以避免，但不是可以更换电池吗为什么不提示更换电池？苹果降频这招要说是为了用户体验，没有其他动机，打死都不信 那些看不起华为的，看看吧，苹果都看不起你 做得好，朋友！贵的勉强接受，欺骗就不行了。 你哥们是你亲爹吧 苹果不行了我就买三星华为不考虑的[微笑] 不然显不出有用苹果的哔格高啊，什么人都能用苹果的吗？你们这群穷口刁 肯定还是买苹果手机，因为用过其他手机，体验都大大的不如苹果，包括吹嘘拍照很强的某品牌，拍照也一样被苹果完虐！！ 可以不升级系统，虽然电池久了，但是系统不卡，ios 以后坚决不再卖苹果，草拟老母！ 反正以后买手机，不升级系统了。或者是不买苹果了 看了评论，喷的全是小米，我说你们瞎操什么心呢 没有什么感觉啊，家里苹果5S、6P、7P都在正常使用，倒是赠送的两个某品牌拍照“神机”，永远只能做通话备机使用，拍照被苹果几代手机完虐！ 安装一个描述文件就好了 是中国人就买华为，华为从来不造假……狼性的华为必将长久于宇宙。 意思是说它这么做的时间并不久，顶多是个初犯。同时苹果还强硬表示未来还会将此功能扩充到更多的机型上去，上市超过1年的机型都将纳入。<br><br><br>不错，有魄力的公司。反正爸爸也不怕猴儿翻天。 真的，我们苹果用户真的不用你们媒体操心。 你是有多穷，靠手机装B 哈哈哈自古套路太多大家慢慢发现 傻逼你买华为呀 不买华为不爱国！你看着办 华为用户真的好关心苹果喔 然后呢？爱疯迷们还不是照样排队购买 笑死我了<br>现在地铁上都是拿老款苹果的<br>请问，还怎么装逼？老掉牙的造型<br>我拿出s8+，先虹膜解锁，再加上全视曲面屏，难道不比你苹果更炫？<br>我一哥们说的对————买三星是装逼，买苹果是装傻逼 支持苹果 无条件支持华为，中或赢 据美国的数据，只有2%的企业能活过50岁，时间就是价值。我不是果粉，所以在感觉手机不好用时坚决的换了华为，并不是华为等国产手机比他好，而是用着堵心……随意，钱虽然是你的，消费也要理智，否则，帮它活，他还认为你是老傻。 没关系，果粉都很有钱。每年不换新手机不是好果粉 系统升级后卡的很 肯定买小米啊，买CPU送手机，只要处理器好，其他的渣点都无所谓了。 死忠粉 国产机更黑，新机半年后就不行了 反正我的SE指纹都是打不开 肯定买华为啊，史上最诚信的公司，童叟无欺 基佬死妈 插一个卡的苹果，太不方便了 果粉果然是厉害，死鸭子嘴硬，支持你们一直坚持自己的选择，在黑华为的道路上一直走下去 你该有多穷 销量在下降肯定急 他怎么不怕用这个牌子久了就卡人家以后就不用了，而不是换新款 一般都是靠手装逼 不升也不是办法的，首先隔三差五弹出要升级的烦人提示，其次很多app都为了适应新ios而改版了，你不得有的app就用不了了 来来来，酥油不用钱，白送 慢点儿没事儿啊，反正买苹果也是用来装B的 谢谢广告，准备换8 降频是事实，我已经换了个安卓过度一下，本来我的6p还能再战三年 个个都是大傻逼，你要是能把苹果搞死算你能 年初原价买了个华为p9，一个月后出了p10，过了两个月系统提示升级，之后电池续航就下降了一半，当然用的6s也是这个套路。都很黑 只不过现在暴露了而已，这就是乔布斯创建的洗脑营销。看看乔布斯是什么人种血统就知道此人为何阴险残忍了。 苹果果然国际大品牌，这一条专题网易得赚多少钱啊！出了这么大的事居然没有一条新闻评论过万的！佩服！ 华而不实，为所欲为 为顾客着想也要先告知顾客，并且方便让顾客选择，背后来阴的还强制执行，这和流氓软件有什么本质区别？ 以前上大学的时候教我们学设计的老师给我们讲了一个故事以前企业生产的零件都很耐用一用可以用个十几年不坏但是相反新生产的就卖不出去了因为用不坏所以现在设计的东西都是有使用寿命的不会让你用太长时间要不全球的企业都倒闭的差不多了 文章的一起是买华为呢还是小米呢？ 苹果限制性能对中国果粉没影响，也就国外果粉穷逼才起诉，国内果粉就是被限制也高呼苹果万岁。建议库克继续限制性能，反正国内果粉随便宰。 拿手机装逼，这是穷到家了，这要多没见过世面，还把手机当个好东西 苹果公司也是为了用户好，增加续航。 买国产手机，你要等新品上市半年后再买。。这样省钱。 老机型换电池不就行了，不然换手机，明年要是有XPlus出来估计会比今年的x更畅销。 然并卵，嘴巴再硬，屁股却很诚实 ",
        "Link": "http://comment.tech.163.com/tech_bbs/D6IKAG5M00097U7S.html"
    },
    "Article": "（原标题：苹果的套路，伤害的不仅是老用户）作者：蚂蚁虫刚听到网上有人指控苹果公司故意限制老款iPhone运行速度时，我有些不敢相信自己耳朵。毕竟顶着全球最伟大科技公司和最赚钱科技企业的名号，于情于理苹果都不应该使出这种下三滥的手段。而最近的新闻显示，苹果公司已经对此指控作出了回应，承认了限制老款iPhone性能的事实，让人大跌眼镜。作为一个苹果用户，现在回想起来苹果公司限制老机型的做法还是有所感受的。北京时间2017年9月20日凌晨1点，苹果公司正式开始推送全新的iOS11操作系统。原本以为升级后使用感觉会更好，结果众多老苹果用户纷纷抱怨升级后出现了明显的运行变慢，甚至卡顿现象。这在历来强调系统优化、体验一流的iOS来说，简直是不可想象的事。好在我慢人一步，在升级前看到了朋友圈铺天盖地的差评，没有跟风升级。不过，避坑落井，尽管删掉了软件更新文件，但是苹果后台仍隔三差五地悄悄在后台下载iOS11系统安装包，根本找不到关闭软件更新的设置，老机型用起来还是颇为困难。可能多数用户当初和我一样，以为这可能是苹果公司在系统开发中对某些机型的适配没有做好，存在着一些bug。如今看来，我们还是图样图森破，压根就没有想到这可能是苹果公司的套路。如今外界最直接的反应就是苹果公司为了促销自己的新机型，恶意为之。按照这种分析，如果说推出新机型是在前面拉，那么通过系统更新限制老款iPhone运行速度则是在后面推，共同为缩短换机周期提高智能手机的整体销量而努力。那么，与国内手机厂商不断在ROM中增加广告相比，苹果公司暗中限制老机型运行速度的手法显得更加隐蔽和恶劣。苹果此举引发了美国众多消费者的愤怒和不满，“反苹果联盟”呼吁商务部反垄断局对苹果展开调查，一些消费者则将其告上了法庭。当然苹果公司不会承认这些推断，它强调这么做的目的是为了防止老旧机型意外关机、延长旧机器的使用寿命。此项功能2016年才正式应用在iPhone6、6S和iPhoneSE上，如今范围扩大到了iPhone7上。意思是说它这么做的时间并不久，顶多是个初犯。同时苹果还强硬表示未来还会将此功能扩充到更多的机型上去，上市超过1年的机型都将纳入。不惜冒犯消费者也要大力推动旧机型功能限制计划，苹果公司这么做是出于什么考虑呢？有人认为这与苹果想成为史上首个万亿美元市值企业有关，但这种可能性并不大，因为苹果从来就不是在意资本市场表现的企业。它这么做其实另有他因，还得从苹果智能手机的销售现状说起。回顾这些年苹果产品的市场份额的变化，就不难发现在促销新机型方面的确很迫切。相比前几年的一路高歌，2016年成为了iPhone出货量下滑的第一个整年，其全球市场份额只有14.6%，同比下降7%。下滑趋势在2017年没能扭转，苹果手机连续三个季度全球市场份额在12%-14%之间徘徊。最新Q4财报显示iPhone市场表现不如人意，销量同比增长3%只有4670万部，略高于市场预期的4610万部；相关营收为288.46亿美元，同比增长2%，甚至没能跑赢销量3%的增速。看来，2017年iPhone的市场份额继续下滑在所难免。而从供应链传出的最新消息显示，由于iPhoneX销售不如预期，苹果大幅缩减了明年首季的销量预估，从原定单季5000万部大减四成至3000万部。这表明，由于智能手机产品日益成熟，所谓的黑科技无法给用户带来不可替代的体验，加上苹果手机的保有量日益增多，高端手机的市场份额天花板日益显现。可能正是在这种严峻的市场压力之下，苹果才不得不铤而走险。纵使苹果口口声声表示限制旧机型是为用户着想，但客观上给外界造成的印象是为了增加新机销售、提高市场份额。不过，这么做的代价是牺牲了用户体验和自己的口碑，将来极可能遭遇用户用脚投票，反而得不偿失，库克还当三思而后行。□蚂蚁虫本文来源：南方都市报责任编辑：白鑫_NT4464",
    "PublishTime": "12/26/201707:25:45",
    "KeyWords": "苹果,苹果公司,iphone,ios"
}