{
    "Comment": {
        "Link": "http://comment.sports.163.com/sports2_bbs/D6LDIE1J00058781.html",
        "Reply": 9,
        "Content": "米兰要输 希望今年在鸟巢看到米兰德比 有佳丽？好吧，肥料晋级。 有,是意甲.米兰的主场 米兰加油 平局，然后点球…拭目以待 文艺蒙不上可以不败，A媳首发必胜！ 国米必胜！尤文必胜！！！ 米兰要输 来吧米兰德比抄钢管去看球 ",
        "Total": 10
    },
    "Article": "网易体育12月27日报道：北京时间12月28日凌晨3点45分，意大利杯1/4决赛一场焦点战在AC米兰和国际米兰之间展开。两队最近在联赛中都是2连败，到了意杯赛场上谁能结束不胜的尴尬？交战记录：米兰双雄在意大利杯历史上有过10次交锋记录，米兰取得3次胜利，国米赢得过4次对阵，其余3次交锋两队打成平手。两支球队上一次意杯交锋是在1999-2000赛季的1/4决赛中，当时意杯采取的还是淘汰赛主客两回合赛制，国米先胜后平晋级4强并最终打进决赛。看点一：谁先结束2连败？米兰城的两支球队最近状态都不是太理想，国米先是在意杯中被意丙球队拖进点球大战，随后在联赛中连输2场被乌迪内斯和萨索洛击败。米兰则是近期经历了换帅，最近2场比赛被维罗纳和亚特兰大击败。本场比赛两队在意大利杯1/4决赛中相遇，无论是从近期状态还是从球队渊源上来说这场比赛的胜利都是两队所渴望的，不知两队谁能率先结束2连败。看点二：加图索迎来大考加图索在米兰联赛中被都灵0-0逼平后走马上任，率队踢了6场比赛，其中有3场告负，其中还有被贝内文托拿下意甲唯一1分的那场比赛堪称耻辱。由于带队成绩不仅没有转好反而更差，加图索刚刚坐了1个月不到的帅位已经不稳了；根据意大利媒体消息，如果本场米兰德比告诉的话，俱乐部将请回蒙特拉换掉加图索。看点三：国米2大将伤缺国米上轮客战萨索洛不仅没有拿分还连伤2将，丹布罗西奥左腿内侧副韧带受伤预计休息1个多月，米兰达比目鱼肌拉伤也将缺席大约半个多月。2名后防大将同时缺席这场大战，对国米的影响绝对不会小。预测首发：AC米兰（433）：多纳鲁马/阿巴特、博努奇、罗马尼奥利、里卡多-罗德里格斯/凯西、比格利亚、博纳文图拉/苏索、库特罗内、博里尼国际米兰（4231）：汉达诺维奇/坎塞洛、什克里尼亚尔、拉诺基亚、长友佑都/贝西诺、加利亚尔迪尼/坎德雷瓦、若奥-马里奥、佩里西奇/伊卡尔迪本文来源：网易体育作者：元气责任编辑：朱楷正_NS4807",
    "PublishTime": "12/27/201709:25:28",
    "URL": "http://sports.163.com/17/1227/09/D6LDIE1J00058781.html",
    "Title": "意杯米兰德比前瞻:加图索保帅位 国米2大将伤停_网易体育",
    "KeyWords": "加图索,国米,米兰,意杯",
    "Source": "Netease"
}