{
    "Source": "Netease",
    "KeyWords": "澳大利亚,考拉,打架,公路",
    "URL": "http://news.163.com/17/1224/11/D6DUJSAE0001875P.html",
    "PublishTime": "12/24/201711:49:26",
    "Comment": {
        "Content": "确定是打架？万一是强奸呢？ 三星脑残定律华为智障定律 不要拿着华为手机乱发了，我都不敢换华为手机了。 五美分的标配是啥？ B站抄个视频就是新闻？ 过圣诞节啦!天上有大声音呼唤牧羊人，主诞生啦，在那马槽里!天上有光柱引导牧羊人至马槽! 好可爱，想抱抱 华为是雾猫的标配，所以总发一些乌烟瘴气的言论 唉，马云狗 这肯定是一只给另一只带绿帽了，要不然不会这么拼 华为是雾猫的标配，所以总发一些乌烟瘴气的言论 华为定律并不针对付费华为用户 我也是，华为我不敢用了。 华为到底有几条定律老子一直没搞懂，什么先有华为后有天，什么用华为的不一定是傻逼但傻逼一定用华为，楼下总结一下 看来用华为的真是傻的 你肯定被绿了，才会这么想 中国还能看到鸟在打架，再过几年，只能看蚂蚁打架了。 楼上王八的崽，我在等你吐渣 在国内早成两张上成的毛皮料了 什么仇什么怨 看来你们都被绿了才能这么心有灵犀 华为定律？ 哈哈哈打起架来还是好可爱😊 拍视频的怎么不上去劝架？ 你肯定被绿了，才会知道我是这么想的 擦，这不是逼着劳资天天黑华为吗？ 身体也变成人屎了 考拉:我们只是在做一场秀 用华为如果是狗，楼上这些诬蔑华为都是狗R日出来的。。 拿手机説事的脑残定律 黑华为的人都不是中国人，下辈子滚去做美国人 为了权力大打出手 除了精神麻醉，阿Q精神长存 对对对，什么都不要报道，天天活在梦里 一楼母被华为手机用户用狗奸了 毫无疑问，黑华为的都是吃里扒外的民族垃圾、人渣、败类。 你知道自己有多无力吗，多可笑吗，告诉你，即使你恨的那个什么组织不在了，那个组织的大多数人也比你牛逼，好好想想这句话 天下武功唯快不破 一只叫化腾，另一只叫云 考拉的其实毛很扎手的 对于考拉的日常活动量来说，这已经是一场核战争了。 这种趣味新闻应该多报，像韩国澡堂子这样的新闻有啥好报的 打得还算文明没有咬耳朵和踢下体 好可爱哦 楼上汉奸狗被狗奸了 “宝贝儿你听我说！我没有跟隔壁树桩上的阿花勾搭上！你听我解释啊！”<br>“滚犊子！男人都没有好东西！撒开！离我远点！” [大笑][大笑] 华为黑海舰队的更多 考拉🐨看着可爱，味道。。。。不喜欢。 华为定律？ 哈哈打架都这么可爱 和谐社会。 好可爱，想抱抱 好可爱 这肯定是一只给另一只带绿帽了，要不然不会这么拼 华为是雾猫的标配，所以总发一些乌烟瘴气的言论 16岁打不过13岁啊 已给一楼点赞了，觉得你们很逗 好可爱，想抱抱 好可爱哦 一定是有深仇大恨 你肯定被绿了，才会这么想 中国还能看到鸟在打架，再过几年，只能看蚂蚁打架了。 打得还算文明没有咬耳朵和踢下体 一爪子把你变成男人 看着觉得女人没有女人样，都是泼妇，这两女人生活过得太糙了。 看来你妈被人奸尸了 用华为如果是狗，楼上这些诬蔑华为的，都是狗狗曰出来的。。 这种趣味新闻应该多报，像韩国澡堂子这样的新闻有啥好报的 还没有揪头发扇耳光[喷水]确实文明啦 😁 看来你们都被绿了才能这么心有灵犀 干一仗，看谁更厉害 谁认识视频里的摩托车？ 难道是三星的推手上来了？ 哈哈哈 尿你一身 史迪仔,是你吗[狗] 用华为如果是狗，楼上这些诬蔑华为都是狗R日出来的。。 澳大利亚相扑。 所以你就认命了？ 为了权力大打出手 这么多为华为做广告的，华为给你们钱了？ 对对对，什么都不要报道，天天活在梦里 经过一架，两只考拉比其他考拉寿命延长了一年…… 好可爱[大笑] 年底了，还有没用的赶快用掉。 被打的是小编 你知道自己有多无力吗，多可笑吗，告诉你，即使你恨的那个什么组织不在了，那个组织的大多数人也比你牛逼，好好想想这句话 天下武功唯快不破 一只叫化腾，另一只叫云 奇妻之恨 仙气耗尽，才气大补，花木兰等着你 华为定律[窃笑][窃笑] 好q 拍视频的怎么不上去劝架？ 唉，马云狗 打个架都这么萌 这货不是只会卖萌么😏 本是同根生相煎何太急😄 确定是打架？万一是强奸呢？ 考拉比熊猫可爱点 头一次见它们这么勤快。 中国的专业喷子在哪里？赶紧滚出来 五美分的标配是啥？ 考拉又不是树懒[喷水] 囚犯的儿子 这肯定是一只给另一只带绿帽了，要不然不会这么拼 楼上王八的崽，我在等你吐渣 央视，秒拍，网易视频，，<br>窃。 没错 考拉好漂亮，遗传了漂亮妈妈的基因。 这肯定是一只给另一只带绿帽了，要不然不会这么拼 华为是雾猫的标配，所以总发一些乌烟瘴气的言论 有道理！ 老铁，刷游艇！双击666！ 这肯定是一只给另一只带绿帽了，要不然不会这么拼 澳囚政客和妓者：考拉从不打架，这一定是中国干涉澳洲内政的结果！ 有道理！ 打得还算文明没有咬耳朵和踢下体 我估计是被扣绿帽了，不然不能打成这样[微笑] 又不是树懒 35澳币抱2分钟 在国内早成两张上成的毛皮料了 打的好看 什么仇什么怨 华为定律？ 都是第一阶段啊 哈哈哈打起架来还是好可爱😊 去过澳大利亚才知道考拉是吃桉树叶，桉树叶有安眠作用！所以考拉爱睡觉的！ 把两只全抱回家养着 身体也变成人屎了 考拉:我们只是在做一场秀 仅次于树懒了吧 什么仇什么怨 这种趣味新闻应该多报，像韩国澡堂子这样的新闻有啥好报的 B站抄个视频就是新闻？ 这肯定是一只给另一只带绿帽了，要不然不会这么拼 一楼母被华为手机用户用狗奸了 毫无疑问，黑华为的都是吃里扒外的民族垃圾、人渣、败类。 看来用华为的真是傻的 这肯定是一只给另一只带绿帽了，要不然不会这么拼 这两萌物，过去一手抱一个，会咬人么？ 仙气耗尽，才气大补，花木兰等着你 这都能扯到[喷水] 错不在华为，也不在华为用户，错在有人用华为能拿到津贴，而有人拿不到津贴。 考拉的其实毛很扎手的 对于考拉的日常活动量来说，这已经是一场核战争了。 唉，马云狗 过圣诞节啦!天上有大声音呼唤牧羊人，主诞生啦，在那马槽里!天上有光柱引导牧羊人至马槽! 两只雄的在争配偶而已，考拉也就是这个时候精力最旺盛了 直接搞两个板块：趣闻，国外 某段时间起，0.5元似乎都在用华为，网友推测这是主旨发放机型。 kowala 肯定为了交配权 打死你不要脸的玩艺。 B站抄个视频就是新闻？ 这种趣味新闻应该多报，像韩国火灾死了人这样的新闻有啥好报的 这忒么是在卖萌吗 难道所有的新闻都要记着亲自拍到？怎么逻辑 这种趣味新闻应该多报，像韩国澡堂子这样的新闻有啥好报的 挽尊 资本主义的动物没有社会主义的动物相处的和谐，这么喷对吗？ 这种趣味新闻应该多报，像韩国火灾死了多少人这样的新闻有啥好天天报道的 没想到考拉的动作可以这么迅速 “叫你开黑坑我，我揍死你！[暴怒]” 这？ 这种趣味新闻应该多报，像韩国澡堂子这样的新闻有啥好报的 这种趣味新闻应该多报，像韩国澡堂子这样的新闻有啥好报的 笑喷 强奸 肯定是因为食物或者伴侣而大打出手的，真可爱 穷追不舍… ",
        "Total": 2064,
        "Link": "http://comment.news.163.com/news_shehui7_bbs/D6DUJSAE0001875P.html",
        "Reply": 142
    },
    "Article": "#endText.video-infoa{text-decoration:none;color:#000;}#endText.video-infoa:hover{color:#d34747;}#endText.video-listli{overflow:hidden;float:left;list-style:none;width:132px;height:118px;position:relative;margin:8px3px0px0px;}#entText.video-lista,#endText.video-lista:visited{text-decoration:none;color:#fff;}#endText.video-list.overlay{text-align:left;padding:0px6px;background-color:#313131;font-size:12px;width:120px;position:absolute;bottom:0px;left:0px;height:26px;line-height:26px;overflow:hidden;color:#fff;}#endText.video-list.on{border-bottom:8pxsolid#c4282b;}#endText.video-list.play{width:20px;height:20px;background:url(http://img1.cache.netease.com/video/img14/zhuzhan/play.png);position:absolute;right:12px;top:62px;opacity:0.7;color:#fff;filter:alpha(opacity=70);_background:none;_filter:progid:DXImageTransform.Microsoft.AlphaImageLoader(src=\"http://img1.cache.netease.com/video/img14/zhuzhan/play.png\");}#endText.video-lista:hover.play{opacity:1;filter:alpha(opacity=100);_filter:progid:DXImageTransform.Microsoft.AlphaImageLoader(src=\"http://img1.cache.netease.com/video/img14/zhuzhan/play.png\");}if(/(iPhone|iPad|iPod|Android|NETEASEBOBO|blackberry|bbd+)/ig.test(navigator.userAgent)||/safari|chrome|firefox/i.test(navigator.userAgent)&&navigator.plugins&&!navigator.plugins[\"ShockwaveFlash\"]){varstr1='<videocontrols=\"controls\"preload=\"auto\"width=\"100%\"poster=\"http://vimg3.ws.126.net/image/snapshot/2017/12/S/D/VD5G4H5SD.jpg\"style=\"max-height:100%\">';varstr2='<sourcetype=\"video/mp4\"src=\"http://flv.bn.netease.com/videolib3/1712/24/FLCjU6912/SD/FLCjU6912-mobile.mp4\">您的浏览器暂时无法播放此视频.</video>';document.getElementById(\"FPlayer1404863609673\").parentNode.innerHTML=str1+str2;}两只考拉道路中间打架看着好疼（来源：~）window.NTES&&function(d){varf=function(c){varb=c.getAttribute(\"flashvars\"),a=c.getAttribute(\"repovideourl\").replace(\".flv\",\"-mobile.mp4\");h=d(c.parentNode.parentNode.parentNode),g='<embedsrc=\"http://v.163.com/swf/video/NetEaseFlvPlayerV3.swf\"flashvars=\"'+b+'\"allowfullscreen=\"true\"allowscriptaccess=\"always\"quality=\"high\"wmode=\"opaque\"width=\"100%\"height=\"100%\"type=\"application/x-shockwave-flash\"/>';if(/(iPhone|iPad|iPod|Android|NETEASEBOBO|blackberry|bbd+)/ig.test(navigator.userAgent)){g='<videocontrols=\"controls\"preload=\"auto\"width=\"100%\"height=\"100%\"><sourcetype=\"video/mp4\"src=\"'+a+'\">您的浏览器暂时无法播放此视频.</video>';}h.$(\".video\")[0].innerHTML=g;},e=function(b){vara=d(b.parentNode.parentNode.parentNode);a.$(\"li\").removeCss(\"on\"),b.addCss(\"on\"),a.$(\".video-title\")[0].innerHTML=\"string\"==typeofb.textContent?b.textContent:b.innerText,a.$(\".video-title\")[0].setAttribute(\"href\",b.getAttribute(\"url\")),a.$(\".video-from\")[0].innerHTML=\"（来源：\"+b.getAttribute(\"source\")+\"）\",f(b);};window.continuePlay=function(){vara,b=d(d(\".video-list.on\")[0].nextSibling);3==b.nodeType&&(b=d(b.nextSibling));if(b&&d(\".video-innerinput\")[0].checked){e(b);}},function(){vara={init:function(){if(d(\".video-listli\")[0]){d(d(\".video-listli\")[0]).addCss(\"on\"),this.eventBind();}},eventBind:function(){d(\".video-listli\").addEvent(\"click\",function(b){e(d(this)),b.preventDefault();});}};a.init();}();}(NTES);【两只考拉路中间打架看着好疼】近日，在澳大利亚一条公路上，两只考拉当街大打出手。它们抱在一起不停翻滚，还不时用上肢顶住对方，一只考拉被压制在地，挣脱后落荒而逃，另一只考拉穷追不舍，似乎还要继续缠斗。网友：感觉这一架，耗尽了它俩一年的活动量。本文来源：央视新闻责任编辑：范姜国一_NN9138",
    "Title": "两只考拉当街大打出手 网友:这一架耗尽一年活动量_网易新闻"
}