{
    "PublishTime": "12/31/201700:22:10",
    "Source": "Netease",
    "Comment": {
        "Content": "阿森纳是冠军 今年英超悬念是娜娜和我抬哪个是第四？ 闷平[窃笑] 阿森纳是冠军 今年英超悬念是娜娜和我抬哪个是第四？ 平[色色] 伯恩茅斯应该以大局为重，不能赢了阿森纳再把温格搞下课，那样英超其他18队不会放过你的。 利物浦赢了，好吧 说不定唯一能赢的就是阿森纳了 富士康北门的艺剪坊（清湖形象店）<br>坑爹五步曲————————————坑爹的理发店<br>第一步，装热情——刚一走到门口，几个人围着你上来，那叫一个热情啊。只要你说了一句“洗剪吹”，全部人都散了……（钱少啊）<br>第二步，套关系——那个理发师（我们暂且叫他SB）会主动问你是哪里的人，但不管你说自己是哪里的人，SB都会说“哦，老乡啊”，然后会编出一个跟你同省的城市（最有可能的就是省府），让你放松警惕，开始下手宰你……<br>第三步，故意下套，让你钻——洗完头发，他会问你：“你头发有点弯，要不要梳直？”刚洗完头发，这么乱，当然要梳直啦。你中了，不是中奖，而是中了他的套套。里面的人马上又“热情”起来，两三个人会迫不及待的拿药水给你涂上，这就是钱啊……<br>第四步，“教导”你——等你发现后，店长（暂且就叫GRD吧）说这是你无知，不懂理发店的潜规则（靠，听起来怎么像圈圈里面的事），然后还教师口气的对你说，这次他“好心”告诉你，下次你就不会上当了（来他那里就是买教训的？），FUCK，强盗还讲起理来了！！！<br>第五，威逼胁迫——几个人“围着”你，然后绞尽脑汁给你“想办法、出主意”，押厂牌啊，押手机啊，“陪”你去取钱啊，真感觉自己处在Hongkong电影里<br>同仁们，希望大家记住富士康北门这个店——艺剪坊（清湖形象店）。现在我们被无数的无良商家残害，毒害、欺诈，我们这些“上帝”再也伤不起了，我们不能严惩他们，但至少可以抵制他们。 ",
        "Link": "http://comment.sports.163.com/sports2_bbs/D6UO2FQH00058781.html",
        "Total": 19,
        "Reply": 8
    },
    "Article": "网易体育12月31日报道：北京时间1月1日0时30分，英超第21轮一场焦点战里，阿森纳客场对阵西布朗维奇。英超前20轮过后，阿森纳11胜4平5负排名第6，西布朗2胜9平9负排名第19。交战成绩历史中两队一共有139场交锋，阿森纳70胜31平38负占优。英超历史中两队曾经交锋过23场，阿森纳16胜3平4负占据优势，射入46球失球有23个。看点1：吉鲁蒙雷亚尔拉姆塞继续缺阵阿森纳已经证实吉鲁和蒙雷亚尔因为受伤将要缺阵到明年一月，拉姆塞的腿筋伤势也同样没有恢复。西布朗中场查德利要休战到明年三月，中锋隆东和中场球员莫里森也无法出场。看点2：阿森纳或首次客场连胜西布朗已经连续18场英超联赛无法取胜了九平九负，2017年总共联赛输了19场也已经追平了西布朗的历史纪录，帕杜上任后六轮联赛也是一场没赢过进球也只有两球。阿森纳虽然过去两次做客山楂球场全部输球，但是本赛季很有希望在这里全取三分获得本赛季首次的联赛客场连胜。看点3：温格超越弗格森本场比赛是温格带阿森纳参加的第811场英超联赛，他将超过弗格森成为英超历史上执教比赛最多的主教练，爵爷的第810场英超联赛也是在曼联的告别战对手也正好是西布朗，那一场红魔和画眉鸟踢出了5-5的超级大比分。伤停名单：西布朗：隆东、查德利、莫里森（受伤）阿森纳：吉鲁、蒙雷亚尔、拉姆塞、卡索拉（受伤）预测首发：西布朗（442）：福斯特/道森、赫加齐、埃文斯、吉布斯/菲利普斯、利弗莫尔、巴里、布伦特/J-罗德里格斯、罗布森-卡努阿森纳（3421）：切赫/科斯切尔尼、穆斯塔菲、钱伯斯/贝莱林、威尔希尔、扎卡、科拉希纳茨/桑切斯、厄齐尔/拉卡泽特本文来源：网易体育作者：莫罗责任编辑：冯昊天_NSJS2656",
    "URL": "http://sports.163.com/17/1231/00/D6UO2FQH00058781.html",
    "Title": "西布朗VS阿森纳前瞻:枪手3将缺阵 温格超弗格森_网易体育",
    "KeyWords": "阿森纳,西布朗,温格,英超"
}