{
    "Comment": {
        "Total": 94,
        "Reply": 8,
        "Link": "http://comment.news.163.com/news2_bbs/D75EJNN9000187VE.html",
        "Content": "老干部疗养院？ 今天向一妹子表白，妹子拒绝了我，她狠心的对我说道，你也不撒泡尿照照自己，你这么样配的上我吗？于是我脱下了裤子，撒泡尿照照自己的样子，就在我脱完裤子，准备撒尿时，妹子吞了口口水说到:等等，也许我们可以试试...[抠鼻]哎… 应该是禁止普通人吧？特殊人可以特事特办！看看海南！ 我不信他们能管的了 她是不是有点变态想喝你的尿？ 老干部疗养院？ 今天向一妹子表白，妹子拒绝了我，她狠心的对我说道，你也不撒泡尿照照自己，你这么样配的上我吗？于是我脱下了裤子，撒泡尿照照自己的样子，就在我脱完裤子，准备撒尿时，妹子吞了口口水说到:等等，也许我们可以试试...[抠鼻]哎… 我不信他们能管的了 杭州西溪，先回恢复了 留给子孙后代一片干净的东西吧 她是不是有点变态想喝你的尿？ 应该是禁止普通人吧？特殊人可以特事特办！看看海南！ 剧情跌宕起伏 "
    },
    "Title": "国家湿地公园管理办法:禁止从事度假村等开发活动_网易新闻",
    "KeyWords": "国家湿地公园管理办法,国家林业局,湿地",
    "Article": "（原标题：国家林业局关于印发《国家湿地公园管理办法》的通知）2017年12月28日，云南大理白族自治州洱源县，成群的赤麻鸭栖息在西湖国家湿地公园湖面。视觉中国图国家林业局关于印发《国家湿地公园管理办法》的通知林湿发〔2017〕150号各省、自治区、直辖市林业厅（局），内蒙古、吉林、龙江、大兴安岭森工（林业）集团公司，新疆生产建设兵团林业局，国家林业局各司局、各直属单位：为加强国家湿地公园建设和管理，促进国家湿地公园健康发展，有效保护湿地资源，根据《湿地保护管理规定》和《国务院办公厅关于印发湿地保护修复制度方案的通知》等文件精神以及国家湿地公园管理工作实际需要，我局对《国家湿地公园管理办法（试行）》进行了修改。现将修改后的《国家湿地公园管理办法》（见附件），现印发给你们，请遵照执行。执行中有何意见和建议，请及时反馈我局。附件：国家湿地公园管理办法国家林业局2017年12月27日【附】国家湿地公园管理办法第一条为加强国家湿地公园建设和管理，促进国家湿地公园健康发展，有效保护湿地资源，根据《湿地保护管理规定》及国家有关政策，制定本办法。国家湿地公园的设立、建设、管理和撤销应遵守本办法。第二条国家湿地公园是指以保护湿地生态系统、合理利用湿地资源、开展湿地宣传教育和科学研究为目的，经国家林业局批准设立，按照有关规定予以保护和管理的特定区域。国家湿地公园是自然保护体系的重要组成部分，属社会公益事业。国家鼓励公民、法人和其他组织捐资或者志愿参与国家湿地公园保护和建设工作。第三条县级以上林业主管部门负责国家湿地公园的指导、监督和管理。第四条国家湿地公园的建设和管理，应当遵循“全面保护、科学修复、合理利用、持续发展”的方针。第五条具备下列条件的，可申请设立国家湿地公园：（一）湿地生态系统在全国或者区域范围内具有典型性；或者湿地区域生态地位重要；或者湿地主体生态功能具有典型示范性；或者湿地生物多样性丰富；或者集中分布有珍贵、濒危的野生生物物种。（二）具有重要或者特殊科学研究、宣传教育和文化价值。（三）成为省级湿地公园两年以上（含两年）。（四）保护管理机构和制度健全。（五）省级湿地公园总体规划实施良好。（六）土地权属清晰，相关权利主体同意作为国家湿地公园。（七）湿地保护、科研监测、科普宣传教育等工作取得显著成效。第六条申请晋升为国家湿地公园的，可由省级林业主管部门向国家林业局提出申请。国家林业局对申请材料进行审查，组织专家实地考察，召开专家评审会，并在所在地进行公示，经审核后符合晋升条件的设立为国家湿地公园。第七条申请设立国家湿地公园的，应当提交如下材料：（一）所在地省级林业主管部门提交的申请文件、申报书。（二）设立省级湿地公园的批复文件。（三）所在地县级以上地方人民政府同意晋升国家湿地公园的文件；跨行政区域的，需提交其共同上级地方人民政府同意晋升国家湿地公园的文件。（四）县级以上机构编制管理部门设立湿地公园管理机构的文件；法人证书；近2年保护管理经费的证明材料。（五）县级以上地方人民政府出具的湿地公园土地权属清晰和相关权利主体同意纳入湿地公园管理的证明文件。（六）湿地公园总体规划及其范围、功能区边界矢量图。（七）反映湿地公园资源现状和建设管理情况的报告及影像资料。第八条国家湿地公园的湿地面积原则上不低于100公顷，湿地率不低于30%。国家湿地公园范围与自然保护区、森林公园不得重叠或者交叉。第九条国家湿地公园采取下列命名方式：省级名称+地市级或县级名称+湿地名+国家湿地公园。第十条国家湿地公园应当按照总体规划确定的范围进行标桩定界，任何单位和个人不得擅自改变和挪动界标。第十一条国家湿地公园应划定保育区。根据自然条件和管理需要，可划分恢复重建区、合理利用区，实行分区管理。保育区除开展保护、监测、科学研究等必需的保护管理活动外，不得进行任何与湿地生态系统保护和管理无关的其他活动。恢复重建区应当开展培育和恢复湿地的相关活动。合理利用区应当开展以生态展示、科普教育为主的宣教活动，可开展不损害湿地生态系统功能的生态体验及管理服务等活动。保育区、恢复重建区的面积之和及其湿地面积之和应分别大于湿地公园总面积、湿地公园湿地总面积的60%。第十二条国家湿地公园的撤销、更名、范围和功能区调整，须经国家林业局同意。第十三条国家湿地公园管理机构应当具体负责国家湿地公园的保护管理工作，制定并实施湿地公园总体规划和管理计划，完善保护管理制度。第十四条国家湿地公园应当设置宣教设施，建立和完善解说系统，宣传湿地功能和价值，普及湿地知识，提高公众湿地保护意识。第十五条国家湿地公园管理机构应当定期组织开展湿地资源调查和动态监测，建立档案，并根据监测情况釆取相应的保护管理措施。第十六条国家湿地公园管理机构应当建立和谐的社区共管机制，优先吸收当地居民从事湿地资源管护和服务等活动。第十七条省级林业主管部门应当每年向国家林业局报送所在地国家湿地公园建设管理情况，并通过“中国湿地公园”信息管理系统报送湿地公园年度数据。第十八条禁止擅自征收、占用国家湿地公园的土地。确需征收、占用的，用地单位应当征求省级林业主管部门的意见后，方可依法办理相关手续。由省级林业主管部门报国家林业局备案。第十九条除国家另有规定外，国家湿地公园内禁止下列行为：（一）开（围）垦、填埋或者排干湿地。（二）截断湿地水源。（三）挖沙、采矿。（四）倾倒有毒有害物质、废弃物、垃圾。（五）从事房地产、度假村、高尔夫球场、风力发电、光伏发电等任何不符合主体功能定位的建设项目和开发活动。（六）破坏野生动物栖息地和迁徙通道、鱼类洄游通道，滥采滥捕野生动植物。（七）引入外来物种。（八）擅自放牧、捕捞、取土、取水、排污、放生。（九）其他破坏湿地及其生态功能的活动。第二十条省级以上林业主管部门组织对国家湿地公园的建设和管理状况开展监督检查和评估工作，并根据评估结果提出整改意见。监督评估的主要内容包括：（一）准予设立国家湿地公园的本底条件是否发生变化。（二）机构能力建设、规章制度的制定及执行等情况。（三）总体规划实施情况。（四）湿地资源的保护管理和合理利用等情况。（五）宣传教育、科研监测和档案管理等情况。（六）其他应当检查的内容。第二十一条因自然因素造成国家湿地公园生态特征退化的，省级林业主管部门应当进行调查，指导国家湿地公园管理机构制定实施补救方案，并向国家林业局报告。经监督评估发现存在问题的国家湿地公园，省级以上林业主管部门通知其限期整改。限期整改的国家湿地公园应当在整改期满后15日内向下达整改通知的林业主管部门报送书面整改报告。第二十二条因管理不善导致国家湿地公园条件丧失的，或者对存在重大问题拒不整改或者整改不符合要求的，国家林业局撤销其国家湿地公园的命名，并向社会公布。撤销国家湿地公园命名的县级行政区内，自撤销之日起两年内不得申请设立国家湿地公园。第二十三条本办法自2018年1月1日起实施，有效期至2022年12月31日，《国家湿地公园管理办法（试行）》（林湿发〔2010〕1号）同时废止。本文来源：国家林业局责任编辑：程钢_NN7377",
    "URL": "http://news.163.com/18/0102/14/D75EJNN9000187VE.html",
    "PublishTime": "01/02/201814:45:00",
    "Source": "Netease"
}