{
    "Article": "",
    "KeyWords": "网易订阅、rss、新闻、资讯",
    "Source": "Netease",
    "Title": "中国歼16战机单价曝光：约6亿人民币 歼20的价格出乎预期_网易订阅",
    "Comment": {
        "Link": "http://comment.war.163.com/news_junshi_bbs/D6O7ADEN0515DV50.html"
    },
    "URL": "http://dy.163.com/v2/article/detail/D6O7ADEN0515DV50.html",
    "PublishTime": "12/28/201711:34:00"
}