{
    "PublishTime": "12/31/201715:31:47",
    "Comment": {
        "Total": 3,
        "Reply": 3,
        "Link": "http://comment.tech.163.com/tech_bbs/D70C41GH00097U7R.html",
        "Content": "我知道!!!高达独角兽之后咧肯定会出双角兽 独角仙踪的仙灵独角兽,每天可以拿一个,然后在放在旁边的灵角木上,4天就可以出来了 独角兽才刚两集吧.这个网上没消息,目前最新的是独角兽 "
    },
    "Title": "中国\"独角兽们\"上市暂无时间表，在等待什么机会_网易科技",
    "Source": "Netease",
    "KeyWords": "独角兽,上市,融资,ipo",
    "URL": "http://tech.163.com/17/1231/15/D70C41GH00097U7R.html",
    "Article": "（原标题：“独角兽们”不提上市等待春暖花开）张杰上市，对于多数做企业的掌舵者和投资者来说无疑是一件既荣耀且获益的好事，但对于已是排名靠前的多家“独角兽”企业来说，这一切似乎并不认同。《华夏时报》记者查阅目前在胡润排行榜比较靠前的多家“独角兽”公司发现，从估值排名第一的蚂蚁金服，到滴滴出行、小米、新美大和今日头条，这些排名靠前的独角兽们好像对上市并不感兴趣，且不止一次对于此前外界上市的谣言还都一一否认，还没有具体的上市时间表。虽然这些独角兽们在融资的时候一骑绝尘将同行甩出千里之外，然而却在上市方面却一再“任性”，拖延上市的说法也五花八门，独角兽们逆潮流的“做派”到底为哪般？上市暂无时间表既没有时间表，也没有上市规划，更不直面回应上市问题，无疑是这些独角兽们关于上市问题的直接做派。《华夏时报》记者统计发现，2017年这一年，独角兽们关于上市的内部消息的确很多，而且多家公司关于上市的具体思路也描述的有板有眼，但最终却被这些独角兽们一一否认。“蚂蚁还没有做好准备。”在媒体多次问到蚂蚁金服上市问题是，阿里巴巴董事局主席马云在发布会现场回应称。与蚂蚁金服相比，虽然滴滴出行成为了2017年全球的融资之最，但面对上市问题，滴滴出行却显得异常的沉默。而小米在2017年是被投资者传的最多的一家即将在2018年上市的科技公司，但在官方多次的沉默回应无效之后，雷军也首次发声辟谣。“我觉得我们会到业务比较舒服的时候再IPO。”雷军表示，自己做企业时间比较久，不追求短期的估值。在雷军看来，小米现阶段的重点仍在于创新。而对于持续烧钱的今日头条，虽然外界质疑“流量思维”遭遇天花板，但对于上市，坚持做好国际化的今日头条CEO张一鸣出人意料地表示，暂无上市计划。等待一个机会？资本市场的繁华对于公司来说确实是一个好时代，然而对于国内市场上市收紧以及国外市场的严重低估现状来看，现在匆匆IPO却是一个不好的时代。“这些独角兽之所以处在一个高估值的时候不去上市，而选择继续扩张布局的做法，从表面上看思路是没问题的，但其实是掌舵者似乎在等待一个好的时机。”有业内观察人士对记者分析说，主要是掌舵者想择机选择一个高于预期的估值和值得上市的好平台。新鼎资本董事长张弛对《华夏时报》记者分析说，其实这些独角兽们是非常纠结的，在热钱资本蜂拥而至的背景下，处在风口上的公司估值被资本市场瞬间吹大，如何以稳定的盈利模式实现对现有估值的支撑和选择一个如意上市地点都是现在独角兽们最终思考的问题。目前来看，独角兽们调整盈利模式和保持行业的竞争力才是首要任务。目前排名比较靠前的独角兽们，他们大多数还处在亏损和未盈利的状态，要想上市后不遭遇二级市场的低估和用脚投票的现状，多家独角兽还在加紧修炼内功。此外，IPO市场的困境现状也是目前独角兽们一直思考的问题。“由于大部分独角兽们多有外资进入，基本上都在国内市场上市的红线内，这给独角兽在国内上市带来了很多的压力，而在国外市场，面对高估值而没有稳定的盈利模式，独角兽们也是怕市值遭遇严重低估。”张弛对记者分析说，如小米和今日头条都是比较典型的例子。“对于现在的这些独角兽们，如果在国外上市，由于目前估值比较大，再因为影响力比较小的市场环境下，遭遇市场低估值也是不可避免的，就算上市最终不能维持高估值也是独角兽们不得不思考的关键问题。”张弛对记者分析说。“大多数硅谷公司现在都害怕上市。”Gusto的CEOJoshReeves说道。恐惧的最大原因是担心估值下降。众所周知，在当前多家独角兽持续融资的背景下，有些独角兽公司甚至已经融到G轮甚至更多的融资，与此同时，公司的估值也像吹气球一样逐渐做大，然而有些公司突然上市之后，由于并不认为这个公司值这个价格，最终遭遇二级市场用脚投票。面对多种困局交织的独角兽，何时才能迎来上市前的最佳时机，何时才是独角兽们上市的新机会，对此本报记者将持续关注。责任编辑：黄兴利主编：寒丰本文来源：华夏时报责任编辑：王凤枝_NT2541"
}