{
    "Title": "男子随列车摇晃用下体蹭女子 看到手机拍摄秒缩回_网易新闻",
    "URL": "http://news.163.com/17/1226/21/D6K55DD90001899N.html",
    "KeyWords": "手机,下体,猥琐男,性骚扰",
    "PublishTime": "12/26/201721:39:18",
    "Article": "（原标题：猥琐男随列车摇晃用下体磨蹭女子看到手机拍摄秒缩回）#endText.video-infoa{text-decoration:none;color:#000;}#endText.video-infoa:hover{color:#d34747;}#endText.video-listli{overflow:hidden;float:left;list-style:none;width:132px;height:118px;position:relative;margin:8px3px0px0px;}#entText.video-lista,#endText.video-lista:visited{text-decoration:none;color:#fff;}#endText.video-list.overlay{text-align:left;padding:0px6px;background-color:#313131;font-size:12px;width:120px;position:absolute;bottom:0px;left:0px;height:26px;line-height:26px;overflow:hidden;color:#fff;}#endText.video-list.on{border-bottom:8pxsolid#c4282b;}#endText.video-list.play{width:20px;height:20px;background:url(http://img1.cache.netease.com/video/img14/zhuzhan/play.png);position:absolute;right:12px;top:62px;opacity:0.7;color:#fff;filter:alpha(opacity=70);_background:none;_filter:progid:DXImageTransform.Microsoft.AlphaImageLoader(src=\"http://img1.cache.netease.com/video/img14/zhuzhan/play.png\");}#endText.video-lista:hover.play{opacity:1;filter:alpha(opacity=100);_filter:progid:DXImageTransform.Microsoft.AlphaImageLoader(src=\"http://img1.cache.netease.com/video/img14/zhuzhan/play.png\");}if(/(iPhone|iPad|iPod|Android|NETEASEBOBO|blackberry|bb\\d+)/ig.test(navigator.userAgent)||/safari|chrome|firefox/i.test(navigator.userAgent)&&navigator.plugins&&!navigator.plugins[\"ShockwaveFlash\"]){varstr1='<videocontrols=\"controls\"preload=\"auto\"width=\"100%\"poster=\"http://vimg3.ws.126.net/image/snapshot/2017/12/8/E/VA5M9TC8E.jpg\"style=\"max-height:100%\">';varstr2='<sourcetype=\"video/mp4\"src=\"http://flv.bn.netease.com/videolib3/1712/26/JClid3791/SD/JClid3791-mobile.mp4\">您的浏览器暂时无法播放此视频.</video>';document.getElementById(\"FPlayer1404863609673\").parentNode.innerHTML=str1+str2;}男子随列车摇晃用下体磨蹭女子看到手机拍摄秒缩回去（来源：original）window.NTES&&function(d){varf=function(c){varb=c.getAttribute(\"flashvars\"),a=c.getAttribute(\"repovideourl\").replace(\".flv\",\"-mobile.mp4\");h=d(c.parentNode.parentNode.parentNode),g='<embedsrc=\"http://v.163.com/swf/video/NetEaseFlvPlayerV3.swf\"flashvars=\"'+b+'\"allowfullscreen=\"true\"allowscriptaccess=\"always\"quality=\"high\"wmode=\"opaque\"width=\"100%\"height=\"100%\"type=\"application/x-shockwave-flash\"/>';if(/(iPhone|iPad|iPod|Android|NETEASEBOBO|blackberry|bb\\d+)/ig.test(navigator.userAgent)){g='<videocontrols=\"controls\"preload=\"auto\"width=\"100%\"height=\"100%\"><sourcetype=\"video/mp4\"src=\"'+a+'\">您的浏览器暂时无法播放此视频.</video>';}h.$(\".video\")[0].innerHTML=g;},e=function(b){vara=d(b.parentNode.parentNode.parentNode);a.$(\"li\").removeCss(\"on\"),b.addCss(\"on\"),a.$(\".video-title\")[0].innerHTML=\"string\"==typeofb.textContent?b.textContent:b.innerText,a.$(\".video-title\")[0].setAttribute(\"href\",b.getAttribute(\"url\")),a.$(\".video-from\")[0].innerHTML=\"（来源：\"+b.getAttribute(\"source\")+\"）\",f(b);};window.continuePlay=function(){vara,b=d(d(\".video-list.on\")[0].nextSibling);3==b.nodeType&&(b=d(b.nextSibling));if(b&&d(\".video-innerinput\")[0].checked){e(b);}},function(){vara={init:function(){if(d(\".video-listli\")[0]){d(d(\".video-listli\")[0]).addCss(\"on\"),this.eventBind();}},eventBind:function(){d(\".video-listli\").addEvent(\"click\",function(b){e(d(this)),b.preventDefault();});}};a.init();}();}(NTES);【猥琐男随列车摇晃用下体磨蹭女子看到手机拍摄秒缩回】一名台湾网友爆料称，近日乘区间车时遇到变态，对方不断用下体往前顶或磨蹭，就算她移动，男子依旧跟着往前，直到被害人拿手机录影，男子才转身离开。女子下车之后就先到派出所备案，隔天再去做笔录，这才知道原来那名变态根本就是性骚扰惯犯。本文来源：看看新闻Knews责任编辑：张海桐_NN9053",
    "Comment": {
        "Content": "我是遇上屁股大的，顶的你想不硬都不行啊，唉 顶哥，你好！顶哥，再见！ 昨天下班做公交很挤，有个妹子一直握住我的JJ可能当扶手了！我一直没说是不是雷锋！ 我也是，我现在都不敢坐地铁公交了，出门只敢开车了。 电车痴汉 你阈值大而已 我也想说，直接一拳怼他蛋上，彻底爽歪歪 秒缩回？请受再下一拜～ 呵呵 列车摇晃？列车会摇晃吗？哥都是到公交车上去摇晃！ 看看 我说日本也有派出所，你信不？[狗] 上去一个大耳贴子！ 同样经历，十年前了，在苏州出茶常驻，某次公交上来俩二十左右漂亮的女孩子，个小点的上来看看没周围，瞅了我一眼就走到我跟前往怀里一靠，是全身靠的那种，然后面对她朋友俩人聊了一路。我靠，她屁股对着我下体，那个硬，大夏天的绝对顶住她了，尤其车一晃一晃，我还不敢动怕别人姑娘以为我嫌弃人家呢！差点泄了。好几站后那女孩下车回头冲我一笑走了…… 我在此提醒某些女性，如果有变态蹭过来，一定先用大腿死死的夹住对方把柄！别让这些坏蛋跑了！同时要挤出对方的证据，然后通知警察来捉人，，。 227871132 现在地铁上一抓一大堆都是猥琐大叔 台湾也有派出所吗 我看到过公交上一个六十岁左右的男的对一个大学生摩擦，大学生居然不躲，我也是醉了，忍不住了，直接把大学生喊我这来站着，我亲自摩擦！ 有一次地铁一号线高峰期，站在中间一手抓着柱子一手刷着手机。一妹子上来胸直接贴在我手上，一路胸就一直摩擦我的手，吓的我不敢动。。。。。她应该能感觉到，为什么她不躲开呢？我手汗顺着杆子往下流。从那以后留下心里阴影，导致我现在高峰期都贴着门口站。 在你一拳怼我蛋蛋0.5秒之前，老子死也先🐍你手上 还好是阈值，我现在看到人叫阀值脑袋都疼。 我一直认为，拍这种视频的人比视频中的人还要恶心，吐！ 太无耻，有空我也挤挤公交车去，十几年没有坐公交车了[羞羞] 记得一次火车上，晚上我对面坐了个女的，很漂亮，我假装趴着睡觉，一只手伸过去，摸人家，从脚摸到腿，那妹子开始我摸一下她动一下，后来可能我行为有点过分，就一巴掌甩我脸上，还骂我，[喷水][喷水]当时好尴尬啊。 没收作案工具！ 我刚毕业的时候在北京出差，有一次挤公交车也类似，那趟车挤到什么程度呢，如果提起一只脚就放不下去的地步，站我前面好像是个少妇，挤得我紧紧的贴在她后面，一开始还没什么，当车开起来前后左右摇摆的时候，它蹭蹭蹭的起来了，哥当时还是个处男......不说了，只觉得当时好尴尬😓 为啥打码？ 我就遇到过，那屁股，又丰满又翘，当时我被挤得完全动不了，那美女屁股也紧贴我，贴得那叫一个紧，若不是穿着裤子，估计都挤得插进去了。 这就是她可以骚，我们不能扰！多可怕的逻辑 直接干这男的，哥好这口……… 这个还真的很多，公交车上地铁上都是。一般都很挤，有些男生正好揩油 这就是有些老大爷喜欢挤公交的原因 他们嫉妒🀄️哥的盛世美颜 这是意淫，其实隔了好几层衣，就因为女人在面前，于是擦出了舒服感。明明后面有根棒顶着，女人哪有不知道的。哪天遇上泼的，一手抓住给他扯阳痿。 对、这是日本语引进的，你见识少，估计没有大学本科学历 😏遇到过用胸蹭我，一路上有座位我们都没去坐……这默契………… 可能是因为华为吧 痴汉电车？ 上学时候坐公交.前面有一个女的倒坐着.穿着短裙正好面对着我都看见内裤了.最重要的是她内裤还偏了.能看到一边的B.差点给我看射了.我硬了一天. 弯弯？派出所？ 怎么说呢，有时候是生理反应，并不是所有男人都是咸猪手，就像我十九岁那会，正是青春期，坐公交车遇车上人多，我在最里面，前面是一个时尚的妹纸，长的挺漂亮，紧挨着我，随着乘客多了起来，妹纸几乎靠在我怀里了，可是实际车上还不至于那么挤，大夏天的，本了我就穿的单裤，她还用后背正对着我，不停的晃来晃去的一会就把我弄硬了，我当时很尴尬，想转个身，又怕旁边的人也误会，我就硬忍着，问题妹子还回头看了我一眼……就这样僵持了十几分钟，妹子接了个电话：姐～你记得到站点接我啊，公交车实在太挤了，挤的我差点怀孕了。<br>WQNMLGB…… 真猥琐。 看看 楼上为何那么多人踩？？ 秒缩？绝招？ 这样真的爽吗？ 啊啊啊啊啊啊 这个……唉…… 这操作可以 还有有叫派茶所、派厕所的 我也想说，直接一拳怼他蛋上，彻底爽歪歪 秒缩回？请受再下一拜～ 我就蹭蹭不进去 列车摇晃？列车会摇晃吗？哥都是到公交车上去摇晃！ 哦也，这个比成虫还常，天下正常男人在拥挤公交车上谁会自摸挡住不顶 想想信用卡，就软了 以前没车坐公交我也喜欢这样 我看到过公交上一个六十岁左右的男的对一个大学生摩擦，大学生居然不躲，我也是醉了，忍不住了，直接把大学生喊我这来站着，我亲自摩擦！ 我说日本也有派出所，你信不？[狗] 挤的时候你后面有人抵着你，你开始以为是妹子，后来你发现是个男人，你就会发觉其实男人也可以让你很舒服 记得16岁的时候，我们学校开往市区的公交车上特别多这些变态的人，那时候我都很少单独搭公车的 在你一拳怼我蛋蛋0.5秒之前，老子死也先🐍你手上 一楼经常这样 几年前在苏州的时候有一次乘公交车那人山人海的挤的脚是真不着地我身后有个妹纸都贴在我后背上我都感觉到那两个馒头都要被挤扁了好爽的感觉 台湾也有派出所吗 [大笑] 如果男淫都团结起来，事情就好办了 哪有缩回？ 坐地铁 下体呢？ 缩头乌龟 我也是，我现在都不敢坐地铁公交了，出门只敢开车了。 重庆的轨道3号线特别挤，但我喜欢挤地铁上班，感觉特环保。[挨揍] 上学时候坐公交.前面有一个女的倒坐着.穿着短裙正好面对着我都看见内裤了.最重要的是她内裤还偏了.能看到一边的B.差点给我看射了.我硬了一天. 我觉得，反应很正常。就是有些道德彪，自己穿的暴露，还不让男的有反应。有反应还骂你流氓～ 看岛国片看多了……痴汉系列 太无耻，有空我也挤挤公交车去，十几年没有坐公交车了[羞羞] 记得一次火车上，晚上我对面坐了个女的，很漂亮，我假装趴着睡觉，一只手伸过去，摸人家，从脚摸到腿，那妹子开始我摸一下她动一下，后来可能我行为有点过分，就一巴掌甩我脸上，还骂我，[喷水][喷水]当时好尴尬啊。 我刚毕业的时候在北京出差，有一次挤公交车也类似，那趟车挤到什么程度呢，如果提起一只脚就放不下去的地步，站我前面好像是个少妇，挤得我紧紧的贴在她后面，一开始还没什么，当车开起来前后左右摇摆的时候，它蹭蹭蹭的起来了，哥当时还是个处男......不说了，只觉得当时好尴尬😓 广州地铁3号线每逢上下班的高峰期都很多人，挤得水泄不通，不排除有揩油的。 这就是她可以骚，我们不能扰！多可怕的逻辑 人挤人有点生理反应，其实很正常。 最后你们两个出柜了没有? 这个还真的很多，公交车上地铁上都是。一般都很挤，有些男生正好揩油 有一次坐公交实在人多，脚都移动不了，前面正好站了个妹子，然后后面的人一挤，我就顶上去了。。。由于夏天衣服少，我就感觉顶在她俩腿之间。。。想转身都转不过去，贼尴尬，我楞往后撤，但是没办法。 割了没？ 这是意淫，其实隔了好几层衣，就因为女人在面前，于是擦出了舒服感。明明后面有根棒顶着，女人哪有不知道的。哪天遇上泼的，一手抓住给他扯阳痿。 中哥都不认识，你在瞎几把扯秩序，是何居心 达叔系列的我都看过！😊 为什么我挤的，对方都很接受呢？不说每次吧，十次有八次都接受，好喜欢这种温存的感觉。 😏遇到过用胸蹭我，一路上有座位我们都没去坐……这默契………… 时间？地点？小学语文没学好吗？ 后来，手机钱包没了 有一次地铁一号线高峰期，站在中间一手抓着柱子一手刷着手机。一妹子上来胸直接贴在我手上，一路胸就一直摩擦我的手，吓的我不敢动。。。。。她应该能感觉到，为什么她不躲开呢？我手汗顺着杆子往下流。从那以后留下心里阴影，导致我现在高峰期都贴着门口站。 怎么说呢，有时候是生理反应，并不是所有男人都是咸猪手，就像我十九岁那会，正是青春期，坐公交车遇车上人多，我在最里面，前面是一个时尚的妹纸，长的挺漂亮，紧挨着我，随着乘客多了起来，妹纸几乎靠在我怀里了，可是实际车上还不至于那么挤，大夏天的，本了我就穿的单裤，她还用后背正对着我，不停的晃来晃去的一会就把我弄硬了，我当时很尴尬，想转个身，又怕旁边的人也误会，我就硬忍着，问题妹子还回头看了我一眼……就这样僵持了十几分钟，妹子接了个电话：姐～你记得到站点接我啊，公交车实在太挤了，挤的我差点怀孕了。<br>WQNMLGB…… 真猥琐。 哥莫非就是江湖人称的公交车摇晃色魔? 缩阳入腹[窃笑] 没出息 林子大了什么鸟都有！ 中哥是谁？中哥做过什么？我们只认识车牌主任。 变态男 楼上为何那么多人踩？？ 其实女的也有的，有一次坐公交上了个漂亮的27左右美眉，一直用乳房蹭我后背，一个字痒，三个字没法弄 我是遇上屁股大的，顶的你想不硬都不行啊，唉 渣男 这个还真的很多，公交车上地铁上都是。一般都很挤，有些男生正好揩油 上去一个大耳贴子！ 电车痴汉 你阈值大而已 秒缩回？请受再下一拜～ 👍 [狗]还挺机智 嗯刺激 看看 我在此提醒某些女性，如果有变态蹭过来，一定先用大腿死死的夹住对方把柄！别让这些坏蛋跑了！同时要挤出对方的证据，然后通知警察来捉人，，。 他们嫉妒🀄️哥的盛世美颜 顶族 这招真是绝了，缩阳功？ 现在地铁上一抓一大堆都是猥琐大叔 呵呵 射了吗？ 看看 楼上为何那么多人踩？？ 泄了吗？ 高手 说明身体机能好，伸缩自如。 还好是阈值，我现在看到人叫阀值脑袋都疼。 注意 我一直认为，拍这种视频的人比视频中的人还要恶心，吐！ [窃笑][挨揍][窃笑][挨揍][挨揍] 秒缩回[大笑]事前狼一样，事后猪一样 变态，得治！ 没收作案工具！ 同志，说出你的故事！ 我刚毕业的时候在北京出差，有一次挤公交车也类似，那趟车挤到什么程度呢，如果提起一只脚就放不下去的地步，站我前面好像是个少妇，挤得我紧紧的贴在她后面，一开始还没什么，当车开起来前后左右摇摆的时候，它蹭蹭蹭的起来了，哥当时还是个处男......不说了，只觉得当时好尴尬😓 我就遇到过，那屁股，又丰满又翘，当时我被挤得完全动不了，那美女屁股也紧贴我，贴得那叫一个紧，若不是穿着裤子，估计都挤得插进去了。 直接干这男的，哥好这口……… 对、这是日本语引进的，你见识少，估计没有大学本科学历 [被黑][被黑] 这就是有些老大爷喜欢挤公交的原因 呵呵 列车摇晃？列车会摇晃吗？哥都是到公交车上去摇晃！ 厕所也是，以前叫茅房[微笑][微笑] 多骂骂阿三岛国人，骂的越多我们越纯洁 他可能觉得这个刺激，但科学证明，这样很容易造成阳痿。 的确，而且还犯法 一定要用手牢牢抓住对方的作案工具，这是证据 撸快断气再出来不好吗？ 问一下，台湾游派出所吗？ 227871132 不是叫噘值吗？ 弯弯？派出所？ 怎么说呢，有时候是生理反应，并不是所有男人都是咸猪手，就像我十九岁那会，正是青春期，坐公交车遇车上人多，我在最里面，前面是一个时尚的妹纸，长的挺漂亮，紧挨着我，随着乘客多了起来，妹纸几乎靠在我怀里了，可是实际车上还不至于那么挤，大夏天的，本了我就穿的单裤，她还用后背正对着我，不停的晃来晃去的一会就把我弄硬了，我当时很尴尬，想转个身，又怕旁边的人也误会，我就硬忍着，问题妹子还回头看了我一眼……就这样僵持了十几分钟，妹子接了个电话：姐～你记得到站点接我啊，公交车实在太挤了，挤的我差点怀孕了。<br>WQNMLGB…… 真猥琐。 为啥打码？ 有病 呵呵 一楼矫情，不食人间烟火 秒缩？绝招？ 我就想问下秒缩回怎么办到 能射没 哦哦 昨天下班做公交很挤，有个妹子一直握住我的JJ可能当扶手了！我一直没说是不是雷锋！ 放个屁或者拉裤兜子再看看他还蹭不 别说了！曹！早上挤一号线被一个高大的小帅哥摸了！！车挤的都不能动弹了他还能下手，真tm变态！老子是中年油腻男！😂 好恶心😨😨😨 秒缩回？请受再下一拜～ 用膝盖顶 吓软了呗 列车摇晃？列车会摇晃吗？哥都是到公交车上去摇晃！ 这是意淫，其实隔了好几层衣，就因为女人在面前，于是擦出了舒服感。明明后面有根棒顶着，女人哪有不知道的。哪天遇上泼的，一手抓住给他扯阳痿。 这么厚的衣服能蹭出什么感觉？ 痴汉电车？ 上去一个大耳贴子！ 顶哥，你好！顶哥，再见！ 肯定是基佬 十个眼镜九个骚。 放个屁或者拉裤兜子再看看他还蹭不 这是真实的事情：在挺挤的公交🚃上有个女的都把我蹭硬了，我往后躲她又往后挪，干脆也就不躲了任她蹭难受死了 湾湾还说自己去中国化吗？哈哈 上次在地铁上，嘿嘿嘿 公交地铁，挤到一起，情不自禁啊😂 他的枪弹性这么好，比王八的头还灵敏？秒伸秒缩？ 以前在公交车试过揩油，幸好女的没报警，很害怕 长的丑的大叔叫猥亵，高帅的小青年叫被猥亵，是不是猥亵取决于那个女士 秒缩回？小大由之，柳颜欧赵 哥，做地铁公交，双手举高，臀部翘起 [有个大胆的想法狗] 如意金箍棒 ",
        "Total": 2400,
        "Link": "http://comment.news.163.com/news2_bbs/D6K55DD90001899N.html",
        "Reply": 139
    },
    "Source": "Netease"
}