{
    "Comment": {
        "Link": "http://comment.news.163.com/news2_bbs/D6LKM5VK000187VE.html",
        "Reply": 28,
        "Content": "老子会排云掌，遇水三分强！ 还这种人就应该等她浮起来了，再把她拉回来。 这个女人是真不想活了 给人民警察点赞。 很危险 狗拿耗子多管闲事 一个人真要自杀，那是下了很大的决心，救他就等于害他 自杀的没必要救，意外落水的还会乱蹦影响自身安全呢，何况这种找死的 水里的阻力是空气的800倍，步枪子弹都只能打1.6米远，你如何用手打昏人？ 拯救各类轻生物种是件好事，但我们都忽略了迎合问题：对于跳楼、跳河并拒绝甚至有伤害危及施救者行为的等，是否应该追究起法律责任？ 救落水之人首先要把他打昏 好人一生平安 老子会排云掌，遇水三分强！ 贾药💊停就是第二个马🐎云，搞车一旦成功，世界第一，这是第二个马云，这脑子🧠绝对是天下一流，这智商绝对天下🈚️无敌， 钱宝出事了 很危险 有些只是一时想不开 狗拿耗子多管闲事 王女士感动的流泪了！ 自杀的没必要救，意外落水的还会乱蹦影响自身安全呢，何况这种找死的 水里的阻力是空气的800倍，步枪子弹都只能打1.6米远，你如何用手打昏人？ 那你惨了，救不上来肯定破产加坐牢 还不如不救 见到是女子 好人一生平安 要死死远点别给别人添麻烦比如从长江大桥跳下去 自杀者永远不要去救 这个女人是真不想活了 谁说要在水下打？ 一个人真要自杀，那是下了很大的决心，救他就等于害他 救她搭上自己就不值当了 还这种人就应该等她浮起来了，再把她拉回来。 死也是一种解脱，为什么要救她。 给人民警察点赞。 一个人真要下决心自杀，绝不会选择当着那么多人面投湖，这种自杀方式基本可以肯定能被救上来…… 拯救各类轻生物种是件好事，但我们都忽略了迎合问题：对于跳楼、跳河并拒绝甚至有伤害危及施救者行为的等，是否应该追究起法律责任？ 这还真是个问题。他一定要自尽，你救他他还不愿意 救落水之人首先要把他打昏 我老师教的，遇到这种情况，打晕再救 先电一电。 ",
        "Total": 343
    },
    "Article": "（原标题：57岁民警遇女子轻生跳湖救人，轻生者不配合两人差点遇险）回单位路上，遇一中年女子跳咸阳湖轻生，水性不太好的57岁民警寇旭升二话没说就跳进冰冷的湖水里，将轻生女子救上岸。“对方似乎不太配合，差点把我拖进水下了”12月24日下午4时许，陕西咸阳市公安局渭城分局民警寇旭升走到咸阳湖北岸的咸阳古渡遗址博物馆门口时，突然听到“扑通”一声，紧接着就有人大喊“有人跳湖了，快来救人”。寇旭升听闻后，急忙来到岸边，三下五除二将外套脱掉，穿着保暖内衣跳进咸阳湖，奋力向落水者游去。这时，落水者已漂到离岸边十几米远的地方，好在穿着羽绒服，在浮力作用下，并没有很快沉下去。寇旭升赶紧靠近，抓住落水者使劲朝岸边拖，“对方似乎不太配合，差点把我拖进水下了。”寇旭升说，他顾不上这些，只是奋力拉着对方朝岸边游去，没花几分钟就将落水者拖到岸边，在热心群众帮助下，落水者被救上岸。围观群众有的打电话叫救护车，有的帮忙让女子把水吐出来……就在大家等待救护车的过程中，寇旭升给家人打了电话，家人给他送来干衣服后，寇旭升随家人悄悄离开现场。直到事后有人将他救人的事发到微信朋友圈，大家才知道他救了人。“大家都没事就好了，喝点湖水感觉都是甜的”12月26日，华商报记者通过咸阳古渡遗址博物馆的监控视频看到，24日下午4时22分，在咸阳湖边徘徊了一阵的一短发女子突然顺着台阶走进湖水里，紧接着有不少人围了过来，很快寇旭升出现在画面中，脱完外套跳进湖水里，4时27分，女子被救上岸，没有生命危险。26日上午，在咸阳湖边，寇旭升讲述救人经过时，不少在湖边散步的人认出他，“呀，这不是救人的老民警么，你真是好样的。”称赞的人群中，王女士不禁感动地流下眼泪，王女士当时也在现场，女子跳湖后，围观的人很多，都不敢贸然下水，寇旭升奋不顾身跳进水里救人，“你看他头发都白了，这么大年纪还这么勇敢，真让人感动。”“当天的气温只有5，湖水更冷，老民警跳下湖很快就把落水女子救上来了。”在古渡遗址博物馆工作的杨先生说，一定要好好报道下这位老民警的事迹。面对称赞，寇旭升笑呵呵地说:“这算个啥，我是人民警察，我不救人谁救人？”不过，事后寇旭升还是心有余悸地说，他水性也不是很好，而且年纪也大了，湖水刺骨，要是再坚持几分钟，他可能支撑不住了，“好在大家都没事，这就好了，喝点湖水我感觉都是甜的。”寇旭升说。这两天，寇旭升跳湖救人的事情也在咸阳市公安局民警之间传开了，大家都为他的勇敢行为点赞。咸阳市公安局渭城分局政治处副主任吴琼说，寇旭升是该局合成作战中心民警，从警三十年来工作兢兢业业，这次危难之中救人更是让人敬佩，“他是我们全局民警学习的榜样。”本文来源：华商网-华商报责任编辑：王征_NN7526",
    "PublishTime": "12/27/201710:36:00",
    "URL": "http://news.163.com/17/1227/11/D6LKM5VK000187VE.html",
    "Title": "57岁警察遇女子轻生 跳湖救人对方不配合差点遇险_网易新闻",
    "KeyWords": "跳湖,落水者,遇险",
    "Source": "Netease"
}