{
    "Comment": {
        "Reply": 207,
        "Total": 3375,
        "Link": "http://comment.news.163.com/news_shehui7_bbs/D6UA3CSS0001875P.html",
        "Content": "👍👍👍 中建这种大央企都是皮包公司，自己揽工程然后分包转包给农民工！所以他们的辉煌都是最朴实劳动人民汗水换来的！ 为什么没挣到钱，是央企拖欠农民工工资吧 “张智（化名）带着数十名同乡到中建七局云南华丽高速项目部工地打工，因没有挣到钱”这句话才是重点吧？还是包工头了 杀人犯张智是带着几十人来务工的，同伴赚不到钱陆续走了，只有包工头欠他钱，断无可能他欠别人钱！他杀的应该是包工头 也可能是能力不行吧，我们这两个民工队，一个队伍干活又快又好，一个就不行，还找事，包工头管理能力不行 有仇报仇有冤伸冤活着没意思我人生的意义就是你死在我手里 底层互害最惨烈。 劳动力都过剩了。现在各种人口经济数据都是背离的。一方面在说人口老龄化，一方面青壮年劳动力过剩。 所以这就是福尔摩斯的理由咯？那以后警察也不用断案咯，直接找易友在网上发个帖子破案呗？谣言就是这么来的 人家打美分走狗就是奴才啊？看到人家id就高潮，这里到底谁更像奴才啊哈哈 国人近照。 年底欠薪的老板们赶紧开工资吧 这年头欠债的都是大爷 这社会坏人太多，包括政府官们都该死。 人就该为己 傻逼 看看你们这些领钱发帖来捣乱的狗奴才，就知道你们主子有多惶恐了。 年底了都火气小点 牛逼 所谓刑侦技术手段，有四个。一个是大数据筛查，漂白身份的，没有最初的出生地、父母的记录。二是现代DNA技术，可以从你远亲属中找到你。如果你在外面和别人打架斗殴民事纠纷，一旦进入派出所，第一件事是留指纹和抽血。第三是人脸识别系统，可以用你二三十年前的照片找到你。见科教片《人海追踪》。第四是指纹识别系统，过去指纹识别靠人工一张一张的看，从几千万张照片中找到嫌疑人，简直是大海捞针。现在可以用电脑自动识别，几分钟就可以了。最后补充下，还有第五个，如果你憋不住给自己的家人打电话（即便你使用别人的电话或者公用电话），那简直就是自投罗网了。 经济越来越差，人越来越暴力。大家注意安全！ 还头头是道，你是瞎还是傻。能分清谁是同乡，谁是同伴吗，同伴具体是干什么的，跟张智什么关系，另一人是谁，是干什么的，跟张智有哪方面的矛盾？还头头是道，你他妈真敢说。 又到讨薪的季节。 借钱最后把自己借死了现在的人心啊 什么情况啊？ 狗奴才，跪稳了好好舔。 有道理！ 都是钱惹的祸啊 欠钱的都这么有道理，还杀人？都是同乡，有什么好好说。 一楼的推理比报道的要符合人情 语焉不祥，必有隐情！ 我有两个哥哥，都是给中建干活的，年底了，要钱要了好几个月，也不说不给就拖着，老婆孩子在家等钱，现在有家不能回，讲真，农民工不容易 这项目部也是无语了，这是强行躺枪啊，不是安全事故，而且单方面的故意杀人！ 你指的是我国。 对我名字敏感的只有两种人，美分和走狗，你是哪种😂 早看清了，也识穿了记者没报道的部分 语焉不详，必有隐情！ 看你名字就知道不是个好东西 话分两头，怎么感觉有被欠薪的嫌疑呢？ 原来是傻逼阿😂知道了，看来你是第三种啊😂 人哪有好的，只是坏的程度不一样。 恶贼猖狂一时绝不会猖狂一世 何为好坏？只有为己而已 一楼真会想象呀，呵。别人没报道你就意淫出来了？ 老乡见老乡，背后给一🔫！ 看清了报导再发言，如何？别浪费版面！ 大哥，你仔细看新闻了吗？因借钱纠纷将同伴杀害。在这里分析的头头是道，不知道的还以为你是福尔摩斯呢 中建七局、总部位于河南郑州，是一家毫无信用的央企！ 征服都敢欠中建算什么 11111111 现在小米也是工作机了？？ 我现在这项目，我们公司现在还都是这样。不过直接打卡里确实好，民工拿到钱了不会罢工，活也干的顺畅 就是一个包工头带一个包工队来干活，结果不给他工钱。他带来的人都跑了，他也不想干了，施工方说，我给你们垫了饭钱了，你别想走。他讲理说你没给我工钱，对方说，你欠我饭钱。最后，去你妈的吧，噼里啪啦噼里啪啦，剧终。 杀人犯张智是带着几十人来务工的，同伴赚不到钱陆续走了，只有包工头欠他钱，断无可能他欠别人钱！他杀的应该是包工头 带着数十名同乡到中建七局云南华丽高速项目部工地打工，因没有挣到钱，同乡们干活没多久便三三两两陆续离开 没人给你发工资啊，啊哈哈哈哈~没啥幽默感。 。。 问一句，中建也会拖欠民工工资吗？[惊讶]这都拖欠，真是烂透了 社会太乱了，林子大，什么鸟都有。 语焉不祥，必有隐情！ 为什么没人问问，干了这么久，为啥没钱？而且既然是同乡，就不用过于担心他会跑路赖账啊，明知道没钱还逼人还钱，是不是有点过分啊？ 世界上没有无缘无故的事。杀人者比马永平好，没有滥杀无辜。阿弥陀佛 看清问题根源再评论：是包工头不给结账，导致的！ 如果有一天越来越多的底层出了苦力还没有饭吃，那肯定不是同根相煎的事了，也许是天道该着下一个轮回了。 杀人偿命。 楼上老观念了，现在都有农民工账户了！即便工资卡都在分包头那里，施工单位也脱不了监督农民工工资发放的责任，如果工头携款跑路，施工单位是要重新给工人发工资的 应该是跑过去发现没活干或者有活干不了之类的。 老夫屈指一算工人的工字强人出头就是土匪的土字忍辱负重往下走就是干部的干字文不文武不武顶多流氓 人就该为己 来自河北的男子张智（化名）带着数十名同乡到中建七局云南华丽高速项目部工地打工，因没有挣到钱，同乡们干活没多久便三三两两陆续离开。——神马情况？奴工？ 大哥，你仔细看新闻了吗？因借钱纠纷将同伴杀害。在这里分析的头头是道，不知道的还以为你是福尔摩斯呢 看看你们这些领钱发帖来捣乱的狗奴才，就知道你们主子有多惶恐了。 年底了都火气小点 因为是个例，所有不管 这种事情放在哪都不可避免，矛盾还是因儿时的教育方式不对而起吧！ 朱门酒肉臭路有冻死骨 何为好坏？只有为己而已 干完了活不给钱还不让走，跟儿时的教育有什么关系呢？ 这事情的根在于没挣到钱，做这种卖体力的工作为什么会没挣到钱，拖欠工钱拖欠货款才是罪恶的源头吧 这个推理可能性最大 爱的奉献呗！只要人人都献出一点爱，老板就能买美国的庄园！ 什么情况啊？ 张智就是你说的包工头。 路过，顺便看看四楼这个弱智脑残无冒 物贸春节夜里泉家暴毙哦[窃笑] 欠钱的都这么有道理，还杀人？都是同乡，有什么好好说。 19岁大学毕业那年找工作，面试我的人事经理是个漂亮的白富美，她肤白个高，长发长腿，不足之处是颧骨较高。她问我：你能干多长时间？我有些诧异，但还是老老实实回答：一般半个小时，状态好的时候四十分钟。她红着脸低声说：我是说你在这儿能干多久？我环顾四周，有些羞涩的说：这我可能放不开，我从没当着这么多人，真的不太习惯。三天后我被录取了，原来她是老板娘。她送给我一本《能量决定命运》，让我学习红浅学。三个月后她挺着肚子辞职离开公司，临行前嘱咐我一定认真学习，不学红浅学，赶不上马化腾，娶不起林志玲。不读《能量决定命运》，富不过刘强东，跑不过贾跃亭。二十年后孩子会来认你的。一个月后我也因肾病离职回乡休养。 头脑不灵 这事情的根在于没挣到钱，还欠一屁股债。 撒比，带着几十个同乡来打工，他自己就是个包工头 这年头坏人当道好人吃亏！！！ 赶紧去号子里教育这个恶魔。 定是美国间谍！ 马上过年了 狗比你还没死？ 带着数十名同乡到中建七局云南华丽高速项目部工地打工，因没有挣到钱，同乡们干活没多久便三三两两陆续离开--确定是国企的风格？国企不是一直大方大气吗？ 攀枝花至丽江的高速路修了四五年了吧？一直没修好，这就是一直YY的中国速度？ 都疯了 世界上没有无缘无故的事。杀人者比马永平好，没有滥杀无辜。阿弥陀佛 嘻楼上一看就没见过包工头！包工头都是拉你去干活，然后结账见不到人！包工头俗称老赖... 没去过工地干苦工，不知道中间哭。一群键盘侠 心狠手辣! 他欠别人钱，别人阻止他离开，把人杀了。还这么多人顶，内容都没好好看。 没看见吗，连钱都不给工人，还修什么呀！ 打工怎么没挣到钱？？ 语焉不详，必有隐情！ 看清了报导再发言，如何？别浪费版面！ 人哪有好的，只是坏的程度不一样。 怎么会发生这样的事 花钱买仇人来判死刑 不是不古，是不开化，丛林规则，野蛮时代！ 中建这种大央企都是皮包公司，自己揽工程然后分包转包给农民工！所以他们的辉煌都是最朴实劳动人民汗水换来的！ 世风日下，人心不古 拖欠工资引发的血案！ 在工地上干活没挣到钱，钱上哪了？这才是悲剧的起因。 杀人犯张智是带着几十人来务工的，同伴赚不到钱陆续走了，只有包工头欠他钱，断无可能他欠别人钱！他杀的应该是包工头 现在是到处监控！有电话亭又怎样？你这智商走不出3小时。 不知道施工单位工资发放什么时候能规范化！几十年了都是这样，几个月一发、甚至一年一发！ 劳动力都过剩了。现在各种人口经济数据都是背离的。一方面在说人口老龄化，一方面青壮年劳动力过剩。 当什么民工，怎么不去当主播 卧槽，我正要去工地打工呢，别吓我 也好，7少了一个垃圾 国人近照。 够狠 呵呵 这社会坏人太多，包括政府官们都该死。 大哥，你仔细看新闻了吗？因借钱纠纷将同伴杀害。在这里分析的头头是道，不知道的还以为你是福尔摩斯呢 欠债是大爷，要钱是孙子，杀人偿命，立即执行 老乡见老乡两眼泪汪汪，改革前！老乡见老乡宰你没商量！改革后。 所谓刑侦技术手段，有四个。一个是大数据筛查，漂白身份的，没有最初的出生地、父母的记录。二是现代DNA技术，可以从你远亲属中找到你。如果你在外面和别人打架斗殴民事纠纷，一旦进入派出所，第一件事是留指纹和抽血。第三是人脸识别系统，可以用你二三十年前的照片找到你。见科教片《人海追踪》。第四是指纹识别系统，过去指纹识别靠人工一张一张的看，从几千万张照片中找到嫌疑人，简直是大海捞针。现在可以用电脑自动识别，几分钟就可以了。最后补充下，还有第五个，如果你憋不住给自己的家人打电话（即便你使用别人的电话或者公用电话），那简直就是自投罗网了。 伙食费几个钱啊，出手杀人。 但是他上次就是被刑拘吧?这一步还是刑拘? 活不下去的人太多，到头来只有杀几个人再死。 不一定，比如计件工资，时间一拖。只能吃自已而且怪自已干的慢。包工头的高招！ 老乡见老乡，背后开两枪。 老乡见老乡，背后来一枪🔫 智障（张） 。。 没有好人坏人，只有利益 你根本不懂媒体，有良心的媒体也只会透露一半真相你，何况这种遮遮掩掩欲语还休的报道 。。 这位逃犯的反侦查能力还是不错的。 这是个疑点 欠钱的都这么有道理，还杀人？都是同乡，有什么好好说。 失业，找不到工作。不是过剩。 以前街头电话亭，买一张卡换地方打。现在街头电话亭用的人少，差不多也拆的差不多了。 我有两个哥哥，都是给中建干活的，年底了，要钱要了好几个月，也不说不给就拖着，老婆孩子在家等钱，现在有家不能回，讲真，农民工不容易 张智谁欠你钱去杀谁啊！废物 中字头企业牛逼哄哄不是一两天。 人哪有好的，只是坏的程度不一样。 盲井？ 恶贼猖狂一时绝不会猖狂一世 靠，怎么化名跟我一样的。我叫张智。。。 我相信野蛮时代大势已去，文明社会是大势所趋，野蛮残余终将被高贵人性消灭。 啊。 应该是拖欠工资引起的问题，离家这么远，干活没拿到钱，被逼疯了，被杀的有可能是包工头，文中说的是同伴。 中建信誉很差 此理大小通用，亘古未变 中建七局、总部位于河南郑州，是一家毫无信用的央企！ 这是恶有恶报 官话，里面必定有其他的东西 花了别人的钱，还杀人。这部书畜生吗？ 工资发放不及时，也有责任。。。 😱 “张智（化名）带着数十名同乡到中建七局云南华丽高速项目部工地打工，因没有挣到钱”这句话才是重点吧？还是包工头了 无罪无罪 也可能是能力不行吧，我们这两个民工队，一个队伍干活又快又好，一个就不行，还找事，包工头管理能力不行 啊啊 神经病? 中锅真安全啊 越有文化的人越老实相对于大多数 人为财死鸟为食亡 这一阵的新闻但凡是杀人的，全部因为小事，你能说实话吗，忽悠都懒得忽悠， 说好挣上钱就还，你还在这比比，杀一个是傻杀两个是杀 自己人杀自己人 年底欠薪的老板们赶紧开工资吧 杀人怎么这么多 畜生就是畜生，不会感恩 给你垫钱还杀人？现在欠债的不仅是大爷，还是阎王爷，管催命呢 真是中杀不中救 头一次听说中建七局，就是如此新闻。 猪狗不如！欠钱又有理了！ 都是钱惹的祸。 相信会有原因的 穷人为了一点点都会走极端 经济越来越差，人越来越暴力。大家注意安全！ 为什么没挣到钱，是央企拖欠农民工工资吧 粒米恩，斗米抽。借钱没好事的 17年工龄的中兴员工被要求主动离职连句狠话都不敢放——面对领导。默默选择了跳楼。同事借钱不还还把借钱同事杀了。把这样的狗胆包天和低到尘埃中和一下，就和谐了 要了他们的钱基本跟要了他们的命没区别 年关年关，缝年便是关！ 有道理！ 都是钱惹的祸啊 欠钱的都这么有道理，还杀人？都是同乡，有什么好好说。 这样的新闻不利于稳定啊xiaobian[微笑] 语焉不祥，必有隐情！ 现实生活中，遇到很多这类欺负人的人，挺同情你的，二十年后还是一条好汉，你是为正义而杀！挺你！ 还贵 唉。。。。 这项目部也是无语了，这是强行躺枪啊，不是安全事故，而且单方面的故意杀人！ 肯定是国外的事情 人哪有好的，只是坏的程度不一样。 可见借的都是血汗钱 项目部不管有没有责任，都够喝一壶的，估计出血不少，如果再连带被审计，那可能会有其他发现。 不是说没🔫就容易死人么？ 老乡见老乡，背后给一🔫！ 语焉不详，必有隐情！ 借的钱还要还？？这就是借钱的下场！被锤死！ 早就被刑拘了. 👍👍👍 为什么没有挣到钱？ 不能说全部，大多数工程都不会很及时发工资 还有王法吗？ 借钱最后把自己借死了现在的人心啊 兔子憋急了，咬人了 好人还是不能做，不仅被讹，这连命都搭上了…… 白眼狼 谁说没有，雷锋不服 欠钱的都这么有道理，还杀人？都是同乡，有什么好好说。 有仇报仇有冤伸冤活着没意思我人生的意义就是你死在我手里 底层互害最惨烈。 工地干活为什么没挣到钱 这年头欠债的都是大爷 有事情，就要及时的处理，不用怕什么的哦！ 要把讨薪扼杀在摇篮里<br>我们这在建工程1月17日全部无条件停工 你指的是我国。 所以説有些人就該死 这项目部也是无语了，这是强行躺枪啊，不是安全事故，而且单方面的故意杀人！ 冤有头债有主啊 牛逼 这一阵的新闻但凡是杀人的，全部因为小事，你能说实话吗，忽悠都懒得忽悠， 真无语 话分两头，怎么感觉有被欠薪的嫌疑呢？ 拖欠农民工工资的黑心老板会有报应的！ 他想好了一切，他觉得一切都是值得的，尽管他还有死前的不甘 人哪有好的，只是坏的程度不一样。 又到讨薪的季节。 脑残 这一阵的新闻但凡是杀人的，全部因为小事，你能说实话吗，忽悠都懒得忽悠， 想跟一个人成为朋友吗？借钱给他。想跟一个人成为仇人吗？让他还钱。 畜牲都不如这王八蛋应该乱刀砍死 他想好了一切，他觉得一切都是值得的，尽管他还有死前的不甘 借的钱还要还？？这就是借钱的下场！被锤死！ 看来项目部要赔钱喽 我们今年干了一年一分没给。 悲哀，人为财死 "
    },
    "Title": "中建七局华丽高速项目部一工人连杀两人 已被刑拘_网易新闻",
    "Article": "（原标题：中建七局华丽高速项目部工人连杀两人，已被警方刑拘）澎湃新闻12月30日从云南丽江永胜警方证实，12月28日中午，中国建筑第七工程局有限公司（下称：中建七局）云南华丽高速项目部一民工因借钱纠纷用铁锤将其同伴杀害，埋尸后想起还有一人与其发生过矛盾，继而报复再杀一人。目前，该嫌疑人已被刑拘。中建七局云南华丽高速项目部工人赵明（化名）12月29日告诉澎湃新闻，28日中午，中建七局承建的攀枝花至丽江的高速路云南永胜县境内路段项目部工地，发生两人被杀案件。相关人士向澎湃新闻证实，事件源于欠钱纠纷。来自河北的男子张智（化名）带着数十名同乡到中建七局云南华丽高速项目部工地打工，因没有挣到钱，同乡们干活没多久便三三两两陆续离开，其间同伴为张智垫付了伙食费等。近日来张智也有了回家的念头，但因欠钱未还，同伴不让其离开工地，两人发生矛盾后，张智便用铁锤将同伴杀害。该人士称，男子杀害同伴后，在工地附近一沟内埋尸，后想起还有一人与其发生过矛盾，故产生报复念头，继续用铁锤杀害一人。永胜警方向澎湃新闻证实，目前涉嫌杀害两人的男子已被依法刑拘，此案正在进一步侦办中。本文来源：澎湃新闻责任编辑：邵小波_NN2479",
    "URL": "http://news.163.com/17/1230/20/D6UA3CSS0001875P.html",
    "Source": "Netease",
    "KeyWords": "杀害,澎湃新闻,中建",
    "PublishTime": "12/30/201720:17:59"
}