{
    "PublishTime": "12/27/201720:19:30",
    "Source": "Netease",
    "Comment": {
        "Link": "http://comment.ent.163.com/ent2_bbs/PHOTJNLK000300AJ.html",
        "Total": 189,
        "Reply": 15,
        "Content": "最美的时光，最好的朋友 舒淇，你那块地赶紧发芽吧 可爱 你说你爱我，可还不是娶了别人 这冯德伦和张震老婆心真大，跟演艺圈有关的就是不一样 都是情人 天天粘别人老公的孩子，还是曾经的旧恋人。。。正妻不知作何感想，而且还不能说啥，圈里的人也是真心大。 小可爱 最美的时光，最好的朋友 张震老婆心挺大 呵呵 张震有孩子啊？ 天天粘别人老公的孩子，还是曾经的旧恋人。。。正妻不知作何感想，而且还不能说啥，圈里的人也是真心大。 都是情人 晕啊 你说你爱我，可还不是娶了别人 舒淇，你那块地赶紧发芽吧 呵呵 可爱 这冯德伦和张震老婆心真大，跟演艺圈有关的就是不一样 哈哈 前男友的孩子，这么爱 小可爱 "
    },
    "Article": "舒淇和张震女儿合影都是小可爱12月27日，舒淇晒出一组和张震女儿的自拍，俩人嘟嘴卖萌，P上可爱的贴纸，都非常可爱。",
    "Title": "舒淇和张震女儿合影 都是小可爱_网易娱乐",
    "URL": "http://ent.163.com/photoview/00AJ0003/646836.html",
    "KeyWords": "舒淇,"
}