{
    "Source": "Netease",
    "KeyWords": "切尔西,莫拉塔,布莱顿,蓝军",
    "URL": "http://sports.163.com/17/1225/11/D6GG721F00058781.html",
    "PublishTime": "12/25/201711:35:29",
    "Comment": {
        "Content": "今年的冠军曼城已经稳了，看看蓝军能不能争下第二 今年的冠军曼城已经稳了，看看蓝军能不能争下第二 ",
        "Total": 2,
        "Link": "http://comment.sports.163.com/sports2_bbs/D6GG721F00058781.html",
        "Reply": 1
    },
    "Article": "网易体育12月25日报道：北京时间12月26日晚23点，2017-18赛季英超联赛第20轮的一场比赛在斯坦福桥球场进行，切尔西在主场对阵布莱顿。英超前19轮过后，切尔西取得了12胜3平4负的战绩，积分达到了39分，排名联赛第3位。布莱顿取得了5胜6平8负的战绩，积分是21分，排名联赛第12位。交锋历史在历史上，切尔西和布莱顿一共对阵了8次，蓝军取得了6胜1平1负的战绩。本赛季，两队还没有过交锋。看点一：莫拉塔回归对阵伯恩茅斯的联赛杯比赛里，莫拉塔在庆祝进球的时候染黄，无缘了对阵埃弗顿比赛。蓝军在对阵太妃糖的比赛里射门25次，却没有破门，这说明了莫拉塔的重要性。面对布莱顿，莫拉塔将复出，这对切尔西来说是一大利好。看点二：蓝军主场战绩出色根据统计，在斯坦福桥球场，切尔西赢下了过去25场英超的21场比赛，因此，蓝军在主场战绩彪炳，对于布莱顿，他们取胜的希望不小。另外一个数据是，在过去3个英超客场，布莱顿都无法得分。预测首发切尔西（3511）：库尔图瓦；卡希尔、克里斯滕森、阿斯皮利奎塔；阿隆索、德林克沃特、坎特、法布雷加斯、扎帕科斯塔；阿扎尔；莫拉塔布莱顿（4411）：瑞安；布鲁诺、达菲、邓克、加埃唐-邦；克诺凯尔、史蒂芬斯、普罗珀、马尔奇；格罗斯；赫梅德本文来源：网易体育作者：头狼责任编辑：冯昊天_NSJS2656",
    "Title": "切尔西VS布莱顿前瞻:莫拉塔回归 蓝军捍卫魔鬼主场_网易体育"
}