{
    "PublishTime": "01/02/201800:29:14",
    "Comment": {
        "Total": 608,
        "Link": "http://comment.news.163.com/news2_bbs/D73T98NC000187VI.html",
        "Reply": 48,
        "Content": "靠一个QQ短信就可以划账的公司内部管理有多混乱。 你怎么知道就是被骗了36万？老板就不会是骗子吗？ 到人家办公室拿U盾，就有问题! 假ld就是会记的情人吧 唯独骗子无责[狗] 都没你们识破了，哈哈，经查无语了 很多女人对于骗子是没有防范能力的，老板让做什么就傻傻的做了，根本不会去想可能存在的风险 这智商还当财务？ 脑子是个好东西。。<br>“张某未按公司规定流程办理转账汇款手续，也未经任何请示，径自到李总办公室，从抽屉中取走了李总掌握的U盾并进行汇款授权，共向对方转账36.5万元。” 搞不好这个会计也是骗子入职三个月干的这个事儿正常人没这么干。 细思极恐[石化] 看着这个财务的一系列表现明显感觉这个财务就是内鬼 会计也没办法啊 重要的事应该电话确认一下。不能简单qq 傻逼一个耶[鄙视][鄙视][鄙视] 没防范能力就不要当财务。不是因为你是弱势群体，就可以不遵守交通规则，不是因为你是弱势群体，就可以无视职业操守。 小企业大多就是一个财务从头到尾的。 不小心丢了钱包和钱包被偷能一个样么？还迟早被坑，小企业如何保证财务和出纳是两个人？夫妻两个还有藏私房钱的呢，你搞个办法出来杜绝私房钱。 现在最倒霉的就是最好抓的,不好抓的警察是不会去抓的.要不那么多的冤案呢?还有那么多离奇的自杀. 这是里应外合吗？ 等你当会计就知道了，从他很方便就拿到老总的U盾就知道，不止一次干这事了。老总不在办公室肯定不在常登陆电脑登陆了。不过这事再习惯，核实一次也应该是习惯。所以30%的责任还是有道理的，然后工作出差错赔一半，才合情合理，不是离职就能搞定的，以后谁还敢请你！ 你有病吧，不去指责骗子反而指责被骗的，哪天你全家被杀了我也来指责你，因为你太弱才会被杀，弱肉强食，你只能怪你自己太弱而不能怪杀你的太强 你别说我一看还真应该是里应外合的。入职三个月，就这么盲目的转账。搞不好就是自编自导自演。 大多公司流程都差不多，骗子也是挨个骗，能骗到就骗到，骗不到就算了，就像前些年给你发短信中奖一样，都是套路。 所以小企业财务都是只请本地人，而且要结了婚生了娃的 怎么不抓骗子？！ U盾本就是两人持有，老总持有却放在办公室，自己也存在重大失职，这种公司被坑是迟早的事，算是付了学费吧 的确象 36万给回9万，2万会追回。纯赚26万！一本万利，换个公司在继续。我觉得法院应该判全责。财务人员最基本的法律，法务不遵守，没有授权，没有签名，违规拿走老板授信。 骗子先用黑客技术，盗QQ号，熟悉公司群人员后，再模仿一个头像一样的，偷偷的加上。 靠一个QQ短信就可以划账的公司内部管理有多混乱。 现在最倒霉的就是最好抓的,不好抓的警察是不会去抓的.要不那么多的冤案呢?还有那么多离奇的自杀. 你怎么知道就是被骗了36万？老板就不会是骗子吗？ 智商 唯独骗子无责[狗] 脑子是个好东西。。<br>“张某未按公司规定流程办理转账汇款手续，也未经任何请示，径自到李总办公室，从抽屉中取走了李总掌握的U盾并进行汇款授权，共向对方转账36.5万元。” 细思极恐[石化] 会计也没办法啊 重要的事应该电话确认一下。不能简单qq 这智商。。。。。哎。 没防范能力就不要当财务。不是因为你是弱势群体，就可以不遵守交通规则，不是因为你是弱势群体，就可以无视职业操守。 小企业大多就是一个财务从头到尾的。 不小心丢了钱包和钱包被偷能一个样么？还迟早被坑，小企业如何保证财务和出纳是两个人？夫妻两个还有藏私房钱的呢，你搞个办法出来杜绝私房钱。 这会计业务确实差，怎么不打电话核实一下就汇款，公司管理有问题密码一个人全知道没有复核。法院判罚合适。 赚大发了 就这智商还当会计 假ld就是会记的情人吧 这智商还当财务？ 都没你们识破了，哈哈，经查无语了 大多公司流程都差不多，骗子也是挨个骗，能骗到就骗到，骗不到就算了，就像前些年给你发短信中奖一样，都是套路。 傻逼一个耶[鄙视][鄙视][鄙视] U盾本就是两人持有，老总持有却放在办公室，自己也存在重大失职，这种公司被坑是迟早的事，算是付了学费吧 的确象 36万给回9万，2万会追回。纯赚26万！一本万利，换个公司在继续。我觉得法院应该判全责。财务人员最基本的法律，法务不遵守，没有授权，没有签名，违规拿走老板授信。 到人家办公室拿U盾，就有问题! 有不少公司就只有一个财务人员会计出纳一人全做了。 等你当会计就知道了，从他很方便就拿到老总的U盾就知道，不止一次干这事了。老总不在办公室肯定不在常登陆电脑登陆了。不过这事再习惯，核实一次也应该是习惯。所以30%的责任还是有道理的，然后工作出差错赔一半，才合情合理，不是离职就能搞定的，以后谁还敢请你！ 你别说我一看还真应该是里应外合的。入职三个月，就这么盲目的转账。搞不好就是自编自导自演。 会计的智商不应该是很高吗?这点意识都没有 搞不好这个会计也是骗子入职三个月干的这个事儿正常人没这么干。 看着这个财务的一系列表现明显感觉这个财务就是内鬼 赚钱都是出纳给转款，为啥都是说的会计给转，是不知道常识，还是老编是脑残？ U盾本就是两人持有，老总持有却放在办公室，自己也存在重大失职，这种公司被坑是迟早的事，算是付了学费吧 骗钱的都找到了，还追回了2万啊，办案经费大约20万啊！只能说着会计傻。 绝对的套路，你当人家傻啊，傻得是你而已 哈哈镜 难道不是串通作案？ 内神通外鬼，呵呵 把你的收据做一个统计,总支出为多秒.将这个账目填入移至清单中,如收入为多少,再求最后所剩转账时 倒霉了 这是里应外合吗？ 你有病吧，不去指责骗子反而指责被骗的，哪天你全家被杀了我也来指责你，因为你太弱才会被杀，弱肉强食，你只能怪你自己太弱而不能怪杀你的太强 这个傻X人，今天谁会用她 所以小企业财务都是只请本地人，而且要结了婚生了娃的 怎么不抓骗子？！ "
    },
    "Article": "（原标题：会计误给假领导转账被判担责三成）2016年8月，某公司会计张某在工作时，收到公司李总发来的QQ信息，要求他立即转账汇款。张某随即转账36万余元。事后查明，发信息的QQ实则是“李鬼”，其冒充公司真实的李总骗得钱财。公司在报警后追回两万余元，公司认为会计张某存在重大过错，应当赔偿公司损失，便将张某诉至法院。近日，通州区法院认定张某有重大过失，但公司也有管理责任，故判决张某承担公司30%的损失。骗子冒充高管骗取30余万元该公司诉称，某天，公司会计张某收到李总QQ号发来的转账信息，要求会计马上转账，但该QQ号系诈骗分子掌握。张某接到假冒李总的QQ信息时，假冒的李总QQ号与真实的李总QQ号并列在一起，但张某未进行认真识别。当时张某掌握公司U盾，但是，此U盾只有申请权限无汇款权限。张某未按公司规定流程办理转账汇款手续，也未经任何请示，径自到李总办公室，从抽屉中取走了李总掌握的U盾并进行汇款授权，共向对方转账36.5万元。公司李总接到汇款信息后与张某核实，张某才知上当受骗，公司立马报警，警方追回两万元。公司认为会计应承担责任公司与张某协商每月扣除张某工资2000元直到挽回公司的损失。但是张某于2017年3月提出离职，并表示赔偿公司1.8万元后不再承担任何责任，公司不同意张某的赔偿方案。公司认为，被告张某的行为严重违反财务制度，存在重大过错，严重损害公司利益，故起诉至法院要求其承担赔偿责任。被告张某辩称，2016年5月10日入职公司后，公司将财务QQ账号交由其使用，用于接受领导指示、安排、汇报工作。张某入职后一直通过昵称为“李总”的QQ号与公司法定代表人进行工作沟通。2016年8月25日，张某看到李总再次以昵称为“李总”的QQ号向自己发出工作要求，因此没有怀疑并非真实的李总。公司财产损失的具体侵权人是诈骗案的犯罪嫌疑人，并非张某，张某无义务对该损失承担赔偿责任。法院判决会计承担三成责任法院经审理查明，被告张某在转账期间，其QQ多次弹出安全警示信息，内容显示：“安全警示：当前好友不在常用环境登录，涉及钱财交易请务必电话或QQ视频通话核实好友身份。如有异常，请立即举报。”但是张某既未注意到QQ后台屡次向其发送的安全警示信息，亦未及时与公司相关负责人员沟通核实情况，而是在违反公司正常转账审批流程的情况下草率向他人汇款。法院认为，张某的行为实难认定其已经尽到一名专业财务会计人员应尽的高度审慎注意义务，其行为已构成重大过失，理应对就此给公司造成的损失承担赔偿责任。但同时，公司作为用人单位对张某有管理之责，且从本案来看，公司确实存在制度不健全、管理松散的情形，故公司亦应承担管理不当的法律责任。综上，通州法院判决张某对于公司的损失承担30%的赔偿责任。本文来源：北青网-北京青年报作者：杨琳责任编辑：官平_NN4892",
    "Source": "Netease",
    "Title": "会计无视安全警示给假领导转账36万 被判担责三成_网易新闻",
    "KeyWords": "会计,赔偿,法院,公司",
    "URL": "http://news.163.com/18/0102/00/D73T98NC000187VI.html"
}