{
    "Title": "卢丽安当选台联常务理事会副会长 曾被撤台湾户籍_网易新闻",
    "URL": "http://news.163.com/17/1225/18/D6H7GJOF0001899N.html",
    "Source": "Netease",
    "Comment": {
        "Total": 116,
        "Reply": 2,
        "Content": "解放台湾去做省长 解放台湾去做省长 和平统一 ",
        "Link": "http://comment.news.163.com/news2_bbs/D6H7GJOF0001899N.html"
    },
    "Article": "（原标题：第十次全国台湾同胞代表会议在京闭幕）新华社北京12月25日电第十次全国台湾同胞代表会议25日在北京闭幕。会议圆满完成各项议程，听取并审议通过了全国台联第九届理事会工作报告，审议通过了全国台联章程修正案，选举产生了由100人组成的全国台联第十届理事会。会议期间召开的全国台联第十届理事会第一次全体会议，选举产生了由33人组成的第十届常务理事会，黄志贤当选会长，卢丽安、白天亮、江尔雄、江利平、纪斌、许沛、张百良、张泽熙、杨毅周、陈云英、郑平、符之冠、颜珂当选为副会长（按姓氏笔画为序）。黄志贤在致闭幕词时指出，这次代表会议是一次凝心聚力、继往开来、求真务实的大会，进一步明确了新时代台联工作的方向。新一届全国台联领导集体一定不辜负以习近平同志为核心的党中央期望和广大台胞乡亲重托，切实增强台联工作的政治性、先进性和群众性，不断开创工作新局面。会议强调，当前和今后一个时期，台联系统要把深入学习贯彻习近平新时代中国特色社会主义思想和党的十九大精神作为首要政治任务，深入贯彻落实中央关于群团改革的重大部署，全面推进全国台联改革，秉持“两岸一家亲”理念，发挥亲情乡情优势，努力提高沟通、联谊、服务和团结台胞的能力和水平，为早日实现祖国完全统一、实现中华民族伟大复兴的中国梦团结奋斗。本次会议为期4天，来自各省、自治区、直辖市和有关单位的台胞代表共300多人与会。闭幕式上还宣读了给不再担任全国台联理事职务的老同志的致敬信。台撤销十九大党代表卢丽安户籍洪秀柱:制造对立据台湾东森新闻报道，出生台湾高雄的卢丽安获选进入中国共产党十九大，遭到台当局陆委会撤销台湾户籍;对此，前国民党主席洪秀柱28日表示，不应用这种激烈的手段制造对立，“这对于两岸的未来不是很好”。本文来源：新华网作者：赵博责任编辑：李杭_BJS4645",
    "PublishTime": "12/25/201718:22:39",
    "KeyWords": "卢丽安,选举,台胞"
}