{
    "Source": "Netease",
    "KeyWords": "自动化,中国,无人艇,武器站",
    "URL": "http://war.163.com/17/1222/10/D68JL3M9000181KT.html",
    "PublishTime": "12/22/201710:01:40",
    "Comment": {
        "Content": "跟贴被火星网友带走啦~ 不知道是你没注意看还是怎么的，这个明显是气垫船造型啊，50节对于气垫船来说不是难事吧。 智商限制了你的想象力，这造型一看就知道是气垫原理，悬浮在水面上就没了水阻力，磁悬浮长的还跟地铁差不多呢，为什么速度差这么多？ 所以就可以随意拆人房子代表你了！ 欢迎香港人来大陆或朝鲜生活 你凭什么做到同样装备？ 敢不敢去棒子的边界水域走一遭？他们敢开枪打渔民，智能无人艇就朝着韩国渔政船开火？别给我扯什么我国渔民越界捕鱼，只要你敢开枪，智能无人艇就开火干掉棒子！ 你哪只狗眼看到了他说你美爷爷开发的什么造型都能上200？证据呢？别泥马勒戈壁狗嘴两张皮信口开河！ 这种造型能开到96公里每小时，你搞笑呢？ 我孤陋寡闻了，美国哪两次败仗？曹县战争国际公认是平手，越战美国是败给了自己国内政治更何况越战把越南打成了世界第三军事强国，你个排名在他后面的说是你打败的美国？ 像个乌龟 你爱信不信，你以为你是谁 好像有气垫，如果那样不成问题。 就是这种才能开到这个速度如果像正常的造型阻力太大了…… 这个....不就是哥在公园里看到的水上碰碰船么....造型一个样，按下按钮还带音响效果...开火...哒哒哒。 看就很low 美畜越来越绝望了！ 科幻啊…… 朋友你哪里看到96公里每小时了？ 网易喷子为中国百姓操碎了心 反正我是不信有本事拿到外国战场上试试 加上导弹是不是能干航母了，一下去来100艘，我不信哪国的航母能防住 呵呵看来你还是挺关注你爷爷的哦 这造型看上去还挺萌的。。。 同样装备，美国佬必败，不信试试 跟贴被火星网友带走啦~ 记住是无人艇 你母亲有点象充气的马桶。 如果是他美爹开发的，什么造型都能上200 查狗牌 捆上炸药包冲向美国航母 网易喷子最多了 造壳大国牛能上天 楼主，此造型风阻是很大，但舰船速度不单是由风阻大小一个因素决定的，还有动力大小等因素，如果动力足够大，那么，达到文中说的速度，也未尝没有可能。 要是能拿渔网俘获一个……我有一个大胆的想法 有点像气垫船。 这个....不就是哥在公园里看到的水上碰碰船么....造型一个样，按下按钮还带音响效果...开火...哒哒哒。 就是快艇加了个电传感系统和陀螺稳定器和一个机枪。尤其是传感器和陀螺稳定器还真离不开日货。 每天打开评论基本上前三条都能看到你的身影，需要去关注？都视觉疲劳了 没达到军事目标的战争就是败仗，至于越南是自称第三。 唐公公最近越来越不斯文了 街上乞丐说他要跟马云一样有钱，一定过的比马云还快活。 发展军事跟能不能吃饱其实没有太大关系，现在吃不饱要从自身找原因而不是国家，再说现在不是没人侵略我们而是因为我们有强大的国防所以没人敢侵略我们。 香港很多人都来大陆生活了哦，你不知道而已 射的快[窃笑] 军舰装甲打不穿，除非曲射火力还能打得到甲板上的人，海警执法又是不能随便杀人的，意义真不大 要是把地效飞行器改成无人驾驶的会不会更容易有突破 和萨达姆一样，打起来就是完蛋，中 跟贴被火星网友带走啦~ 有啊，后面挂个喷子，就能破音障了，设计单位没有好好的利用资源 这种快艇好像没有什么太大的作用，对缉私非常好。一艘大船，带上四五艘这样的小船，特别是对偷鱼的越南和菲律宾效果非常好。 不知道是你没注意看还是怎么的，这个明显是气垫船造型啊，50节对于气垫船来说不是难事吧。 智商限制了你的想象力，这造型一看就知道是气垫原理，悬浮在水面上就没了水阻力，磁悬浮长的还跟地铁差不多呢，为什么速度差这么多？ 是气垫艇吧 你是意淫模式就是在西安监狱狗笼里。 所以就可以随意拆人房子代表你了！ 哨兵模式，让我联想起X战警 可爱而近来又缺狗粮的美畜日杂及其豢养的小畜们：你们吠，这是真的吗？！ 你不犯罪，因为你长时间在监狱狗笼里意淫不能出笼放疯，狗皮都发霉长绿毛秃掉了。 续航力不知怎么样 你凭什么做到同样装备？ 敢不敢去棒子的边界水域走一遭？他们敢开枪打渔民，智能无人艇就朝着韩国渔政船开火？别给我扯什么我国渔民越界捕鱼，只要你敢开枪，智能无人艇就开火干掉棒子！ 跟贴被火星网友带走啦~ 这种造型能开到96公里每小时，你搞笑呢？ 我孤陋寡闻了，美国哪两次败仗？曹县战争国际公认是平手，越战美国是败给了自己国内政治更何况越战把越南打成了世界第三军事强国，你个排名在他后面的说是你打败的美国？ 就是快艇加了个电传感系统和陀螺稳定器和一个机枪。尤其是传感器和陀螺稳定器还真离不开日货。 你爱信不信，你以为你是谁 好像有气垫，如果那样不成问题。 玻璃钢的吧 跟贴被火星网友带走啦~ 未来人都是机器战争，关心人类价值。 就是这种才能开到这个速度如果像正常的造型阻力太大了…… 你拿出这货厉害的证据来啊 看就很low 反正我是不信有本事拿到外国战场上试试 报道说，这款名为“天行一号”的新型无人艇使用油电混合动力，全长12.2米，满载排水量7.5吨，最高航速超过92.6公里/小时（50节）。配个近视眼吧又不贵 朋友你哪里看到96公里每小时了？ 你的两条狗腿被剁都和狱卒有关。说老实话，你还真的没有在狱卒的对抗中取胜过。 好的 你信不信重要吗？ 哈工大深圳研究生分院，深圳公司有钱，只要有技术立马可以造出来。 加上导弹是不是能干航母了，一下去来100艘，我不信哪国的航母能防住 香港很多人都来大陆生活了哦，你不知道而已 呵呵看来你还是挺关注你爷爷的哦 这造型看上去还挺萌的。。。 像个乌龟 哨兵模式就是在某一地区巡逻 记住是无人艇 你母亲有点象充气的马桶。 在CS里，这个属于外挂吧，自动锁定目标，自动交火？ 网易喷子最多了 快艇快不快？时速110公里，96公里才哪到哪 你的知识面怎么有胆量发帖[窃笑] 你的意思是空气阻力能大道不能超过九十六公里？智商堪忧 西安傻狗好好看看文中说的是多少公里。 你用舔啊舔啊，船自动加速向前了 有点像气垫船。 就是快艇加了个电传感系统和陀螺稳定器和一个机枪。尤其是传感器和陀螺稳定器还真离不开日货。 这个....不就是哥在公园里看到的水上碰碰船么....造型一个样，按下按钮还带音响效果...开火...哒哒哒。 就是快艇加了个电传感系统和陀螺稳定器和一个机枪。尤其是传感器和陀螺稳定器还真离不开日货。 中国各方面都已经世界第一了，这是不争的事实。 你好这口 就是快艇加了个电传感系统和陀螺稳定器和一个机枪。尤其是传感器和陀螺稳定器还真离不开日货。 没达到军事目标的战争就是败仗，至于越南是自称第三。 这个....不就是哥在公园里看到的水上碰碰船么....造型一个样，按下按钮还带音响效果...开火...哒哒哒。 跟贴被火星网友带走啦~ 街上乞丐说他要跟马云一样有钱，一定过的比马云还快活。 发展军事跟能不能吃饱其实没有太大关系，现在吃不饱要从自身找原因而不是国家，再说现在不是没人侵略我们而是因为我们有强大的国防所以没人敢侵略我们。 美国人被中国人打的屁滚尿流。然后被中国人指挥的伪军打的屁滚尿流。 蛾狗炮弹都不穿你母亲的狗皮，你母亲偷食蛾狗米青很严重。 呵呵看来你还是挺关注你爷爷的哦 美帝又被吓的尿裤子了！ 科幻啊…… 不知续航能力有多强？ 这种快艇好像没有什么太大的作用，对缉私非常好。一艘大船，带上四五艘这样的小船，特别是对偷鱼的越南和菲律宾效果非常好。 如果是他美爹开发的，什么造型都能上200 查狗牌 尼玛就怕再一再二不再三啊龟儿子 海警船不会配反舰导弹的 造壳大国牛能上天 放水里溜溜？ 楼主，此造型风阻是很大，但舰船速度不单是由风阻大小一个因素决定的，还有动力大小等因素，如果动力足够大，那么，达到文中说的速度，也未尝没有可能。 有点像气垫船。 日本密件曝光4大秘密：美日曾密谋瓜分中国以绝后患-------百度一下，大家会有惊天发现 像个乌龟 92.6和95差不多 跟贴被火星网友带走啦~ 你哪只狗眼看到了他说你美爷爷开发的什么造型都能上200？证据呢？别泥马勒戈壁狗嘴两张皮信口开河！ 网易喷子为中国百姓操碎了心 这种造型能开到96公里每小时，你搞笑呢？ 管我鸟事，物价油价房价又涨了生活压力越来越大了 秀无知么，气垫船懂么？喷造型，你才搞笑吧 差评！可能拍张全景图！ 瞧瞧，一说美国不好，唐公公马上就急眼了吧，咬死你 每天打开评论基本上前三条都能看到你的身影，需要去关注？都视觉疲劳了 船很小，所以续航能力应该不强，这种船在护渔中的作用极大。围剿偷鱼的外国渔船，对抗外国的海警，作用极大。 【满载排水量7.5吨】也就是一个小舢板。起码应该搞到100吨级左右，配备一座730速射炮，再配置4枚C-701反舰导弹（巡航时下降隐藏，使用时升起），配置一套三联装324毫米鱼雷发射管，能续航2000km。做一个合格的【海上巡警】 报道说，这款名为“天行一号”的新型无人艇使用油电混合动力，全长12.2米，满载排水量7.5吨，最高航速超过92.6公里/小时（50节）。 日本密件曝光4大秘密：美日曾密谋瓜分中国以绝后患 也象飞碟。，。。。哈哈哈！！！！心不同，看物也不同。2楼的心，应该装有乌龟。 美帝又被吓的尿裤子了！ 朋友你哪里看到96公里每小时了？ 要是能拿渔网俘获一个……我有一个大胆的想法 美日韩尿床了 全长12米，眼瞎吗？ 射的快[窃笑] ",
        "Total": 2762,
        "Link": "http://comment.war.163.com/news_junshi_bbs/D68JL3M9000181KT.html",
        "Reply": 98
    },
    "Article": "（原标题：外媒称中国推出世界最快无人艇：高度自动化火力强打得准）参考消息网12月22日报道英国《简氏防务周刊》网站12月15日报道称，在日前于广东湛江举行的中国海洋经济博览会上，中国发布了一款世界上最快的无人艇。报道说，这款名为“天行一号”的新型无人艇使用油电混合动力，全长12.2米，满载排水量7.5吨，最高航速超过92.6公里/小时（50节）。一幅在展会上拍下的照片显示似乎是这一平台的模型，它的船身与一艘气垫船类似，装备有一个遥控武器站，与中国生产的ORW-1遥控武器站类似。报道说，这一平台于今年9月问世，是哈尔滨工程大学和深圳海斯比船艇公司联合研制的。海斯比公司的代表黄卓对记者说：“海上执法和海军缺乏人力，有些工作可由无人艇来做。”简氏曾在2015年12月报道称，ORW-1装备有一挺12.7毫米口径的88式重机枪，并装有一套红外光电传感系统和一台陀螺稳定器，以提高射击精度。它的最大射程是1500米。英媒表示，ORW-1同样具有高度自动化的特点，拥有全自动化的哨兵模式，这一模式既可以自动追踪目标，也具备交火能力。智能能量管理方案则延长了运行时间，同时避免了过热风险。（编译/冯雪）资料图：智能无人艇模型。本文来源：参考消息网责任编辑：姚文广_NN1682",
    "Title": "中国推世界最快无人艇：高度自动化 火力强打得准_网易军事"
}