{
    "Article": "（原标题：国务院：政府要严守承诺不能新官不理旧账）国务院总理李克强1月3日主持召开国务院常务会议，部署进一步优化营商环境，持续激发市场活力和社会创造力；确定加大支持基础科学研究的措施，提升原始创新能力。进一步优化营商环境会议指出，优化营商环境就是解放生产力、提高综合竞争力。按照党的十九大和中央经济工作会议精神，改革创新体制机制，进一步优化营商环境，是建设现代化经济体系、促进高质量发展的重要基础，也是政府提供公共服务的重要内容。近年来，各地区各部门按照党中央、国务院部署，大力改善营商环境，取得积极进展，但仍有不少“短板”。必须针对市场和企业反映的突出问题，以深化“放管服”改革为抓手，多推“啃硬骨头”的举措。软硬环境都重要，硬环境要继续改善，更要在软环境建设上不断有新突破，让企业和群众更多受益。一要以简政减税减费为重点进一步优化营商环境。对企业开办、纳税、施工许可、水电气报装、不动产登记等事项大幅精简审批、压缩办理时间。进一步清理取消经营服务性收费和行业协会商会收费，降低通关环节费用。大力推动降电价。促进“证照分离”改革扩容提速。以“双随机一公开”为原则，积极推进综合监管和检查信息公开。加快建立以信用承诺、信息公示为特点的新型监管机制，制定失信守信黑红名单及管理办法并向社会公布。二要严格依法平等保护各类产权，加大知识产权保护力度。政府要严守承诺，不能新官不理旧账、对企业不公平对待或搞地方保护。保障不同所有制企业在资质许可、政府采购、科技项目、标准制定等方面公平待遇，坚决查处滥用行政权力排除和限制竞争的行为。全面实施市场准入负面清单制度，在全国推行外商投资企业商务备案和工商登记“单一窗口、单一表格”。三要借鉴国际经验，抓紧建立营商环境评价机制，逐步在全国推行。会议决定，坚持问题导向、突出重点，对提升办理建筑许可和跨境贸易便利度开展专项行动。实行规划、消防、环保等部门并联限时审批，简化施工许可等手续。对跨境贸易建立跨部门一次性联合检查机制。打造国际化、法治化营商环境，为企业和群众提供办事便利，进一步激发市场活力和大众创业、万众创新深厚潜力。提升原始创新能力会议指出，通过深化科技体制改革，加强基础科学研究，提升原始创新能力，是实施创新驱动发展战略、建设创新型国家的重要举措。一要从教育抓起，潜心加强基础科学研究，对数学等重点基础学科给予更多倾斜。二要促进基础科学与应用研究融通，既要重视原创性、颠覆性的发明创造，也要力推智能制造、信息技术、现代农业、资源环境等重点领域应用技术创新。三要加大体制机制创新，采取政府引导、税收杠杆等方式，激励企业和社会力量加大基础研究投入。以重大项目攻关为中心集聚创新资源，探索开展基础研究众包众筹众创，推动重大科研数据、设施、装备等创新资源向社会开放共享。四要支持高校和科研院所自主布局基础研究，扩大科研人员研究选题选择权，完善以创新质量和学术贡献为核心的评价机制，建立容错机制，鼓励自由探索、挑战未知。五要多方引才引智。加大国际科研合作，大力培养和引进战略科技人才，加大中青年人才储备，稳定支持优秀创新团队持续从事基础科学研究，支持海外专家牵头或参与实施国家科技项目。会议还研究了其他事项。本文来源：新京报责任编辑：徐萌_NN7485",
    "URL": "http://news.163.com/18/0104/03/D79B5S9U0001899N.html",
    "KeyWords": "国务院,政府,基础科学",
    "PublishTime": "01/04/201803:08:28",
    "Title": "国务院谈产权保护:政府要守承诺 不能新官不理旧账_网易新闻",
    "Comment": {
        "Content": "好消息 好！ 好消息 ",
        "Link": "http://comment.news.163.com/news2_bbs/D79B5S9U0001899N.html",
        "Total": 13,
        "Reply": 2
    },
    "Source": "Netease"
}