{
    "Title": "导演李春明去世 曾创作《过河》《桥》等作品_网易娱乐",
    "URL": "http://ent.163.com/17/1226/07/D6IL41UK00038FO9.html",
    "Source": "Netease",
    "Comment": {
        "Total": 2,
        "Reply": 2,
        "Content": "老艺术家走好 在春晚名单见过好几次 ",
        "Link": "http://comment.ent.163.com/ent2_bbs/D6IL41UK00038FO9.html"
    },
    "Article": "导演李春明去世网易娱乐12月26日报道12月25日晚，导演李春明去世。26日凌晨，潘长江发博悼念：“没有他就没有我的今天……他是我的恩人……他是我的老师……我的小品百分之八十都是经过他的手。”李春明曾创作《过河》《桥》《开学》《求求你》等经典作品。本文来源：网易娱乐责任编辑：李彤_NK4455",
    "PublishTime": "12/26/201707:39:42",
    "KeyWords": "李春明,过河,潘长江,老师"
}