{
    "Source": "Netease",
    "KeyWords": "刚果,停火,政府,布拉柴维尔",
    "URL": "http://news.163.com/17/1224/07/D6DG50IK0001875O.html",
    "PublishTime": "12/24/201707:36:38",
    "Comment": {
        "Content": "你我 岛国输出的革命? 谈判让巴沙尔地盘越来越大 ",
        "Total": 4,
        "Link": "http://comment.news.163.com/news_guoji2_bbs/D6DG50IK0001875O.html",
        "Reply": 3
    },
    "Article": "（原标题：刚果（布）政府与反政府武装签署停火协议）新华社布拉柴维尔12月23日电刚果（布）政府23日与普尔省反政府武装“忍者”签署停火协议，双方将根据协议成立混合委员会监督落实协议内容。双方代表当天在首都布拉柴维尔召开记者会证实了这一消息。协议要求该武装组织上缴武器，且不得阻碍重建国家秩序；政府方面则承诺在该组织上缴武器进程结束后妥善安置该组织成员。此外，协议还要求安置普尔省因冲突大量外逃的难民。刚果（布）普尔省因反政府武装制造冲突，大量平民被迫迁徙。今年7月，刚果（布）举行国民议会和地方选举，普尔省由于安全局势等原因未能如期举行投票。本文来源：新华网责任编辑：范姜国一_NN9138",
    "Title": "刚果（布）政府与反政府武装\"忍者\"签署停火协议_网易新闻"
}