{
    "Source": "Netease",
    "KeyWords": "中国,节日,圣诞节,传统节日",
    "URL": "http://news.163.com/17/1225/07/D6G220Q7000187V5.html",
    "PublishTime": "12/25/201700:28:00",
    "Comment": {
        "Content": "抵制洋节从现在做起 老百姓穷了，没钱过节了呗。钱都他妈让股市房市骗光了 中国的文件自信充分体现出来！ 马是德国人列是俄国人，紧跟他们算什么？<br>元旦、纪年、星期都是用方的怎么了？<br>从中学到大学所有理工科书都是西方的怎么了？ 国外怎么没有说必须抵制春节海外华人还不是正常过外国ld还参加庆祝 圣诞节怎么了？不允许大家过节开心？最烦这种一个节日都上升到正只层面 这两天小学生都在教室里齐声大喊不过洋节，倒车从小做起。他们有脸就在春节期间别向什么全球华人拜年，别去纽约广场放广告庆祝春节。今年上台这批人完全是那个年代的坏人，现在轮到这批人掌权了，严重倒退。 过什么节都自愿吧，不过很多节都是商家炒作出来的 祭孔子皇帝，拜观音，请祖宗，烧头香，放炮吓年……都是儍逼事，华南大学土木系书记禁止本系党员参加聖诞活动:他用权过头了。因为我国憲法规定:公民享有宗教信仰的自由与权力。你可以唱聖歌去教堂，也可以不去，在家学马列，那位支书记心底善良却左现过头了 找个由头乐呵乐呵罢了，国外过春节的就和人家过圣诞一样隆重吗？过什么节对于一个自信的国家来说都无所谓，但对于某些猪头余孽可能就不一样了，怕西方文化进来的多了影响毒菜。这事儿玩的还是和对禁止去韩国旅游那套一样的，口头传达禁止，书面不留文件，但是只要你犯了，你就要挨办。只要你不犯，还可以让你上个新闻报纸之类的，当个爱国典型。 小学的确通知了， 二楼太直白 这种节日就是商家在狂欢。 我什么节都不过，但也不阻止人家过，人各有好。 你这种无独立思维能力的煞笔玩意，活着有什么意义吗？ 开心就好，不管什么节日，不开心还不如不过，过年我就很不开心，各种应酬各种花钱，辛苦一年很多积蓄都花完了，这样的年你开心吗？同意的顶，中国人爱面子太累 必须给外国节日在中国降温。要大力发展中国传统节日。保持民族文化独立性。现在连幼儿园都把圣诞节当回事，这不得不让我们警惕。文化的入侵更可怕。 二楼真厉害一眼就发现一楼的问题了 很恶心。这样的媒体在澳大利亚就是街头小报的水平也不如。 元旦，三八妇女节、五一劳动节、六一儿童节，乃至于礼拜天，这些都是西方舶来品，有本事你全部抵制，一个也别过！ 看到大家的评论我放心了，晚上接着狂欢去。哈哈哈。 看到环球时报我就放心了 闭关锁国最好 天天过节乐呵一下不行吗？非要上纲上线 抵制圣诞不如抵制蠢蛋 连个节日也上纲上线，恐怖！ 每个节日都有节日的意义，圣诞节作为中国购物的节日，促进内需消费，也挺好。 过圣诞节的都是傻逼玩意，有什么意义吗？ 强烈要求冬至节纳入国家法定假日 朋友圈很多刷中国人不过洋节的，甚至有破口大骂的，真是醉了……没有任何人逼中国人过圣诞节，圣诞节是基督徒的节日，你不信基督教就可以不过，想热闹开心一下当然是可以的。不要偷换概念，解放军保卫的平安与平安夜也完全不搭界。通过深拒固闭的方式来满足自己的自信心，连基本的理性都没有，真是尴尬！ 屎报出品必是精品 我们那的学校都发通知了不让过洋节。 为环时点赞！讲故事水平不是一般的高。 圣诞节是别人信耶稣基督教的节日，不知道广大屁民去凑什么热闹 我不过圣诞节但是过不过圣诞节是人们的自由谁也没资格说三道四我是九零后 胡锡进，看，飞盘，叼回来 微博上有段视频是教室里一群学生站起来大声喊:我们不过圣诞节！真荒唐可笑，感觉回到五十年代。 魅族也沦陷了？ 个人图开心，商家图机遇，仅此而已，别想太多 过尼玛的圣诞，老子只过元旦 这两天小学生都在教室里齐声大喊不过洋节，倒车从小做起。他们有脸就在春节期间别向什么全球华人拜年，别去纽约广场放广告庆祝春节。今年上台这批人完全是那个年代的坏人，现在轮到这批人掌权了，严重倒退。 过个节也说三道四的…是不是到时候要连我们一天吸几口空气也要管？ 刚刚开始大多都是商家炒作出来的。。。。才不管你是什么节，没有节日都要创造节日。。。。什么77*520*214*314*111*1111*1212*…………什么鬼日子都能成为节日，只有你想不到的。在商家的世界里，没有商机就要创造商机 过尼玛的圣诞，老子只过元旦 狗日的圣诞节滚出中国，狗日的黑心商人圣诞你马勒戈壁 不挡住外族文化渗透那可不得了 过什么节都自愿吧，不过很多节都是商家炒作出来的 是到了应该传扬中国传统文化的时候了 问题来了，既然都是外来节日，为什么没有商家炒作开斋节呢？ 人家有全民吗？傻逼 你这种无独立思维能力的煞笔玩意，活着有什么意义吗？ 要去西方化就去的彻底点 元旦，三八妇女节、五一劳动节、六一儿童节，乃至于礼拜天，这些都是西方舶来品，有本事你全部抵制，一个也别过！ 支持，威武，有希望了？要开始准备胶水，马克笔，空白海报纸吗？ 你自己都把屈原弄没了，还怪别人入侵 朋友圈很多刷中国人不过洋节的，甚至有破口大骂的，真是醉了……没有任何人逼中国人过圣诞节，圣诞节是基督徒的节日，你不信基督教就可以不过，想热闹开心一下当然是可以的。不要偷换概念，解放军保卫的平安与平安夜也完全不搭界。通过深拒固闭的方式来满足自己的自信心，连基本的理性都没有，真是尴尬！ 中国的传统文化现在还有么？ 老子就要过圣诞节 魅族也沦陷了？ 炮节 活着的意义在于为沼气池再输送一点粪便💩 国外怎么没有说必须抵制春节海外华人还不是正常过外国ld还参加庆祝 基督徒过圣诞节没毛病吧，你牛逼你去把教堂拆了呀！ 小学的确通知了， 华为…呵呵呵呵呵 到底谁在把节日政治化 不挡住外族文化渗透那可不得了 1月1日，5月1日，周六周日，都是西方节日 必须给外国节日在中国降温。要大力发展中国传统节日。保持民族文化独立性。现在连幼儿园都把圣诞节当回事，这不得不让我们警惕。文化的入侵更可怕。 新闻媒体经常把外国人也过春节宣传的多么多么自豪，然后说中国不可以过外国的年 不反对圣诞节但是一个缺少信仰的民族却大呼快乐的过着一个神的诞生日总觉得很奇怪 祭孔子皇帝，拜观音，请祖宗，烧头香，放炮吓年……都是儍逼事，华南大学土木系书记禁止本系党员参加聖诞活动:他用权过头了。因为我国憲法规定:公民享有宗教信仰的自由与权力。你可以唱聖歌去教堂，也可以不去，在家学马列，那位支书记心底善良却左现过头了 一个苹果卖20-+∞，你说商家过不过？ 一味抵制是弱智你能不能把传统节日包装下让现代人也用现代眼光生活习惯消费传统节日那？不光是有元宵粽子，还可以讲故事讲文化还可以有神话人物啊！搞得好大人孩子年轻人谁不喜欢呢？自己不努力还怕人家的好东西，愚蠢至极！ 不是自己的节日不过😂这些洋垃圾节日都是黑心的商人炒作起来的，国人啊就像一群羊… 某国的喷子们，看到你们这样，我就放心了 过圣诞节的都是傻逼玩意，有什么意义吗？ 我们那的学校都发通知了不让过洋节。 你们那边是哪个傻逼学校? 其实就是炮节，男男女女为炮狂欢 你们媒体有责任，，， 西方媒体敏感度高还是你们敏感度高？ 工资到账了没 微博上有段视频是教室里一群学生站起来大声喊:我们不过圣诞节！真荒唐可笑，感觉回到五十年代。 一楼这种人也就大陆有了 朋友圈很多刷中国人不过洋节的，甚至有破口大骂的，真是醉了……没有任何人逼中国人过圣诞节，圣诞节是基督徒的节日，你不信基督教就可以不过，想热闹开心一下当然是可以的。不要偷换概念，解放军保卫的平安与平安夜也完全不搭界。通过深拒固闭的方式来满足自己的自信心，连基本的理性都没有，真是尴尬！ 五一劳动节、六一儿童节不是外国节日？算不算文化入侵？ 在大学时期我最喜欢这个过这个平安夜，我都事先把房开好。 过节日都是那些傻逼女人为了收礼物！狗日的 这种西方国家的节日不跟风也不排斥。 那为什么要过国庆？ 😄😄😄😄真的! 嗯，中国的春节刚开始火到外面 你这种无独立思维能力的煞笔玩意，活着有什么意义吗？ 国庆节怎么办？还有81，51，38。。。 生活太苦逼，以节日的借口乐呵乐呵而已，没必要上纲上线 今天是潮汕的传统大节圣诞节，相传在唐宋时期潮汕地区人民圣诞当天会提前做果，剁只鹅，于圣诞当夜一家团聚在圣诞树🎄下烧香拜树，祈求圣树保号仔孙平安大赚！宋代诗人欧阳修还写过:月上圣树头，人约黄昏后。形容当时年轻人圣诞当天在拜完圣诞树后蜜约幽会，谈情说爱的情景！so记得拜哈！ 我不同意你的观点，但我誓死捍卫你说话的权利 过圣诞节没什么，但是中国人过圣诞全拿着充气棒互相疯狂追打这就很尴尬了……你看国外是这么过的吗？有几个中国人过圣诞的家里弄个圣诞树来挂礼物？？学又学不像还过出优越感了！可悲！！ 限制这限制那，孤岛生活真惬意 哦⋯⋯ 所以啊，在中国传统节日应该多放点假，这样那些洋节想火也火不起来了。 哈哈哈哈，那公元纪年也不要了，煞笔💩爆，信不信劳资一巴掌打的你叫爸爸 我不过圣诞节但是过不过圣诞节是人们的自由谁也没资格说三道四我是九零后 809000有少人过圣诞节统计数据吓到你一代影响一代 祝大家圣诞快乐🎅🎅🎅🎁🎁？ 看到大家的评论我放心了，晚上接着狂欢去。哈哈哈。 iphone硬起 你这种跟封建保守思想没什么区别了，中国人在外面庆祝春节也是一样的。 国外怎么没有说必须抵制春节海外华人还不是正常过外国ld还参加庆祝 有谁不过圣诞节？除非死人。至于人们走不走形式另外一个说法。 到底谁傻傻B？明天别人流行过狗节，你过不过？！脑残一个 勿忘2012.12.24东都商厦大火案 你是真正的傻逼脑残 一些崇洋媚外的人！ 商家的噱头 把老外的节日过得比老外还热闹，这是中国一大特色… 外国过春节就大张旗鼓。中国人凑个圣诞节热闹就上纲上线 屌丝过毛的圣诞节，圣诞节不过日穴的借口罢了，日不到穴的该干啥干啥去 自古二楼出傻逼 必须给外国节日在中国降温。要大力发展中国传统节日。保持民族文化独立性。现在连幼儿园都把圣诞节当回事，这不得不让我们警惕。文化的入侵更可怕。 华为滚粗 看来现在发手机五花八门了 过圣诞节的都是傻逼玩意，有什么意义吗？ 说三道四也是一种自由 我们过元旦 又不放假过啥过 我说三道四，也是我的自由！ 嗯…… 你真看得起春节在国外的份量，充其量唐人街热闹点，其他地方当你个屁啊，你再看看圣诞节，大陆之内哪个地方不庆祝？ 魅族也沦陷了？ 什么时候拉💩要不要管？ 华为爆发 确实没有以前火了，只记得十多年前圣诞节大学里面闹翻了天。随着生活水平的提高，圣诞节也没啥神秘，好玩的。。话说确实清楚圣诞节是啥节，跟我有关系？商家促销炒作而已，但风头明显不及啥双11，618，101等 我反正不过圣诞节，至于别人过不过我管不着，没资格说三道四 你的文化有什么优越性，孕育出什么先进成果。5000年帝制吗？ 华为果然是傻逼 穷了过不起了 虽然一眼望去全是虐狗节和买买买节…然而关你当管的屁事…… 就要这样做 傻逼 我是看上了圣诞节的各种优惠，各大商场气氛很浓，很多活动，便宜好多 什么叫意义？老子快活，开心就是意义，不想过你可以天天烧纸磕头，天天过清明。傻逼 个人图开心，商家图机遇，仅此而已，别想太多 喜欢过什么节是别人的自由，这还要管太可笑 煞笔节 你这种无独立思维能力的煞笔玩意，活着有什么意义吗？ 就是个玩乐的借口而已，当真就输了～ 额！ 应该先废除星期六和星期天吧 夏普？嘚瑟啥 我不过圣诞节，我不觉得圣诞节是傻逼专属，有钱了闹闹挺好的和过年一样 爱过不过，你们操几多心，我就知道昨天买了件一直看没舍得买的大衣，五折， 觉醒了 不要逼脸，英语，美元，全世界通行，你怎么抵制。 现在所谓的节日，也就是大家找个借口串串门，聚聚会，喝喝酒，约约炮，其他的还有什么意义？ 就是，一点文化自信都没有 圣诞节是别人信耶稣基督教的节日，不知道广大屁民去凑什么热闹 我不过圣诞节但是过不过圣诞节是人们的自由谁也没资格说三道四我是九零后 老百姓贫贱不能移，过个洋节怎么了？ 美国很多州把春节定位法定假日，全世界好多国家都一样 走狗胡，没有一句好话。 过剩蛋才能体现出你有独立思考能力，你那是狗脑吧？<br>这些个逗逼玩意儿不知脑壳里都装些什么，洋节就高大上了？贱 国外怎么没有说必须抵制春节海外华人还不是正常过外国ld还参加庆祝 别不信，还真是这样。 平安夜大屠杀多少人把精子骗出来就诱捕到套套里了太残忍了我们谴责这些行为 孩子幼儿园接到通知，今年没圣诞老人送礼物，不摆圣诞树。 传统节日味道更浓了？？你特么睁眼说瞎话，春节就7天，我好多同事都不回老家过年了，过年就是吃顿饭。乡下就更不如从前的气氛了 我们是根据自己的爱好过节，过的也不一定是别人的节，只是利用这个时间节点罢了 过个圣诞节就叫有独立思维能力了，这不打自己脸吗？！你不也跟着人家过吗？ 过一个节日都上升到国家民族，觉得好累 双11都可以过，为什么圣诞不能过？ 应该建议不穿西服不开洋车不看电视不坐飞机因为这些都是西方的文化入侵 必须给外国节日在中国降温。要大力发展中国传统节日。保持民族文化独立性。现在连幼儿园都把圣诞节当回事，这不得不让我们警惕。文化的入侵更可怕。 环球时报，厕所真需要 过圣诞节的都是傻逼玩意，有什么意义吗？ 羊鬼子节，扯蛋 过什么节都自愿吧，不过很多节都是商家炒作出来的 全世界都庆祝中国的新年，不光海外华人，国外官方都向中国的春节祝福，反观中国五千年的文明连一个外来的节日都包容不了，就这气量还伟大复兴呢，抵制圣诞的傻逼们，你祖宗过元旦，还有五一，三八，周末吗你祖宗早让你气的呛死在粪坑了，知道几千年后出了你这过着元旦，过着五一的然后居然拿祖宗的名义抵制圣诞，圣诞节只要不是邪教节日，过不过个人自由，轮的着你指手划脚，你算什么东西，过圣诞你会死妈所以你才抵制？ 魅族也沦陷了？ 弘扬中国传统文化，是每个中国人的美德！ 过年不许放鞭炮烟花，放了一年都会有霾 华为你好，华为再见！ 你们都没看到京东的广告嘛？哈哈 商家找个名目做买卖，老百姓找个原由放松下，有何不可？ 无所谓过不过，过就是找个由头朋友们坐坐。 应该 👀 有够粮，它当然要活着 悲喜交加，外国人的节本来和咱没多大关系，不用凑热闹，但这还得靠限制，可悲 还有疯狂的空间，昨天亲历了一个国内所谓的省会城市一帮脑残儿屁都不懂的拿个油漆罐朝人乱喷，头上带几个会闪的耳朵就是过圣诞了感觉，傻叉低级的可以，感觉比老外过的还要疯狂，其实为什么要过连这个完整的故事都说不下来，就是盲目炒作跟风了 确实，昨天晚上，我走在涪陵的商圈，几个年轻的人都看不到，感觉过气了 玻璃心 你这种无独立思维能力的煞笔玩意，活着有什么意义吗？ 总有洋人想害朕…… 不要一棍子全打死了。手持华为小心路过…… 过中囯人的圣诞节1226 无神论者是不是不担心下地狱？ 与春节的民间死气沉沉和媒体高唱颂歌相比，我就算不知道圣诞节和耶稣的关系，也愿意去跟着年轻人热闹一把。 外国人在国外庆祝春节中秋节的时候，你们说是弘扬了中华文化；年轻人借着圣诞节这个由头聚聚会狂欢一把，你们却说崇洋媚外瞎胡闹？这双重标准太明显了吧？！ 连个节日也上纲上线，恐怖！ 接受别人的节日，却不接受别人的普世价值 说好的文化自信呢？连洋节也抵制，我看一点自信的样子也没有，徒留笑料而已。 我不过圣诞节但是过不过圣诞节是人们的自由谁也没资格说三道四我是九零后 一个曾经的文化输出国，现在竟然开始害怕被文化入侵了！？讲道理，中国历史上被文化入侵的还少吗！？小到生活起居，大到国家政事，最后的结果呢？这一切都被被融会贯通了，这才成就了华夏文明。所以，说着被文化入侵，我都不知道害怕个啥，没有基督教信仰，圣诞节无非就是给大家一个出门消费的理由，给商家一个特么炒作的借口，仅此而已，不需要上纲上线，忧心忡忡。 凑热闹而已，何必上纲上线 一个曾经的文化输出国，现在竟然开始害怕被文化入侵了！？讲道理，中国历史上被文化入侵的还少吗！？小到生活起居，大到国家政事，最后的结果呢？这一切都被被融会贯通了，这才成就了华夏文明。所以，说着被文化入侵，我都不知道害怕个啥，没有基督教信仰，圣诞节无非就是给大家一个出门消费的理由，给商家一个特么炒作的借口，仅此而已，不需要上纲上线，忧心忡忡。 我尊重你们基督徒，称“耶诞节”最合适 你几时看到有几个老外约起来过春节了？再说圣诞是宗教意味很强烈的节日，你连上帝和耶稣的区别都说不清，过什么宗教节日？！ 马是德国人列是俄国人，紧跟他们算什么？<br>元旦、纪年、星期都是用方的怎么了？<br>从中学到大学所有理工科书都是西方的怎么了？ 国外怎么没有说必须抵制春节海外华人还不是正常过外国ld还参加庆祝 对拉动内需有点贡献 主要是现在人的生活水平好了，过圣诞节并非低消本国传统节日，没什么可怕的。 魅族定律？ 我以前也不过但是有女朋友了就要过了 也不放假，跟许多其他节日一样，过不过对我来说没什么意义 以前觉得平安夜没出去浪就白活了，现在觉得平安夜宁愿在家吃晚饭玩手机 必须给外国节日在中国降温。要大力发展中国传统节日。保持民族文化独立性。现在连幼儿园都把圣诞节当回事，这不得不让我们警惕。文化的入侵更可怕。 我不同意你的观点，但我誓死捍卫你说话的权利！ 过圣诞节的都是傻逼玩意，有什么意义吗？ 大国需要有大的胸襟 下一个是礼拜天 不伦不类的 唉，又有多少被叫去吃苹果的最后吃了香蕉。 然后回到单休？ 开心就好 魅族也沦陷了？ 玻璃心一览无余 不能过节不是吗 我认为没问题啊，你也不信教<br>过什么圣诞节，凑什么热闹 外国人还过春节呢，是不是也要批判？批判大会😂 这个是什么梗，不懂 春节不把放鞭炮风俗改掉，永远达不到圣诞节的影响范围 这篇文章的水平。。。。 中国最大的节日是春节，很多人在外乡，回趟家不容易，票难买，一来一回在车上都要两天，假期就几天，你让人们如何过？ 某某诞辰多少年有意义不 你这种无独立思维能力的煞笔玩意，活着有什么意义吗？ 写这些垃圾的傻逼脑袋里都被格式化了吗？ 你怕什么？请问你怕什么？我就想请问你怕什么？ 问题是中国自己的节日怎么在过？好不容易过个年吧，票都买不到 国外怎么没有说必须抵制春节海外华人还不是正常过外国ld还参加庆祝 每个节日都有节日的意义，圣诞节作为中国购物的节日，促进内需消费，也挺好。 中国人过什么西方节日，连为什么过节都说不清楚呢，无非就是某些商家利用了青少年羡慕西方文化，喜欢追求新奇的心理进行促销而已。你又不信基督教，连上帝和耶稣都分不清的小破孩过什么圣诞节！ 傻逼一样，大家无非就是凑个热闹！<br>还出个文件来限制，大傻逼……怪不得西方看不起我们！<br>互联网时代，天天抵制这个抵制那个，别人看耍猴一样 中国人，没过过西方的圣诞节就不要瞎凑热闹了。真正的圣诞节就是24号之前热闹，真到了正日子，街上连个人影都没有，商店全关。人们都在家里和家人团圆，没人出去疯玩。到了中国就全变了。 手机不错，幼儿园也很安全 我不過，但我不會阻止別人過。過不過是別人的事，與你何干？ 韩国人可没抵制端午，还当成自己的给申遗了。再说每到春节某AV使劲鼓吹外国人也过节，你们咋不抵制呢 我不过圣诞节但是过不过圣诞节是人们的自由谁也没资格说三道四我是九零后 国内说抵制了吗，该怎么过就怎么过 老百姓开心下也要管 傻逼，中国也没有抵制圣诞节啊！！！ 过一个与自己信仰或着说日常生活中毫无相关的节日，就是所谓的独立思维了。所有的宗教都是基于zhengzhi<br>需要而人造的没有例外。你可能说没<br>有人强迫你去信仰哪种宗教信仰自<br>由，但你不知道当你周围的人都在信<br>了，你也就不远了。和传销类似群体性欺骗，shan动就是这么回事 世界文化已经融入大千世界。自己的文化不发扬就会被别人的文化而统领，世界是互联网的时代，是信息时代，圣诞节、平安夜、包括什么复活节等等，我不知道有什么意义，但是商家可以做活动，可以卖商品，有利润，他们有利可图！春节、中秋等等节日，是我国的传统节日，我们深知节日的意义所在——-回家！团圆！看望父母！因为我们为了生计不得不远离家乡而出在外奋斗。所以有些人不必担心炎黄之孙会忘祖！外来节是一种生活！自己的节也是一种生活！ 圣诞帽 胡锡进，看，飞盘，叼回来 过洋节主要有一个好处，女生可以在节日求礼物，男生送礼物顺便约炮，大家都找到了一个开心的理由，这个就是洋节 呵呵，都知道怎么回事，学校各方面都通知不过 节日只不过找个借口而已 无端反对外来文化就是对自己民族文化的不自信 随便啦 同意+1，看它们这种报导口径，反而有了过这节的想法 自由，你在逗我玩吗？ 过个节也要扯什么文化复兴这样那样有这么不自信吗？爱过的过，不过的就不过管的真宽 必须给外国节日在中国降温。要大力发展中国传统节日。保持民族文化独立性。现在连幼儿园都把圣诞节当回事，这不得不让我们警惕。文化的入侵更可怕。 圣诞节已经日薄西山气息奄奄 因为国外不自信呀。 那让央视过年也不要转播国外人过年的场景了 过圣诞节的都是傻逼玩意，有什么意义吗？ 啥节 不知道抵制圣诞节的你会接着抵制元旦吗？ 湖南衡阳 在中国这么累，过个节都要骂，怎么了这是？ 其实我就搞不明白过个圣诞节为什么就要发苹果也是够能联想的 还在用500块钱的手机，朋友！我觉得你应该更多关注你一家的生活品质，而不是和你毫无关系的文化入侵，你还不配。 看来以前圣诞的火是腐败造成的喽。官权商不消费，老百姓真的没钱！唉钱都去哪儿了？ 我们这里的商场，前几天下通知了，不准大张旗鼓过圣诞节，商场员工的圣诞帽都被收了，圣诞色彩的装饰也撤了不少。到底是谁不让过圣诞节了！！！不管啥节日，大伙乐一乐就行，没必要上纲上线的像文革一样！ 🍎🍉🍅🍅🍆🍞🍳🍔🍟🍝🍜🍣🍧🍡🍭🍴☕🍸🍦🍰🍵国人就像上面这些东西，是东西就吃，什么玩的都想试试。 ",
        "Total": 6473,
        "Link": "http://comment.news.163.com/news2_bbs/D6G220Q7000187V5.html",
        "Reply": 416
    },
    "Article": "（原标题：社评：西方节日在中国城市大体火到头了）25日是圣诞节，很多中国商家借机促销，不少商店或者餐馆的服务人员穿上红色的圣诞老人装，使得中国各地的商业街飘出或浓或淡的“圣诞味”。这种情形应当说已是中国每年年底城市商业街风貌的常态。今年互联网上传出个别城市或者大学里限制过圣诞节的消息，一些外媒凑过来说，中国“抵制”“禁止”过圣诞节，对网上的原始信息做出夸大和引申，制造中国“出于政治考虑”大规模抵制外来文化的印象。身在北京、上海等中心城市的党员干部今年没有收到任何专门针对圣诞节的禁令，更不要说普通老百姓了。仔细看网上流传的个别地方和机构有关圣诞节的通知要求，以及了解它们出台的背景，发现其中有些是出于维护城市治安秩序和交通安全的目的，实际情形与“抵制圣诞节”不是一回事。需要指出的是，圣诞节在中国只对部分基督教信众来说是宗教节日，对绝大部分年轻人来说，从一开始接触它，就把它当成了一个购物狂欢节。关于中国人该不该过圣诞节的争论由来已久，尤其是新世纪市场化媒体繁荣以后，几乎每年这个话题都要热几天，反对过圣诞的声音可谓此起彼伏。然而这些讨论并没有抑制圣诞节购物狂欢这一商业附加含义的继续发酵。其实如果仔细观察，近年来中国传统及正统的节日氛围也变浓了，首先春节过得更热闹了，十一因为延长了假期，还成了全社会最重要的黄金周。清明、端午、中秋也因为“小长假”的设立，备受重视。节日的兴盛有一个根本原因，就是中国人的生活水平大幅提高了，人们有了更高的节日休闲需求，也希望有更多节日充实到生活中来，给越来越忙碌的生活增加公共的间歇符号，在集体氛围的熏陶中实现个体的放松。一些外来节日之所以流行开来，第一个原因是那些节日对年轻人来说很轻松，就是一个“玩”字。不管它们原来有没有那个含义，都多少被中国年轻人附加了一些“购物狂欢”的特征。大部分人都有释放情绪的需求，外来节日的原有传统中国年轻人搞不太懂，也没义务遵从，所以就通通改造成了“吃喝玩乐节”“购物节”“恋人节”。外来节日走红的第二个原因是除了中国全民性的传统节日外，其他传统节日过去开发得不够。民间对中国过去一些不突出的传统节日现在兴趣越来越大，比如七夕节，青年男女重视它的越来越多。再比如冬至，记得它并在意要吃点饺子等传统食物的人同样在快速增多。在全球化时代，“洋节”伴随着西方强势文化流入中国是不可避免的，相信今后中国的春节等也必将在世界范围内扩大影响。就当前来说，西方文化在中国长驱直入一个多世纪，中国重新崛起时间较短，传统文化复兴刚刚打牢营盘，这个时候中国社会多倡导一些弘扬传统节日，官方对“洋节”保持距离，党员干部一般不参加圣诞节等宗教节日的活动，是完全可以理解的。在社会上，圣诞节按照一个节日通常的规律存在并演变着。总的来看，圣诞节在中国中心城市的商业化扩张大体走到了头，其他节日的商业化包装正在紧追上来。一些西方媒体对围绕圣诞节争议的敏感程度很像是最高的，它们对待这个争论的态度也完全是政治化的。中国主流社会没必要跟它们较劲，使我们原本客观、均衡的态度被它们逼向相反的意识形态化。西方舆论来中国设置议题和引导争议方向的权力该被剥夺了。本文来源：环球时报-环球网。更多精彩，请登录环球网http://www.huanqiu.com责任编辑：韩佳鹏_NN9841",
    "Title": "媒体：圣诞节等西方节日在中国城市大体火到头了_网易新闻"
}