{
    "Source": "Netease",
    "KeyWords": "战机,空军,美军,美国",
    "URL": "http://war.163.com/17/1224/10/D6DPTPNA000181KT.html",
    "PublishTime": "12/24/201710:27:28",
    "Comment": {
        "Content": "那边到底有多少无产阶级的后代？怎么美帝什么事情都能让国内自媒体知道？ 皇军和Wehrmacht感谢你仗义执言 运城狗日的在几楼都是傻逼！ 只要有外形图片就好办，一年以后，俺们的也造出来了！ 一条 自古二楼出大大傻逼！ 一楼的老娘得性病了，每天它都用嘴给它妈添，舔完它妈就去含它主子的几把，没闲着的时候 你本来就是地狱里狗的子孙。 该战机从技术上来说比F-35更加先进<br>---<br>全文这一句是亮点<br><br>因为这个世界<br>有的新战机，还不如人家坟场里的先进 含紧些，别说话。 图片一出，铁血就高潮了。铁血的六代机马上就出。 可以设置成有人操作跟无人操作。这就牛逼了，飞行员不够，直接当无人机用，到那时人工智能已经小有成果，完全可以替代飞行员啊。 火腿肠 说二楼沙币的顶我啊 自古二楼出傻逼！ 一楼这句评论应该发在前几天中国要发展六代机的新闻上，这样才能有很多赞和支持你的评论 你是不是疯狗一只 我就不明白了，老美也太仁义了，有那么多先进武器装备，为毛不赶紧灭了苏俄毛子及其徒子徒孙干儿子呢，它们这帮恶魔已经祸害人类够久的了。 美国人拉的s你吃了都是香的。美国人吧你老破曰了你特别自豪！ 村头含到村尾 看你这妖孽能烧多久？ 印第安屠夫 記得前幾天網易有新聞報導。中國早就有第六代戰機計劃，美帝只是山寨而已，最多加個大字，就成自主研發。 6代应该就是无人机了。超音速人受不了 其它不说，第六代肯定是智能无人机，将开启人工智能武力接管人类社会的肇始…… 你的骨灰盒我已经替你打包好了 美国第六代战机绝对不可能是F35升级版。第六代战机应该具备：一、有限的太空战能力（攻击低轨道航天器），二、高超音速（6倍以上），三、电子屏障隐形（可能），四、超大航程等等特征，第六代战机的起飞和作战重量将远远超过第五代战机。 奇怪啊，前一阵一楼的老娘不是得性病住院了吗？一楼也被传染了，治好了？ 这是对狗最严重的污蔑 正义美军，横扫邪恶✌ 老妹最难能可贵的就是有序储备良性循环深思熟虑未雨绸缪洞察于秋毫防患于未然...聚日月之精华敛天地之纯粹集精英们之智慧纳民众们之心声...顺江河之势走万里蹬奇峰之高瞰山小应四季之变巧循环依时光之转妙更替秉上帝之仁济苍生施人间之善修大同... 不带鸭翼不先进，中必赢。 它含的什么啊 军队都是为本国利益服务的。无所谓正义不正义。 想知就多地来网易 我怎么没看见 就谈兵那个铁血傻x 厉害，我自叹不如 精辟 中俄朝IS塔利班胡塞爱大米卡扎菲伊朗 好词文采～点赞一个！ 我有个朋友，跟你差不多，也是整天在网上评。去年走的，走的时候并不安详，尸体在太平间抽搐了三天，火化的时候烧得滋滋响，嘴里还在嚎叫，烧了几个钟头才烧完，烧完以后上了灵车，出门就翻车了，骨灰洒了一地，还被风吹走了不少，刚想把剩下的捡起来，迎面来了一辆洒水车，唉 三楼美狗不就是吃你美爹屎长大的嘛，你美爹的屎不香？ 图什么都不过分至少是异族图自己族的才叫厉害 来，二楼，吃我拉出来的屎，热乎的 不许吹牛！整出来再吹。 你这张嘴真是横竖都能使。。。 白痴 美帝代表世界最先进科技发展方向 你是不是疯狗一只 因为萨厮，卡厮，巴厮都是jian货，不打不行，呵呵呵。 六代机中美不定谁先推出呢？ 楼上的，超音速人受不了？我不知道该怎么和你解释了。 这消息真真假假，当年苏联就是被星球大战计划拖垮的 那就是宇宙战舰了，和高达里的差不多 该战机从技术上来说比F-35更加先进<br>---<br>全文这一句是亮点<br><br>因为这个世界<br>有的新战机，还不如人家坟场里的先进 含紧些，别说话。 带路要什么条件？已经在学外语了 图片一出，铁血就高潮了。铁血的六代机马上就出。 可以设置成有人操作跟无人操作。这就牛逼了，飞行员不够，直接当无人机用，到那时人工智能已经小有成果，完全可以替代飞行员啊。 自媒体：看到J20美帝一身冷汗，赶紧研制下一代战机，不料全在他掌握之中。 SO，你让喷子还怎么喷啊 未来飞机的方向是一：雷达性能，包括蒙皮全身感应，二：导弹小型化，威力大，弹体小，现在挂10枚，以后可以挂50枚！三：无人机自动保护和攻击技术：发动机已经差不多了，以后没有很大空间发展，所以未来只要做好这三点就好了 这故事我喜欢学习。 美国画了一个大饼，喷子就认为是太阳，自以为是哮天犬。 我就不明白了，老美也太仁义了，有那么多先进武器装备，为毛不赶紧灭了苏俄毛子及其徒子徒孙干儿子呢，它们这帮恶魔已经祸害人类够久的了。 不许吹牛！整出来再吹。 说得好，比如当年的长春，海神歪。8月15日。无奈啊！！ 看你这妖孽能烧多久？ 我有个朋友经常复制别人的话而且看不惯人家的评论结果有一天在大街上被人打死别人都说狗东西是一个鹅奴畜 我有个朋友，跟你差不多，也是整天在网上评。去年走的，走的时候并不安详，尸体在太平间抽搐了三天，火化的时候烧得滋滋响，嘴里还在嚎叫，烧了几个钟头才烧完，烧完以后上了灵车，出门就翻车了，骨灰洒了一地，还被风吹走了不少，刚想把剩下的捡起来，迎面来了一辆洒水车，唉 你存在的价值不如有些死去的，你不用活了？？？ 已经出来了，估计正在试飞！是超薄机翼无垂直尾翼、无水平尾翼的翼身融合体！ 美国第六代战机绝对不可能是F35升级版。第六代战机应该具备：一、有限的太空战能力（攻击低轨道航天器），二、高超音速（6倍以上），三、电子屏障隐形（可能），四、超大航程等等特征，第六代战机的起飞和作战重量将远远超过第五代战机。 正常 六代机？美国人的五代机正式列装服役了？ 正义美军，横扫邪恶✌ 美国人小心摔飞机✈️ 听说研制六代战机的5-10倍音速的风洞目前只有中国有，美国是准备自研呢还是从中国进口呢？听说中国已经禁止其出口了。 老妹最难能可贵的就是有序储备良性循环深思熟虑未雨绸缪洞察于秋毫防患于未然...聚日月之精华敛天地之纯粹集精英们之智慧纳民众们之心声...顺江河之势走万里蹬奇峰之高瞰山小应四季之变巧循环依时光之转妙更替秉上帝之仁济苍生施人间之善修大同... 不是说我国也在硏制吗？ 不许吹牛！整出来再吹。 实力差不太多的嘴炮，差的太多的才上手 傻逼话都不会说了吧楼上的 自己再理解一下，什么叫输了就是邪恶。如果当时美国独立战争输了，那绝对是英国历史上的叛国分裂组织，参照北爱尔兰共和军。只有后人才能定义现在。 这消息真真假假，当年苏联就是被星球大战计划拖垮的 含着！别说话！ 20号啊，20号。设计用了20年，造出来已经花费了十多年.眼看也要过期了，还在说比俄国57号飞机好。其实，和光辉战机的经历是多么的类似。 美国就是靠贩卖武器强起来的！ 因为萨厮，卡厮，巴厮都是贱货，不打不行，呵呵呵。 含着！别说话。 六代机应该面向电磁隐身和无人机协同作战，7代机会是空天飞机，但是2倍音速内的多用途战机依旧不可或缺。 小心让驴牙把你那根管咬坏了 中俄朝IS塔利班胡塞爱大米卡扎菲伊朗 图片一出，铁血就高潮了。铁血的六代机马上就出。 再加你我三根，一楼就爽了，其实一楼这种都是可以可大可小随便扭曲的，这是它们的传统。 我有个朋友，跟你差不多，也是整天在网上评。去年走的，走的时候并不安详，尸体在太平间抽搐了三天，火化的时候烧得滋滋响，嘴里还在嚎叫，烧了几个钟头才烧完，烧完以后上了灵车，出门就翻车了，骨灰洒了一地，还被风吹走了不少，刚想把剩下的捡起来，迎面来了一辆洒水车，唉 你这智商我很难跟你解释唉，纠结。。。 对啊，所以皇军和Wehrmacht也并不是不正义的啊 美国人拉的s你吃了都是香的。美国人吧你老破曰了你特别自豪！ 6代应该就是无人机了。超音速人受不了 不够粗，漏气 实力差不太多的嘴炮，差的太多的才上手 自媒体：看到J20美帝一身冷汗，赶紧研制下一代战机，不料全在他掌握之中。 萨达姆卡扎菲说了，打我让我没法吹牛了，巴沙尔说了，谈判让我地盘越来越大，呵呵 霉帝没整出来吹下牛某些人就不说话了，中国出个什么科研计划就说吹牛，这双标真是可以啊 你麻痹！已收藏 可口可乐 那边到底有多少无产阶级的后代？怎么美帝什么事情都能让国内自媒体知道？ 无人智能化才是下一代的主要看点。 为啥要亮出图片来？ 就谈兵那个铁血傻x 铁血没见着，不过你先高潮了 一条 一楼的老娘得性病了，每天它都用嘴给它妈添，舔完它妈就去含它主子的几把，没闲着的时候 你本来就是地狱里狗的子孙。 恭喜楼主创造新名词、新技术－电子屏障隐形。一举推翻美帝的全频谱隐身技术概念。 这段话有点逍遥游的意思：若夫乘天地之正，而御六气之辩，以游无穷者，彼且恶乎待哉？ 村头含到村尾 含紧些，别说话。 图片一出，铁血就高潮了。铁血的六代机马上就出。 美国空军已经开始有关第六代战机的实验和规划设计，该战机从技术上来说比F-35更加先进。f35都不如叫什么六袋呢 火腿肠 说二楼沙币的顶我啊 老美永远要技术上比人领先一代啊，这些年光追F22F35了，这会放出消息来大概是已经差不多了吧 一楼这句评论应该发在前几天中国要发展六代机的新闻上，这样才能有很多赞和支持你的评论 印第安屠夫 最近的消息，说美帝要玩无人机飞行航母，目前还很粗糙，就是可以在空中回收的无人机系统。楼上说近地轨道同步空间基地，问题在于有必要么？拿来打谁？F22全在吃灰，F35都战力溢出。一楼说的有限太空战都太夸张 你是不是疯狗一只 我说唐公公，你这马屁帖千年不变啊？难怪你得不到绿卡，就你这B样的，当奴才都这么虚伪，谁特么还信任你？ 不许吹牛！整出来再吹。 你的头像，让饿感到瘆得慌。 記得前幾天網易有新聞報導。中國早就有第六代戰機計劃，美帝只是山寨而已，最多加個大字，就成自主研發。 要是只是技术上的提升，起码我们还能知道多少差距，还能有希望追赶，还能知道差距在哪里<br><br>要是让唐公公当上了六代机的发动机，这基本上就无解了，这是永远都不能超越的雷池<br><br>智能矢量喷嘴，全方位360度狂喷，一天三顿生物燃料，全天喷24小时20美元足够，环保节能绿色，关键是推重比高，能将30万吨航母直接推入太空，自身重量只有250公斤，这个推重比谁能超越？<br><br>唐公公发动机，代号TGG--250型，下一代神级黑科技，美帝值得拥有 其它不说，第六代肯定是智能无人机，将开启人工智能武力接管人类社会的肇始…… 你的骨灰盒我已经替你打包好了 美国第六代战机绝对不可能是F35升级版。第六代战机应该具备：一、有限的太空战能力（攻击低轨道航天器），二、高超音速（6倍以上），三、电子屏障隐形（可能），四、超大航程等等特征，第六代战机的起飞和作战重量将远远超过第五代战机。 我就不明白了，老美也太仁义了，有那么多先进武器装备，为毛不赶紧灭了苏俄毛子及其徒子徒孙干儿子呢，它们这帮恶魔已经祸害人类够久的了。 这是对狗最严重的污蔑 要让网易著名舔犬唐公公去扮演发动机的角色么？ 正义美军，横扫邪恶✌ 美帝也有过于乐观的错误判断。当年F35是美帝预计的最后一代有人驾驶隐形战机。然而过了这么多年，人工只能还非常幼稚，并没有大的突破，无人战机还是根本不可能取代有人战机。 老妹最难能可贵的就是有序储备良性循环深思熟虑未雨绸缪洞察于秋毫防患于未然...聚日月之精华敛天地之纯粹集精英们之智慧纳民众们之心声...顺江河之势走万里蹬奇峰之高瞰山小应四季之变巧循环依时光之转妙更替秉上帝之仁济苍生施人间之善修大同... 奇怪啊，前一阵一楼的老娘不是得性病住院了吗？一楼也被传染了，治好了？ 不带鸭翼不先进，中必赢。 幸好我们有歼20 它含的什么啊 你这张嘴真是横竖都能使。。。 应该是中或赢 我怎么没看见 他要是能灭毛子，也能灭C.到时候世界毁灭 把第一点改成无人驾驶好点。 自古二楼出傻逼！ 吓尿的美帝要挑起军备竞赛。 其实现在美帝发展速度已经很滞后了，这也是缺少竞争的结果，冷战时期世界虽然危险，但那段时期确实是人类科技进步最快的时期，如果现在速连还在，人类肯定早就登上火星了…… 新机型应该是22和35一起替换掉 三楼美狗不就是吃你美爹屎长大的嘛，你美爹的屎不香？ 图什么都不过分至少是异族图自己族的才叫厉害 美帝的六代机快要成型了。果然不出我所料。 美国人拉的s你吃了都是香的。美国人吧你老破曰了你特别自豪！ 马勒戈壁，这让老子们怎么追 你的骨灰级我已经替你打包好了 他要是能灭毛子，也能灭C.到时候世界毁灭 嗯，还有南北战争 他要是能灭毛子，也能灭C.到时候世界毁灭 美帝代表世界最先进科技发展方向 一楼快点口 赶快出吧，然后我们好山寨 正义美军，横扫邪恶✌ 总统说了：下一代战机要有穿越时间空的功能！ 不带鸭翼不合格，中必赢。 运城狗日的在几楼都是傻逼！ 美国人拉的s你吃了都是香的。美国人吧你老破曰了你特别自豪！ 自古二楼出大大傻逼！ 美军不吹牛屁会死？ 该战机从技术上来说比F-35更加先进<br>---<br>全文这一句是亮点<br><br>因为这个世界<br>有的新战机，还不如人家坟场里的先进 只要有外形图片就好办，一年以后，俺们的也造出来了！ 是的，F35还不如F22先进。 厉害，我自叹不如 自古二楼出傻逼！ 好词文采～点赞一个！ 老妹最难能可贵的就是有序储备良性循环深思熟虑未雨绸缪洞察于秋毫防患于未然...聚日月之精华敛天地之纯粹集精英们之智慧纳民众们之心声...顺江河之势走万里蹬奇峰之高瞰山小应四季之变巧循环依时光之转妙更替秉上帝之仁济苍生施人间之善修大同... 这尼玛是绝密飞行科幻片截图 “单调而消沉的气息伤我的心。。。再播放一遍，单调而消沉的气息伤我的心。。。”--------《最漫长的一天》。 不许吹牛！整出来再吹。 二楼疯狗露头，先给它喂狗屎一泡 你是不是疯狗一只 精辟 美帝:这牛不是我吹的！ 问：美国人为何不愿提朝鲜战争？与闹的纷纷扬扬的越南战争相比，真好象是一场“被遗忘的战争”。其中有什麽特别的原因吗？<br><br>答：对我们美国军人来说，这两场战争的意义和意味都是完全不同的。越南战争是政治上的失败，并不是军事上的失败。美国军队是在被束缚手脚的情况下打仗。由于惧怕中国参战，不准许美军越过北纬17度线对北越的目标和基地进行有效的军事攻击。终于打成了一场烂仗。最终只能撤出了事。<br><br>而朝鲜战争则是完完全全的军事失败。一个世界公认最强大的国家的陆海空三军联合立体作战，却没能打过一个贫穷国家装备原始的陆军。尤其是在对我们有利的大兵团野外攻防战而不是游击战的状况下失利，而且输的很惨。推荐关注微信查找“今日微刊”。这是我们美国军队和美国国家永远的耻辱和疮疤。不堪回首，不谈也罢。是不难理解的。<br><br>问：你为何要直言是失败呢？很多说法都是“始于三八线，终于三八线”，算是个平局嘛。<br><br>答：那是自欺欺人。美国军方从没说过是平局这样的话。南北韩之战的情况可以不谈。我们重看的是中美两军交手的这一部分。<br><br>当时的实际情况是，美八军的一支先头分队已经抵达鸭绿江边。中美两军的战斗接触是在中朝边境地区展开的，单从地理上讲，始于鸭绿江而终于三八线，胜负之势是不言自明的。没有必要歪曲和掩盖。 想研制高超声速飞机，超声速风洞准备从中国进口吗？ ",
        "Total": 3574,
        "Link": "http://comment.war.163.com/news_junshi_bbs/D6DPTPNA000181KT.html",
        "Reply": 137
    },
    "Article": "美国第六代战机资料图参考消息网12月24日报道美国《国家利益》双月刊网站12月17日刊登记者克里斯·奥斯本的文章《F-35是旧闻：美军六代机有大计划》称，美国空军已经开始有关第六代战机的实验和规划设计，该战机从技术上来说比F-35更加先进。美国空军首席科学家杰弗里·扎卡里亚斯曾对“侦察勇士”网站记者说，美国预计到本世纪20年代将拥有高超音速武器，到30年代将拥有高超音速无人机，40年代将拥有可回收的高超音速无人机。毫无疑问，无论是在武器还是推进应用方面，抑或二者皆有，高超音速技术都将是未来飞机设计中非常重要的部分。空军领导人说，空军已经开始有关第六代战机的实验和规划设计，并希望在未来几年中推出，该战机从技术上来说比F-35更加先进。空军负责采购事务的阿诺德·邦奇中将今年早些时候说：“我们已经开始实验、开发规划和技术投资。”新战机从设计上将接替第五代F-35联合攻击战斗机，在本世纪30年代中期横空出世。新战机如今还处于空军和海军的最早期概念开发阶段。空军和海军正在合作探讨这款飞机的早期概念，涉及这款飞机将包含什么样的技术和能力。而空军还没有确定这款新飞机的平台。尽管邦奇没有说明正在进行的早期工作的细节，但他确实提到了《空中优势2030飞行计划》，该计划描述了空军平台选择战略的一些重要因素。航空情报公司蒂尔集团的航空分析人员理查德·阿布拉菲亚称，20年后的战斗机可能包含新一代隐形技术，具有电子战能力，有尖端的计算机处理能力和算法，更加自主，携带高超音速武器以及具有所谓的“智能皮肤”，也就是在飞机侧面安装传感器。诺思罗普-格鲁曼公司在一年多前的超级碗广告中第一次展示了其新型第六代战机的图像，上面提到的某些特征可能已经在广告中出现过。在海军计划制订者的展望中，第六代战斗机也在2040年左右设计完成。它很可能被设计成既可以由人操纵也可以执行无人飞行任务。本文来源：参考消息网责任编辑：马超_NBJ9865",
    "Title": "美军第六代战机有大计划_网易军事"
}