{
    "Comment": {
        "Total": 941,
        "Reply": 53,
        "Link": "http://comment.news.163.com/news2_bbs/D76E9RUL00018AOQ.html",
        "Content": "正当舆论质疑煤改气之际，环保部赶紧出来吹风讲入冬以来北方空气质量明显优于往年是因为大力推进煤改气的结果，话音未落，哐哧一下，北方这个星期雾霾遍地…… 北方本就忙蓝天白云多些，不比南方泪眼白内障。这些都是大自然所馈赠，大家都知道，这可不是有关部门煤改气吹风会吹来的。 前段时间不是报道说口罩防雾霾没用么 所以他们要发展电动汽车！ 笑话 去年一个口罩动不动就十多块！抢钱啊！今年卖不动活该！ 抽烟是不是也污染环境 到四川来卖 价格太虚高更可能。但说是因空气质量好而影响销售，我用屁股思考都知道是舔文。 好👌 2017年12月7日，北京空气质量较好，图为北京丰台区某小区上空的蓝天。<br>--<br>如果蓝天是常态，那么能不能解释一下为什么1月3日的新闻配的图是去年12月7日的？ 药店碧莲 杭州最近几天都是严重雾霾，tm打自己的脸了吧。满口话不要说 石家庄还是老样子 持续报道一个月 虽然本公主在南方，但从新闻上也了解不少，蓝天的原因是不禁止老百姓烧煤取暖。那么问题来了，汽车尾气是不是被冤枉了👸 吹牛也要遵守基本法呀，看着脸上贴金贴得，搞得空气质量变得多好似得，这是政府天大的大功劳一件呀。 公主你好，我可以舔你吗？舔的你不要不要的。哈哈😄 牛皮吹大了吧，调查一两个人就能代表北方啊？空气净化器都不用了，呵呵！ 工厂大烟囱，排污水才是重中之重，但这些初生就是看不到，居然怪百姓烧柴做饭! 正当舆论质疑煤改气之际，环保部赶紧出来吹风讲入冬以来北方空气质量明显优于往年是因为大力推进煤改气的结果，话音未落，哐哧一下，北方这个星期雾霾遍地…… 禁止烧煤，发现积极抓起来。-来自某地标语[大笑][大笑][大笑] 中国新闻网呵呵 正当舆论质疑煤改气之际，环保部赶紧出来吹风讲入冬以来北方空气质量明显优于往年是因为大力推进煤改气的结果，话音未落，哐哧一下，北方这个星期雾霾遍地…… 明明记者只走访了北京，怎么就变成北方了？原来北京就是北方啊，有希望了 京东的3m口罩也没见便宜啊 全被吹到江浙沪一带了我也是醉了 正当舆论质疑煤改气之际，环保部赶紧出来吹风讲入冬以来北方空气质量明显优于往年是因为大力推进煤改气的结果，话音未落，哐哧一下，北方这个星期雾霾遍地…… 口罩在哪里？多少钱？是正品吗？我要一打...我要...一... 虽然本公主在南方，但从新闻上也了解不少，蓝天的原因是禁止老百姓烧煤取暖。那么问题来了，汽车尾气是不是被冤枉了👸 正当舆论质疑煤改气之际，环保部赶紧出来吹风讲入冬以来北方空气质量明显优于往年是因为大力推进煤改气的结果，话音未落，哐哧一下，北方这个星期雾霾遍地…… 图片P得不错。[大笑] 不传谣不信谣 来南京卖吧，元旦的空气弥漫着浓浓的重金属气息…… 又来吹空气好，害人不浅 实则是产量过剩吧 吹你妈，西安今天重度污染。 反正我们这雾霾挺严重！ 才蓝天几天，就忘了雾霾的味道，真是良民啊。。。 夏季吧扯淡……小编舔的爽吗？ 持续报道一个月 来四川卖啊 石家庄保定 吹牛也要遵守基本法呀，看着脸上贴金贴得，搞得空气质量变得多好似得，这是政府天大的大功劳一件呀。 正当舆论质疑煤改气之际，环保部赶紧出来吹风讲入冬以来北方空气质量明显优于往年是因为大力推进煤改气的结果，话音未落，哐哧一下，北方这个星期雾霾遍地…… 海里有没有空气净化器？ 价格太虚高更可能。但说是因空气质量好而影响销售，我用屁股思考都知道是舔文。 很多人真是见不得一点好，什么都喷 解放区的天蓝蓝的天 杭州最近几天都是严重雾霾，tm打自己的脸了吧。满口话不要说 全被吹到江浙沪一带了我也是醉了 京东的3m口罩也没见便宜啊 正当舆论质疑煤改气之际，环保部赶紧出来吹风讲入冬以来北方空气质量明显优于往年是因为大力推进煤改气的结果，话音未落，哐哧一下，北方这个星期雾霾遍地…… 抽烟是不是也污染环境 虽然本公主在南方，但从新闻上也了解不少，蓝天的原因是禁止老百姓烧煤取暖。那么问题来了，汽车尾气是不是被冤枉了👸 口罩在哪里？多少钱？是正品吗？我要一打...我要...一... 周边仍然老样子 图片P得不错。[大笑] 正当舆论质疑煤改气之际，环保部赶紧出来吹风讲入冬以来北方空气质量明显优于往年是因为大力推进煤改气的结果，话音未落，哐哧一下，北方这个星期雾霾遍地…… 才蓝天几天，就忘了雾霾的味道，真是良民啊。。。 多看看西北市场还有新疆 到四川来卖 实则是产量过剩吧 吹你妈，西安今天重度污染。 空气变好？放小编的屁 是老百姓已经麻木了，带不带无所谓。 正当舆论质疑煤改气之际，环保部赶紧出来吹风讲入冬以来北方空气质量明显优于往年是因为大力推进煤改气的结果，话音未落，哐哧一下，北方这个星期雾霾遍地…… 正当舆论质疑煤改气之际，环保部赶紧出来吹风讲入冬以来北方空气质量明显优于往年是因为大力推进煤改气的结果，话音未落，哐哧一下，北方这个星期雾霾遍地…… 前段时间不是报道说口罩防雾霾没用么 所以他们要发展电动汽车！ 笑话 2017年12月7日，北京空气质量较好，图为北京丰台区某小区上空的蓝天。<br>--<br>如果蓝天是常态，那么能不能解释一下为什么1月3日的新闻配的图是去年12月7日的？ 药店碧莲 石家庄还是老样子 宇宙的探索是离不开我的话的，只有把围绕地球公转的一切物质包括气体计算在地球体积之内才能找到地球真正的边和角，那是反引力汇聚地，是真正的真空隧道，宇宙高速路，太阳系内的动脉!把围绕太阳公转的一切物质包括气体计算在太阳体积之内才能找到恒星与恒星的边和角，那是恒星与恒星之间的真空高速隧道，找到真空隧道以近光速超光速飞行那不是个事!宇宙飞行器也不能按照飞机的二维结构原理制造，飞机是不能高速自转的，但只有高速自转才能产生真空电磁场，以近光速飞行，未来的宇宙飞行器必须按地球原理制造，八层以上结构，你看地球高速自转着前进，我们人坐在地球上有啥不适感觉吗？ 公主你好，我可以舔你吗？舔的你不要不要的。哈哈😄 死脑筋！防霾用品应该转向周边。 牛皮吹大了吧，调查一两个人就能代表北方啊？空气净化器都不用了，呵呵！ 工厂大烟囱，排污水才是重中之重，但这些初生就是看不到，居然怪百姓烧柴做饭! 禁止烧煤，发现积极抓起来。-来自某地标语[大笑][大笑][大笑] 北方本就忙蓝天白云多些，不比南方泪眼白内障。这些都是大自然所馈赠，大家都知道，这可不是有关部门煤改气吹风会吹来的。 明明记者只走访了北京，怎么就变成北方了？原来北京就是北方啊，有希望了 中国新闻网呵呵 那是化外之地，不考虑， 宇宙的探索是离不开我的话的，只有把围绕地球公转的一切物质包括气体计算在地球体积之内才能找到地球真正的边和角，那是反引力汇聚地，是真正的真空隧道，宇宙高速路，太阳系内的动脉!把围绕太阳公转的一切物质包括气体计算在太阳体积之内才能找到恒星与恒星的边和角，那是恒星与恒星之间的真空高速隧道，找到真空隧道以近光速超光速飞行那不是个事!宇宙飞行器也不能按照飞机的二维结构原理制造，飞机是不能高速自转的，但只有高速自转才能产生真空电磁场，以近光速飞行，未来的宇宙飞行器必须按地球原理制造，八层以上结构，你看地球高速自转着前进，我们人坐在地球上有啥不适感觉吗？ 不传谣不信谣 来南京卖吧，元旦的空气弥漫着浓浓的重金属气息…… 又来吹空气好，害人不浅 反正我们这雾霾挺严重！ 好👌 虽然本公主在南方，但从新闻上也了解不少，蓝天的原因是不禁止老百姓烧煤取暖。那么问题来了，汽车尾气是不是被冤枉了👸 去年一个口罩动不动就十多块！抢钱啊！今年卖不动活该！ "
    },
    "Title": "防霾口罩调查:北方蓝天变多 经销商亏本出货没人要_网易新闻",
    "KeyWords": "防霾,空气净化器,口罩",
    "Article": "（原标题：防霾口罩调查：北方蓝天变多经销商亏本出货没人要）2017年12月7日，北京空气质量较好，图为北京丰台区某小区上空的蓝天。中新网邱宇摄中新网客户端北京1月3日电2017年冬季，京津冀及周边地区蓝天天数明显增多。受此影响，防雾霾口罩和空气净化器销售遇冷，部分口罩经销商想亏本套现，却无人接手。虽然对于防霾物品的销量变化多数生产商并不愿直接回答，但从不少现象和细节之中仍可一探端倪。防霾物品销售遇冷电商淡化宣传记者走访北京多家药店发现，药店的3M、绿盾等防雾霾口罩销售情况大不如前。“上一个冬季，药店每天可以卖出数百只防雾霾口罩，还差点断货。”一家药店工作人员说，但是这个冬天，只有两家单位大批量买过防雾霾口罩，个人购买者非常少。相比之下，保暖用的棉口罩和防流感的医用外科口罩卖得较好。北京市民张先生在2017年“双十一”期间网购了数盒防雾霾口罩，仅在11月下旬和12月底空气质量较差的两三天用过几次。他说，以前冬天进家门就要打开空气净化器，但现在净化器几乎成了摆设。与之前相比，京东、天猫等电商平台对防雾霾口罩和空气净化器的宣传也有所淡化。2016年12月下旬，北方地区持续出现雾霾天气。这一期间，电商平台上口罩、空气净化器、PM2.5检测仪销量暴增。2016年12月16日至12月20日，京东商城售出口罩超1500万只，同比增超380%；售出11万台空气净化器，增超210%；PM2.5检测仪销量增超105%。而到2017年，记者注意到，截至发稿时，京东、天猫均未公开发布2017年12月有关空气净化器或口罩的销售数据。在京东、天猫等电商平台主页，也很少出现空气净化器的相关宣传。2017年冬季，京津冀及周边地区空气改善明显。环保部数据显示，2017年11月，京津冀大气污染传输通道“2+26”城市PM2.5月均浓度同比下降37%。2018年1月2日，北京市西城区一家药店销售的防雾霾口罩。中新网张尼摄防霾口罩积压有经销商亏本20%出货没人接广州好采猫公司市场总监程锡清多年从事口罩的采购和销售工作，他在接受中新网记者采访时说，公司多数民用口罩销往北方地区，销量受天气影响很大。与去年相比，今年民用口罩销量下滑超过50%。“很多经销商在今年夏天囤积了不少防雾霾口罩，想等到冬天销售，但没想到口罩需求暴跌。”程锡清说，不少经销商的仓库里“满满都是口罩”，货物价值少则几百万元，有一家经销商的库存口罩货值甚至高达2000万元。“这个冬天口罩经销商的日子特别难过”，他说，“有人想亏本套现，在成本价的基础上降价20%出货，但没人愿意接。”程锡清回忆称，去年冬天，民用口罩领域的购买力非常强，经销商的囤货经常处于被抢购的状态，从厂家订货都要排队。2016年12月19日，北京被雾霾笼罩，民众戴防雾霾口罩出行。中新社记者杜洋摄生产商避谈变化称不就销量发表看法2017年空气净化器和防雾霾口罩的销售有何变化？多数生产商不愿直接回答这一问题。国内一款儿童专用空气净化器品牌的联合创始人告诉记者，北方地区空气质量改善对净化器销量“影响不小”，目前，公司正通过其他渠道“来解决toc(面向消费者)受天气影响的问题”。智米科技研发的小米空气净化器年销量去年达200万台，在国内处于领先地位。近日，记者向小米公司询问空气净化器2017年冬季的销售情况，截至发稿时还未得到答复。口罩方面，3M和霍尼韦尔在国内民用口罩市场占据了很大的市场份额，两家企业均不愿评价防雾霾口罩的销售情况，且强调民用口罩只是公司的诸多业务之一。3M在接受中新网记者采访时表示“无法透露与销售相关的任何数据，同时也不便对市场做出评价”，“目前，我们很大的市场尚在医疗、科研等职业性防护领域”。霍尼韦尔方面表示“我们不会就单个产品的销量发表看法”，“霍尼韦尔的业务涵盖航空和汽车产品及服务，楼宇、住宅和工业控制技术，以及特性材料等”。图为南京一家科研单位研发的空气净化器。中新社发泱波摄防霾物品还有增长空间吗？程锡清对防雾霾口罩的市场不太乐观。“民用口罩市场在几年之内不会再回到以前的状态，市场的需求会越来越窄”，他说。家电行业分析师梁振鹏认为，未来空气净化器市场还有增长空间。他说，空气净化器的市场发展与雾霾天气有一定关系。虽然北方地区空气质量有所改善，但全国部分地区的空气质量形势仍然有待改进。“另外，消费者的生活品质和对空气质量的要求在不断提高。与国外相比，中国空气净化器的家庭拥有比例非常低。”梁振鹏说。我国空气净化器市场仍未完全打开。前瞻产业研究院发布的《空气净化器行业市场需求预测与投资分析报告》数据显示，目前空气净化器在美国家庭的普及率达到27%，日本为17%，我国国内空气净化器的普及率仅为1%左右。梁振鹏认为，未来中国的空气净化器的普及率会不断提升。本文来源：中国新闻网责任编辑：张海桐_NN9053",
    "URL": "http://news.163.com/18/0103/00/D76E9RUL00018AOQ.html",
    "PublishTime": "01/03/201800:02:00",
    "Source": "Netease"
}