{
    "Article": "（原标题：文在寅进行首次特赦：惠及165万人朴槿惠没戏）海外网12月29日电29日，韩国宣布进行文在寅政府成立后的首次特赦。此次特赦对象为6444名，加上对违反道路交通法等人员的赦免，总受惠人数多达165万。不过，这次特赦与以往不同，排除了犯有腐败等经济罪的财经界人士，而韩国前总统朴槿惠也概莫能外。据韩联社29日报道，韩国总理李洛渊在当天召开的临时国务会议上表示，这次特赦将有助于“国民团结和民生安全”。主要面向普通市民和社会弱势群体。有普通市民在接受刑事处罚或行政制裁时遇到困难，这次赦免是为了减轻他们的负担，提供让他们尽快投身到正常社会生活的机会。农民工等社会弱势群体以及大部分一般刑事犯可以受惠。不过，犯有腐败罪的财经界人士和公职人员、各种暴力犯罪的罪犯都被排除在外，李洛渊说，“这是为了保证法律秩序的严格”。文在寅曾在大选期间承诺，为了推进社会改革，政府绝不免除对犯有贿赂、贪污、渎职等腐败罪行的囚犯的刑罚。据悉，1980年至今，韩国历届总统共计进行了48次特赦，每届政府平均特赦次数为8次。朴槿惠政府时期，仅为3次。特赦时间点一般选在国家重要纪念日或节假日。特赦人员一般是普通刑事犯、民生型犯罪分子、经济类犯罪分子、困难户服刑人员及政治犯等。根据特赦名单，此次朴槿惠不在受惠对象之列。而实际上，历史上曾有韩国前总统被特赦的先例。1997年，任期末的金泳三总统特赦了前总统全斗焕、卢泰愚，后两人正是前军事独裁政权的头面人物，曾因涉嫌叛乱、受贿被告上法庭。朴槿惠为何没戏？据早前《环球时报》报道，中国社科院亚太与全球战略研究院研究员董向荣表示，出于国民团结和政治妥协，韩国有赦免前总统的先例。但从近期看，亲信干政辜负了国民信任，一种愤怒情绪笼罩着韩国国民，不允许文在寅这么做，至少需要更加合适的时机。“从旁观者的角度来看，这么多位总统都逃不出悲剧的魔咒，对韩国而言并非幸事。”本文来源：海外网责任编辑：张宪超_NN9310",
    "URL": "http://news.163.com/17/1229/09/D6QIEH9P0001875O.html",
    "Source": "Netease",
    "KeyWords": "文在寅,朴槿惠,韩国,国民",
    "Comment": {
        "Reply": 52,
        "Link": "http://comment.news.163.com/news_guoji2_bbs/D6QIEH9P0001875O.html",
        "Total": 700,
        "Content": "老文阴的很 你真可悲 都是套路 看这面相也是个狠人 2楼不知道别瞎说，还善良?90%以上韩国人是恨朴的。 文在寅在华被冷遇，回去拿朴槿惠撒气 什么年代了还有特赦 特赦是个什么东西？是法律吗？呵呵…… 哎呀，才刚刚进去，哪能这么快出来！ 把朴槿惠放了不就是危及自己的地位嘛！ 至少在这里，即使朴十恶不赦，也有申辩的权利。 文再演就是个傻逼！ 为什么特赦，犯罪的人牢坐的好好的？是因为三星老总进去了所以特赦吗？ 厉害啊！街上多了一百多万“假释犯”，韩国社会安全感立马飞升！ 一楼的明天可想而知！ 全是戏精 朴的今天，就是文的明天 文在寅是个聪明人，最会掌握时机，本来这一段时间有一些人反对他，他现在又在慰安妇问题上抓到了主动权，再把一些犯人特赦，特赦的人及其家属还不感恩流涕， 大度的话赦免朴 这厮紧着嘚瑟，莫非真是北边儿的卧底？ 落井下石比中国人还厉害 特赦是对已经判刑了正在服刑的人。朴槿惠还没有判刑，理论上还有可能无罪，怎么特赦？！ 不会的朴这么善良的人 全是演员🔟 呵呵，大赦天下，真是皇恩浩荡。 文在寅这个两面三刀的政治骗子！混蛋该死！！🐶 文在寅这是在演正治斗争！我们华夏子女一定要低制韩货！不要是韩国旅游 文在寅下一步到你坐牢了，你不要高兴的太早…… 感觉面善的都是吃肉还不吐骨头的那种 总统有特赦犯罪的权利?跟皇帝有什么区别?朴阿姨啊当初为什么不特赦自己呢? 老文阴的很 你真可悲 2楼不知道别瞎说，还善良?90%以上韩国人是恨朴的。 看这面相也是个狠人 什么年代了还有特赦 特赦是个什么东西？是法律吗？呵呵…… 文再演就是个傻逼！ 确实是扮猪吃虎啊 手腕不狠江山不稳 😊😊😊😊😊😘😳😳😳😍😊😊 为什么整天报道韩国新闻呢？没完没了的烦不烦呀？ 全是戏精 政治 对对 你对韩国有多了解?在说说你有多了解天朝? 大度的话赦免朴 朴就是个空壳儿，崔才是真正的总统！ 这厮紧着嘚瑟，莫非真是北边儿的卧底？ 和你祖宗是一条线的 特赦是对已经判刑了正在服刑的人。朴槿惠还没有判刑，理论上还有可能无罪，怎么特赦？！ 不会的朴这么善良的人 处理不好对中对美对日关系，比朴的能力差许多，前途实在有限，不看好这位 全是演员🔟 文在寅这是在演正治斗争！我们华夏子女一定要低制韩货！不要是韩国旅游 厉害啊！街上多了一百多万“假释犯”，韩国社会安全感立马飞升！ 感觉面善的都是吃肉还不吐骨头的那种 韩国也有农民工一词儿吗？ 什么年代还弄清算特赦 哎呀，刚进去哪能这么快出来 把朴槿惠放了不就是危及自己的地位嘛！ 你掌握着现在，却无法把握未来。i 至少在这里，即使朴十恶不赦，也有申辩的权利。 都是套路 为什么特赦，犯罪的人牢坐的好好的？是因为三星老总进去了所以特赦吗？ 165万? 一楼的明天可想而知！ 小文你早晚也的进去 文在寅是个聪明人，最会掌握时机，本来这一段时间有一些人反对他，他现在又在慰安妇问题上抓到了主动权，再把一些犯人特赦，特赦的人及其家属还不感恩流涕， 能走上国家最高统治地位的！都不是善类！ 应该特赦了朴槿惠一视同仁 文在寅这个两面三刀的政治骗子！混蛋该死！！🐶 李在镕特赦了吗？ 呵呵，大赦天下，真是皇恩浩荡。 朴的今天，就是文的明天 可以发表评论吗？ 文在寅下一步到你坐牢了，你不要高兴的太早…… 落井下石比中国人还厉害 文在寅在华被冷遇，回去拿朴槿惠撒气 人性化... 这他妈真绝啊…… 哎呀，才刚刚进去，哪能这么快出来！ "
    },
    "Title": "文在寅进行首次特赦:惠及165万人 朴槿惠没戏_网易新闻",
    "PublishTime": "12/29/201709:26:55"
}