{
    "URL": "http://news.163.com/17/1228/11/D6O5LTI000018AOQ.html",
    "Article": "（原标题：乌鲁木齐遭遇暴雪教育部门发出紧急停课通知）暴雪后的乌鲁木齐清晨，车辆被大雪埋没。王小军摄中新网乌鲁木齐12月28日电(迪娜)因乌鲁木齐遭遇暴雪袭击，为保障师生安全，27日晚，新疆乌鲁木齐市教育局发布紧急通知，乌鲁木齐市全市中小学、幼儿园停课一天。通知要求如有未接到通知而到校的学生，为确保安全，学校要妥善安排好学生在校自习，不得让其立即回家。学校行政管理干部要正常上班。做好护校、护生等工作。乌鲁木齐市自27日中午时分下起小雪后，晚间转为暴雪，在大风的作用下使外出的市民寸步难行，至28日凌晨5时才渐渐停止。此次降雪量大，导致乌鲁木齐多处交通拥堵，为市民带来诸多不便。据了解，截至目前，乌鲁木齐积雪厚度达36厘米。经过2万名环卫工人连夜清扫、大型机械循环清雪，交通拥堵得到了缓解。乌鲁木齐国际机场仍处于关闭清雪状态。本文来源：中国新闻网责任编辑：黄哲程_B9302",
    "Source": "Netease",
    "PublishTime": "12/28/201710:58:00",
    "KeyWords": "乌鲁木齐,暴雪,停课",
    "Comment": {
        "Content": "银装素裹的大美新疆 36CM，真是不敢想，合肥要是下一场中学，那就全堵在家门口了！！！ 银装素裹的大美新疆 36CM，真是不敢想，合肥要是下一场中学，那就全堵在家门口了！！！ 新疆好地方 ",
        "Total": 5,
        "Link": "http://comment.news.163.com/news2_bbs/D6O5LTI000018AOQ.html",
        "Reply": 3
    },
    "Title": "乌鲁木齐遭遇暴雪 教育部门发布紧急停课通知_网易新闻"
}