{
    "Article": "（原标题：民警被问懵了！男子无证驾驶被行拘问民警：进去不会要“捡肥皂”吧？）#endText.video-infoa{text-decoration:none;color:#000;}#endText.video-infoa:hover{color:#d34747;}#endText.video-listli{overflow:hidden;float:left;list-style:none;width:132px;height:118px;position:relative;margin:8px3px0px0px;}#entText.video-lista,#endText.video-lista:visited{text-decoration:none;color:#fff;}#endText.video-list.overlay{text-align:left;padding:0px6px;background-color:#313131;font-size:12px;width:120px;position:absolute;bottom:0px;left:0px;height:26px;line-height:26px;overflow:hidden;color:#fff;}#endText.video-list.on{border-bottom:8pxsolid#c4282b;}#endText.video-list.play{width:20px;height:20px;background:url(http://img1.cache.netease.com/video/img14/zhuzhan/play.png);position:absolute;right:12px;top:62px;opacity:0.7;color:#fff;filter:alpha(opacity=70);_background:none;_filter:progid:DXImageTransform.Microsoft.AlphaImageLoader(src=\"http://img1.cache.netease.com/video/img14/zhuzhan/play.png\");}#endText.video-lista:hover.play{opacity:1;filter:alpha(opacity=100);_filter:progid:DXImageTransform.Microsoft.AlphaImageLoader(src=\"http://img1.cache.netease.com/video/img14/zhuzhan/play.png\");}if(/(iPhone|iPad|iPod|Android|NETEASEBOBO|blackberry|bbd+)/ig.test(navigator.userAgent)||/safari|chrome|firefox/i.test(navigator.userAgent)&&navigator.plugins&&!navigator.plugins[\"ShockwaveFlash\"]){varstr1='<videocontrols=\"controls\"preload=\"auto\"width=\"100%\"poster=\"http://vimg3.ws.126.net/image/snapshot/2017/12/T/C/VU5TRTVTC.jpg\"style=\"max-height:100%\">';varstr2='<sourcetype=\"video/mp4\"src=\"http://flv.bn.netease.com/videolib3/1712/29/OFzfR7616/SD/OFzfR7616-mobile.mp4\">您的浏览器暂时无法播放此视频.</video>';document.getElementById(\"FPlayer1404863609673\").parentNode.innerHTML=str1+str2;}他被行拘问民警，进去会不会捡肥皂?（来源：original）window.NTES&&function(d){varf=function(c){varb=c.getAttribute(\"flashvars\"),a=c.getAttribute(\"repovideourl\").replace(\".flv\",\"-mobile.mp4\");h=d(c.parentNode.parentNode.parentNode),g='<embedsrc=\"http://v.163.com/swf/video/NetEaseFlvPlayerV3.swf\"flashvars=\"'+b+'\"allowfullscreen=\"true\"allowscriptaccess=\"always\"quality=\"high\"wmode=\"opaque\"width=\"100%\"height=\"100%\"type=\"application/x-shockwave-flash\"/>';if(/(iPhone|iPad|iPod|Android|NETEASEBOBO|blackberry|bbd+)/ig.test(navigator.userAgent)){g='<videocontrols=\"controls\"preload=\"auto\"width=\"100%\"height=\"100%\"><sourcetype=\"video/mp4\"src=\"'+a+'\">您的浏览器暂时无法播放此视频.</video>';}h.$(\".video\")[0].innerHTML=g;},e=function(b){vara=d(b.parentNode.parentNode.parentNode);a.$(\"li\").removeCss(\"on\"),b.addCss(\"on\"),a.$(\".video-title\")[0].innerHTML=\"string\"==typeofb.textContent?b.textContent:b.innerText,a.$(\".video-title\")[0].setAttribute(\"href\",b.getAttribute(\"url\")),a.$(\".video-from\")[0].innerHTML=\"（来源：\"+b.getAttribute(\"source\")+\"）\",f(b);};window.continuePlay=function(){vara,b=d(d(\".video-list.on\")[0].nextSibling);3==b.nodeType&&(b=d(b.nextSibling));if(b&&d(\".video-innerinput\")[0].checked){e(b);}},function(){vara={init:function(){if(d(\".video-listli\")[0]){d(d(\".video-listli\")[0]).addCss(\"on\"),this.eventBind();}},eventBind:function(){d(\".video-listli\").addEvent(\"click\",function(b){e(d(this)),b.preventDefault();});}};a.init();}();}(NTES);12月27日，江苏盐城交警发现一名男子无证驾驶，告知其将被行政拘留，男子姐姐紧张地问民警：不会被剪头发吧？男子在一旁悄悄问：进看守所不会要“捡肥皂”吧？民警都被问懵了。网友：一家人浑身上下全是戏……戏精！本文来源：梨视频责任编辑：韩佳鹏_NN9841",
    "URL": "http://news.163.com/17/1229/20/D6RMQF4D0001875P.html",
    "Source": "Netease",
    "KeyWords": "拘留,肥皂,交警",
    "Comment": {
        "Reply": 542,
        "Link": "http://comment.news.163.com/news_shehui7_bbs/D6RMQF4D0001875P.html",
        "Total": 9588,
        "Content": "拘留要交钱吗？还是白吃白喝白住？ 我爸以前打牌被抓了，和吸毒的关一起，饭都被抢了！！！ 刑事拘留也不用剪头发，别问我怎么知道的[大哭] 大多是小偷小摸喝酒打架无证开车嫖娼赌博的、大多人员素质还可以、民警也很开放、就是她妈每天看少儿频道不能忍。 看啥电视啊？滚动播出新闻联播？ 中央戏精大学博士研究生 他应该是易友吧……😂😂😂 恭喜这位朋友梦想成真 他是想撩警察吧😂 年底冲业绩～各位易友，悠着点吧～能忍就忍着点吧～ 十二楼被你笑死了😅，为什么给看少儿频道？ 进去的感觉太好了，里面个个都是人才说话又好听 上个月你结婚了，新娘和你很般配，嗯。你从当年的小男生长成了大男孩。亲她的时候，我突然想起高二那个中午，你偷亲我，你不知道的是，其实当时我没有睡着。现在我也有了女朋友，准备明年结婚了，祝彼此幸福 刑事拘留和行政拘留不在一起 楼上请说出你的故事 八个人这么少，深圳拘留所都差不多20人，顿顿大白菜或者冬瓜，油都见不到，更别提肉 老子天天放社会与法新闻联播 喝水和撒尿都很方便，就是你得蹲着尿而且当着众人的面。里面分工明确，有打饭的，有洗碗的，有用毛巾拖地的。。。几天一换。<br>十多人一间，睡大通铺，按时起床。上午下午按时做操和放风，晚上一个小时新闻联播新闻。<br>在里面想要混的的开，得会唬人和狱警搞好关系。 他肯定是想要看发型就知道 北京的以为监狱都是倾城监狱，以前行政拘留的做胶花加班一天才睡四小时 不信就去体验一次呗！ 联系到家人就要交钱，联系不上白吃白住 此贴有真老司机 估计是网易资深老司机 关在笼子里一般都是擒兽 放心啦😄进去第一件事就是先用冷水洗掉一块肥皂澡再说！我经历过…… 段友😀😀 拘留有钱可以住套房啊，空调电视啥都有。 行政拘留看环境了当地经济了，刑事拘留看守所呆，我们这也还行，现在多充钱也没用，烟可以多送点，当然你以为住酒店还是老实一点吧 看来4楼有故事😄😄 拘留也不是好受的，没收手机，几十人一间屋，吃喝拉撒都在里面， 你能想象二三十个大老爷们坐一堆看熊出没的画面吗？至今想起还不寒而栗。 银角大王将宝葫芦倒置，喊了一声：“周鸿祎。”周鸿祎应了一声，嗖地便被吸了进去。银角大王查看时，里面除了周鸿祎，还有360杀毒、360压缩、360浏览器、360安全卫士、360游戏大厅等熙熙攘攘一干人。银角大王惊讶道：“怎的来了这许多。”宝葫芦开口言道：“我就只点了个‘下一步’。”这时李彦宏在旁边呵呵的笑，银角大王怒了，刚要将宝葫芦倒置，李彦宏嗖的一声已经飞进了宝葫芦，银角大王查看时，除了李彦宏，还有百度贴吧，百度外卖，百度浏览器等等黑压压上万人，银角大王大惊怎的比周鸿祎还多！宝葫芦摇摇头我什么都没点😓😓😓 八个人，就是伙食不好 我去年因一些小事在老派置留室待了二十四小時，深知自由的珍貴，出來後有幾次頭重腳輕，我是個天天出門遛日日游泳健身的人，想起都怕，記住別犯事。 拘留所不像2楼说的那样也不像3楼上的那样，6个人一个房间有电视，不用干活。拘留所比较熬人，从早到晚的看电视 几个朋友嫖娼被拘留了说在里面老舒服了 妈的，你这样说的，让我都不敢去耍大宝剑了，年底了更危险 男子在一旁兴奋地问：进看守所不会要“捡肥皂”吧？民警都被问懵了。 交通事故被拘留过7天，只想说真被关过才知道自由有多重要，20多个人挤一块，等着被定罪的日子是既期待又害怕，不过有人的地方就有江湖，混的好的每天可以去办公室汇报的时候抽烟，以前管理混乱的时候，看守晚上还带他们出去鬼混…… 拘留所你混个屁，顶多15天。唬人出来不打死你 您是被拘留，不是蹲监狱，捡个屁啊！ 那么，到底要不要捡肥皂呢？ 就怕你要背景没背景，要钱没钱，有钱不但能点外卖，还能叫小姐 看小四和明哥那个段子看多了，入戏太深 哥笑了 我觉得这姐弟俩还不错，心态很平和不哭不闹甘心接受处罚 这种情况 民警：恭喜你，答对了！加10分。 捡肥皂是啥意思？ 扭转你的性取向 不用干活好想去啊， 就是帮你治疗痔疮，不管有没有长都得治疗。 老司机 他应该是易友吧……😂😂😂 段友 楼上好多有故事的人[大笑] 我擦，有知道的人，给多说几句，满足我的好奇心 里面的人说话很好听的。 好像还行啊 传说中肥皂哥啊！！！ 尼玛，最高15天你就不能按最高给自己算？万一提前了那多高兴啊。 就是在你洗澡时把你的肥皂丢到地上😁 民警:你懂的😁 帮你治痔疮 二楼说出你的故事 他肯定是想要看发型就知道 [惊讶][惊讶][惊讶] 唯一一个没有华为狗的帖子 法盲！ 民警:我是谁，我在哪里，发生了什么事(゜ロ゜) 拘留比监狱更压抑人。因为那是茫茫的等待！没有希望看不到尽头，监狱起码知道期限。 哈哈 别扯蛋了你以为是监狱那 要是在美国的话就不会这么好了 警察说不要紧的。 捡肥皂到底是什么意思？ 交警蛮客气啊，不是那种上去就按倒的那种 就是帮你润润肠道 拘留也不是好受的，没收手机，几十人一间屋，吃喝拉撒都在里面， 扯蛋 。。 哈哈哈....看表现吧 我有必要给各位普及一下知识了，拘留也分地方的，如果只是在派出所里拘留24小时那就是单间，也没有什么电视看，如果是被压到拘留所里了，那么起码拘留好几天，进去前会吃一顿排胸拳(垫些报纸打一顿)，有些待审判重犯还会带上脚链，一个房间有好几个人，进去之前没人打招呼那就又是一顿揍，至于捡肥皂么估计不太会，那要进了牢里才有可能！ 几个朋友嫖娼被拘留了说在里面老舒服了 他这发型适合捡肥皂 哪位易友告诉他进哪个拘留所，我好进去照顾他的菊花 他的车是福克斯吗？<br>[色色][色色][色色] 想的美吧？肥皂不花钱 好像激动的是你吧！你不会是雾霾吸多了造成脑断路吧 个个都是人才！ 监狱的肥皂太多，要找很多人检 您是被拘留，不是蹲监狱，捡个屁啊！ 那是他姐 捡肥皂？想的美 发现以后不用嫖娼了，兄弟互相搞就好了 哈，洗干净等着吧 绝逼是易友。 蒙谁那！ 进去？哼，便宜你这小浪蹄子了…… 二楼请说出你的故事…… 小心你们的电瓶车。。。 是个女的啊？ 还能上天 不用捡肥皂，没那么多剧情，我们都是脱裤子就上你，没事，不嫌弃你肛门脏 一日三餐:一晚玉米面粥，一片咸菜，俩馒头 那可有可能哈哈哈😄 哈哈哈哈哈哈哈😄 李彦宏手机还紧紧的攥着莆田医院。 他应该是易友吧……😂😂😂 难道比家里舒服？ 拿刀砍人还能行政拘留？怕是刑事拘留吧？ 一副扑克 十二楼被你笑死了😅，为什么给看少儿频道？ 有故事 肯定是易友啊！ 网易看多了…看来三石哥养猪的名头不是白给的 他肯定是想要看发型就知道 进去就打你，不让你睡觉，饿着你，但是不会饿死，减肥的还出去 相对于看守所，监狱的环境人道很多，也文明很多。 拘留的时候多交点钱，就可以换些人少的，还有电视剧看 看来向往已久。 这是宝葫芦被黑的最惨的一次 拘留不是看守所 你视频那个长头发的是他姐[鄙视][鄙视] 这辈子最大的梦想是进秦城监狱 守法是不可能的，这辈子都不可能守法的。 行政拘留没啥的，也知道自己犯的事不大，都不慌，不用做事，每天就是几个人待着吹牛，也有电视看，不过我被拘的时候，只能看新闻，民警也不严，知道你几天就出去，没必要为难你，里面的人一般就是嫖娼，喝酒闹事，开车进来的，没什么罪大恶极的。我还找民警讨烟抽呢。刑事拘留别问我，我守法公民。 回头是不是还要收生活费？ 嫖娼抓进去的吧？[微笑][微笑][微笑] 这警察不错 好逗比 哈哈 拘留也不是好受的，没收手机，几十人一间屋，吃喝拉撒都在里面， 银角大王将宝葫芦倒置，喊了一声：“周鸿祎。”周鸿祎应了一声，嗖地便被吸了进去。银角大王查看时，里面除了周鸿祎，还有360杀毒、360压缩、360浏览器、360安全卫士、360游戏大厅等熙熙攘攘一干人。银角大王惊讶道：“怎的来了这许多。”宝葫芦开口言道：“我就只点了个‘下一步’。”这时李彦宏在旁边呵呵的笑，银角大王怒了，刚要将宝葫芦倒置，李彦宏嗖的一声已经飞进了宝葫芦，银角大王查看时，除了李彦宏，还有百度贴吧，百度外卖，百度浏览器等等黑压压上万人，银角大王大惊怎的比周鸿祎还多！宝葫芦摇摇头我什么都没点😓😓😓 主要看人，里面行政拘留的大多是吸毒大家无证驾驶之类的，进去了老实点，别人问你何事进来的，撒谎说拿刀砍人，这样别人不怎么会欺负你 进去了你就知道东西很贵... 几个朋友嫖娼被拘留了说在里面老舒服了 我肥皂不需要你捡 只有易友如此乐观 佩服 1001收不了，1000零一夜就可以了 二楼有故事。。 然后动画片实在看不下去了，就捡肥皂，反正闲着嘛，体验下 看样子早就盼着进去了 您是被拘留，不是蹲监狱，捡个屁啊！ [大笑][大笑][大笑]… 就怕你要背景没背景，要钱没钱，有钱不但能点外卖，还能叫小姐 大哥你想太多了，哈哈😄。 额，门卫大爷求的学。😞 恭喜你丰富了人生经历 天王盖地虎 你语文是劳动老师教的吧 那长发的是女子，是无证驾驶那我的姐姐 我也被同样形式拘留过，3000元能解决 他肯定是想要看发型就知道 你去过？ 漂亮 拘留难道不洗澡了？ 中国有十四亿禽兽 他应该是易友吧……😂😂😂 想得美 密集恐惧症表示看吐了。 想得美 您志向挺高，还想捡肥皂 绝逼是易友！ 都是老易友 有钱，逢年过节还可以请假出来[喷水] 说出你的故事 里面奇葩人很多，拘留所其实还好，都是黄赌毒的小人物，没啥本事，我是去当翻译的，几个老外嫖娼要被遣返，知道了都哭的稀里哗啦，他们本来以为关几天就没事，结果关完就直接送机场回国，有个在这边都有房子有老婆，五年内不得再回中国了… 哪里有几十人那么多啊，最多8个人，监狱现在也没几十人一个号子，扯什么呀，你是不是电影看多了，没进去过吧 拘留所还可以啊，外面人可以给里面人送吃的， 地球上有多少 哈哈， 苏州易友，请说出你的故事 你有新的包裹，请注意查收 关在笼子里一般都是擒兽 说出你的故事 大哥这话戳中我笑点了[大笑] 周伯通那套可不是好学的。 拘留不能玩手机，一整天的干嘛呢 那个发型是他姐姐！ 拘留也不是好受的，没收手机，几十人一间屋，吃喝拉撒都在里面， 你能想象二三十个大老爷们坐一堆看熊出没的画面吗？至今想起还不寒而栗。 银角大王将宝葫芦倒置，喊了一声：“周鸿祎。”周鸿祎应了一声，嗖地便被吸了进去。银角大王查看时，里面除了周鸿祎，还有360杀毒、360压缩、360浏览器、360安全卫士、360游戏大厅等熙熙攘攘一干人。银角大王惊讶道：“怎的来了这许多。”宝葫芦开口言道：“我就只点了个‘下一步’。”这时李彦宏在旁边呵呵的笑，银角大王怒了，刚要将宝葫芦倒置，李彦宏嗖的一声已经飞进了宝葫芦，银角大王查看时，除了李彦宏，还有百度贴吧，百度外卖，百度浏览器等等黑压压上万人，银角大王大惊怎的比周鸿祎还多！宝葫芦摇摇头我什么都没点😓😓😓 这女的怎么回事？ 虽然是老梗，今天看了，还是笑了。 二楼，说出你的故事 几个朋友嫖娼被拘留了说在里面老舒服了 所以说，学习一套左右互搏的技巧是多么的重要，但凡被拘留的这段日子里，别人在看电视，你在左右手互搏，拘留所的人一看不对劲啊，拉你去做个精神病鉴定，立马就把你放出来了。 前排出售瓜子可乐 您想的美 有故事啊 你这是损友这时还不忘吹牛B。想骗你进去 有故事的人啊 您是被拘留，不是蹲监狱，捡个屁啊！ 就怕你要背景没背景，要钱没钱，有钱不但能点外卖，还能叫小姐 最难受的就是不能和易友吹牛逼交流经验了 如果是有证，但是忘记带了，还会被拘留吗？ 你说的那是哪里啊？ 进去认识几个朋友也不错的 姐姐声音好迷人啊 这哥们绝对段子看多了[大笑] 你他妈想得美 啥叫捡肥皂？ 我觉得这姐弟俩还不错，心态很平和不哭不闹甘心接受处罚 [大笑][大笑][大笑]笑出声。 说出你的故事 多充点生活费啊 233333 说出你的故事 说说你的故事 往死里捡 听他的语气好像对捡肥皂很惊喜很期待 这警察挺和气 我在监狱住了3年，也没有捡过肥皂，就他🐴早上7点起来踩缝纫机到晚上9.30，还有任务，几天下来都没有完成任务，组长会带你到管教哪里谈谈心，帮你抖一下头皮屑 还可以搞狱警老婆（真实事情，报道过） 好好 他应该是易友吧……😂😂😂 想什么呢，当然会啊，还会有几十个大汉轮流捡你肥皂 祝你菊花盛开 没有厕所？ 网易看你把人家害的多惨 什么叫捡肥皂，老司机请解释一下！！ 说出你的故事 呵呵呵 估计这哥们头发长了，正要去剪头发呢。 好好好 说出你的故事 打工是不可能打工的 呵呵呵 呵呵，看着对路数门清 段子看多了 呵呵呵 检肥皂应该是捅屁股用的 据说比监狱难受多了 二楼不懂装懂 拘留不能玩手机，一整天的干嘛呢 风头上就别浪了，要是要指标是赎不出来的。 做生意又不会做 说出你的故事 拘留也不是好受的，没收手机，几十人一间屋，吃喝拉撒都在里面， 银角大王将宝葫芦倒置，喊了一声：“周鸿祎。”周鸿祎应了一声，嗖地便被吸了进去。银角大王查看时，里面除了周鸿祎，还有360杀毒、360压缩、360浏览器、360安全卫士、360游戏大厅等熙熙攘攘一干人。银角大王惊讶道：“怎的来了这许多。”宝葫芦开口言道：“我就只点了个‘下一步’。”这时李彦宏在旁边呵呵的笑，银角大王怒了，刚要将宝葫芦倒置，李彦宏嗖的一声已经飞进了宝葫芦，银角大王查看时，除了李彦宏，还有百度贴吧，百度外卖，百度浏览器等等黑压压上万人，银角大王大惊怎的比周鸿祎还多！宝葫芦摇摇头我什么都没点😓😓😓 说出你的故事 又惊喜又期待着捡肥皂…… 笑死我啦😄 你有个狱友叫顺溜 这是十几年前的事了，现在不能这么做。 这事问民警没用，得去问狱警 这里人说话又好听，个个是人材…… 您是被拘留，不是蹲监狱，捡个屁啊！ 我住的都是四人间，还没住满，住了三个人，里面有厕所，电视，每天串筷子，每人每天1400双，不过一天干五六个小时就能串2000多双，多余的攒着，后来离开的时候都给了同屋子的室友了。剩下的时间打牌，打乒乓球，晚上可以看电视，不过吃的不敢恭维，真差啊！ 就怕你要背景没背景，要钱没钱，有钱不但能点外卖，还能叫小姐 想不到 守法是不可能的 这个一般监狱才有，老犯人故意肥皂扔了叫你捡，因为捡肥皂需要弯腰低头，这样表示臣服，不服大家就削你。 呵呵 有故事 快塞给他话筒说出你的故事 说出你的故事 说出你的故事 说话又好听？ 有经验啊 电影看多了 刚刚干活 他应该是易友吧……😂😂😂 有门子还是挺好用的。 里面安全 什么是捡肥皂？ 菊花残，满地伤…… 进去的感觉太好了，里面个个都是人才说话又好听 这个交警挺好的 被肛了 感觉他姐姐应该好漂亮 什么叫捡肥皂，老司机请解释一下！！ 老司机 兄弟是过来人啊 他肯定是想要看发型就知道 还能约警嫂 在外面的时候是基佬吧。。。 被关是正常。 看来二楼没少去啊 老司机开过车？ 咦……这家伙脑子里想的都是些什么乱七八糟的 都是能人啊！ 你拳头够大，别人帮你捡肥皂。 拘留也不是好受的，没收手机，几十人一间屋，吃喝拉撒都在里面， 银角大王将宝葫芦倒置，喊了一声：“周鸿祎。”周鸿祎应了一声，嗖地便被吸了进去。银角大王查看时，里面除了周鸿祎，还有360杀毒、360压缩、360浏览器、360安全卫士、360游戏大厅等熙熙攘攘一干人。银角大王惊讶道：“怎的来了这许多。”宝葫芦开口言道：“我就只点了个‘下一步’。”这时李彦宏在旁边呵呵的笑，银角大王怒了，刚要将宝葫芦倒置，李彦宏嗖的一声已经飞进了宝葫芦，银角大王查看时，除了李彦宏，还有百度贴吧，百度外卖，百度浏览器等等黑压压上万人，银角大王大惊怎的比周鸿祎还多！宝葫芦摇摇头我什么都没点😓😓😓 妈的，本来还想去保个健，想想算了 妈的，你这样说的，让我都不敢去耍大宝剑了，年底了更危险 条件其实还好，主要没自由，还得规定作息 有背景的人 应该是绿脑袋吧！哈哈哈 嘿嘿嘿 无驾驶证还敢开车，真有才。 几个朋友嫖娼被拘留了说在里面老舒服了 为什么我无证驾驶只被罚款1500啊？ 原谅纯洁的我也想知道什么是捡肥皂？[微笑] 哈哈哈哈！ 我也想说[微笑] 😏资深易友 55555 自古网易出大神，各路神仙都有。说到什么事，大神们的专业就显现出来了，好比这拘留，都是门清！ 您是被拘留，不是蹲监狱，捡个屁啊！ 问是因为期待 就怕你要背景没背景，要钱没钱，有钱不但能点外卖，还能叫小姐 😳😳😳 里面的人个个都有才，说话又有趣 哥们眼睛什么时候瞎的那是他姐！ 捡肥皂是什么意思 原谅我忍不住的笑了 确实需要一个老司机给你们俩示范一下…… 这种情况 我无证驾驶被拘留了五天，我知道的，很难受。 😁😁😁😁😁 这是亲姐 "
    },
    "Title": "男子无证驾驶被拘 问民警：进去不会要\"捡肥皂\"吧_网易新闻",
    "PublishTime": "12/29/201720:02:35"
}