{
    "PublishTime": "12/27/201718:03:31",
    "Source": "Netease",
    "Comment": {
        "Link": "http://comment.ent.163.com/ent2_bbs/D6MB703G00038FO9.html",
        "Total": 604,
        "Reply": 53,
        "Content": "绿小明习惯了 恶心到家了 不要紧的[狗] 便宜杨假脸了 晓明也可以问：我老婆嘴唇软不软？ 明星这工作就是好，结了婚了还可以堂而皇之跟其他俊男美女接吻拍床戏 晓明要小心了，他可比你高呦 恶心，黄轩你怎么下得去嘴 平章啊，还是浅雪适合你 我轩要开始吻遍娱乐圈各大流量女明星了，哈哈哈 又开始炒作了，这对夫妻只要有电视剧要播每天三四篇新闻炒作话题，然后夸演技进步然后买水军猛刷分，看着吧杨天宝之后通告肯定是这次终于有拿的出作品了进步了敬业啊， 恶心他妈给恶心开门 黄轩这么就突然火了啊？哪个大师给开的光？ 关我屁事 黄轩背后到底谁在捧他 杨颖不要在这里腐蚀我们的活雷锋 好恶心他妈的 演员的内心真强大。。厉害厉害 醜人多作怪 感觉卑鄙就是娱乐圈的毒瘤，谁碰谁倒霉 绿小明习惯了 关我屁事 这个真美妙[大笑] 希望杨颖可以好好学演技，专心的学个几年。不要拍个戏还带表演老师。 我老婆的嘴唇软吗 晓明也可以问：我老婆嘴唇软不软？ 不止这个味吧 恶习他妈抱着恶心哭 哈哈还哈哈哈哈哈哈 演员不是正常吗人家也接受了不然当初就找圈外的人结婚了 黄轩吻了小明的鸡鸡 不要紧的 那就不叫初吻了吧... 醜人多作怪 180纯天然 晚上回去闺房拍动作片浓浓的都是黄车干味 陈丽华迟重瑞都670了 恶心，黄轩你怎么下得去嘴 演员的内心真强大。。厉害厉害 醜人多作怪 有没有小明的味道 演员很正常呀 贱婢，专门来骂你 谁丑？ 绿晓明也混这么多年了，就给baby这么搞？ 小明：不行，我跟思成是兄弟，我得到他家发泄发泄 angelababy原来是这种人？！ 明星这工作就是好，结了婚了还可以堂而皇之跟其他俊男美女接吻拍床戏 醜人多作怪 黄轩等于吃小明鸡八 恶心他妈给恶心开门 我轩要开始吻遍娱乐圈各大流量女明星了，哈哈哈 杨颖不要在这里腐蚀我们的活雷锋 感觉卑鄙就是娱乐圈的毒瘤，谁碰谁倒霉 不要紧的[狗] 黄轩这么就突然火了啊？哪个大师给开的光？ 晓明要小心了，他可比你高呦 便宜杨假脸了 恶心到家了 恶心的卑鄙，又来毁戏了，有她的电视不看，代言的产品不买 谁吻谁呢?. 至今还在想听风的喊话 小明丁丁啥味？ 黄轩背后到底谁在捧他 不喜欢Angelababy 有没有烟味 恶心他妈给恶心开门 可怜啊！天子老婆又被人吻💋了 好恶心他妈的 演艺圈最后的实力女王，杨颖😉😉😉 恶心到家了 醜人多作怪 平章啊，还是浅雪适合你 又开始炒作了，这对夫妻只要有电视剧要播每天三四篇新闻炒作话题，然后夸演技进步然后买水军猛刷分，看着吧杨天宝之后通告肯定是这次终于有拿的出作品了进步了敬业啊， "
    },
    "Article": "信息时报12月27日报道电视剧《创业时代》近日首曝“硝烟”版片花。该剧改编自付遥同名小说，由安建执导、张挺编剧，黄轩、杨颖（Angelababy）、周一围、宋轶等主演，讲述了软件工程师郭鑫年研发手机软件魔盒走上创业之路，在这个过程中与同行竞争，邂逅投资分析师那蓝收获爱情的故事。《创业时代》将于2018年播出。近日，电视剧曝光的4分30秒片花中，主演黄轩、杨颖、周一围、宋轶以及特邀主演王耀庆、王学圻等悉数亮相。郭鑫年（黄轩饰）、罗维（周一围饰）两个年轻人的IT创业版图刚刚开启就遭遇重重危机。作为新时代的年轻创业者们，他们需要做的不仅仅是提高产品的创意想法，同时还要抵御来自四面八方的明枪暗箭。金城（代旭饰）的剽窃、利诱，李奔腾（王耀庆饰）、金振邦（王学圻饰）等商业巨鳄的环伺左右都成为他们创业路上最强大的阻碍。在创业的艰难时期，郭鑫年邂逅投资分析师那蓝（杨颖饰），片花中两人深情一吻又或是争吵流泪也为两人的情感线埋下了伏笔。黄轩、周一围两人皆以实力演技给观众留下深刻印象，此次两人将在同剧中“过招”也让不少人表示期待。值得一提的是，该剧也是Angelababy产后复出的首作，并且是她荧屏首部现代戏，第一次挑战女白领。早前开机时，Angelababy已表示感到压力，为此，她除了在开拍前数次围读剧本，与黄轩认真对戏之外，还拜访了一些专业人士，及到有共通之处的互联网公司调查，被工作人员笑指她为角色走火入魔。导演安建表示：“拍摄《创业时代》是个很不寻常的经历，相信90后、00后也都会很喜欢这部作品，这部剧里成功与失败都不是终点，我们想要传递的是创业者们的精神，就是青春不死、理想永生。”本文来源：信息时报责任编辑：陈恺_NK4686",
    "Title": "喊话黄晓明！Angelababy跟黄轩吻上了！_网易娱乐",
    "URL": "http://ent.163.com/17/1227/18/D6MB703G00038FO9.html",
    "KeyWords": "angelababy,黄晓明,黄轩"
}