{
    "Comment": {
        "Link": "http://comment.ent.163.com/ent2_bbs/D6LL71S700038FO9.html",
        "Reply": 2,
        "Content": "曾经的民族英雄变成笑料，你们一家还不反思，低调低调，做慈善，用钱请写手洗白，以后再回来吧！ 曾经的民族英雄变成笑料，你们一家还不反思，低调低调，做慈善，用钱请写手洗白，以后再回来吧！ 之前是在乔杰立,和陈乔恩一样.现在乔恩和明道都与乔杰立合约到期,不在续约,并且乔恩成立了自己的公司,之前有传乔恩有意向想挖明道过来,不知现在怎样 ",
        "Total": 3
    },
    "Article": "邹市明邹市明方声明网易娱乐12月27日报道12月27日，邹市明工作室发布声明。首先坦诚告知了邹市明的伤情最新情况：眼睛病情依然非常不容乐观，可能新年也要在医院里继续接受治疗。除此之外，邹市明方称，近日注意到有公司发布声明中含有颇多失实之处，故而特此发布声明。该声明称，邹市明前经纪公司存在严重违约的行为，邹市明已于2017年年初与其解除合同，不再续约，对于其违约行为，邹市明也已收集了充足证据并已提交有关部门；该声明还强调，对于网上谣传的不实消息，邹市明方也保留诉讼的权利，希望造谣传谣的各位能及时改正，还网络环境一片清明。本文来源：网易娱乐责任编辑：李彤_NK4455",
    "PublishTime": "12/27/201711:39:04",
    "URL": "http://ent.163.com/17/1227/11/D6LL71S700038FO9.html",
    "Title": "邹市明斥前经纪公司严重违约 将继续在医院治疗_网易娱乐",
    "KeyWords": "邹市明,医院,公司,谣传",
    "Source": "Netease"
}