{
    "Comment": {
        "Link": "http://comment.ent.163.com/ent2_bbs/D6KF0KAN00038FO9.html",
        "Reply": 30,
        "Content": "我能把她舔到发烧 骚货，只能靠这样炒作了？ 衣不蔽体能不感冒? 过来我给你治治让你流点液体感冒绝对能好！ 让我打一针就舒服了！ 冬天穿的少吧 改个名，岩柳 只要奶没炸就好了，反正也不指望脑袋赚钱。 一群流氓，整天就知道盯着胸看，都没人关心她病了么？来，把衣服脱了，我给你检查身体。 脑袋里全是大便，炸了 感觉长的跟以前又不一样了呢！ 我能把她舔到发烧 骚货，只能靠这样炒作了？ 第二张猛一看。。以为干露露 很久没见这货新闻了，看来之前欠费刚刚充值了 愿输蛋白质救她。。。 不要整天上头条秀自己，都一把年纪岁数大的老女人，赶紧找一个男人嫁了吧！柳岩哈哈 岩岩，注意身体，我的最爱 冰箱和雪糕是情侣，<br>有天，<br>冰箱和雪糕吵架了，<br>雪糕生气的离家出走了………..<br>可是，<br>离开了冰箱的雪糕才走了几步就浑身湿滑，<br>雪糕害怕自己要化了，<br>就向冰箱认错，<br>冰箱打开门，<br>冷冷的说：知道错了？？上来吧，自己冻~ 我有一个大胆的想法，拔罐放在前面两陀肉会怎么样？ 罐罐呢？没图说个JB 衣不蔽体能不感冒? 过来我给你治治让你流点液体感冒绝对能好！ 改个名，岩柳 一群流氓，整天就知道盯着胸看，都没人关心她病了么？来，把衣服脱了，我给你检查身体。 我要给她下面拔火罐 呼叫林主任 每次她上台说话我就觉得尴尬，毫无内涵，多读点书吧 火罐好用吗。。。 只要奶没炸就好了，反正也不指望脑袋赚钱。 感觉长的跟以前又不一样了呢！ 冬天穿的少吧 胸别炸 让我打一针就舒服了！ 拔火罐治感冒，该治疗的是智商 曹你奶🐴……都未 木卯山石，缺水金火，三财都不见，完了 感个冒都要发新闻？ 得输液 脑袋里全是大便，炸了 10 ",
        "Total": 137
    },
    "Article": "柳岩近照柳岩近照网易娱乐12月27日报道12月26日晚，柳岩发文透露自己感冒了，要出门去拔火罐，还称自己“脑袋要炸了”！柳岩还晒出一段拍摄写真的花絮视频，视频中，柳岩身穿绿色和红色抹胸性感礼服，露出性感的事业线，一头时尚的披肩长卷发，肌肤雪白，妆容精致，迷人的笑容，对镜各种卖萌挑逗，非常的妩媚性感，为网友送上冬日福利。此视频曝光后，网友纷纷围观并留言称：“女神最美！”“不愧为性感女神！”“拍戏也要好好照顾自己，记得吃药。”本文来源：网易娱乐责任编辑：陈少杰_b6952",
    "PublishTime": "12/27/201700:31:27",
    "URL": "http://ent.163.com/17/1227/00/D6KF0KAN00038FO9.html",
    "Title": "柳岩感冒严重到“脑袋要炸啦” 出门拔火罐治病_网易娱乐",
    "KeyWords": "柳岩,拔罐,感冒,事业线",
    "Source": "Netease"
}