{
    "URL": "http://news.163.com/17/1228/16/D6OOS13V0001899N.html",
    "Comment": {
        "Reply": 29,
        "Content": "现在自己亲眼看到的都是假的，何况那些黑得伸手不见五指的机构 这算不算炸骗？？？ 糟蹋善心的，是最大的恶行…… 这也叫做慈善....... 能赚就是赚的，大不了赔啊 捐款使用不透明，有的无法透明，就失去了信任！ 已立案即日逮捕！ 这是诈骗，你在淡化问题的严重性，和他们一伙的，已举报 欺骗人们的善心。 说实话有其便宜这些私人骗子，不如捐给红十字会 利用人们的善良。 马化腾是该基金会的理事长 很多现在看起来NB的，总有一天会被报应的 假货还假一赔十呢，骗捐假一退一就够了？ 对这个“筹款”项目不存疑虑的捐款人，款项会安排专门工作人员暂为保管[微笑] 现在自己亲眼看到的都是假的，何况那些黑得伸手不见五指的机构 现在慈善都被玩坏了 这算不算炸骗？？？ 只要有一例不符，那就是诈骗，不需数量上的占比。 这也叫做慈善....... 捐款使用不透明，有的无法透明，就失去了信任！ 这是诈骗，你在淡化问题的严重性，和他们一伙的，已举报 利用人们的善良。 说实话有其便宜这些私人骗子，不如捐给红十字会 不要炒作 公布去向啊 假货还假一赔十呢，骗捐假一退一就够了？ 马化腾是该基金会的理事长 已立案即日逮捕！ 郭美美在哪里？ 这也叫做慈善....... 对这个“筹款”项目不存疑虑的捐款人，款项会安排专门工作人员暂为保管[微笑] 糟蹋善心的，是最大的恶行…… 捐款从不捐中介 能赚就是赚的，大不了赔啊 全部退还。 流星月亮地球太阳系有发动机么？没有!他们却高速在宇宙中运行!为什么？因为他们的运行轨道本身就是太空高速时空隧道!他们的运行路线一半为去路一半为来路，周而复始地运行着!地球自转公转着，本就没有东西南北上下左右等方位!谁定的？我们的天父啊!目的只有一个，告诉人类我们天父的星座方位!所以九曲桥的方向始终对着东北方!在宇宙一切物质中，永远是子体围绕母体运动，这是恒定的!所以地球自转并围绕太阳公转!因地球是自转公转的，所以根据地球的东西南北是找不到星外文明的星座方位的!只有找到太阳的上下前后东西南北才能准确地给天父星座方位定位!我们天父星座方位在太阳系东北上方第九颗恒星那里!那里以双伴恒星为中心带动周围108颗恒星运动着! 还好。大清帝国 复制本文到支付宝HMbpsI44Tn即可查看附近18-24的妹子电话联系方式，你懂得 欺骗人们的善心。 这种救助行为应该由ZF来主持啊！应该成为国家机构 很多现在看起来NB的，总有一天会被报应的 骗子，套路，无语 好事不能办好，整个社会诚信缺失！ ",
        "Total": 344,
        "Link": "http://comment.news.163.com/news2_bbs/D6OOS13V0001899N.html"
    },
    "Title": "同一天生日主办方：捐赠人若存有疑虑可原路退款_网易新闻",
    "Source": "Netease",
    "KeyWords": "捐赠人,善款,未来,爱佑",
    "PublishTime": "12/28/201716:40:40",
    "Article": "（原标题：爱佑未来：对“同一天生日”有疑虑的捐赠人可原路退款）12月28日，爱佑未来通过其官方微博@爱佑未来慈善基金会再发声明称，本次活动共计筹款2941978元，善款未使用，资金是安全的。若捐赠人对“同一天生日”仍存有疑虑，可申请退款；相关退款申请核实无误后，爱佑未来会将善款原路返回给捐赠人。“同一天生日”筹款项目处理进展说明。12月28日，爱佑未来通过其官方微博@爱佑未来慈善基金会再发声明称，若捐赠人对“同一天生日”仍存有疑虑，可申请退款；相关退款申请核实无误后，爱佑未来会将善款原路返回给捐赠人。据上述声明，尊重捐赠人的意愿，对“同一天生日”筹款项目还存有疑虑的捐赠人，爱佑未来将安排专门的工作组为需要退款的捐赠人进行退款。捐赠人可发送邮件至ayff@ayfuture.org申请退款，退款申请经核实无误的，爱佑未来将在发起退款申请后5-10个工作日内，将已捐善款原路返回给捐赠人。为保证后续项目执行，退款申请请于即日起至2018年1月15日24时前提交，未退余善款，会在民政部门和当地政府的监督下，全程透明公开，执行好救助项目。2018年1月16日起将启动第一批善款发放，预计3个月内完成第一季度的发放，把捐赠人的善心落到实处。本文来源：澎湃新闻责任编辑：张海桐_NN9053"
}