{
    "Source": "Netease",
    "KeyWords": "姚笛,秀恩爱,平安夜,桂圆",
    "Title": "姚笛平安夜秀恩爱：剥出“心”高度_网易娱乐",
    "PublishTime": "12/25/201700:43:11",
    "URL": "http://ent.163.com/17/1225/00/D6FASLKB00038FO9.html",
    "Article": "姚笛姚笛携男友秀恩爱",
    "Comment": {
        "Content": "一开始我还纳闷呢，什么乱七八糟的，还那么多人点赞，原来是大美妞儿😂 你又回来了 我不是姚迪粉丝，但我是大美妞的粉丝 1.09还没来 那个人好久不见了吧。应该不回来了 我在这安静得可怕的夜里，一个人醒来。昏暗的灯，把房间烧成了橘色，我看到希望在一点点化成灰烬。你在他怀里的微笑，是扎进我心里的刀。我奄奄一息的时候你又出现了，你总是让我不得安宁。我还爱你，可是我再也不想爱你了。我不想因为爱你而毁了自己，我需要重新开始，我只想过正常人的生活。有缘再见。 合影美妞 签到，只为大美妞 等一个人 0点56分还不来 留名合影网易老人越来越少 一楼是姚笛本人 终于正常了明天我接你出院 1点53分我在等一个人 等人 1:15那个人...还没来... 合影，合影！ 等了你几个小时你终于出现了… 今夜你会不会来 1.38还没有来，我准备通宵等下去，看了大美妞的文字，被他感动的一塌糊涂[大哭] 一直以为它是女的，还是死迷，结果才知道，它是人妖。。。 姚迪知道在网易有个“大美妞”吗！ 看见大美妞莫名开心 02:03早点休息吧，对身体好，对精神好。好好活着。我走了，再见。 终于等到大美妞了 快两点了还没有来 不是来看姚笛的新闻的，都是来看大美妞的，大美妞人气爆棚。留影+ 痴情 哈哈66666 3年来，我们一直在一起。 智障傻逼玩意文章姚笛真爱你不要，要一个结过婚老马伊利 大美妞来了，大家让让，合影+1 跟👀哥一样痴情 恶意炒作，因为我知道你心里还是放不下那个她！我知道你骗不了我你还深爱着姚笛 合影 心疼大美妞！ 真正的恩爱不用秀。😊 打卡，大美妞还是很有才的。别走[挨揍] 大美妞哈哈，知道大美妞dd人都是老用户了 一起等吧 都往后稍一稍我要合影留念 旅游景点合影 1:04我还在等 咔嚓，留念 贱人就是矫情 迟帅幸亏没娶。 你又回来了 想你……别走留下来！ 还有主任也好久不见了 是伤心了。 没有人记得在深圳富士康艺剪坊被坑的已经无语兄？ 我在这安静得可怕的夜里，一个人醒来。昏暗的灯，把房间烧成了橘色，我看到希望在一点点化成灰烬。你在他怀里的微笑，是扎进我心里的刀。我奄奄一息的时候你又出现了，你总是让我不得安宁。我还爱你，可是我再也不想爱你了。我不想因为爱你而毁了自己，我需要重新开始，我只想过正常人的生活。有缘再见。 好啊，祝福吧！ [cp]一本好书《谁许流年不言殇》道尽感情的无奈，关于爱情中的出轨，原谅。种种复杂的心理，感情纠葛。去掌阅，当当，京东，都看阅读找来看看。你不会失望。​​​[/cp] 真心遇见渣男 公鸡才是蜈蚣的天敌，你确定要找公的吗？ 像个弱智，像大傻子 留下来吧、这里需要你 来啦 大美妞放弃了？ 大美妞，圣诞节快乐♪٩(´ω`)و♪ 姚小迪一直很文明，话不糙，理也不糙，文明人。 正找你呢 大美妞别走 好好的 你这逼被放出来了？好久没见了 好久不见，大傻逼！ 我就知道有你。网易好多人都很久没看到了。中哥也很快不见了 一起等吧 哇好久不见了好想你 合影大美妞…。！ 你等的那个，我知道。😄 大美妞文化底蕴深厚，合影 合影 挤挤，多亏还有地方，大美妞🍆茄子✌🏻 在网易姚小笛比姚笛火[微笑] 好久不见大美妞 大美妞，祝福你 合影。大美妞。 终于等到你 有才 Ps做的不错👍 文章到底有没有进去？ 跟文就是属于真心遇见渣男，现在好好的吧，以后也好好的。 3年如一日。燕🐔好久不见了，现在又来了个小仓柚子？ 带我一个 大美妞好想你 不留头帘显老了 接盘侠，我服这哥们儿～[大笑] 合影 手机板块的拉风战士 因为有你，姚笛在网易成了一线 可怜的女孩，内心有点分裂。 粤女阉鸡就在上面啊，只不过现在改名字了 美妞,广大易友希望你能振作起来,追回属于自己的幸福。 美女！！文张哥哥还在吗？？？ 我是外地的，刚来杭州，不小心被蜈蚣虫咬了口，不久伤口开始肿胀。吃药打针都没得用，看到没办法了，正好遇到个道士。道士说：我遇到的乃是百年蜈蚣精，要治好的话还得要去寻找它的天敌。所以问大家，杭州文辉大桥附近哪里有鸡？ 祝福你 哈哈 他不会再回来了 过份，考虑大美妞的心情了吗？ 丑死了，居然还有王八蛋要？ 你又回来了 1.09还没来 那个人好久不见了吧。应该不回来了 深圳屁眼男，寡妇村村长等网易大卡都死了吧？只有大美妞痴心不改，只要有姚笛，就有大美妞。来让个位置合个影 那个人还回来吗？ 祝福 我在这安静得可怕的夜里，一个人醒来。昏暗的灯，把房间烧成了橘色，我看到希望在一点点化成灰烬。你在他怀里的微笑，是扎进我心里的刀。我奄奄一息的时候你又出现了，你总是让我不得安宁。我还爱你，可是我再也不想爱你了。我不想因为爱你而毁了自己，我需要重新开始，我只想过正常人的生活。有缘再见。 用等价代换原则姚笛新男友吻过马伊琍 好久不见她了 开始随便瞅一眼，我还以为姚笛和宋喆搞上了呢 等一个人 看到姚笛就在等你 看到标题，第一反应就是看看大美妞来没来 你們這些跟帖什麼個意思不明白❓❓❓ 网易专门报道演艺圈男盗女娼的事 大美妞要淡定 垃圾 整天吃着饭沒事做就秀和那个男人这么这么无聊 啥也不说了，合影 我就是进来看你在不在的[窃笑] 合影留念，老人越来越少 文章：收到 实话实说，让我第一次认识你，是在文章的新闻里，当时一堆人讨伐你当小三 这男的岁数瞅着有50了。富二代，虎爹呢 啥意思… 让人家玩完了像大鼻涕似的给甩了，还出来嘚瑟！ 你说你看不到任何希望<br>我不怪你<br>我看得到同时也会用行动证明给你看<br>哪怕燃尽余生<br>我愿！ 留个名，大美妞 这种男人生活中很讨厌的斤斤计较 厉害了厉害了 在等一个人 咔嚓[窃笑] 姚笛这次整的没以前好看了。裸婚时代里多好看啊 已经来了😁 合影大美妞，这么多评论都是为了大美妞 好久不见啊！大美妞 终于等到你，现在等你比看到姚迪的新闻都激动 畜生。 妈了个巴子的，不要钱还跟你上床的女人可能就是真爱了吧！ 我在等一个傻逼 畜生。 路过[微笑][微笑][微笑] 我喜欢姚笛！ 你是姚迪的前男友吗？生命还有其他很多选择的，不用为了一个人而乱了自己的生活 无聊至极的垃圾消息！ 大美妞，你好。合影。 别的都还好，燕姬恶心人的本事牛的一匹啊 文章？ 我在这安静得可怕的夜里，一个人醒来。昏暗的灯，把房间烧成了橘色，我看到希望在一点点化成灰烬。你在他怀里的微笑，是扎进我心里的刀。我奄奄一息的时候你又出现了，你总是让我不得安宁。我还爱你，可是我再也不想爱你了。我不想因为爱你而毁了自己，我需要重新开始，我只想过正常人的生活。有缘再见。 马伊琍你够了[微笑] 你又回来了 合影 姚笛打开人字吞露芯生。 真的假的 好高啊 别玩玩而已 认识，但不妨碍我这么形容他 拜卯日星君啊 菜市场里肯定有！ 我在这安静得可怕的夜里，一个人醒来。昏暗的灯，把房间烧成了橘色，我看到希望在一点点化成灰烬。你在他怀里的微笑，是扎进我心里的刀。我奄奄一息的时候你又出现了，你总是让我不得安宁。我还爱你，可是我再也不想爱你了。我不想因为爱你而毁了自己，我需要重新开始，我只想过正常人的生活。有缘再见。 再见，我的第二个恋人。 李元霸，P眼哥好久都不见了 我怎么记得当年还有一个柳岩的男粉丝来着？想不起来叫什么了 呵呵 来来来，拉住他，别让他跑了，先照张相 不要脸 大秀恩爱 卡擦卡擦。 大铁棍子医院林主任 p的吧 接盘侠 以为姚晨 终于等到你 我知道你们在等谁 留名 客观讲，素颜还好看 感情转换廷快的哟 合影+1💁 楼快满了，速度留影 二楼不适合在网易混啊。 火贴留名 大美妞、好久没见了、可好？ 这伙计戴个帽子就帅了 妈的，把你给火了一把 新人，不认识大美妞？ 我去，这画面太美 只怕不是真心。。 文章，你怎么看？ 我怎么记得当年还有一个柳岩的男粉丝来着？想不起来叫什么了 我就说他不会不来… 小屌丝，洗洗睡吧😄 留个念吧 现在网易再也出不了像李不白这样的人才！ 来了开了来了………… 哎，好好的 这男的长得也太丑了 都往后稍一稍我要合影留念 合影 风光66 大美妞，你一定要坚持到底 我是外地的，刚来杭州，不小心被蜈蚣虫咬了口，不久伤口开始肿胀。吃药打针都没得用，看到没办法了，正好遇到个道士。道士说：我遇到的乃是百年蜈蚣精，要治好的话还得要去寻找它的天敌。所以问大家，杭州文辉大桥附近哪里有鸡？ 会有男人真心爱他，我看就是玩玩地。 我觉得这富二代只是觉得姚迪漂亮，玩腻了也就算了，不可能结婚 秀恩爱呀 你又回来了 男人只要有钱长什么逼样都能泡到美女 男友丑的一逼阿 希望你幸福 看我的ID 我在这安静得可怕的夜里，一个人醒来。昏暗的灯，把房间烧成了橘色，我看到希望在一点点化成灰烬。你在他怀里的微笑，是扎进我心里的刀。我奄奄一息的时候你又出现了，你总是让我不得安宁。我还爱你，可是我再也不想爱你了。我不想因为爱你而毁了自己，我需要重新开始，我只想过正常人的生活。有缘再见。 呼唤姚笛水军 美妞、不要像眼哥一样消失在人海。 合影合影[色色][色色] గ.̫గ 感觉变了样子啊 富二代 6666 我哇😭 等到了 来来来，拉住他，别让他跑了，先照张相 合影，多次合影。 你他妈魔症了 怎么感觉变样了 1.09还没来 说得对 ✌️✌️茄子 手都不拉，心疼球呢吧！ [色色][狗][大哭] 你知道多少人都在等你吗？ 合影留念[微笑] 勃出新高度😄 真是不容易终于等到了自己的爱人了吗 这身高挺有意思 上次不是秒删微博吗？这种女的可怕！ 我为楼主建楼 要小弟大美妞呢 只要你能投降黄军，…… 晒幸福的真多啊 不应该是姚笛高潮过后大喊：姚笛大美妞我想你 好无聊秀个恩爱吧 和文章还是挺配的 我在等一个人 哈哈哈哈 接盘侠 什么意思？ 额出来蹭个热度 说得好 因为姚笛更精彩 期待平安夜! 合影吧！曾经的网易已经死了！越来越多的网易前辈一个个的离去~！！ 皇军让我给你带个话 呵呵😊 李不白眼哥，战神李元霸，迷茫弟，宇一控，天一，邓永大，孝感,燕姬，德之光…… 真的是剥出新高度啊 合影留念[微笑] 傻逼脑残！马伊琍花多少钱请的！碧池！有本事管好自己男人！别让他出去浪啊！ 你又回来了 合影 杀青了 1.09还没来 拍一个 之前老骂你，哈哈哈 我在这安静得可怕的夜里，一个人醒来。昏暗的灯，把房间烧成了橘色，我看到希望在一点点化成灰烬。你在他怀里的微笑，是扎进我心里的刀。我奄奄一息的时候你又出现了，你总是让我不得安宁。我还爱你，可是我再也不想爱你了。我不想因为爱你而毁了自己，我需要重新开始，我只想过正常人的生活。有缘再见。 这男的一看就不行啊，文章害人不浅 [报警][报警]有人抢我位置 打个卡，怕以后没机会 群演还没上呢杀什么青粉丝让让马上开拍了争取拍到1225楼祝大美妞圣诞快乐 那个人呢 你TM还在啊 李不白，眼哥，广西的那个什么，元霸，燕姬…… 咔嚓 难得在这里居然有人提起元霸，对于我这样的五年老易友来说，大美妞算是后来的了，长江后浪推前浪，多少新人成旧人，留影咔嚓 合影 必须留影 大美妞，要堅強啊 大美妞加油 [窃笑] 连拍 文章与新男友，哪个器更大活更好？ 爱她就去强上她吧，如果这都不敢，那就算了吧 插个位留念，[狗] 这个要合个影，合一次少一次了 大美妞合影 留影 姚小迪大美妞 终于等到了！楼下接！ 全评论在等一个人也是厉害 合影以见证这个时间曾出现过 啪一个 合影留念 有姚笛的新闻，总会等一个人 身高差不错 绝对马伊琍花钱请的水军 战神李元霸：鸡鸡小于20cm的不要说话。<br>粤女燕姬。。。。合影大美妞。 对她多点宽容吧 还在等[微笑] 看到姚小笛大美妞我就放心了 这是打算撂挑子啦 大美妞别走… 这种帖子下面的评论清一色的[微笑] 就快活不下去了，饭都吃不饱，心也空空，兜里也是空空。没钱，没房，没车，没办法，没学历，没关系，像我这样的人还有救吗？ 大美妞还是来了😊 兄弟，心够大 肉蒲男去哪了？ 绿出“心高度 心疼大美妞 。。。。 大美妞是真粉还是水军？ 你居然还在！可以的 贱人就是矫情 接盘侠现身 ",
        "Reply": 1056,
        "Link": "http://comment.ent.163.com/ent2_bbs/D6FASLKB00038FO9.html",
        "Total": 13362
    }
}