{
    "URL": "http://war.163.com/17/1230/12/D6TFAV9M000181KT.html",
    "Article": "（原标题：外媒炒作中国空中加油型轰-6专家:可突破第二岛链）资料图：网上流传的可空中加油型轰-6照片人民网北京12月29日电（鄢玲淼闫嘉琪）近日，有外媒曝出疑似可空中受油的“轰-6N”型轰炸机的图片。军事专家在接受央视采访时表示，空中加油型轰-6轰炸机可突破12000公里航程门槛，航程将达到远程战略轰炸机水平。日前网上一张疑似可空中加油的“轰-6N”从机库滑出的卫星图片引发关注，图中飞机机鼻上的加油管隐约可见。有外媒报道称，“轰-6N”已进入最后定型阶段，或已开始小批量生产。一旦空中受油型轰炸机“轰-6N”完成最后阶段试飞，将使中国海空军具备俄罗斯图160、图-95战略轰炸机那样，绕日本飞行一周的能力，中国空军将拥有真正的远程战略轰炸机。军事专家傅前哨在接受央视采访时指出，航程须达到12000公里是远程战略轰炸机的一个门槛。我国早期型轰-6航程只有6000公里，进改型轰-6K航程已达8000公里，若实现空中加油，新型轰-6的航程完全有可能突破12000公里。“空中加油主要是为解决目前我国轰炸机存在的“腿短”问题。”军事专家曹卫东在接受央视采访时称，若采用空中加油技术，轰-6战机的作战半径毫无疑问将大幅延伸，突破“第二岛链”不成问题。就我军现役轰加油机是否能满足空中加油型轰-6的空中加油需求的问题，傅前哨认为，我军现役的轰油6加油机载油量较小，恐怕难以担负轰炸机的空中加油需求。在这种情况下，我国以运-20为平台发展重型加油机势在必行。本文来源：人民网责任编辑：吴龙飞_NBJ9602",
    "KeyWords": "轰-6,加油型,轰炸机,战略轰炸机",
    "Source": "Netease",
    "Comment": {
        "Reply": 53,
        "Content": "你这是恶意提问！首先意识形态就有问题 外媒，西方的？私有的不代表国家。 跟贴被火星网友带走啦~ 技术积累中。以后可以直接移植到20上。你炒你的。我们做我们的。 就在天津卫 哈哈哈哈哈哈哈！ 盗链 脑子有链 6爷累了 六爷也有六旬了吧 什么专家，哪个专家？强烈要求专家实名制 能飞去钓鱼岛不？！？！？？！？！？！ hhhhhhhhhhhhhhhhhhhhhhhhhhhhhhhhhhhhhhhhhhhhhhhhhhhhhh 真有事的时候拿这玩意儿突破？建议出这个点子的人一定要随机出征，“神风”的策划者宇垣缠在终战后就登上飞机以神风方式坠海自尽以告国民，学到点。 悠着点啊，别再这么多新型号了！要不，字母表就不够用了！！ 除了自己炒作，看不出来谁会在意老古董。 这飞机落后的 字母表都快不够用了！ 这张图太假了！！！ 飞行周边区域半径在一百五十公里以远的范围也都是危险区域啊～ 空客波音的飞机天天横跨太平洋，算不算突破岛链 你脸红的日子还在后头呢，， 单程8000公里，双程不就1600公里了吗？就这破飞机担任核轰任务，还指望回个屁航啊，直接单航飞过去，运气好，投完蛋直接跳伞就可以了。然后在战俘营等待战争结束或者世界没日来临。 悠着点啊，别这么多新型号了，要不字母表快不够用了！ 几十年前的技术 再魔改，也是大半世纪前的东西．． 自从放开了名词解释之后<br><br>服役，突破，这样的<br><br>就非常非常容易了 波音空客图式的灰机每天都突破全球各国防空口口 一旦空中受油型轰炸机“轰-6N”完成最后阶段试飞，将使中国海空军具备俄罗斯图160、图-95战略轰炸机那样，绕日本飞行一周的能力，中国空军将拥有真正的远程战略轰炸机。天天吹牛皮说，军力如何如何强大，到现在战斗机还不能绕小日本飞一圈。不知道哪里来的吹牛勇气？ 硬度人来了，就不敢胡言乱语了。 民国古董 跟贴被火星网友带走啦~ 这废柴都好意思改来改去，留点钱研发新机吧！ h6z什么时候出来？ 窝里斗老多人都支持了，凡事支持窝里斗的都是煞笔，有本事跟三哥打打，日俄就更不用说了 不好看 跟贴被火星网友带走啦~ 岛链岛链，你木的狗链! 。我都脸红了。。。。。。。。 第二岛链在哪儿？ 渔船都突破第3.4.5.6岛链了 空客波音的飞机天天横跨太平洋，算不算突破岛链 😀 外媒，西方的？私有的不代表国家。 技术积累中。以后可以直接移植到20上。你炒你的。我们做我们的。 哈哈哈哈哈哈哈！ 应该欢迎的 hhhhhhhhhhhhhhhhhhhhhhhhhhhhhhhhhhhhhhhhhhhhhhhhhhhhhh 不好看 报道一次就是炒作，有这么炒作的吗？不报道就是无视。 窝里斗老多人都支持了，凡事支持窝里斗的都是煞笔，有本事跟三哥打打，日俄就更不用说了 除了自己炒作，看不出来谁会在意老古董。 飞行周边区域半径在一百五十公里以远的范围也都是危险区域啊～ 空客波音的飞机天天横跨太平洋，算不算突破岛链 你脸红的日子还在后头呢，， 跟贴被火星网友带走啦~ 波音空客图式的灰机每天都突破全球各国防空口口 什么专家，哪个专家？强烈要求专家实名制 一旦空中受油型轰炸机“轰-6N”完成最后阶段试飞，将使中国海空军具备俄罗斯图160、图-95战略轰炸机那样，绕日本飞行一周的能力，中国空军将拥有真正的远程战略轰炸机。天天吹牛皮说，军力如何如何强大，到现在战斗机还不能绕小日本飞一圈。不知道哪里来的吹牛勇气？ 民国古董 渔船都突破第3.4.5.6岛链了 这废柴都好意思改来改去，留点钱研发新机吧！ 战神[疲惫] 几十年前的技术 真有事的时候拿这玩意儿突破？建议出这个点子的人一定要随机出征，“神风”的策划者宇垣缠在终战后就登上飞机以神风方式坠海自尽以告国民，学到点。 。我都脸红了。。。。。。。。 好，就是要不断进步！ 用什么加油机给它加油？伊尔78？ 台湾必须统一，你就甭担心中国滴事了哈 你这是恶意提问！首先意识形态就有问题 跟贴被火星网友带走啦~ 6爷累了 你以为做手机呐。能打台湾就可以了，压住台独分子是第一要务。 赶紧出新的 😀 快把你老妹献给我不要狭隘 这飞机落后的 这张图太假了！！！ 第二岛链在哪儿？ 外媒造谣我国传媒热心于传谣 能飞去钓鱼岛不？！？！？？！？！？！ 单程8000公里，双程不就1600公里了吗？就这破飞机担任核轰任务，还指望回个屁航啊，直接单航飞过去，运气好，投完蛋直接跳伞就可以了。然后在战俘营等待战争结束或者世界没日来临。 硬度人来了，就不敢胡言乱语了。 h6z什么时候出来？ 跟贴被火星网友带走啦~ 可以试试看。 再魔改，也是大半世纪前的东西．． 岛链岛链，你木的狗链! 你的意思就是没新衣服穿就光着屁股呗？ 打台湾要加油管？ 空客波音的飞机天天横跨太平洋，算不算突破岛链 就在天津卫 脑子有链 悠着点啊，别这么多新型号了，要不字母表快不够用了！ 自从放开了名词解释之后<br><br>服役，突破，这样的<br><br>就非常非常容易了 悠着点啊，别再这么多新型号了！要不，字母表就不够用了！！ 六爷也有六旬了吧 盗链 字母表都快不够用了！ ",
        "Total": 1498,
        "Link": "http://comment.war.163.com/news_junshi_bbs/D6TFAV9M000181KT.html"
    },
    "PublishTime": "12/30/201712:30:16",
    "Title": "外媒炒作中国空中加油型轰-6 专家:可突破第二岛链_网易军事"
}