{
    "Comment": {
        "Total": 6,
        "Reply": 4,
        "Link": "http://comment.news.163.com/news2_bbs/D762JSQ5000187V9.html",
        "Content": "少林寺什么的一堆，村民都能当导游 这不是负责的大国行为！ 少林寺什么的一堆，村民都能当导游 应该涨价才对 这不是负责的大国行为！ 这不是负责任的大国行为！ "
    },
    "Title": "日本将解禁口译导游 无资格证者亦可提供有偿翻译_网易新闻",
    "KeyWords": "导游,日本,翻译",
    "Article": "（原标题：日本即将解禁口译导游无资格证者亦可提供有偿翻译服务）【环球网综合报道】据日本共同社1月2日报道，修改后的日本《口译导游法》将于4日起开始施行，即使没有迄今所必须的国家资格证也能面向访日外国游客提供有偿的口译导游服务。大型旅行社将此当作商机开始尝试口译导游市场中的新业务。报道称，截至2016年4月，共有约2.3万人拥有国家口译导游资格证，但其中约七成为英语导游。因此，日本政府考虑到应对猛增的访日游客，决定解禁国家口译导游资格证。但考虑到资格证拥有者，今后仍将保留资格制度。日本旅行社方面对此表示：“可委托的导游增多将推动提高服务质量。”截至2016年底，已有850人完成提前登记。相关人士对此表示：“即使没有资格证也能积累社会经验，这是宝贵的机会。”另一方面，现行资格制度旨在提高拥有资格证的实际能力，与无资格导游拉开差距。在此前以语言和日本文化为主要考核内容的资格考试中，将新增防灾及相关法律等内容。报道还提到，解禁口译导游可能导致参加口译导游资格证考试的人数减少。还有部分拥有资格证的人担心称：“现行制度或将难以维持下去。”本文来源：环球时报-环球网。更多精彩，请登录环球网http://www.huanqiu.com责任编辑：黄哲程_B9302",
    "URL": "http://news.163.com/18/0102/20/D762JSQ5000187V9.html",
    "PublishTime": "01/02/201820:36:00",
    "Source": "Netease"
}