{
    "URL": "http://war.163.com/17/1228/10/D6O2MLSG000181KT.html",
    "Comment": {
        "Reply": 24,
        "Content": "外强中干苟延残喘以核武器讹诈全世界不要逼脸... 检验你嘛了个巴子！ 白杨手杖是普京的拐棍，离开就无法走路 白杨导弹，确实威力无比。 看你说的，不是还有最近翻番的产自那150万的天然气价格吗？ 除了核讹诈，也确实没别的可以拿得出手的了 貌美肤白 应该是输廉的遗腹子 呵呵，周刀鱼枉芳 怎么张家口出了个这么傻逼的，莫非是俄罗斯揍出来的？ 俄罗斯不给美国当狗，太可恶了 没银子就省着点吧<br><br>你看你儿，几张照片，CG图就能完成威慑，还用实弹干啥呢？ 嗯那就给俄罗斯当狗很荣幸 还是你厉害，普京指哪你就咬哪。忠心可嘉，俄罗斯情报部门给你记大功一次。记三次大功就可以移民俄罗斯，如果没媳妇，还给配一个俄国老太太 为了特权，不惜一切，哪怕是认洋祖宗出卖领土和民族灵魂！<br>否则，很难解释卖国黄恶的所作所为。<br>就连一向沉稳的默克尔都忍不住送地图表达内心的不解和鄙视！ 普京应该让其黄恶儿子给2楼安排个职位啊 好像叶利钦想当来着，人家没要而已，普秃子刚上台还要加入北约呢，你难道不知道？ 哈哈哈,黄恶猪气坏了 怎么张家口出了个这么傻逼的，莫非是俄罗斯揍出来的？ 还是你厉害，普京指哪你就咬哪。忠心可嘉，俄罗斯情报部门给你记大功一次。记三次大功就可以移民俄罗斯，如果没媳妇，还给配一个俄国老太太 为了特权，不惜一切，哪怕是认洋祖宗出卖领土和民族灵魂！<br>否则，很难解释卖国黄恶的所作所为。<br>就连一向沉稳的默克尔都忍不住送地图表达内心的不解和鄙视！ 星球差距的真实性？<br>在近玩帝国时代2,发现运气好,资源多,没有发生战乱很容易升级到帝国时代,运气差的手背的,有的只升级到城堡时代,有的连封建时代没升到就亡国了<br>回望现实世界<br>300年前欧洲文艺复兴进入工业社会,唯物主义诞生,探索宇宙开始启蒙。而中国还停留在农业社会,处于迷信时代,说明文明.科技差距是存在的<br>在把望远镜朝向太空<br>天上有2000亿个星系.银河系活了80亿年，太阳和地球才出生是事实<br>依据上面几点,由此推测<br>由于运气,资源多或少,战乱,发展快慢等原因,星系文明等级差1亿年是很正常的(而人类整个历史只有1万年),也就是说地球刚打开潘多拉魔盒或脑洞大开时,别星系的人早已发展成究极状态<br><br>科普：<br>宇宙有多大<br>直径900亿光年，以光速前行，需900亿年才能到头<br><br>物质有多小<br>假设把一颗1立方毫米铁粒的三维图像放大到太阳那么大,肉眼看到的原子核也只有1立方毫米大<br>如果有足够压力,整个地球的物质多能塞进一个原子里<br><br>物质的神奇<br>以身体为例.细胞构成身体不同的系统,如动力系统,感官系统<br>而电脑,传感器,人工智能,则是依靠电流来实现<br><br>物质属性神奇应用<br>震动(声音)<br>电磁（发电机→电流→电灯→电报→电脑→数控→人工智能→智能社会）<br>粒子相互作用力(分子聚分→TNT炸弹，核子聚分→核弹，电子移动→电流)<br>相互作用力构建了宇宙万物，否则众分子聚不成一个细胞，也聚不成一个星球<br><br>科技带来了什么<br>800年前,蒙古凭着马与弓箭的发明征服整个欧亚大陆,10万军队屠了90%中国人<br>300年前,欧洲凭着船与枪的发明,称霸了地球，原住民几乎见不到<br>现在宇宙处于生命大爆发时代<br>今天，机枪,核弹,生化武器毁地球分秒的事<br>今天工业革命,自动化革命,生产力是以前的10000倍不是梦想<br>人工智能杀人制造灵敏样样优，而人类就是个渣<br><br>历史明智<br>太阳系很大，宇宙很大，利益体很多。斗不是出路，利益合理分配，共存共赢，共甘共苦。各兄弟，各家庭，各部落，各种族，各国家，各星球，各星球群，各星系，各星系群，各集团，各阶级,才会和谐昌盛，才不会被宇宙淘汰，在400万亿亿星球中才有一席之地<br><br>内斗耗光资源，耗光时间，而在宇宙很遥远且完全陌生的星系，正在联盟成更大更强的组织<br><br>提升全人类意识，需你我共同努力(因婴孩‘白纸’时时在出生) 看你说的，不是还有最近翻番的产自那150万的天然气价格吗？ 貌美肤白 应该是输廉的遗腹子 除了核讹诈，也确实没别的可以拿得出手的了 俄罗斯不给美国当狗，太可恶了 哈哈哈,黄恶猪当官了 玩命我们还真没怕过谁，呵呵 30年前的东西没过保质期？发射的时候用什么点？用打火机点？ 检验你嘛了个巴子！ 白杨手杖是普京的拐棍，离开就无法走路 白杨导弹，确实威力无比。 呵呵，周刀鱼枉芳 外强中干苟延残喘以核武器讹诈全世界不要逼脸... 分析式多弹头最厉害。 没银子就省着点吧<br><br>你看你儿，几张照片，CG图就能完成威慑，还用实弹干啥呢？ 这可是玩命的武器 普京应该让其黄恶儿子给2楼安排个职位啊 好像叶利钦想当来着，人家没要而已，普秃子刚上台还要加入北约呢，你难道不知道？ ",
        "Total": 571,
        "Link": "http://comment.war.163.com/news_junshi_bbs/D6O2MLSG000181KT.html"
    },
    "Title": "俄再次试射“白杨”洲际导弹 检验战略威慑能力_网易军事",
    "Source": "Netease",
    "KeyWords": "洲际导弹,白杨,导弹,弹道导弹",
    "PublishTime": "12/28/201710:13:16",
    "Article": "（原标题：俄再次试射“白杨”洲际导弹检验战略威慑能力）参考消息网12月28日报道据俄新社12月26日报道称，俄罗斯战略火箭兵26日从阿斯特拉罕州的卡普斯京亚尔靶场发射了一枚RS-12M“白杨”洲际弹道导弹。俄国防部称，这次发射的目的是“测试洲际弹道导弹的先进弹头”。国防部指出，这种弹头能在各种飞行条件下突破反导系统。测试数据将用于研制俄罗斯未来弹道导弹集群装备的突防工具。图为俄罗斯白杨洲际弹道导弹《国防》杂志主编伊戈尔·科罗琴科认为，发射“白杨”是为了检验这种正在战斗值班的导弹是否可靠。他在接受卫星广播电台的采访时说：“战略火箭兵还在装备新的RS-24‘亚尔斯’导弹。如今，固体燃料导弹将决定战略火箭兵对潜在敌人的威慑力。”科罗琴科说，俄罗斯未来还将装备RS-26“边界”导弹，并研制新一代洲际弹道导弹。“白杨”是莫斯科热力工程研究所研制的三级固体燃料导弹，1982年首次试射，1988年列装。该导弹上次发射是在今年10月底的战略核力量演习期间。本文来源：参考消息网责任编辑：姚文广_NN1682"
}