{
    "Article": "（原标题：小区四楼住户晒被子失火邻居六楼隔空倒水10分钟扑灭大火）#endText.video-infoa{text-decoration:none;color:#000;}#endText.video-infoa:hover{color:#d34747;}#endText.video-listli{overflow:hidden;float:left;list-style:none;width:132px;height:118px;position:relative;margin:8px3px0px0px;}#entText.video-lista,#endText.video-lista:visited{text-decoration:none;color:#fff;}#endText.video-list.overlay{text-align:left;padding:0px6px;background-color:#313131;font-size:12px;width:120px;position:absolute;bottom:0px;left:0px;height:26px;line-height:26px;overflow:hidden;color:#fff;}#endText.video-list.on{border-bottom:8pxsolid#c4282b;}#endText.video-list.play{width:20px;height:20px;background:url(http://img1.cache.netease.com/video/img14/zhuzhan/play.png);position:absolute;right:12px;top:62px;opacity:0.7;color:#fff;filter:alpha(opacity=70);_background:none;_filter:progid:DXImageTransform.Microsoft.AlphaImageLoader(src=\"http://img1.cache.netease.com/video/img14/zhuzhan/play.png\");}#endText.video-lista:hover.play{opacity:1;filter:alpha(opacity=100);_filter:progid:DXImageTransform.Microsoft.AlphaImageLoader(src=\"http://img1.cache.netease.com/video/img14/zhuzhan/play.png\");}if(/(iPhone|iPad|iPod|Android|NETEASEBOBO|blackberry|bbd+)/ig.test(navigator.userAgent)||/safari|chrome|firefox/i.test(navigator.userAgent)&&navigator.plugins&&!navigator.plugins[\"ShockwaveFlash\"]){varstr1='<videocontrols=\"controls\"preload=\"auto\"width=\"100%\"poster=\"http://vimg3.ws.126.net/image/snapshot/2017/12/E/6/VA5QL4UE6.jpg\"style=\"max-height:100%\">';varstr2='<sourcetype=\"video/mp4\"src=\"http://flv.bn.netease.com/videolib3/1712/28/yjTfZ9834/SD/yjTfZ9834-mobile.mp4\">您的浏览器暂时无法播放此视频.</video>';document.getElementById(\"FPlayer1404863609673\").parentNode.innerHTML=str1+str2;}小区四楼住户晒被子失火邻居六楼隔空倒水10分钟扑灭大火（来源：original）window.NTES&&function(d){varf=function(c){varb=c.getAttribute(\"flashvars\"),a=c.getAttribute(\"repovideourl\").replace(\".flv\",\"-mobile.mp4\");h=d(c.parentNode.parentNode.parentNode),g='<embedsrc=\"http://v.163.com/swf/video/NetEaseFlvPlayerV3.swf\"flashvars=\"'+b+'\"allowfullscreen=\"true\"allowscriptaccess=\"always\"quality=\"high\"wmode=\"opaque\"width=\"100%\"height=\"100%\"type=\"application/x-shockwave-flash\"/>';if(/(iPhone|iPad|iPod|Android|NETEASEBOBO|blackberry|bbd+)/ig.test(navigator.userAgent)){g='<videocontrols=\"controls\"preload=\"auto\"width=\"100%\"height=\"100%\"><sourcetype=\"video/mp4\"src=\"'+a+'\">您的浏览器暂时无法播放此视频.</video>';}h.$(\".video\")[0].innerHTML=g;},e=function(b){vara=d(b.parentNode.parentNode.parentNode);a.$(\"li\").removeCss(\"on\"),b.addCss(\"on\"),a.$(\".video-title\")[0].innerHTML=\"string\"==typeofb.textContent?b.textContent:b.innerText,a.$(\".video-title\")[0].setAttribute(\"href\",b.getAttribute(\"url\")),a.$(\".video-from\")[0].innerHTML=\"（来源：\"+b.getAttribute(\"source\")+\"）\",f(b);};window.continuePlay=function(){vara,b=d(d(\".video-list.on\")[0].nextSibling);3==b.nodeType&&(b=d(b.nextSibling));if(b&&d(\".video-innerinput\")[0].checked){e(b);}},function(){vara={init:function(){if(d(\".video-listli\")[0]){d(d(\".video-listli\")[0]).addCss(\"on\"),this.eventBind();}},eventBind:function(){d(\".video-listli\").addEvent(\"click\",function(b){e(d(this)),b.preventDefault();});}};a.init();}();}(NTES);近日，宿迁某小区住户在窗外晾晒的被子突然着起火来，更糟糕的是该住户家里还没人。好在邻居们急中生智，从楼上往下浇水灭火，最终化解了险情。当天中午12点左右，小区4楼的一户阳台上，晾晒在窗外的两床被子突然着火。周边邻居大声呼救后，发现这户业主并不在家。情况紧急，相继赶到的邻居们商量之后，决定从6楼阳台往下倒水灭火。经过大家接力浇水，不到10分钟的时间，4楼阳台的火被扑灭。经过检查，户主家两床被子被烧，阳台框架也被烧变形。好在扑救及时，火势未蔓延至室内，没有造成更大损失。目前，起火原因还在进一步调查当中。本文来源：看看新闻Knews责任编辑：程钢_NN7377",
    "Source": "Netease",
    "KeyWords": "阳台,住户,被子",
    "Title": "小区4楼住户晒被子失火 邻居6楼隔空倒水10分钟扑灭_网易新闻",
    "Comment": {
        "Total": 1360,
        "Content": "被子怎么着火的？ 嫌疑就是5楼这两户，还有就是跑到楼顶的人。9成以上是烟头。 很多这样的人....说他们还很得意....越说越丢 南京法官去乌鲁木齐调研了？ 好多这种人。 嫌疑最大 六楼的烟头嘛，救火理所应当！ 晾在衣架上的被子会自燃？估计是楼上的原因. 住楼上抽烟者，十有八九如此 刚咬牙买了800块的书桌椅，早上起床就被楼上扔的烟头烫了个洞！[大哭] 看看新闻到现在还是AV一样的画质？而且还是各种角度的AV画质 傻逼，5楼扔的！人家好心救火，你们缺脑子吧 要么太阳底下可以烤肉，要么被烟头点了~~~ 据我观察，棉被自杀！✔ 扔烟头的吧 原因就是楼上乱扔烟头所致 好歹也是戴罪立功 抽烟都这德行，我楼上就是，跟我上班那家伙也是 要不就是楼上丢烟头 楼上有人扔烟头吧…… 也许是他乱扔烟头引发火灾，所以他才第一时间发现和扑救，你们觉得呢？ 楼上扔的烟头吧？ 对9成是这样的！晒被子自己能起火？ 和我想得一样 是不是有人将烟头扔到上头了 你见过被子被晒着了的？ 楼上的肯定丢烟头下去了 站在阳台上抽烟！ 镜子 基本上是吧。<br>我看我们对面楼上也是烟头烟灰往下面丢的。 免费到家回收不要的东西啰！ 有道理啊 为什么着火，肯定是楼上扔烟头烧的 中国好邻居 没烟头能着？ 缺德，弄个烟灰缸不就得了，真垃圾这人 多半是的 乱丢烟头真是个坏习惯 5-66楼楼嫌疑最大！ 我小姨家就是这样被烧了一回，还好只烧了阳台，垃圾 你们猜这家住户会不会起诉浇水的人了，让他们赔偿损失 估计是楼上抽烟的丢烟头，以前在广州租房，楼上就许多往窗外丢烟头，投诉无用，天天说他他越是这么干，我们都是把那边窗子关死，有一户人不在窗子打开通风，窗子边堆了些易燃物，然后这楼上哥们照常往外面丢，烟头刚好弹跳到那家里，于是烧了起来..<br>警方介入调查后，丢烟头那哥们已经跑了... 两个傻逼！没看到人家是在楼顶浇的水！！！ 估计就是楼上的丢烟头着了 吸烟有害健康…… 两个可能还一个可能是楼下嫌弃楼上的被子挡住了下面的采光什么的 5楼扔烟头，引发火灾。找5楼赔！！ 要么太阳底下可以烤肉，要么被烟头点了~~~ 世界需要热心肠耶[羞羞][羞羞][羞羞] 南京法官去乌鲁木齐调研了？ 特么的基本上是事实。哥德巴赫猜想都没有这么准的 嫌疑最大 应该是烟头引起的，被子不可能晒起火 5楼扔的，窗都开着 我有一次抖烟灰结果一松，把烟头掉下去了，然后我也吓到接水去冲。 六楼的烟头嘛，救火理所应当！ 很漂亮 住楼上抽烟者，十有八九如此 你们凭什么说是楼上扔烟头导致的，没准是三楼抽烟扔烟头导致的，老子扔烟头都是往上弹～～ 看看新闻到现在还是AV一样的画质？而且还是各种角度的AV画质 1楼说的没错啊，窗子边上又不走电线，何况是窗子外面的晾衣架。唯一可能就是天台上有人抽烟，烟头往下扔到被子上了。 没事跑楼顶干啥呢？ 大冬天的烤什么肉，就是烟头或者透镜聚焦 我也是这么想的 谁特么丢的烟头，严查，没人就连坐！马德真缺德…… 很多这样的人....说他们还很得意....越说越丢 不管是不是他弄的，毕竟还是第一时间弥补了过错，损失一床被子和栏杆。至少不像放火的，自己跑了把别人留在了火场。 透镜聚焦只能是对面楼，可距离太远了，不可能呀。 好歹也是戴罪立功 远水解不了近渴 楼上有人扔烟头吧…… 一般这种情况都是烟头的原因吧 也许是他乱扔烟头引发火灾，所以他才第一时间发现和扑救，你们觉得呢？ 中国好邻居 告诉小区管理啊 和我想得一样 远亲不如近邻 你小姨人怎么样？ 不管什么原因不过还好浇灭了 你见过被子被晒着了的？ 流星月亮地球太阳系有发动机么？没有!他们却高速在宇宙中运行!为什么？因为他们的运行轨道本身就是太空高速时空隧道!他们的运行路线一半为去路一半为来路，周而复始地运行着!地球自转公转着，本就没有东西南北上下左右等方位!谁定的？我们的天父啊!目的只有一个，告诉人类我们天父的星座方位!所以九曲桥的方向始终对着东北方!在宇宙一切物质中，永远是子体围绕母体运动，这是恒定的!所以地球自转并围绕太阳公转!因地球是自转公转的，所以根据地球的东西南北是找不到星外文明的星座方位的!只有找到太阳的上下前后东西南北才能准确地给天父星座方位定位!我们天父星座方位在太阳系东北上方第九颗恒星那里!那里以双伴恒星为中心带动周围108颗恒星运动着! 就是5楼这家害人精！ 站在阳台上抽烟！ 凉在外面的被子着火？ 还好及时扑灭了 真相啦 绝逼是丢烟屁股啊 楼上有一家不是扔烟头就是往下扔垃圾。素质真是...... 为什么着火，肯定是楼上扔烟头烧的 别再看不起AV，现在AV都是4k画质了 兄弟你太认真了，我只是在讲笑话 雷锋精神 没烟头能着？ 缺德，弄个烟灰缸不就得了，真垃圾这人 点赞，至少不是那种看热闹的等火烧大 傻逼，5楼扔的！人家好心救火，你们缺脑子吧 所以我是高级黑，看见我的标签没有 乱丢烟头真是个坏习惯 赶紧抢四楼坐等五楼干三楼，。[狗] 对9成是这样的！晒被子自己能起火？ 估计是楼上抽烟的丢烟头，以前在广州租房，楼上就许多往窗外丢烟头，投诉无用，天天说他他越是这么干，我们都是把那边窗子关死，有一户人不在窗子打开通风，窗子边堆了些易燃物，然后这楼上哥们照常往外面丢，烟头刚好弹跳到那家里，于是烧了起来..<br>警方介入调查后，丢烟头那哥们已经跑了... 两个傻逼！没看到人家是在楼顶浇的水！！！ 远水解不了近渴。 真的一粒米养大百样人，什么素质的人都有，连卫生巾都往下扔，烟头这些更不算什么了。 被子怎么着火的？ 嫌疑就是5楼这两户，还有就是跑到楼顶的人。9成以上是烟头。 要么太阳底下可以烤肉，要么被烟头点了~~~ 太阳火力太猛 也许是你用嘴巴喷的火呢？ 肯定不是自燃，宿迁这时候温度没那么高 楼上吸烟者的烟头？ 晾在衣架上的被子会自燃？估计是楼上的原因. 楼上烟头 刚咬牙买了800块的书桌椅，早上起床就被楼上扔的烟头烫了个洞！[大哭] 好吧 舍己报仇！ 跑回安徽 小编又在胡编，明明是5楼顶楼上浇水！ 据我观察，棉被自杀！✔ 扔烟头的吧 抽烟的有时候在抽烟的时候手贱 原因就是楼上乱扔烟头所致 不是你们点的火🔥，你们为什么要去救火？ 要不就是楼上丢烟头 是不是有人将烟头扔到上头了 也许是他乱扔烟头引发火灾，所以他才第一时间发现和扑救，你们觉得呢？ 5楼的死杂种抽烟 楼上扔的烟头吧？ 你们猜这家住户会不会起诉浇水的人了，让他们赔偿损失 我也是这么想的，扔了一个烟头 扑灭及时保整幢楼的安全 阳台着火基本都是楼上丢的烟头 楼上乱丢烟屁股的结果 楼上的肯定丢烟头下去了 镜子 基本上是吧。<br>我看我们对面楼上也是烟头烟灰往下面丢的。 眼看着都要过年了，你别找活行不？ 不用调查了，楼上的扔烟头 冬天这太阳想烤肉很难啊 估计就是楼上的丢烟头着了 多半是的 我家就这样烧过。不过是自己发现的。把被子都烧了。气的我老妈骂好几天 必须的，不信去南京！ 5-66楼楼嫌疑最大！ 一定是被子上有不明液体然后长时间被太阳光照射产生了一种叫白磷的半透明固体与阳光结合所以燃烧了起来，你问我为什么知道，因为我前面全他妈是瞎编的，我编不下去了 估计是楼上抽烟的丢烟头，以前在广州租房，楼上就许多往窗外丢烟头，投诉无用，天天说他他越是这么干，我们都是把那边窗子关死，有一户人不在窗子打开通风，窗子边堆了些易燃物，然后这楼上哥们照常往外面丢，烟头刚好弹跳到那家里，于是烧了起来..<br>警方介入调查后，丢烟头那哥们已经跑了... 免费到家回收不要的东西啰！ 有道理啊 有可能是故意为之，毕竟放大镜随处可得 不用查，肯定楼上乱扔烟头造成的 ",
        "Reply": 107,
        "Link": "http://comment.news.163.com/news_shehui7_bbs/D6NU1J1D0001875P.html"
    },
    "PublishTime": "12/28/201708:51:51",
    "URL": "http://news.163.com/17/1228/08/D6NU1J1D0001875P.html"
}