{
    "Article": "网易体育12月27日报道：节礼日，喜庆的日子，但曼联却在自己的主场老特拉福德和伯恩利踢成2-2。上半场，曼联一度0-2落后。赛后，穆里尼奥又一次暗示对手赢球靠运气，但他也无奈的指出曼联不能总活在辉煌的历史中，得认清眼下的事实。他认为曼联还得继续买人，要学习曼城那种不讲理的烧钱方式。上半场比赛，曼联踢得一团糟，竟然被对手连进两球，场边的穆里尼奥脸色非常难看。好在，他和弟子在下半场连扳两球，避免了一场失利。如果曼城本轮比赛继续赢球，曼联将落后同城死敌14分之多，这几乎是一个天堑。但被问起曼联这样的大俱乐部是否会为落后曼城这么多而感到失落的时候，穆帅表示：“我们得搞清楚2个概念，大球会和强大的球队这两者是有区别的。（暗示曼联目前只是大球会，但不是强大的球队）。我们还在重建的第二年，我们不是这个世界上最好的球队之一。”“当你们在说一家俱乐部是大球会的时候，这只能反映它的历史，而不是现状。”穆里尼奥说道。他自认为曼联的实力已经称不上一流。执教曼联以来，穆帅已经在转会市场花掉3亿镑巨资。记者问他如何评价这件事情，穆帅立刻回应道：“好吧，这显然是不够的。大球会买人和一般球会是不一样的。一般情况下，有着优秀历史的俱乐部通常会在转会市场上因为它的历史而受到惩罚。”曼城买人非常的土豪，穆帅很是羡慕，他希望曼联也能这样：“看看曼城，他们拿买前锋的钱去买后卫（指曼城太土豪）。”随后，有记者问他曼联这个冬窗是否会买人时，穆帅没有回答，而是离开了发布会现场。对于今天的比赛结果，穆帅感到很遗憾。曼联拥有71%的控球，而且射门多达23次，但依然无法赢球。穆帅表示：“我们应该赢的。我满意球队下半场的表现。我的弟子在0-2的情况下展开了反攻，我对他们很满意，没什么可挑剔的。我必须表扬他们的战斗力。”当被问起对手怎么会连进2球的时候，穆帅暗示对手主要靠运气：“我也不知道他们怎么靠定位球就进球了，球在禁区里连续反弹（指对手的第一个进球），让人无奈。我们最近丢了好多这样的球。在进球后，他们防守了95分钟。而且，他们的第二脚射门又进球了。”“我不知道怎么说了。一支球队只有1.5脚射门（将对手的任意球射门算成0.5次射门）就进了2个球，另一支球队控制了比赛，创造了很多机会，下半场只留一个后卫，占据了绝对优势，但只进了2个球。嗯，我的球队应该赢球的。”穆帅说道。本文来源：网易体育作者：风过乡责任编辑：姚成浩_NS4810",
    "Source": "Netease",
    "KeyWords": "穆帅,曼城,曼联,大球会",
    "Title": "烧3亿还不够!穆帅:得学曼城买人 对手进球靠运气_网易体育",
    "Comment": {
        "Total": 6933,
        "Content": "是的，明年曼城要是没大手笔了，就说明重建完成了，阵容稳定，磨合的更熟练更默契了，真的会很可怕，虽说英超其他球队的大巴战术会让曼城踢的困难，但也会让其他几个豪门更困难，相比起来，曼城破大巴的水平明显要高于其他诸强的 说句心里话，黑人不能买，他们太容易满足太容易分心了，我年前一看怎么曼联前面全是黑人了，应感觉这队没戏了。 无敌的鸟粪，还说瓜预定曼城，瓜都争着要，鸟一直是备胎，曼联要签瓜瓜不去，鸟写了六页纸的自荐信才签的，一到瓜和鸟都赋闲的时候鸟就悲剧，丢人啊 瓜买了13个人花了4亿，穆鸟买了7个人花了3.2亿，年轻的伊布瓜都不用，更别说养老的伊布老头了。瓜买的基本上都打出了超过身价的水平，现在卖出去肯定是涨了不少。反而穆鸟买一堆黑又硬，能不能保本还难说<br><br>傻逼，没有对比就没有伤害。你鸟爹花钱买的在他手下算贬值了，瓜秃子买的潜力股都升值了。继续为你鸟爹洗 说的有道理瓜迪奥拉来了先不说成绩怎么样曼城在世界足坛的影响力肯定大幅度提升这个东西不是你得了冠军就能提升的弄了一堆年轻的配合还极其流畅未来5年曼城在英超买不了多少人了一年买俩最多了个别位置调调 一楼的车迷，难道不该把一责任分一半给阿布吗？阿布急功近利，自然也找急功近利型教练，嘴上说着“车子梦”实际没冠军立马炒人。你车子卖出年青球员是阿布穆鸟联手杰作。 楼上说曼城冠军的，尼玛曼城上一次冠军都是1314年赛季的事了，瓜接手时平均年龄都28.5岁了，英超最老，五大联赛第七老的球队，还尼玛争冠，争四都困难。 球盲，牛逼。。。。哈哈 13楼傻逼球盲鸟粪废物，瓜秃什么时候提前宣布签约了还有不和拜仁续约？鲁梅尼格和你-嘛说的批评瓜秃？哈哈 10年破车球迷看不下去了……穆犬买人不敢恭维！关键是它卖的人让人心痛啊；丁丁、萨拉赫、卢卡库、许尔勒、夸德拉多……尼玛穆婊不会用不代表不是好球员！还有碧莲bb说买人！mmp 鸟粪简直尼玛丧心病狂，无耻不要脸的东西各种洗 曼联迷≠鸟粪，不知道有多少曼联球迷不赞成穆鸟的。 这世上不要脸还能活到现在的也只有无耻的鸟粪了 曼联在厨师莫耶斯加废物墓表花的钱第一多，不许说鸟粪们的废物嘢爹不好，不然你就是巴沟，没赢球是球员内鬼责任，哈哈赛季前预测的东西慢慢实现了，傻逼球盲废物鸟粪们给它们的废物嘢爹穆表败人品现在遭报应了，又让弱队虐了，不过傻逼球盲鸟粪们会意银说曼联没有输就是胜利，3亿打造的脏笔龟公功夫任人虐槽还不够，必须要6亿，一招龟公大巴足球业余教练都会，却被傻逼球盲鸟粪们吹上天，现实里没有能力的废物专门靠假大空和意银，笑看墓表曼联四大皆空，不过鸟粪会意银曼联砸这么多钱就是为了欧联杯和联赛杯的，每天点漕傻逼球盲鸟粪们么比，哈哈。坐等废物墓表被炒鱿鱼打鸟粪们的沟脸。 你家瓜吊，还在拜仁就想着去曼城了，最后一年就买人为瓜吊了 对联赛副班长还要摆大巴，曼联的脸都丢成啥样，鸟粉们心里没个b数？<br>曼联现在的球根本就没什么传切配合，短传渗透，进攻基本就是抡大脚找黑大硬，进攻套路如此简单、难看，不知道这教练是怎么有脸拿那么高的薪水的。 看了球的都知道，以前的曼联可不是曼切斯特传中队，唉 鸟粪不是说木鸟不需要好球员也肯定能出成绩的吗，怎么比曼城少花几个英镑都要比较了<br>花钱跟曼城比觉得花的很不够，成绩跟切尔西利物浦比觉得很傲娇，真有意思 现在的曼联和现在的曼城全面比较。比进攻，曼城完胜；比防守，差不多，曼城让了俩5000万的斯通斯和门迪，曼联让个3800万的拜利；比身价，买入价看主力身价曼联大于曼城，替补曼城大于曼联；比花钱，差不多，曼城两年多花4000万相当于一个替补B席的钱；比好看，曼城完胜；比新人，曼城完胜；比球员上限开发，曼城完胜；比现有阵容利用，曼城完胜；比历史，曼联完胜；比摆大巴，曼联完胜；比打嘴仗，曼联完胜；比找借口，曼联完胜；比不让对手庆祝，曼联完胜。所以请曼联以后几样你们完胜的为荣，不要总喊曼城花钱多阵容好，花钱上曼城只有一丁点的优势，阵容上的优势是打出来的，不是买出来的 这些球盲，懂个屁，28岁都叫老,28岁正是出成绩的时候，去看看一些著名的球星的战绩就可以证明了，而且平均年龄28说明这个球队年龄结构很合理，新老结合，再去查查历届欧冠冠军的球队的平均年龄也可以证明，跟球盲聊球,累，还得普及基础知识。 他们赖，这样的球员，不摆大巴，你教我怎么踢！！！还要买买买！！ 鸟粪双标真可笑 你问我服不服曼城，我不服，我是曼联球迷，你问我曼城可不可怕，我觉得不可怕，我是曼联球迷，但是我要说两句：<br>第一，木鸟你的打法有没有过时我不知道，但是一旦被人研究透了，再加上两个赛季买人也是在补充你的打法，在不变，曼联难！<br>第二，有人觉得瓜迪奥拉几个亿说换就换，这不恐怖，恐怖的是如果曼城明年开始，没有大手笔的砸钱，那最恐怖可能就来了！ 你看球才一年?最多2年。瓜秃如何去曼城的都不知道。当年在拜仁搞的鲁梅尼格公开批评瓜秃自己宣布去曼城，导致拜仁和曼城都垮了。沛公在曼城至少是功勋教练，当时整容就是冠军阵容，平均年龄28岁老你妹。。你懂球不？28岁叫老 买再多的人有什么用，还不是前锋当后卫用！如果靠拼命买人的话，我去也能拿冠军。 你这个反骨车婊，回家去吧 那边利物浦渣叔来了总共买了8个人只花了1.7亿，目前只落后5分 楼上是眼瞎，瓜来之前那年，人还在拜仁，曼城就官宣，当时曼城当时联赛积分是第一，结果官宣后，成绩马上滑落下来，听说是主教练被分心了，本来人家准备那年拿冠军的，可见曼城本来阵容好不好了。 本人算一个，曼联老球迷，很讨厌鸟粪 呵呵，德布劳内，当年你看不上眼的人，曼城有大卫席尔瓦，你也有马塔，基本上一个水准，曼城有费尔南迪尼奥，你有博格巴，甚至博格巴还要更好一些，曼城前面有快马斯特林，萨内，热苏斯，你也有马夏尔，拉什福德，姆希塔良，你还有个强壮的卢卡库，还说人不行？你把马夏尔，拉什福德，姆希塔良让瓜执教看看 楼上个傻逼，曼城这么吊，联赛说拿就拿，换啥教练?积分第一，尼玛鸟粪和鸟一样，睁眼说瞎话，沛公因为四大皆空下的课，下课以后由助理教练代班，后来曼城才把瓜挖过来。现在是互联网时代，还他妈睁眼瞎。 你懂个毛，穆帅的曼联就是这样漂亮 渣叔带队，我记得第一年还是第二年就参加了联盟杯……然后亚军<br>没有得到欧冠资格<br>单线作战，上赛季勉强得到第四名……<br>你看看穆里尼奥成绩如何？ 看鸟粪回复，就像笑话一样，没事没事，他们洗涤，鸟负责输，平，下课，被打脸，双簧啊 曼城现在就后腰中卫比较薄弱，各补一个。中锋位置阿圭罗不稳定有可能还要买人，其他位置都很稳定了，中场替补京多安，B席完全可以和丁丁席尔瓦轮换。年轻的小将那个迪亚兹个人能力也很强。所以瓜迪奥拉得花钱属于一步到位型的。而且更加重要的是瓜迪奥拉来了以后曼城商业价值大幅提升，会给曼城带来大幅度的收入提升，到时候他们可能会出现钱太多花不完的情况。 别提渣叔，虽然我也很喜欢渣叔，但是渣叔不换后防人员和守门员永远别想夺冠，至于曼城花四亿是什么情况?把冠军球队成员基本全卖了。曼联什么情况拿着别人的球员将就的用。换言之瓜秃的四亿不用也是冠军，曼联不花欧冠资格都未必有 谁说曼联重建的，不知道的还以为是升班马 花这么多钱，不如给莫耶斯4年时间！弗格森亲自选的接班人，难道弗爵爷是脑残吗？ 曼联球迷真是丑陋，穆帅怎么打你都不满意！曼联就是一个坑 看的护瓜宝如果气急败坏，太开心了。哈哈 伯恩利第一个进球，穆龟认为是瞎几把弹，最后弹进了球网，那邻家的的扳平球不也是瞎几把弹，穆龟这厮，从未见过如此厚颜无耻之人！ 你魔是什么概念，弗格森后花了6。6亿英镑，居然现在还在重建，这只能说鼠目寸光，看不准人，或者根本就不会用人。别人一买一个准。 这傻逼鸟屎😄平均年龄28岁多不叫老？你他妈就是个纯傻逼 “本赛季表现出色的伯恩利上轮主场0-3惨败给热刺，人员缺损是主要原因：主力后卫塔科夫斯基停赛（本场继续停赛），主力门将希顿、主力后卫沃德和主力中场布雷迪都因伤缺席，上轮比赛中还伤了头号射手伍德。伯恩利阵容是比较单薄的，替补实力比起主力有较大差距，本场曼联可以说运气不错。” 跟买一个队的确实不能比 楼上把鸟粪不要脸的特色发挥得淋漓尽致。。 这锅甩的漂亮，反正不赢球不是劳资的责任[喷水] 你说反了吧赢老四的时候鸟粪们很满意啊说场面难看赢了就行足球就是看比分今晚平了鸟粪们又说虽然平了但是场面很好看啊怎么不满意了？ 不是瞎子都看的到那年联盟杯的裁判表演，渣叔带的球队不论阵容还是投入比曼联如何？上赛季的亿建联又是第几？ 果然是对手运气好[晕][晕][晕] 谁能告诉我，夏窗净投入第一是谁啊？ 为什么鸟总是说些自相矛盾的话？<br>前几轮被摁在地上摩擦时可不是这么说的。 “鸟你花了好多钱啊。”<br>“瓜花的比我更多！”<br>“那瓜积分比你高很多啊。”<br>“孔克温波积分比我低！”<br>“那他们花的钱没你多啊。”<br>“瓜花的比我更多！”<br>“那瓜积分比你高很多啊。”无限循环 凡是墓里尿说的话，都对。 你们依然都没意识到楼是如何被鸟粪故意带偏的 其实最牛🐮碧的是你，你既然不是曼城球迷还把曼城搞得那么清楚，真是为了黑上心了。在这个互不见面的对骂游戏里只有一个失败者，稍微不脑残你就知道是谁了。 洗...使劲洗...我看你们这些鸟粪能不能把Fuckoff洗成welcome.... 坐等穆鸟曼联生涯结束的日子 卢卡库不会防守，不是把球顶给对方，就是踢向自己大门。 听不懂吗？曼城的阵容本来就好，现在转会市场球员价格一年一个价，好好想想阿奎罗，斯特林，丁丁，喜娃，萨内，孔帕尼，图雷那一个当年转会不是接近创造当年转会的记录价格入手的? 瓜买了13个人花了4亿，穆鸟买了7个人花了3.2亿，年轻的伊布瓜都不用，更别说养老的伊布老头了。瓜买的基本上都打出了超过身价的水平，现在卖出去肯定是涨了不少。反而穆鸟买一堆黑又硬，能不能保本还难说<br><br>傻逼，没有对比就没有伤害。你鸟爹花钱买的在他手下算贬值了，瓜秃子买的潜力股都升值了。继续为你鸟爹洗 人家瓜秃花的钱没比你多多少吧，人家踢的什么样，你踢的什么样，心里没点数吗？像曼城一样买人？你有人家的眼光吗？你有人家调教进攻的能力吗？半个赛季下来，进攻越来越差，纯粹靠蒙，干完这个赛季滚蛋吧 大破城平均年龄当时28.9.，后防线全是32岁以上老人，英超平均年龄第一老的球队，在铁血龟粪的嘴里居然不是老年队，真的看球费电。 学曼城买人没问题，但你能不能也学曼城踢球？踢得好看还能拿三分 三个冠军？鸟粪当时不是嘲笑人家阿森纳社区盾不是冠军么？怎么放到你们身上就成冠军了？哦，鸟粪都是双标狗。。 大破城买人有针对性，知道自己需要什么样的人，一买一个准，你魔也在买人，全是没有目的的瞎买，不知道自己需要什么样的人 10年破车球迷看不下去了……穆犬买人不敢恭维！关键是它卖的人让人心痛啊；丁丁、萨拉赫、卢卡库、许尔勒、夸德拉多……尼玛穆婊不会用不代表不是好球员！还有碧莲bb说买人！mmp 楼上真的蠢到家了，脑子真缺点东西，别人说平均年龄28.9岁，是英超阵容第一老的球队。看球真的费电 曼联真的踢得太复杂了，没有巴萨的传控却像巴萨那样踢 这世上不要脸还能活到现在的也只有无耻的鸟粪了 对啊,德布劳内在佩莱时代就是牛逼了.而且没官宣钱人家佩莱带的是积分榜第一,如果不是瓜秃搅局,没准还是联赛冠军. 这个bitch怎么越来越烦他。喜欢曼联不喜欢穆鸟！ 2500万欧能买科斯塔? 图赫尔来吧 这个你也知道了?现在的曼联和几年前能一样? 瓜秃来之前,人家工程师拿了2个联赛冠军,年年投入,而且还一直冠军不是曼城也是冠军的有力争夺者.切尔西夺冠那年也是第二. 是8楼眼瞎还是你是睁眼瞎，拜仁官宣主教练是有传统的，都是提前官宣，大破城官宣的时候，大破城积分第一？你真的是看球费电 为什么鸟总是说些自相矛盾的话？<br>前几轮被摁在地上摩擦时可不是这么说的。 这些球盲，懂个屁，28岁都叫老,28岁正是出成绩的时候，去看看一些著名的球星的战绩就可以证明了，而且平均年龄28说明这个球队年龄结构很合理，新老结合，再去查查历届欧冠冠军的球队的平均年龄也可以证明，跟球盲聊球,累，还得普及基础知识。 厉害 关键是曼联每个引援要比曼城贵一倍，同样是买人，给瓜帅一个亿能买仨，穆婊只能买一个 说你sb你还不承认当时就算排第一就一定能拿冠军吗前6积分差多少知道吗你以为是拜仁啊欧冠创历史皇马还欧冠卫冕了了今年怎么样 我们喜欢瓜迪奥拉，是因为他的球队能踢出我们喜欢看的流畅的进攻配合，能培养出突破能力极强的巨星，能打造双冠甚至三冠王，我很好奇，鸟粪们，你们真的喜欢看穆里尼奥带队打出的足球风格吗？后卫基本不前插，中场都是黑又硬，前锋永远都是所谓的支点，靠高速两翼来下底传中，这一套早就过时了啊！很纳闷你们喜欢他什么呢？是因为他嘴臭人贱吗？我不能理解假如你们真的是球迷为什么会喜欢一个反足球的教练 你看球才一年?最多2年。瓜秃如何去曼城的都不知道。当年在拜仁搞的鲁梅尼格公开批评瓜秃自己宣布去曼城，导致拜仁和曼城都垮了。沛公在曼城至少是功勋教练，当时整容就是冠军阵容，平均年龄28岁老你妹。。你懂球不？28岁叫老 我可没说曼城阵容废，鸟粪一直说瓜去曼城是只是拴🐶冠？就她吗真眼说瞎话 鸟买人其实也还准，只是他战术单一，不会用人，功利心太强，只会摆大巴 你这个反骨车婊，回家去吧 楼上是眼瞎，瓜来之前那年，人还在拜仁，曼城就官宣，当时曼城当时联赛积分是第一，结果官宣后，成绩马上滑落下来，听说是主教练被分心了，本来人家准备那年拿冠军的，可见曼城本来阵容好不好了。 哈哈😄，倒数第一十几年都没变呢，骂街依然西部第一。年年超巨，年年倒数第一，真是报应。 草拟吗,第二,成绩不行,难道不继续买?牛逼就把穆鸟辞了.换帅,不换帅只能砸钱,要么能他妈怎么样?继续让你们吹逼? 呵呵，德布劳内，当年你看不上眼的人，曼城有大卫席尔瓦，你也有马塔，基本上一个水准，曼城有费尔南迪尼奥，你有博格巴，甚至博格巴还要更好一些，曼城前面有快马斯特林，萨内，热苏斯，你也有马夏尔，拉什福德，姆希塔良，你还有个强壮的卢卡库，还说人不行？你把马夏尔，拉什福德，姆希塔良让瓜执教看看 搞的你鸟阵容不好一样，博格巴，卢卡库不要钱啊，不比上面贵?打不过曼城就算了，被中下游球队按着摩擦，靠德赫亚和球员能力偷鸡，什么鬼? 这赛季没有希望了，下赛季再来！ 只买不卖，这智商?转会净投入2500万欧元每年 卧槽，这种傻逼也能做教练 是你在说，曼城原来的阵容渣，又老又废，想跟你普及下知识。你又转移话题，算了，我看你就是想找个人喷，不陪你了 赢不了就是没钱，赢了就是自己牛逼 跟买一个队的确实不能比 就喜欢你这种不要脸的甩锅精神。 这嘴巴，呲呲呲[窃笑][窃笑][窃笑] 其实作为观众而言还是喜欢看瓜的攻势足球其实曼联球迷也期望瓜这样的教练！至少打法配得上豪门身份，而不是大巴车！ 愤青 分对手是谁，，也不总是给摁着摩擦的。。 门德斯手里的球员正高价待沽,等着曼联出手 那你觉得现在瓜屌的曼城领先15分比不上佩大师的曼城咯？或者是说差不多？？ 找理由 感觉穆鸟是不是黔驴技穷了把曼联带的一点豪门球队的感觉都没去[喷水][喷水][喷水] 哈哈哈，亿建联的投入只为了米老鼠三冠王，他抬还真是钱多人傻 前一场说对手靠运气，这一场上天立刻打面，用你的方法让你靠运气打平。。。还有什么好说 都不想看manu了。。 15楼鸟粪开始说钱没花到位，现在又在扯佩莱格尼里下课问题。鸟粪的特质发挥的淋漓尽致。你跟他说战术，打法，不和你扯金钱，投入。你和他谈，金钱，投入，他和你扯主力伤停，你和他谈主力伤停，他和你扯历史 这逼吹的,摩纳哥5000万一个,都被挖空了吧?沃克5000万一个吧?斯通斯?三千万也就买个赫苏斯. 鸟粪就是这样的人，脸皮比城墙厚，你说东，他说不过你，他胡扯西，鸟和他的粪就是这样的厚颜无耻，他们的脸连女人的屁股都不如 哈哈😄，倒数第一十几年都没变呢，骂街依然西部第一。年年超巨，年年倒数第一，真是报应。 门德斯就算了吧,最近门德斯没啥好好球员了.不过门德斯一直为球员考虑. 这就是典型的躺在功劳簿上睡大觉吧 看不懂话，就别接话了，回的累 费格逊时代的曼联不是这种气质的 再怎么样，也有国米和波尔图的欧冠，没有的少BB，有本事去国米和波尔图拿个欧冠？ 穆鸟不滚，大曼联的百年基业要毁了。 穆里尼奥集结世界最佳11人试试 是的，明年曼城要是没大手笔了，就说明重建完成了，阵容稳定，磨合的更熟练更默契了，真的会很可怕，虽说英超其他球队的大巴战术会让曼城踢的困难，但也会让其他几个豪门更困难，相比起来，曼城破大巴的水平明显要高于其他诸强的 欧联冠军已经证明完了，其它就别想了[大笑][大笑][大笑] 曼联在厨师莫耶斯加废物墓表花的钱第一多，不许说鸟粪们的废物嘢爹不好，不然你就是巴沟，没赢球是球员内鬼责任，哈哈赛季前预测的东西慢慢实现了，傻逼球盲废物鸟粪们给它们的废物嘢爹穆表败人品现在遭报应了，又让弱队虐了，不过傻逼球盲鸟粪们会意银说曼联没有输就是胜利，3亿打造的脏笔龟公功夫任人虐槽还不够，必须要6亿，一招龟公大巴足球业余教练都会，却被傻逼球盲鸟粪们吹上天，现实里没有能力的废物专门靠假大空和意银，笑看墓表曼联四大皆空，不过鸟粪会意银曼联砸这么多钱就是为了欧联杯和联赛杯的，每天点漕傻逼球盲鸟粪们么比，哈哈。坐等废物墓表被炒鱿鱼打鸟粪们的沟脸。 琢目鸟早就精神分裂了[大笑][大笑][大笑] 是啊！也不知是怎么算的？<br>曼龟20轮积43分，仅比切尔西多1分，曼城19轮积55分，如果今晚的比赛继续连胜(概率很大)，就是58分呀 德国球队一般不会玩儿什么放水，看看当年拜仁打里斯本竞技。。拜仁和德国国家队都会很认真的对待比赛。最后一轮，拜仁可能不会和曼城拼命，但是绝对不会放水 无敌的鸟粪，还说瓜预定曼城，瓜都争着要，鸟一直是备胎，曼联要签瓜瓜不去，鸟写了六页纸的自荐信才签的，一到瓜和鸟都赋闲的时候鸟就悲剧，丢人啊 曼联在厨师莫耶斯加废物墓表花的钱第一多，不许说鸟粪们的废物嘢爹不好，不然你就是巴沟，没赢球是球员内鬼责任，哈哈赛季前预测的东西慢慢实现了，傻逼球盲废物鸟粪们给它们的废物嘢爹穆表败人品现在遭报应了，又让弱队虐了，不过傻逼球盲鸟粪们会意银说曼联没有输就是胜利，3亿打造的脏笔龟公功夫任人虐槽还不够，必须要6亿，一招龟公大巴足球业余教练都会，却被傻逼球盲鸟粪们吹上天，现实里没有能力的废物专门靠假大空和意银，笑看墓表曼联四大皆空，不过鸟粪会意银曼联砸这么多钱就是为了欧联杯和联赛杯的，每天点漕傻逼球盲鸟粪们么比，哈哈。坐等废物墓表被炒鱿鱼打鸟粪们的沟脸。 瓜买了13个人花了4亿，穆鸟买了7个人花了3.2亿，年轻的伊布瓜都不用，更别说养老的伊布老头了。瓜买的基本上都打出了超过身价的水平，现在卖出去肯定是涨了不少。反而穆鸟买一堆黑又硬，能不能保本还难说<br><br>傻逼，没有对比就没有伤害。你鸟爹花钱买的在他手下算贬值了，瓜秃子买的潜力股都升值了。继续为你鸟爹洗 太尊重人了！！！我代表鸟来敲门！ 1亿的博格巴。进球还没奥塔门迪多，哈 如果主场再拿不下瓦伦，博阿斯不下课就没天理了。 你除了会失明还会什么国王杯皇马和巴萨至少是四六开的皇马罗把握住了机会巴萨没把握住机会这就是足球的魅力打对攻就输5个穆里尼奥的皇马对巴萨确实只有走他在切尔西的打法巴萨才会害怕 昨晚下半场踢得还是不错的，中场很有控制力，证明之前不上马塔跟塔良简直是作死，中场最有创造力的两个人，被鸟粪骂成狗了，证明鸟粪看球的眼光真是不一样 13楼傻逼球盲鸟粪废物，瓜秃什么时候提前宣布签约了还有不和拜仁续约？鲁梅尼格和你-嘛说的批评瓜秃？哈哈 不喜欢一个人或者一只球队，为什么要看他们的新闻，然后评头论足？ 说句心里话，黑人不能买，他们太容易满足太容易分心了，我年前一看怎么曼联前面全是黑人了，应感觉这队没戏了。 蓝军红魔本赛季不妙啊，曼城出具的可能性那么大，力争英超了，欧冠西超二强拜仁。。。。 曼城四亿买了13个，曼联3.2亿买了7个伊布一块钱转会费我就不说了。 英超首发平均年龄最大，欧洲五大联赛第七，不老?难道是支年轻的生力军？ 球盲，牛逼。。。。哈哈 曼联在厨师莫耶斯加废物墓表花的钱第一多，不许说鸟粪们的废物嘢爹不好，不然你就是巴沟，没赢球是球员内鬼责任，哈哈赛季前预测的东西慢慢实现了，傻逼球盲废物鸟粪们给它们的废物嘢爹穆表败人品现在遭报应了，又让弱队虐了，不过傻逼球盲鸟粪们会意银说曼联没有输就是胜利，3亿打造的脏笔龟公功夫任人虐槽还不够，必须要6亿，一招龟公大巴足球业余教练都会，却被傻逼球盲鸟粪们吹上天，现实里没有能力的废物专门靠假大空和意银，笑看墓表曼联四大皆空，不过鸟粪会意银曼联砸这么多钱就是为了欧联杯和联赛杯的，每天点漕傻逼球盲鸟粪们么比，哈哈。坐等废物墓表被炒鱿鱼打鸟粪们的沟脸。 看了球的都知道，以前的曼联可不是曼切斯特传中队，唉 曼联在厨师莫耶斯加废物墓表花的钱第一多，不许说鸟粪们的废物嘢爹不好，不然你就是巴沟，没赢球是球员内鬼责任，哈哈赛季前预测的东西慢慢实现了，傻逼球盲废物鸟粪们给它们的废物嘢爹穆表败人品现在遭报应了，又让弱队虐了，不过傻逼球盲鸟粪们会意银说曼联没有输就是胜利，3亿打造的脏笔龟公功夫任人虐槽还不够，必须要6亿，一招龟公大巴足球业余教练都会，却被傻逼球盲鸟粪们吹上天，现实里没有能力的废物专门靠假大空和意银，笑看墓表曼联四大皆空，不过鸟粪会意银曼联砸这么多钱就是为了欧联杯和联赛杯的，每天点漕傻逼球盲鸟粪们么比，哈哈。坐等废物墓表被炒鱿鱼打鸟粪们的沟脸。 要是鸟联赛四连冠欧冠一轮游也会被鸟粪吹上天的 鸟粪不是说木鸟不需要好球员也肯定能出成绩的吗，怎么比曼城少花几个英镑都要比较了<br>花钱跟曼城比觉得花的很不够，成绩跟切尔西利物浦比觉得很傲娇，真有意思 为什么鸟总是说些自相矛盾的话？<br>前几轮被摁在地上摩擦时可不是这么说的。 恩，漂亮，191阵容老子开了眼，打哈德斯菲尔德都得摆大巴，那么喜欢大巴当司机多好 穆尼尼奥水平讲真话也就i普通教练好那么一点点，哪一点点呢？就是鼓舞士气这一点，但是技战术业务水平确实像坨屎，我和朋友赌了500元钱，三年内穆尼尼奥离开曼联，看来我快赢了 曼联在厨师莫耶斯加废物墓表花的钱第一多，不许说鸟粪们的废物嘢爹不好，不然你就是巴沟，没赢球是球员内鬼责任，哈哈赛季前预测的东西慢慢实现了，傻逼球盲废物鸟粪们给它们的废物嘢爹穆表败人品现在遭报应了，又让弱队虐了，不过傻逼球盲鸟粪们会意银说曼联没有输就是胜利，3亿打造的脏笔龟公功夫任人虐槽还不够，必须要6亿，一招龟公大巴足球业余教练都会，却被傻逼球盲鸟粪们吹上天，现实里没有能力的废物专门靠假大空和意银，笑看墓表曼联四大皆空，不过鸟粪会意银曼联砸这么多钱就是为了欧联杯和联赛杯的，每天点漕傻逼球盲鸟粪们么比，哈哈。坐等废物墓表被炒鱿鱼打鸟粪们的沟脸。 差距根本不足8000万，瓜买人同时也卖了不少。具体有人统计过，反正曼联也没少花多少。这个借口真没意思 傻逼鸟，越来越恶心了 你这标题有意思。上一场赢的热刺是什么 你除了会失明还会什么国王杯皇马和巴萨至少是四六开的皇马罗把握住了机会巴萨没把握住机会这就是足球的魅力打对攻就输5个穆里尼奥的皇马对巴萨确实只有走他在切尔西的打法巴萨才会害怕 哈哈13楼这鸟粪们球盲真是一群不看球的废物，拜仁求着瓜秃签约，瓜秃为了不影响大家没有提前说签约曼城好吗，也没有提前说和拜仁续约好吗，鲁梅尼格什么时候批评瓜秃了？哈哈我就喜欢打傻逼球盲废物鸟粪们的沟脸 嗯，花的还是太少 究竟要买什么人才满足啊，我的天啊 不管怎么说鸟就是瓜备胎全世界虐鸟最多就是瓜 你懂个毛，穆帅的曼联就是这样漂亮 蓝军红魔本赛季不妙啊，曼城出具的可能性那么大，力争英超了，欧冠西超二强拜仁。。。。 这哥们儿已经被逼得精神分裂了。 运气得多么不待见你。。。。 跟买一个队的确实不能比 欧联冠军已经证明完了，其它的啥欧冠英超之类的冠军近些年就别想了 说的有道理瓜迪奥拉来了先不说成绩怎么样曼城在世界足坛的影响力肯定大幅度提升这个东西不是你得了冠军就能提升的弄了一堆年轻的配合还极其流畅未来5年曼城在英超买不了多少人了一年买俩最多了个别位置调调 嗯?这是啥意思?范加尔刚刚表扬了费莱尼的表现,但说当然那个进球有运气的成分 13楼傻逼球盲鸟粪废物，瓜秃什么时候提前宣布签约了还有不和拜仁续约？鲁梅尼格和你-嘛说的批评瓜秃？哈哈 13楼傻逼球盲鸟粪废物就是嘴硬，瓜秃什么时候提前宣布签约了还有不和拜仁续约？鲁梅尼格和你-抹说的批评瓜秃？哈哈 曼城实力比曼联强，花钱比曼联多。成绩比曼联好也正常。不花四亿，佩公都能双冠王，欧冠四强。何况瓜还提拔了曼城青训，摄政王，诺天王门迪，沃克等，瓜太厉害了。马上就追上佩公的成绩了！！ 你问我服不服曼城，我不服，我是曼联球迷，你问我曼城可不可怕，我觉得不可怕，我是曼联球迷，但是我要说两句：<br>第一，木鸟你的打法有没有过时我不知道，但是一旦被人研究透了，再加上两个赛季买人也是在补充你的打法，在不变，曼联难！<br>第二，有人觉得瓜迪奥拉几个亿说换就换，这不恐怖，恐怖的是如果曼城明年开始，没有大手笔的砸钱，那最恐怖可能就来了！ 曼联在厨师莫耶斯加废物墓表花的钱第一多，不许说鸟粪们的废物嘢爹不好，不然你就是巴沟，没赢球是球员内鬼责任，哈哈赛季前预测的东西慢慢实现了，傻逼球盲废物鸟粪们给它们的废物嘢爹穆表败人品现在遭报应了，又让弱队虐了，不过傻逼球盲鸟粪们会意银说曼联没有输就是胜利，3亿打造的脏笔龟公功夫任人虐槽还不够，必须要6亿，一招龟公大巴足球业余教练都会，却被傻逼球盲鸟粪们吹上天，现实里没有能力的废物专门靠假大空和意银，笑看墓表曼联四大皆空，不过鸟粪会意银曼联砸这么多钱就是为了欧联杯和联赛杯的，每天点漕傻逼球盲鸟粪们么比，哈哈。坐等废物墓表被炒鱿鱼打鸟粪们的沟脸。 牛逼，联赛积分第一，官方宣布主教练赶紧下课，阿布也不会这么干，小报拿来当新闻看。瓜迪奥拉拜仁最后一个赛季国内联赛杯赛双冠叫垮了？还看球，我看你就是天天自媒体新闻看球？至于拜仁欧冠问题，三冠那一年拜仁高光，罗本，刀疤两翼都健康，众志成城，时隔12年才终于捧杯，搞的拜仁不夺欧冠就是失败一样，也不看看投入，瓜在拜仁每年2500欧元投入，能联赛4连冠就可以了，还想怎样。 “如果曼城本轮比赛继续赢球，曼联将落后同城死敌14分之多，这几乎是一个天堑。”<br>我怎么觉得，曼城明天凌晨要是赢了，该领先15分？ 因崔思婷 马桶全体球迷感谢鸟清理了杀拉黑 谁说曼联重建的，不知道的还以为是升班马 楼上把鸟粪不要脸的特色发挥得淋漓尽致。。 重建不是一朝一夕完成，加油吧 我厂哭了 阿森纳球迷老球迷想知道老曼联球迷对此事有何看法 对手进球靠自家球员助攻 曼联在厨师莫耶斯加废物墓表花的钱第一多，不许说鸟粪们的废物嘢爹不好，不然你就是巴沟，没赢球是球员内鬼责任，哈哈赛季前预测的东西慢慢实现了，傻逼球盲废物鸟粪们给它们的废物嘢爹穆表败人品现在遭报应了，又让弱队虐了，不过傻逼球盲鸟粪们会意银说曼联没有输就是胜利，3亿打造的脏笔龟公功夫任人虐槽还不够，必须要6亿，一招龟公大巴足球业余教练都会，却被傻逼球盲鸟粪们吹上天，现实里没有能力的废物专门靠假大空和意银，笑看墓表曼联四大皆空，不过鸟粪会意银曼联砸这么多钱就是为了欧联杯和联赛杯的，每天点漕傻逼球盲鸟粪们么比，哈哈。坐等废物墓表被炒鱿鱼打鸟粪们的沟脸。 瓜迪奥拉，穆里尼奥接手的时候曼城第四，曼联第五曼城只是净胜球比曼联多而已。 曼联在厨师莫耶斯加废物墓表花的钱第一多，不许说鸟粪们的废物嘢爹不好，不然你就是巴沟，没赢球是球员内鬼责任，哈哈赛季前预测的东西慢慢实现了，傻逼球盲废物鸟粪们给它们的废物嘢爹穆表败人品现在遭报应了，又让弱队虐了，不过傻逼球盲鸟粪们会意银说曼联没有输就是胜利，3亿打造的脏笔龟公功夫任人虐槽还不够，必须要6亿，一招龟公大巴足球业余教练都会，却被傻逼球盲鸟粪们吹上天，现实里没有能力的废物专门靠假大空和意银，笑看墓表曼联四大皆空，不过鸟粪会意银曼联砸这么多钱就是为了欧联杯和联赛杯的，每天点漕傻逼球盲鸟粪们么比，哈哈。坐等废物墓表被炒鱿鱼打鸟粪们的沟脸。 我不知道为啥老是安排卢卡库参与门前防守，他的防守一团糟啊。直接助攻曼城两个，昨天又直接助攻了一个。曼联看起来个子高，其实抢点并没有优势，曼联唯一有高空优势就是爆炸头！！！这多钱买博格巴我觉得是乱花钱了，真的不值！目前前场需要一个能拿球串联的。马塔有一定的能力，但是经常中场拿球被断打反击。姆希塔良也不知道是怎么了 要有自己的风格和传承性，以前蓝月亮也拿过英超，但从来没人就会把蓝月亮当豪门来看，球队没底蕴，没风格 呵呵了，作为一个曼联球迷，醉了 7500的库卡库在当后卫用，还是助攻型的后卫。助攻对方的 一分钱一分货啊 比如摄政王 鸟上次说了7个运气之后，现在接着说球在禁区里连续反弹，咋不说自己最后一个球也是弹了好多下才绝杀的呢 買來的人都去踢後衛啦 鸟你要脸吗你的后卫多少钱买的林德漏百里充话费送的吗难道不比小耶稣贵吗英超转会最高的中锋在哪个队最贵的中场在哪个队不要脸到鸟这种程度也是够了 穆鸟开始认怂了！感觉力不从心了！！！ 哦，对了，补充一句当年曼城还进了欧冠四强 曼联第一个失球老问题了，失一个可能是运气，但一而再再而三就不是运气问题这么简单了。曼联这赛季不知道怎么搞的，一堆大高个定位球防守却这么差。 每次都说对手进球靠运气，这真不应该是一个顶级豪门的教练所说出来的话，还说人家是1.5次射门，这真是为曼联招黑来的 瓜买了13个人花了4亿，穆鸟买了7个人花了3.2亿，年轻的伊布瓜都不用，更别说养老的伊布老头了。瓜买的基本上都打出了超过身价的水平，现在卖出去肯定是涨了不少。反而穆鸟买一堆黑又硬，能不能保本还难说<br><br>傻逼，没有对比就没有伤害。你鸟爹花钱买的在他手下算贬值了，瓜秃子买的潜力股都升值了。继续为你鸟爹洗 铁血传中[喷水][喷水] 垃圾废物曼联穆鸟🐦都是垃圾废物曼联穆 mvp都被你买光了，还想怎么样？ 7500万买了个叛徒。哎，这钱花的没谁了。 人家那一脚任意球是运气？ 那球感觉谁进都比他容易!这么快反应!脚也不慢不容易啊 你这个66666 鸟粪不是说木鸟不需要好球员也肯定能出成绩的吗，怎么比曼城少花几个英镑都要比较了<br>花钱跟曼城比觉得花的很不够，成绩跟切尔西利物浦比觉得很傲娇，真有意思 吸引仇恨保护球员 现在的曼联和现在的曼城全面比较。比进攻，曼城完胜；比防守，差不多，曼城让了俩5000万的斯通斯和门迪，曼联让个3800万的拜利；比身价，买入价看主力身价曼联大于曼城，替补曼城大于曼联；比花钱，差不多，曼城两年多花4000万相当于一个替补B席的钱；比好看，曼城完胜；比新人，曼城完胜；比球员上限开发，曼城完胜；比现有阵容利用，曼城完胜；比历史，曼联完胜；比摆大巴，曼联完胜；比打嘴仗，曼联完胜；比找借口，曼联完胜；比不让对手庆祝，曼联完胜。所以请曼联以后几样你们完胜的为荣，不要总喊曼城花钱多阵容好，花钱上曼城只有一丁点的优势，阵容上的优势是打出来的，不是买出来的 穆鸟除了会打老年人（温格），就是找借口，枪手球迷顶我上去。 现在真正靠本事带队的教练几乎没有，都她妈是靠钱堆出来的。以前爵爷在的时候哪有这样花钱，成绩不照样杠杠的 关键是曼联每个引援要比曼城贵一倍，同样是买人，给瓜帅一个亿能买仨，穆婊只能买一个 可能穆听到了邵佳一对于德布劳内的评价所以完全放弃了 沛公时期竞争对手除了同样土豪的车子还有就是没落中的曼联，现在的热刺，利物浦，车子，曼联，阿森纳就是同一水平，已经不能跟曼城相提并论，现在瓜在英超一个对手都没有。 [微笑][微笑][微笑][微笑] 楼上是眼瞎，瓜来之前那年，人还在拜仁，曼城就官宣，当时曼城当时联赛积分是第一，结果官宣后，成绩马上滑落下来，听说是主教练被分心了，本来人家准备那年拿冠军的，可见曼城本来阵容好不好了。 呵呵，德布劳内，当年你看不上眼的人，曼城有大卫席尔瓦，你也有马塔，基本上一个水准，曼城有费尔南迪尼奥，你有博格巴，甚至博格巴还要更好一些，曼城前面有快马斯特林，萨内，热苏斯，你也有马夏尔，拉什福德，姆希塔良，你还有个强壮的卢卡库，还说人不行？你把马夏尔，拉什福德，姆希塔良让瓜执教看看 你懂个毛，穆帅的曼联就是这样漂亮 看了球的都知道，以前的曼联可不是曼切斯特传中队，唉 总要买了达尼洛，其它的都是浮云。我已看破一切。当然瓜也看到这点了。 木鸟现在已经成怨妇了？啥都甩锅？别人进球都是运气，他补时扳平就是应该的？看看伯恩利的积分榜位置吧~这样越描越黑，听说曼联高层也对他不满了，一只世界顶级俱乐部，整天嘲讽来嘲讽去，有意思吗？ 林德洛夫3500，拜利3000，曼城的门迪和斯通斯还有沃克都5000了吧。 跟买一个队的确实不能比 花这么多钱，不如给莫耶斯4年时间！弗格森亲自选的接班人，难道弗爵爷是脑残吗？ 垃圾废物曼联穆鸟🐦都是垃圾废物曼联穆鸟🐦🐦🐦都是垃圾 伯恩利第一个进球，穆龟认为是瞎几把弹，最后弹进了球网，那邻家的的扳平球不也是瞎几把弹，穆龟这厮，从未见过如此厚颜无耻之人！ 你魔是什么概念，弗格森后花了6。6亿英镑，居然现在还在重建，这只能说鼠目寸光，看不准人，或者根本就不会用人。别人一买一个准。 好像从来就没有看到过他说是自己的责任 楼上的人家在喷鸟呢，怎么把六亿都算在鸟头上 关键是自己买回来还说不好用，都是废物，水平比不上曼城球员，不是教练能力问题！ 理想是美好的，现实是残酷的。。。。哪怕巴萨，皇马，拜仁，这些长期不衰的豪门，也不能保证每个位置都是世界级，每个替补都是球星。。。。。。完美？不可能的。 酷!不愧是英国铁杆球迷!你那下雨没? 林加德好用，拉师傅真是拉稀依旧 你们依然都没意识到楼是如何被鸟粪故意带偏的 自己进的定位球就不是运气，都是平时训练的好，教练功劳 曼城实力比曼联强，花钱比曼联多。成绩比曼联好也正常。不花四亿，佩公都能双冠王，欧冠四强。何况瓜还提拔了曼城青训，摄政王，诺天王门迪，沃克等，瓜太厉害了。马上就追上佩公的成绩了！！ 不要脸 谁能告诉我，夏窗净投入第一是谁啊？ 之前都是抓内奸，现在都是对手运气好。 不知廉恥 摄政王也不错啊，只是上赛季不适应 🐦：蒙的，别以为我不知道 鸟粪们只要一输球马上就能回归理性和客观了！这一点你都不懂吗？ 卢卡库不适合在本方的禁区，连续几轮助攻了 不要脸 其实最牛🐮碧的是你，你既然不是曼城球迷还把曼城搞得那么清楚，真是为了黑上心了。在这个互不见面的对骂游戏里只有一个失败者，稍微不脑残你就知道是谁了。 原地站桩，都不去争抢，怕背锅，只有一个起跳的，后来被众多魔迷骂脑残，下次估计他也不跳了 是的，明年曼城要是没大手笔了，就说明重建完成了，阵容稳定，磨合的更熟练更默契了，真的会很可怕，虽说英超其他球队的大巴战术会让曼城踢的困难，但也会让其他几个豪门更困难，相比起来，曼城破大巴的水平明显要高于其他诸强的 前几天输曼城的时候，还在说只要有了博格巴，如何如何…… 没错，不过光有黑又硬，意志力和强度还远远不够，还必须结合真性情的心理战，武术，摸脸，下阴脚，草皮撒沙子，停车场堵裁判，更衣室牛奶大战，插眼等盘外招才能发挥出最大功效。 枪手踢曼联的时候射门射正都是曼联四倍却输了球，鸟可没说过曼联很幸运。 真是不喜欢木鸟性格，特么的对方只要赢了都是运气，自己赢了就是发挥怎么怎么好，双标严重到爆炸 莫耶斯的时候是吧ԅ(¯﹃¯ԅ) 佛格森最后一个赛季的阵容比这个差远了吧 穆里尼奥快退休吧，水平越来越差 瓜买了13个人花了4亿，穆鸟买了7个人花了3.2亿，年轻的伊布瓜都不用，更别说养老的伊布老头了。瓜买的基本上都打出了超过身价的水平，现在卖出去肯定是涨了不少。反而穆鸟买一堆黑又硬，能不能保本还难说<br><br>傻逼，没有对比就没有伤害。你鸟爹花钱买的在他手下算贬值了，瓜秃子买的潜力股都升值了。继续为你鸟爹洗 为什么鸟总是说些自相矛盾的话？<br>前几轮被摁在地上摩擦时可不是这么说的。 你这种人不看球的，就不要瞎扯蛋。有很多东西不是战术能左右的还是要看球员发挥，有些比赛球员按教练要求了但是就是被动，挨打就可能是战术问题。比如这场平局，2个都是任意球，一个直接打死角这和教练有关系吗？另一个传到禁区第一个没人顶到，然后一片混战被进了个这也能怪教练?踢过足球的都知道，很多时候球员一刹那的判断就决定一个球的结果。 呵呵，德布劳内，当年你看不上眼的人，曼城有大卫席尔瓦，你也有马塔，基本上一个水准，曼城有费尔南迪尼奥，你有博格巴，甚至博格巴还要更好一些，曼城前面有快马斯特林，萨内，热苏斯，你也有马夏尔，拉什福德，姆希塔良，你还有个强壮的卢卡库，还说人不行？你把马夏尔，拉什福德，姆希塔良让瓜执教看看 鸟粪就这德行；摆事实讲道理被打脸！就人身攻击！先回去看看你女马两腿间的蝴蝶是不是在吃香肠吧！ 你说反了吧赢老四的时候鸟粪们很满意啊说场面难看赢了就行足球就是看比分今晚平了鸟粪们又说虽然平了但是场面很好看啊怎么不满意了？ 那不一定，估计全世界的小妖都在我厂了。5年后估计能卖出5个亿。 一口新锅：俱乐部投入不足 10年破车球迷看不下去了……穆犬买人不敢恭维！关键是它卖的人让人心痛啊；丁丁、萨拉赫、卢卡库、许尔勒、夸德拉多……尼玛穆婊不会用不代表不是好球员！还有碧莲bb说买人！mmp 林加德进的才是运气 这也是曼联现在最气人的地方，明明是争冠的牌面，却只想踢不丢分的场面，魔鬼赛程最先掉队的，可能是我抬… 为何打阿森纳14连扑，打伯恩利被1.5次射门丢俩球[大笑][大笑][大笑]。木有鸟也是够神奇的。被人摁着打反而厉害，摁着别人打就不会打了[大笑][大笑][大笑]。唯一能赢木有鸟的办法就是要比他会摆大巴。。。 舅服你 曼联球迷真是丑陋，穆帅怎么打你都不满意！曼联就是一个坑 温老头看人比穆不识丁要强1000倍 一会儿控球率成了鸟粪衡量球队水平高低的指标了？ 前锋有内马尔和苏牙内斯就好了 对手太幸运，上次也是这样说的。 现在博格巴和伊布回来，他又说了其他借口，你说赢不了冠军是钱不够，我不反驳，但你连续被两只弱队进2球，就应该自己好好反省。 鸟粪简直尼玛丧心病狂，无耻不要脸的东西各种洗 关键是曼联每个引援要比曼城贵一倍，同样是买人，给瓜帅一个亿能买仨，穆婊只能买一个 可能穆听到了邵佳一对于德布劳内的评价所以完全放弃了 你说对手运气不错，忘了自己是怎么幸运平利物浦，幸运赢热刺阿森纳和布莱顿的？ 你这个反骨车婊，回家去吧 技术贴啊，顶一个，瓜帅打法也没怎么变，现在的曼城人员也不能和昔日的巴萨比，还打得这么好，说明瓜帅的体系还是厉害一点。 穆下一站北京国安央-企有钱有权好比皇马在西甲 客观来说，要不是伯恩利进了两球退回去防守，靠鸟的人战术，能有这样的控球率？就是打保级队都只能捞到6成的控球率！ 意思是说阿森纳输得也挺冤？ 看了球的都知道，以前的曼联可不是曼切斯特传中队，唉 还是怕犀利的反击，曼城现在控球还是没有巴萨稳，控球多还是怕失误的 三亿啊，温格会去淘宝淘几十个小妖回来。 跟买一个队的确实不能比 左勾拳，右弯刀 不是大巴队？ 砸继续砸一直砸到击败曼城我还就不信了看着吧明年夏天至少再砸2亿英镑砸到把冠军砸出来为止 这3亿如果拿给温格，他都不知道怎么花 说相声啊 你战术这么屌怎么不叫梅西去当守门员。 你问我服不服曼城，我不服，我是曼联球迷，你问我曼城可不可怕，我觉得不可怕，我是曼联球迷，但是我要说两句：<br>第一，木鸟你的打法有没有过时我不知道，但是一旦被人研究透了，再加上两个赛季买人也是在补充你的打法，在不变，曼联难！<br>第二，有人觉得瓜迪奥拉几个亿说换就换，这不恐怖，恐怖的是如果曼城明年开始，没有大手笔的砸钱，那最恐怖可能就来了！ 问题是曼城真的不怕大巴 “我不知道怎么说了。一支球队只有1.5脚射门（将对手的任意球射门算成0.5次射门）就进了2个球，另一支球队控制了比赛，创造了很多机会，下半场只留一个后卫，占据了绝对优势，但只进了2个球。嗯，我的球队应该赢球的 你他妈的是教练，你还不知道，无耻 最后一段话是来搞笑的吗[大笑][大笑][大笑] 昨天看了曼联的比赛，说实话球员个人能力都很强。梅西他娘左边底线突破造犯规那球完全可以看出来他的能力。拉什福德有个左路扣过来的射门被后卫门线救险也是绝对能力的体现。两个边路都能够频道起球。这些都说明了球员是有能力的。但是为什么曼联进攻踢的那么累呢？我觉得主要在于无球状态下的跑位接应和穿插上面。昨天的曼联进攻就只有一个套路，边路传中，然后到了禁区能直接头球最好，不行就禁区乱战碰运气。缺少肋部二过一三过二的这种配合。出球以后的反差太少，边锋前锋的开会扯动也很少，这样导致中场很难传身后球。还有一点就是曼联没有落后的时候进攻投入实在太保守，进攻都是要从后场开始发动，我们都知道进攻最有威胁的都是前场抢断以后的就地反击，现在曼联的这些人员没有那么强大的奔跑冲刺能力，前锋是卢卡库，防守的时候你让他到禁区争头球，反击的时候他还怎么冲的上去呢？以前木鸟在皇马为什么反击犀利，因为那时候皇马都是速度型快马。c罗，天使，厄齐尔，本泽马，包括卡卡还有个替补西班牙的叫什么来着，一溜烟的都是快马，技术又好。所以他踢的再保守，缩再后面，拿到球照样可以几秒内就威胁对方球门。但是这样的阵容是可遇不可求的，现在的曼联球员打不了这种跑轰，只能是靠配合压制。所以赛季初的时候对弱队，依靠个人能力可以把那些球队一顿胖揍各种4:0。但是打着打着穆里尼奥越来越保守，阵型越摆越后，场面越来越难看。 给你这个高级黑点赞👍，没有球队会满意一个不赢球的球队 一场球是运气，两场球也算是运气，那三场球呢？这样理解那曼城也是运气，不是运气好连胜十几场，拿个毛的半程冠军 看球的都知道，特么上半场卢卡库，大奉先一起上，啥子意思？我只听说过对位换人，没听说过对位两人一起上 谁赢曼狗难道不是运气吗？摆了双层巴士还能进球难道不是运气吗？ 必须银行存个定期 但曼联破大巴不行哦，曼联是争冠球队，每场都是要争取三分的，是要破对手大巴的 “我不知道怎么说了。一支球队只有1.5脚射门（将对手的任意球射门算成0.5次射门）就进了2个球，另一支球队控制了比赛，创造了很多机会，下半场只留一个后卫，占据了绝对优势，但只进了2个球。嗯，我的球队应该赢球的！——控球有卵用，场面占优有卵用，鸟粪们应该用这话来怼鸟 没看到鸟粪洗，倒是看到巴狗喷 “我不知道怎么说了。一支球队只有1.5脚射门（将对手的任意球射门算成0.5次射门）就进了2个球，另一支球队控制了比赛，创造了很多机会，下半场只留一个后卫，占据了绝对优势，但只进了2个球。嗯，我的球队应该赢球的 怪人？ 呵呵，我都懒得搭理你，事实上我是皇马球迷，你先看看穆里尼奥上次欧冠冠军是什么时候再来说瓜，另外不知你是否有意为之，瓜上次夺欧冠是10到11赛季，到现在也就6年吧你说成10年，还有一直退步哪只眼看到的，后面在拜仁执教也是年年四强，反观穆？给你们做点知识面的分析吧，穆里尼奥是反控球防反派的，这类型的足球哲学强调意志力和强度，属于三板斧克敌型，但是意志紧绷可以保持一段时间但不可能保持两三个赛季，黑又硬的阻截后腰也会随年龄或伤病而弱化，而瓜的哲学是精细传控，不要求太高的身体素质，也容易构建体系容易找替代者，穆的瓶颈就是越来越大的年 真不要脸了，被人摁着打的什么怎么就不说对方控球对方控制比赛对方应该蠃球呢。打弱队时又把这个当借口当遮羞布了。逻辑混乱，老是自相矛盾 “本赛季表现出色的伯恩利上轮主场0-3惨败给热刺，人员缺损是主要原因：主力后卫塔科夫斯基停赛（本场继续停赛），主力门将希顿、主力后卫沃德和主力中场布雷迪都因伤缺席，上轮比赛中还伤了头号射手伍德。伯恩利阵容是比较单薄的，替补实力比起主力有较大差距，本场曼联可以说运气不错。” 没看到鸟粪洗，倒是看到巴狗喷 他赢球真的才是靠运气 是的，明年曼城要是没大手笔了，就说明重建完成了，阵容稳定，磨合的更熟练更默契了，真的会很可怕，虽说英超其他球队的大巴战术会让曼城踢的困难，但也会让其他几个豪门更困难，相比起来，曼城破大巴的水平明显要高于其他诸强的 因为当时能烧钱的就剩下曼抬一家了（别跟我说大巴黎，人家从来p都不放一个，结果一到谈判就把大巴黎抬出来了） 那我可要说，我厂老头才花几个钱，还不是只差6分。虽然我也很讨厌穆尼尼奥（是从04欧冠的时候开始），但是这个不能这样比。 同样是买人，给瓜帅一个亿能买仨，穆婊只能买一个 。。。墙倒众人推 这些借口昨天直播间的网友已经说过了 瓜买了13个人花了4亿，穆鸟买了7个人花了3.2亿，年轻的伊布瓜都不用，更别说养老的伊布老头了。瓜买的基本上都打出了超过身价的水平，现在卖出去肯定是涨了不少。反而穆鸟买一堆黑又硬，能不能保本还难说<br><br>傻逼，没有对比就没有伤害。你鸟爹花钱买的在他手下算贬值了，瓜秃子买的潜力股都升值了。继续为你鸟爹洗 别提渣叔，虽然我也很喜欢渣叔，但是渣叔不换后防人员和守门员永远别想夺冠，至于曼城花四亿是什么情况?把冠军球队成员基本全卖了。曼联什么情况拿着别人的球员将就的用。换言之瓜秃的四亿不用也是冠军，曼联不花欧冠资格都未必有 自己控球率高了就觉得别人靠幸运了，阿森纳那场爆射那么多脚也没见你说曼联幸运 我要粉转黑了 买本泽马就不用每次为什么借口烧脑了 相比曼联，我军真是节俭小媳妇 感觉穆鸟想要达尼洛和本泽马！赶紧出手买啊 热帖都是理性客观中立网友<br>哈哈哈哈<br>特别是这些网友都很喜欢梅西，巴萨，曼城，利物浦，阿森纳，瓜迪奥拉，同时好讨厌穆里尼奥，C罗，皇马… 在进球后他们防守了95分钟，打自己脸呢 你觉得穆鸟跟鸟粪有B脸？ 鸟粪简直尼玛丧心病狂，无耻不要脸的东西各种洗 曼联迷≠鸟粪，不知道有多少曼联球迷不赞成穆鸟的。 就算给穆婊子C罗、格刀、贝尔...也改变不了摆大巴的命运 瓜花的钱在场上也不比木鸟多吧，瓜不仅抓现在，而且还抓了未来，鸟花的钱只顾现在而已！ 你问我服不服曼城，我不服，我是曼联球迷，你问我曼城可不可怕，我觉得不可怕，我是曼联球迷，但是我要说两句：<br>第一，木鸟你的打法有没有过时我不知道，但是一旦被人研究透了，再加上两个赛季买人也是在补充你的打法，在不变，曼联难！<br>第二，有人觉得瓜迪奥拉几个亿说换就换，这不恐怖，恐怖的是如果曼城明年开始，没有大手笔的砸钱，那最恐怖可能就来了！ “鸟你花了好多钱啊。”<br>“瓜花的比我更多！”<br>“那瓜积分比你高很多啊。”<br>“孔克温波积分比我低！”<br>“那他们花的钱没你多啊。”<br>“瓜花的比我更多！”<br>“那瓜积分比你高很多啊。”无限循环 曼联花的钱基本都在场上，曼城花的钱又不是全部上的，也就是曼城再怎么豪也买的不是被认为顶点的球员，怎么跟曼联成绩，打法差别这么大那？ 昨天那场球，感觉全场都是，拿球人想传球不知道传给谁，感觉都被人防死了，一点空位都没有，用伊布还不如留下鲁尼！ 凡是墓里尿说的话，都对。 这些言论透露出穆鸟被做空。 3楼说的是曼城呢，这种理性分析的楼，我喜欢。 喂，我没拿渣叔和瓜秃比，更没说利物浦想夺冠，就和鸟比投入产出，你说谁强？ 那你的主子还哭着喊着愿意来曼联 关键是曼联每个引援要比曼城贵一倍，同样是买人，给瓜帅一个亿能买仨，穆婊只能买一个 这一场球曼联是在什么时候打开局面的?是不是在对手队长受伤下场后? 法切蒂…国际米兰球迷？讨厌穆里尼奥？<br>哈哈哈哈 本人算一个，曼联老球迷，很讨厌鸟粪 4楼，人家在说曼城 呵呵，德布劳内，当年你看不上眼的人，曼城有大卫席尔瓦，你也有马塔，基本上一个水准，曼城有费尔南迪尼奥，你有博格巴，甚至博格巴还要更好一些，曼城前面有快马斯特林，萨内，热苏斯，你也有马夏尔，拉什福德，姆希塔良，你还有个强壮的卢卡库，还说人不行？你把马夏尔，拉什福德，姆希塔良让瓜执教看看 大部分球队买人都主买前锋、中场，瓜第一个选后卫然后前锋、中场而且又年轻有潜力物美价廉，到瓜手上的球员身价都是猛涨的，的确是世界第一买手 看了球的都知道，以前的曼联可不是曼切斯特传中队，唉 。。 臭不要脸的穆婊子 鸟粪们快出来洗地啦，主子一个人快撑不住了 跟买一个队的确实不能比 莫耶斯:你看不起我是吗？！😂 曼联球迷真是丑陋，穆帅怎么打你都不满意！曼联就是一个坑 确实挺幸运啊，射正两脚进两个，难道说错了?阿森纳确实不走运啊，有毛病? 五楼的意思是你魔的教练全是垃圾。 烧的钱和曼城差不多，却连曼城后视镜里的位置都抢不着<br>等你追上曼城的屁股，能跟在后面吃点灰再BB不迟！ 1.5脚射门进一个，是说射门3次，进了两个。不是任意球算0.5脚的，小便可以你理解错了 你眼睛有问题还是理解力有问题？ 曼联的禁区内二点防守一直有问题，尤其是斯莫林，有他在二点各种漏人。这家伙体格很好脑子却不好使，落点判断和盯人太差。 姆希塔良脾气够爆的，上场就要pk，裁判也给他面子，才给一张黄牌，看来是压抑坏了。 要点b脸吧，狗东西，两年净投入差了3000万。2年前天天叫嚣让他来英超教他做人，现在又在找借口人家是冠军阵容，抬联还她么英超第一豪门，收入第一，球员工资第一，艹你马鸟粪 后腰，左后卫和中卫能改善曼联泛善可陈的进攻？ 劳资第一次听说把任意球射门算成0.5次的，木鸟牛逼... 评论跟网易惊人的相似 哈哈哈如果是范厨师这个场面和比分你们这些婊子养的鸟屎能把人家祖宗十八代都给拖出来骂现在到连你鸟爹这个逼样你们这些鸟屎开始洗地了！QNMLGBDQB 你跟怨妇讲道理？ 算了吧，失望了，曼联球迷这么多年，看到现在的曼联，打法没一点血性，穆里尼奥确实不适合曼联 曼联的问题不是进攻或者防守单方面的问题，看了几场，感觉踢的很纠结，<br>不流畅，手段太单一，包括防守，没有层次，没有变化。攻击点，串联，中新不明确，可能鸟还在试探，不过从后爵爷时代的几位教练都是这样的问题。 反正下赛季也是铁定要被赶出去了，曼联高层和什么名宿难缠的要死，瓜迪奥拉当初没选曼联是对的 媒体不挑事难受。去看看原话怎么说的。太他妈贱了。就事论事好不好 球探：此人脚下技术非常细腻，球商高、视野广，可惜对抗性不好……瓜帅：年龄不超27我买。球探：此人擅长传球与队友配合，单兵作战能力不行……瓜帅：年龄不超27我买。球探：此人进攻意识强，防守能力一般，年龄19岁……瓜帅：买买买。球探：此前锋进球效率不高，但头球和抢断能力高于其他前锋……穆三亿：买。球探：此人组织能力创造力有限，拦截和破坏能力高于其他攻击性前卫……穆三亿：买。球探：黑人，身高190……穆三亿：买买买。 ",
        "Reply": 369,
        "Link": "http://comment.sports.163.com/sports2_bbs/D6LAHC1H00058781.html"
    },
    "PublishTime": "12/27/201708:32:27",
    "URL": "http://sports.163.com/17/1227/08/D6LAHC1H00058781.html"
}