{
    "PublishTime": "01/01/201820:08:59",
    "Comment": {
        "Total": 162,
        "Link": "http://comment.news.163.com/news_guoji2_bbs/D73ECBDV0001875O.html",
        "Reply": 25,
        "Content": "我也服了 摩洛哥人怎么没有死，死了就少些小偷 还是和平好，不患贫而患不安 这是恐怖袭击么 每当这种新闻发生，朝鲜人感觉和你一样 厉害 这很真清 我喂猪的时候也偶尔为一楼庆幸一下，他能吃饱饭 拒绝中东[喷水][喷水][喷水] 说实话，每次看到这种新闻就庆幸自己有一个强大的祖国。二楼好好说话。。。 我也服了 还是和平好，不患贫而患不安 绿绿牛逼，，，， 发现2018更多人关注 说的有道理，祝你生生世世轮回天朝人。 这是恐怖袭击么 也许只是放炮仗。 我也哭了 这很真清 恐怖袭击太可恨 厉害 拉登一下 新闻越短 每当这种新闻发生，朝鲜人感觉和你一样 服了一楼了，这种奴才太少啊 楼上滴意思是这是敏住滴炸弹！懂不！ 拒绝中东[喷水][喷水][喷水] 摩洛哥人怎么没有死，死了就少些小偷 说实话，每次看到这种新闻就庆幸自己有一个强大的祖国。二楼好好说话。。。 怕不怕 同情路人…… 有的礼花弹就威力挺大。 鞭炮炸的吧 唉！又是外国。 我喂猪的时候也偶尔为一楼庆幸一下，他能吃饱饭 "
    },
    "Article": "（原标题：意大利\"跨年夜\"突发自制炸弹爆炸事件致4人受伤）海外网1月1日电据俄罗斯卫星通讯社报道，当地时间“跨年夜”（2017年12月31日夜），意大利都灵市郊区发生一起自制炸弹爆炸事件，目前已经造成4人受伤。报道称，引爆的炸弹当时被藏在一个垃圾桶里，爆炸导致4名路人受伤，其中2人是摩洛哥人，另外2人是意大利人，其中1人为83岁的退休老人。爆炸还导致垃圾桶附近的4辆车受损，并震碎了附近住宅楼的30块窗户玻璃。警方在爆炸发生后搜查出另外12个自制炸弹及子弹。本文来源：海外网责任编辑：范姜国一_NN9138",
    "Source": "Netease",
    "Title": "意大利\"跨年夜\"突发自制炸弹爆炸事件 4名路人受伤_网易新闻",
    "KeyWords": "意大利,跨年夜,爆炸,炸弹",
    "URL": "http://news.163.com/18/0101/20/D73ECBDV0001875O.html"
}