{
    "Comment": {
        "Content": "操点该操的心吧 撒泡尿先照照再BB. 所谓的地王都是洗钱的幌子 这就是传说中的狗咬狗？ 人民日报说的话网反向想就对了，人民日报可是明灯啊 看清楚，这是人民日报的文章 咱们来谈谈加密货币的流通属性吧 这玩意发展的怎样大家有目共睹 房子呢？ 越BＢ越值钱[被黑][疲惫][晕][窃笑] 真没见过这样自夸的！ 你炒楼他炒币，有脸教育别人么 人日在炒作bt币 要就网易在天天发，别的地方哪里看的到？ 规模那么小如何承载世界贸易的需求，再加上孱弱的交割系统，全球一天的贸易额足够比特币系统运算五年都完不成。 编辑都是文科毕业的吧，这种科技行业的事情你们也不懂，就别bb了 4000点是股市起点，我国房价没有泡沫[狗] 舅服你！ 4000点是牛市起点才是正确投资 可以这样说吧，现实发行的人民币，美元虚拟货币都是无中生有的，用来换国家取资源的工具，当年公私合营和抢劫差不多，美其名曰——为了国家发展。<br>比特币是个骗钱的东西，但是它有它的优势，好洗钱，而且比特币数量，理论上是有上限的，前景较为稳定。<br>不像人民币，指不定哪天再发行2018年新版人民币面值100亿元。老版人民币?哦，不予回收，大家接着用！接着用！ 害怕资本外逃，急眼了 别妨碍我们兑水啊你个畜生！ 怪事了，都不承认的东西，怎么玩关你毛事？ ■人家炒的不影响个人生活和收入啊，臭不要脸的却在主导炒房、炒酒.... 凸--凸 人日这一句是明显的高级黑嘛 一万个是买披萨🍕 使劲黑，越黑越涨 来来来，咱们说说房子好吗，房子是怎么从一千涨到10万每平方的，这个10万有没有泡沫？ 人冥日爆，真不要逼脸，自己什么样，心里没点逼数吗？ 怕了吧？为了证明自己决定是对的不遗余力啊！ 1万个比特币买一个汉堡？我qnmlgb，明明人家是50个币买一个汉堡啊。人民日报也满嘴跑火车。艹。 美国的减税和加息政策终于使一切反动且愚蠢的路线露出了底裤，不是小鸡鸡露出来了 亩产万斤才正确呗？ 后悔莫及 报，你多日一下自家的事吧！<br>人玩这个，至少战果没那么大<br>你楼市搞得乌烟瘴气，毁的是国！ 茅台呢 比特币就是一种算法而已，也是一种工具。吵起来是因为无法监管，方便交易而已。其实对于美元没什么影响，主要是美元体系以外的货币比较麻烦。 表面上禁止比特交易，看现在新闻三天两头报道这么热情，就知道暗地里，都在搞，就是典型的表+牌————如果真想禁比特币，就明令所有新闻不准报道比特币的任何事情，没任何新闻没人关注自然没有交易。 求人日使劲黑，千万别停，你不黑它不涨 论投机，谁能比得过你们？ 当时一万人民币的时候说有泡沫，涨到两万美元的时候也说有泡沫[窃笑][窃笑]如果我是你，我就闭嘴🤐️ 有什么优势 不信比特币 投人民币就对了 虚拟币的超发：<br>1，在帼家纸币的世界，每一种帼家纸币都独占一块地理区域，在这块区域内，我是唯一的纸币。我通过武力（权力）让这片区域内的所有物资都和我的纸币强行野蛮绑定。<br>这块地理区域内的所有物资，就是我的纸币的价值背书。<br>--<br>比如说，我的国内有100个物资，我发型5张纸币，那么1张纸币就对应20个国内物资；我发型25张纸币，那么每张纸币就对应4个国内物资。<br>不管我发型5张还是25张，我的纸币总量都是靠国内的这100个物资来做价值背书的。<br>--------------------------------<br>2，在虚拟币的世界，所有虚拟币都供享同一个地理区域-----地球。<br>虚拟币靠惑悠，把全地球的物资和虚拟币绑定在一起，相对于权力（武力）绑定和诚信绑定而言，它的绑定力更脆弱、更不牢固。<br>在同一个地理区域内，虚拟币不是唯一的，不是独占的，比特币、瑞泰币、狗狗币、瑞波币、莱特币、以太币、达世币等等，以茩还会更多。<br>这些虚拟币同时挤在同一个地理区域内，供享----物资绑定权。<br>--<br>比如说，全地球总供有1000个物资，比特币发型了200个虚拟币，并声称总数不会增加。那么在地球区域内，一个虚拟币对应5个物资。<br>茩来，莱特币又发型了200个虚拟币，狗狗币也挤入这个市场发型了200个，以太坊也发型200个，瑞波币也发型200个。那么，地球区域内的虚拟币的实际总量就是1000个，每个虚拟币只能对应1个物资。<br>--<br>--<br>所以，虚拟币是限量的这种说法，是骗人的。 你炒楼他炒币，有脸教育别人么 舅服你！ 害怕资本外逃，急眼了 这就是传说中的狗咬狗？ 别妨碍我们兑水啊你个畜生！ ■人家炒的不影响个人生活和收入啊，臭不要脸的却在主导炒房、炒酒.... 这东西确实都是骗子在玩击鼓传花的游戏 黄金比较靠谱 大家有目共睹 每个B币五元时再过来看看 怕了吧？为了证明自己决定是对的不遗余力啊！ 呵呵 美国的减税和加息政策终于使一切反动且愚蠢的路线露出了底裤，不是小鸡鸡露出来了 亩产万斤才正确呗？ 报，你多日一下自家的事吧！<br>人玩这个，至少战果没那么大<br>你楼市搞得乌烟瘴气，毁的是国！ 投机这个词在刑法上已经去除了 a股呢 傻逼 当时一万人民币的时候说有泡沫，涨到两万美元的时候也说有泡沫[窃笑][窃笑]如果我是你，我就闭嘴🤐️ 操点该操的心吧 滚... 房子呢？ 真没见过这样自夸的！ 凸--凸 4000点是牛市起点也是你们这帮杂碎说的 规模那么小如何承载世界贸易的需求，再加上孱弱的交割系统，全球一天的贸易额足够比特币系统运算五年都完不成。 4000点是牛市起点才是正确投资 可以这样说吧，现实发行的人民币，美元虚拟货币都是无中生有的，用来换国家取资源的工具，当年公私合营和抢劫差不多，美其名曰——为了国家发展。<br>比特币是个骗钱的东西，但是它有它的优势，好洗钱，而且比特币数量，理论上是有上限的，前景较为稳定。<br>不像人民币，指不定哪天再发行2018年新版人民币面值100亿元。老版人民币?哦，不予回收，大家接着用！接着用！ 不好说 房地产不是泡沫嘛， 日人茗豹就别特么装逼说别人了。 央视没批评过楼市么一涨就开骂一骂就又涨 真金白银 击鼓传花火热进行中。然而没人接了！急。 货币这个东西，如果没有信用背书，那就是废纸，而从目前看，各国都有滥发货币的冲动，比特币则不太一样，通过一套算法，货币增量越来越少，一旦人们对本国货币不再信任，这种电子货币不失为一种选择 比特币就是一种算法而已，也是一种工具。吵起来是因为无法监管，方便交易而已。其实对于美元没什么影响，主要是美元体系以外的货币比较麻烦。 挖矿的基本上的发财了 这文章写的太业余了。。 人冥日爆，真不要逼脸，自己什么样，心里没点逼数吗？ 反正我是賺了，嘻嘻 所谓的地王都是洗钱的幌子 666啊，网易喷子真是把好心当做驴肝肺 人日这一句是明显的高级黑嘛，“所谓优越性都是投机的幌子”，人日的三个自信哪里去了？ 垄断是啥？ 人民日报说的话网反向想就对了，人民日报可是明灯啊 p报又扯淡了 咱们来谈谈加密货币的流通属性吧 投机是市场的润滑剂，没有投机就没有市场经济。 人民日报啊 1万个比特币买一个汉堡？我qnmlgb，明明人家是50个币买一个汉堡啊。人民日报也满嘴跑火车。艹。 怎么不说茅台呢? 人日在炒作bt币 要就网易在天天发，别的地方哪里看的到？ 反向操作，我有钱，我也买 一向如此 我大A股，茅台没天天涨没泡沫 洗钱货币 草泥马，到时候输得倾家荡产又来责怪政府没有打击骗子。淫民日报这是好心提醒你们这些沙比。 善者不辩，辩者不善。知者不博，博者不知。 想想背后支撑他的价值是什么？不必传销所谓的产品更有价值 人日这一句是明显的高级黑嘛 那房地产就是啤酒花 其一，是比特币利益集团选择性宣传，只大肆宣传其有利的一面，而不谈其更不利的一面；其二，是公众大部分对比特币一无所知，偏听偏信。人民日报更需要做的是把其不利的东西更多地报道出来 醋坛子翻了 4000点是股市起点，我国房价没有泡沫[狗] 有钱就买比特币 看清楚，这是人民日报的文章 一万个是买披萨🍕 来来来，咱们说说房子好吗，房子是怎么从一千涨到10万每平方的，这个10万有没有泡沫？ 国内的旷工也没见少，人家私下交易，挂个VPN你也没辙。 比特币主力肯定没在低位拿筹码，所以老说隔壁邻居不好 实在没钱买[大哭][大哭][大哭][大哭] 若问哈几巴哪里寻↓↓↓ 表面上禁止比特交易，看现在新闻三天两头报道这么热情，就知道暗地里，都在搞，就是典型的表+牌————如果真想禁比特币，就明令所有新闻不准报道比特币的任何事情，没任何新闻没人关注自然没有交易。 是呀A股没泡沫，天天跌 如果没有这么多贪官需要洗钱，如果没有这么多资本需要变相换汇通道，比特币会涨成这个样子么？ 日报没讲？ 茅台呢 求人日使劲黑，千万别停，你不黑它不涨 伊朗的事咋没任何报道？ 还是有央行的可以印钱的值钱 比特币是电子货币，但电子货币不是比特币，仅此而已，所以投不投机重要吗？没有比特币，还有尼玛币，无非是个名称而已。 先捧上天，待问题显现再批老批臭。果然是与某av一窝出来，狠日人，民 好了，知道哦了 后悔莫及 这种泡沫东西，有人赚就有人亏，到亏的时候，一夜就玩完了。 编辑都是文科毕业的吧，这种科技行业的事情你们也不懂，就别bb了 ch 使劲黑，越黑越涨 这玩意发展的怎样大家有目共睹 撒泡尿先照照再BB. 越BＢ越值钱[被黑][疲惫][晕][窃笑] 论投机，谁能比得过你们？ 怪事了，都不承认的东西，怎么玩关你毛事？ ",
        "Link": "http://comment.tech.163.com/tech_bbs/D77CMQUU00097U7R.html",
        "Reply": 98,
        "Total": 1887
    },
    "KeyWords": "比特币,货币,幌子,交易",
    "PublishTime": "01/03/201808:56:43",
    "Title": "人民日报评比特币：所谓优势都是投机的幌子_网易科技",
    "Source": "Netease",
    "Article": "（原标题：比特币，狂欢后的回归（经济透视））魏亮《人民日报》（2018年01月03日22版）在刚刚过去的2017年，暴涨暴跌的比特币，无疑成了全球最热门的话题之一：一年之内价格暴涨约20倍，一日之内深跌逾40%。新年伊始，比特币延续了近日颓势，价格跌破1.3万美元/枚，但与去年初不足千元的价格相比，比特币的价格依旧与价值背离。回想比特币最初问世乏人问津的日子，有位老兄曾用1万个比特币买了一张比萨饼，面对今天行情，有人后悔，更多的人则是担忧和疑虑：比特币的泡沫到底有多大？它是不是郁金香泡沫的翻版？比特币价格存在泡沫，已是一个无需讨论的问题，无论是从涨幅还是从币值本身看，比特币都泛滥着泡沫的味道。其所谓的优势：稀缺性、保真性、强流动性、透明度以及去中心化等，都只是投机的幌子，根本不可能支撑其过山车一样的涨势，近日的暴跌已经非常说明问题。比特币的泡沫来源之一是花样翻新的炒作。一方面是炒作比特币的神秘感，包括但不限于发明人的身世之谜、加密货币光环、总量控制不会通胀等；另一方面则是其“去中心化”的炒作，即不受任何国家、政府和金融机构控制，具有安全而又“无拘无束”的属性等。此外，比特币本身在交易机制上既无价格涨跌限制，又无完全统一的交易平台，给了投机者一夜暴富的想象空间，加上比特币分叉、代币首次发行等新玩法，一度推动了其价格的蹿升。没有价值支撑的比特币，身价何以扶摇直上？还有一种可能是存在交易共谋。沿着比特币由冷到热、币值由低到高的轨迹，我们不难发现：比特币上述那些所谓“优点”天生就有，何以一朝得势？这非常值得人们深思。据彭博社报道，时至今日，全球大约40%的比特币控制在仅约千人手中。比特币圈内人士将其称为“白鲸”。同时，从比特币发展的历史沿革看，直到其价格飞涨前夜，该币也不过是在为数不多的平台上进行“小圈子”交易。这很容易让人想到交易共谋的可能——持有大量比特币者自然拥有哄抬币价以套现的动机。比特币名为币而实非币。环顾全球，大国中仅德国认可其为近似于“私人货币”的等价物。既非货币，各国金融监管当局自然也不会像监管货币那样监管比特币。如此，比特币日渐成为游走于灰色地带的特殊“等价物”。近来，比特币及其衍生金融交易如火如荼。美国等多家交易所批准比特币期货交易，却并不监管。这给比特币披上了貌似“合法”的外衣，也使得比特币更像是17世纪荷兰的郁金香泡沫：有明确目的的“庄家”们赚得盆满钵满，盲目追捧者则甘苦自知。较之于2万美元/枚的高点，比特币的价格目前看跌幅已深，但如果未来政府加强监管，或其自身容量限制导致收缩等，比特币去泡沫的程度会更深。过去，比特币价格已有腰斩的经历，其未来走向特别值得警惕。本文来源：人民网-人民日报责任编辑：王凤枝_NT2541",
    "URL": "http://tech.163.com/18/0103/08/D77CMQUU00097U7R.html"
}