{
    "URL": "http://news.163.com/17/1229/13/D6QVTPP20001875P.html",
    "Article": "#endText.video-infoa{text-decoration:none;color:#000;}#endText.video-infoa:hover{color:#d34747;}#endText.video-listli{overflow:hidden;float:left;list-style:none;width:132px;height:118px;position:relative;margin:8px3px0px0px;}#entText.video-lista,#endText.video-lista:visited{text-decoration:none;color:#fff;}#endText.video-list.overlay{text-align:left;padding:0px6px;background-color:#313131;font-size:12px;width:120px;position:absolute;bottom:0px;left:0px;height:26px;line-height:26px;overflow:hidden;color:#fff;}#endText.video-list.on{border-bottom:8pxsolid#c4282b;}#endText.video-list.play{width:20px;height:20px;background:url(http://img1.cache.netease.com/video/img14/zhuzhan/play.png);position:absolute;right:12px;top:62px;opacity:0.7;color:#fff;filter:alpha(opacity=70);_background:none;_filter:progid:DXImageTransform.Microsoft.AlphaImageLoader(src=\"http://img1.cache.netease.com/video/img14/zhuzhan/play.png\");}#endText.video-lista:hover.play{opacity:1;filter:alpha(opacity=100);_filter:progid:DXImageTransform.Microsoft.AlphaImageLoader(src=\"http://img1.cache.netease.com/video/img14/zhuzhan/play.png\");}if(/(iPhone|iPad|iPod|Android|NETEASEBOBO|blackberry|bbd+)/ig.test(navigator.userAgent)||/safari|chrome|firefox/i.test(navigator.userAgent)&&navigator.plugins&&!navigator.plugins[\"ShockwaveFlash\"]){varstr1='<videocontrols=\"controls\"preload=\"auto\"width=\"100%\"poster=\"http://vimg3.ws.126.net/image/snapshot/2017/12/Q/6/VD5T6DBQ6.jpg\"style=\"max-height:100%\">';varstr2='<sourcetype=\"video/mp4\"src=\"http://flv.bn.netease.com/videolib3/1712/29/KmzIP5051/SD/KmzIP5051-mobile.mp4\">您的浏览器暂时无法播放此视频.</video>';document.getElementById(\"FPlayer1404863609673\").parentNode.innerHTML=str1+str2;}实拍王健林开会，每年固定给你5个亿，太霸气了（来源：~）window.NTES&&function(d){varf=function(c){varb=c.getAttribute(\"flashvars\"),a=c.getAttribute(\"repovideourl\").replace(\".flv\",\"-mobile.mp4\");h=d(c.parentNode.parentNode.parentNode),g='<embedsrc=\"http://v.163.com/swf/video/NetEaseFlvPlayerV3.swf\"flashvars=\"'+b+'\"allowfullscreen=\"true\"allowscriptaccess=\"always\"quality=\"high\"wmode=\"opaque\"width=\"100%\"height=\"100%\"type=\"application/x-shockwave-flash\"/>';if(/(iPhone|iPad|iPod|Android|NETEASEBOBO|blackberry|bbd+)/ig.test(navigator.userAgent)){g='<videocontrols=\"controls\"preload=\"auto\"width=\"100%\"height=\"100%\"><sourcetype=\"video/mp4\"src=\"'+a+'\">您的浏览器暂时无法播放此视频.</video>';}h.$(\".video\")[0].innerHTML=g;},e=function(b){vara=d(b.parentNode.parentNode.parentNode);a.$(\"li\").removeCss(\"on\"),b.addCss(\"on\"),a.$(\".video-title\")[0].innerHTML=\"string\"==typeofb.textContent?b.textContent:b.innerText,a.$(\".video-title\")[0].setAttribute(\"href\",b.getAttribute(\"url\")),a.$(\".video-from\")[0].innerHTML=\"（来源：\"+b.getAttribute(\"source\")+\"）\",f(b);};window.continuePlay=function(){vara,b=d(d(\".video-list.on\")[0].nextSibling);3==b.nodeType&&(b=d(b.nextSibling));if(b&&d(\".video-innerinput\")[0].checked){e(b);}},function(){vara={init:function(){if(d(\".video-listli\")[0]){d(d(\".video-listli\")[0]).addCss(\"on\"),this.eventBind();}},eventBind:function(){d(\".video-listli\").addEvent(\"click\",function(b){e(d(this)),b.preventDefault();});}};a.init();}();}(NTES);【一段关于王健林扶贫的老视频，王健林和贵州丹寨县长徐刘蔚犀利“交锋”】贵州丹寨县长徐刘蔚提出要万达所有利润都不带走。王健林轻轻咳嗽了一下，回说：不如我每年固定给你五个亿，然后你自己去分得了，五个亿，很简单。本文来源：第一财经日报责任编辑：范姜国一_NN9138",
    "Source": "Netease",
    "PublishTime": "12/29/201713:22:27",
    "KeyWords": "王健林,贵州,扶贫",
    "Comment": {
        "Content": "各县县长大多垃圾[喷水][喷水][喷水] 奇葩县长，这么搞，怪不得老王也要跑路 脸皮厚，敢想，敢干，敢拿，这是干部标准 宪法大还是县长大？ 这傻B县长…说话一副装B的样子 全国所有的县长以及地方官员目的就是为了敛财！在自己当官的几年捞几笔钱！ 利润不带走，还得给地方缴税，还得自己投资，这不是扶贫了，这是明抢啊，这是拿着贫困当荣誉，拿着扶贫当刀用了 老王终究还是隔壁的，迟早要还的 这些官员的嘴脸啊真是丑陋不要脸 这鸟县长呵呵 商人是做生意，不是给要饭的 县长要求你妈今晚去侍寝呢，不过分。 老板让你上班是帮他发展公司的，你居然还想拿走工资？真是个掠食者，黑心黑惯了吧 呵呵你们就这么玩吧，横竖到了要还的那一天，羊毛出在羊身上，也不用你们买单 楼上傻逼！你让我来，我就来？ 给了王健林相当的政策优惠，不然这个县长也不会提这种要求吧！ 知道什么是招商引资吗？投资要，利润全留下，别人忙活啥？给你创建了商业环境，给你了就业岗位还不满足？你能你凭空变啊。活该穷！ 臭不要脸么这不是 强盗逻辑，企业来给你发展经济不错，税收，就业，还有扶贫，都给你解决了，自己的利润还不给，自己把自己累的够呛，为了啥？搞得好像我必须帮你一样 最好他家全家女性都去侍寝 背景深厚，那么年轻的县长 这县长的表情感觉别人欠他钱似的... 还不过分？要怎样才算过分呢？ 王健林人家交税，带动经济和就业是掠夺？？ 给你创造了就业，带活当地经济。还不让人家赚钱？？？你是长得美，还是想美啊？ 县长要求万达不带走利润王健林:不如每年给你5亿！县长说：好，就按你说的办！！ 仇富思想在中国占的比例相当大，有这个做法就不足为奇了，自己不努力怪别人抢了他的饭碗，你都没办法跟他讲道理。 投资那么大，带动了人流量和当地经济还有解决了很多人就业！人家辛辛苦苦做那么多，直接说利润存个基金，吗，谁还去发展 我是做生意的，不是来做慈善的，你要搞清楚，北京人那么有钱，地那么贵，也没听说过你们帮助我们河北的贫困县， 这年头，啥人都可以当县长了哦 这县长后边肯定有人啊，年纪轻轻就坐到这个位置的，全国也没几人，当然清华北大等名校毕业的选调生除外 老王要是连县长都怕的话就不会做这么大了 那就不要打着扶贫的旗号，既然打着扶贫的旗号你赚的利润当然要留在当地发展，县长说话没毛病，直截了当，比那些官油子说话绕三圈强多了，新生代的官员就是不一样。 这货的智商也能当县长？ 傻逼。这个县是有名的穷县。要不是这小子的红色背景。王建林会被逼着去那里投资？？ 县长啊，宪法随便哪国的，街上能买得到，县长我一辈子也难得见一面 县长要求不过分。我要的是来帮我发展经济的，不是要一个掠食者。健林黑心黑惯了吧 商人谈扶贫，官员谈利润，奇葩。 问题是商人逐利，政客逐绩，各取所需，这两人商谈，只要够平衡，就没问题，双方都不是傻子 好好听清楚，这是扶贫，县长的意思是提高平均收入，王的意思是不要搞什么平均收入这种虚东西，要富有就带动全部人富起来 县长都这样，上面的更不用说了 要GDP，要平均收入高，政绩 奇葩县长，这么搞，怪不得老王也要跑路 老哥，外星人怎么弄得？ 答题，不正常人类研究中心 这个县长真好意思说出来这话，脸皮也真是够厚的。 全国所有的县长以及地方官员目的就是为了敛财！在自己当官的几年捞几笔钱！ 就是，全国那么多贫困县非来这里。这就是典型的人穷志穷。 这些官员的嘴脸啊真是丑陋不要脸 这鸟县长呵呵 商人是做生意，不是给要饭的 我也想听……我也想听 没看完视频吧，王健林都说了还不如直接给五个亿好了 所以穷的地方，活该一辈子穷[喷水] 县长的意思明白得很，你赚了那么多钱，不分一份给我的话，你没有好果子吃的！ 县长是个sb吗 辛苦干活还是想要利润的。不然人家来你家做长工[不屑] 这县长的思想太官僚了，别人企业来投资你就要求利润不能带走。我只想问，如果真的是国企，他敢这么问吗 给了王健林相当的政策优惠，不然这个县长也不会提这种要求吧！ 电影《让子弹飞》收税收到100年后 这个县长脑子有问题吗？这么可以说这么无耻话！老王别在中国干了！ 仇富思想在中国占的比例相当大，有这个做法就不足为奇了，自己不努力怪别人抢了他的饭碗，你都没办法跟他讲道理。 你先打听打听王健林靠什么起家的再说话 普通人真不行，得有手段！ 这年头，啥人都可以当县长了哦 强盗逻辑，企业来给你发展经济不错，税收，就业，还有扶贫，都给你解决了，自己的利润还不给，自己把自己累的够呛，为了啥？搞得好像我必须帮你一样 哈哈，垃圾都得到重用了 问题是商人逐利，政客逐绩，各取所需，这两人商谈，只要够平衡，就没问题，双方都不是傻子 县长要求万达不带走利润王健林:不如每年给你5亿 也就初中生。 王健林人家交税，带动经济和就业是掠夺？？ 人家是五代贫农出身，根正苗红，咋了，不服？ 当年去是为了什么？心知肚明。 打听一下，靠什么起家 这特么算是明抢吗？ 你老婆和你结婚只是让你养着她的，你居然还想啪啪啪？真是个掠食者，黑心黑惯了吧 你穷你有理 自己过得不好就仇富，总觉得是富人把天下的钱赚光了。 这sb县长什么来头啊 收税一百年！！！ 老板让你上班是帮他发展公司的，你居然还想拿走工资？真是个掠食者，黑心黑惯了吧 反正不是好东西 一个县长在王健林眼里就是个屁 外资早就该滚蛋了。你以为外资都是好东西？ 不是不赚钱，是赚的钱继续投资当地，继续赚更多的钱的同时助力当地更快发展！县长的话其实也是当地群众所想吧，提出来本来就是商量沟主动作为的表现，比那些不讲话永远不被网友喷的官员好多了。 利润不带走，去做慈善？ 这样的思路能做县长？怪不得各路富豪都在跑路， 还不过分？要怎样才算过分呢？ 你这是大清思维啊离开你谁也活不了啊 给你创造了就业，带活当地经济。还不让人家赚钱？？？你是长得美，还是想美啊？ 靠什么起家和我有什么关系！我就是就事论事罢了 看老王的表情，亮了！ 投资那么大，带动了人流量和当地经济还有解决了很多人就业！人家辛辛苦苦做那么多，直接说利润存个基金，吗，谁还去发展 假如万达是你的，你能接受吗？ 很多官员意识还停留在大清国，越往北越落后的地区越是这样 在你们地方交了税，还把利润留给你们，企业家慈善家也要养活上万员工 那就不要打着扶贫的旗号，既然打着扶贫的旗号你赚的利润当然要留在当地发展，县长说话没毛病，直截了当，比那些官油子说话绕三圈强多了，新生代的官员就是不一样。 这是防止未知风险。谁知道王健林想干嘛？万一玩一个利用政策优惠套走了钱后面一大堆擦屁股的事他不管了就跑国外了呢？你们懂个毛啊 傻逼。这个县是有名的穷县。要不是这小子的红色背景。王建林会被逼着去那里投资？？ 逐利是人的天性，也是商人的本性，只要合法，都是合理的。改革开放以前。绝对的公有，人民得到什么实惠了吗？ 这是 县长要求不过分。我要的是来帮我发展经济的，不是要一个掠食者。健林黑心黑惯了吧 商人谈扶贫，官员谈利润，奇葩。 来讲讲 这个视频我从16年看到现在要18年了？自媒体是傻逼吗？ 这县长真能说得出口 老王要是连县长都怕的话就不会做这么大了 小芝麻官都这样的贪婪嘴脸～ 脸皮厚，敢想，敢干，敢拿，这是干部标准 宪法大还是县长大？ 这样的县长真是奇才？ 老王终究还是隔壁的，迟早要还的 县长厚着脸皮为当地谋福利…… 村长一年都见不到。。别说县长大人 奇葩县长，这么搞，怪不得老王也要跑路 很不错 哈哈哈😄搞笑哦 你敢说你不是傻逼吗？ 最好他家全家女性都去侍寝 县长要求你妈今晚去侍寝呢，不过分。 自古为蛮夷之地，和山海关外可比 哈哈哈哈哈哈哈 这年头，啥人都可以当县长了哦 在这个土地上，所有的一切都是人民的，都是我们的。你们只是使用者。 县长啊，宪法随便哪国的，街上能买得到，县长我一辈子也难得见一面 牛逼 这个县长有没有30岁 好好听清楚，这是扶贫，县长的意思是提高平均收入，王的意思是不要搞什么平均收入这种虚东西，要富有就带动全部人富起来 万达水军吗 我想知道，它们有要脸的吗？ 你也不看看这个县长的背景！！！王健林还真怕。 这县长面向就是个人渣。 利润不带走，还得给地方缴税，还得自己投资，这不是扶贫了，这是明抢啊，这是拿着贫困当荣誉，拿着扶贫当刀用了 这种问题都是照读的， 只要人在中国什么都好说 从上到下都一个卵样 傻逼县长，这样的县城想富都难 县长的门槛这么低的吗？老王别生气换我上，每年500万就行 这还不过分？只能投资，不能分润，你就这条件，能找来什么样的投资者？自己玩儿蛋去吧 正处级就这个水平？ 背景深厚，那么年轻的县长 这位县长是清官,贪官那 希望中央能看看这段视频 前闻一个科长搞跨一家中型企业不难,信了.起码是要周喻打黄盖吧县长 王健林说了一次人话 这个县长祖上是响马吧 有个性 经商的不让赚钱。。。哈哈 县长要求万达不带走利润王健林:不如每年给你5亿！县长说：好，就按你说的办！！ 这县长后边肯定有人啊，年纪轻轻就坐到这个位置的，全国也没几人，当然清华北大等名校毕业的选调生除外 这傻B县长…说话一副装B的样子 这货的智商也能当县长？ 这个80后县长升职挺快的 县长要求不过分。我要的是来帮我发展经济的，不是要一个掠食者。健林黑心黑惯了吧 一无所有，王健林 这县长的表情感觉别人欠他钱似的... 各县县长大多垃圾[喷水][喷水][喷水] 比起赖茅，王健林是幸运的，几十年前的公私合营谁跟你客客气气的讲话？ 宪法大还是县长大？ 那人家企业来干嘛？活雷锋？ 补药碧莲！ 臭不要脸么这不是 知道什么是招商引资吗？投资要，利润全留下，别人忙活啥？给你创建了商业环境，给你了就业岗位还不满足？你能你凭空变啊。活该穷！ 请百度徐斌洲，你会明白的 楼上傻逼！你让我来，我就来？ 海军别搞事哟，乱评论小心给王总加乱子，知道这县长是什么来头不 全给你吧 是谁选的县长，无脑子 呵呵 县长火了！ 呵呵你们就这么玩吧，横竖到了要还的那一天，羊毛出在羊身上，也不用你们买单 我是做生意的，不是来做慈善的，你要搞清楚，北京人那么有钱，地那么贵，也没听说过你们帮助我们河北的贫困县， 哈哈，真的很好 呵呵你们就这么玩吧，横竖到了要还的那一天，羊毛出在羊身上，也不用你们买单 要脸的人是当不上的 老王的钱其实是我们老百姓的，关糸贷款！ 可以买 这县长说话没水平 向万达这样的扶贫者不如就说只会赚钱 宪法大还是县长大？ 国内不都这个套路，以前黑外国投资者，现在很多外企扛不住走了，开始黑自己国人了。 县长要求不过分。我要的是来帮我发展经济的，不是要一个掠食者。健林黑心黑惯了吧 要脸的人是当不上的 看是谁执法 县长都这样，上面的更不用说了 这年头，啥人都可以当县长了哦 ",
        "Total": 2127,
        "Link": "http://comment.news.163.com/news_shehui7_bbs/D6QVTPP20001875P.html",
        "Reply": 134
    },
    "Title": "县长要求万达不带走利润 王健林:不如每年给你5亿_网易新闻"
}