{
    "KeyWords": "成田,机场,日本,航班",
    "PublishTime": "01/02/201809:46:00",
    "Comment": {
        "Link": "http://comment.news.163.com/news2_bbs/D74TFEJS000187V9.html",
        "Content": "",
        "Total": 0,
        "Reply": 0
    },
    "Title": "日本成田机场遭炸弹威胁 一架航班被取消_网易新闻",
    "Article": "（原标题：日本成田机场遭炸弹威胁一架航班被取消）【环球网报道】1月1日下午4时50分左右，日本成田国际机场遭遇炸弹威胁，一架航班被取消。据日本媒体报道，威胁者在1日下午打电话给成田国际机场公司，列出了几架廉价航空公司的航班，声称在飞机里藏了炸弹，并要求立即停止机场跑道的扩建计划。千叶县驻机场警方随后对威胁者指出的几架航班进行搜查，但并没有发现爆炸物。警方认为，这是一场性质恶劣的恶作剧，目前正在进行调查。此外，受此影响，从成田飞往松山的407航班被迫取消。据警方透露，打电话的人十分清楚成田机场的航班信息，而且电话中的声音是一名女性的录音。本文来源：环球时报-环球网。更多精彩，请登录环球网http://www.huanqiu.com作者：屈腾飞责任编辑：王征_NN7526",
    "Source": "Netease",
    "URL": "http://news.163.com/18/0102/09/D74TFEJS000187V9.html"
}