{
    "Article": "",
    "KeyWords": "网易订阅、rss、新闻、资讯",
    "Source": "Netease",
    "Title": "he162火蜥蜴 希特勒的木头末日战斗机_网易订阅",
    "Comment": {
        "Link": "http://comment.war.163.com/news_junshi_bbs/D6ORAMVC051593PM.html"
    },
    "URL": "http://dy.163.com/v2/article/detail/D6ORAMVC051593PM.html",
    "PublishTime": "12/28/201717:23:54"
}