{
    "Article": "（原标题：董明珠谈企业家诚信和责任：一个人没诚信，别人只能帮你一次帮贾跃亭的人太多，结果他让那么多人失望）#endText.video-infoa{text-decoration:none;color:#000;}#endText.video-infoa:hover{color:#d34747;}#endText.video-listli{overflow:hidden;float:left;list-style:none;width:132px;height:118px;position:relative;margin:8px3px0px0px;}#entText.video-lista,#endText.video-lista:visited{text-decoration:none;color:#fff;}#endText.video-list.overlay{text-align:left;padding:0px6px;background-color:#313131;font-size:12px;width:120px;position:absolute;bottom:0px;left:0px;height:26px;line-height:26px;overflow:hidden;color:#fff;}#endText.video-list.on{border-bottom:8pxsolid#c4282b;}#endText.video-list.play{width:20px;height:20px;background:url(http://img1.cache.netease.com/video/img14/zhuzhan/play.png);position:absolute;right:12px;top:62px;opacity:0.7;color:#fff;filter:alpha(opacity=70);_background:none;_filter:progid:DXImageTransform.Microsoft.AlphaImageLoader(src=\"http://img1.cache.netease.com/video/img14/zhuzhan/play.png\");}#endText.video-lista:hover.play{opacity:1;filter:alpha(opacity=100);_filter:progid:DXImageTransform.Microsoft.AlphaImageLoader(src=\"http://img1.cache.netease.com/video/img14/zhuzhan/play.png\");}if(/(iPhone|iPad|iPod|Android|NETEASEBOBO|blackberry|bbd+)/ig.test(navigator.userAgent)||/safari|chrome|firefox/i.test(navigator.userAgent)&&navigator.plugins&&!navigator.plugins[\"ShockwaveFlash\"]){varstr1='<videocontrols=\"controls\"preload=\"auto\"width=\"100%\"poster=\"http://vimg3.ws.126.net/image/snapshot/2018/1/U/U/VD673EGUU.jpg\"style=\"max-height:100%\">';varstr2='<sourcetype=\"video/mp4\"src=\"http://flv.bn.netease.com/videolib3/1801/02/sXnQy7366/SD/sXnQy7366-mobile.mp4\">您的浏览器暂时无法播放此视频.</video>';document.getElementById(\"FPlayer1404863609673\").parentNode.innerHTML=str1+str2;}董明珠：格力员工住两房一厅我掏钱（来源：~）window.NTES&&function(d){varf=function(c){varb=c.getAttribute(\"flashvars\"),a=c.getAttribute(\"repovideourl\").replace(\".flv\",\"-mobile.mp4\");h=d(c.parentNode.parentNode.parentNode),g='<embedsrc=\"http://v.163.com/swf/video/NetEaseFlvPlayerV3.swf\"flashvars=\"'+b+'\"allowfullscreen=\"true\"allowscriptaccess=\"always\"quality=\"high\"wmode=\"opaque\"width=\"100%\"height=\"100%\"type=\"application/x-shockwave-flash\"/>';if(/(iPhone|iPad|iPod|Android|NETEASEBOBO|blackberry|bbd+)/ig.test(navigator.userAgent)){g='<videocontrols=\"controls\"preload=\"auto\"width=\"100%\"height=\"100%\"><sourcetype=\"video/mp4\"src=\"'+a+'\">您的浏览器暂时无法播放此视频.</video>';}h.$(\".video\")[0].innerHTML=g;},e=function(b){vara=d(b.parentNode.parentNode.parentNode);a.$(\"li\").removeCss(\"on\"),b.addCss(\"on\"),a.$(\".video-title\")[0].innerHTML=\"string\"==typeofb.textContent?b.textContent:b.innerText,a.$(\".video-title\")[0].setAttribute(\"href\",b.getAttribute(\"url\")),a.$(\".video-from\")[0].innerHTML=\"（来源：\"+b.getAttribute(\"source\")+\"）\",f(b);};window.continuePlay=function(){vara,b=d(d(\".video-list.on\")[0].nextSibling);3==b.nodeType&&(b=d(b.nextSibling));if(b&&d(\".video-innerinput\")[0].checked){e(b);}},function(){vara={init:function(){if(d(\".video-listli\")[0]){d(d(\".video-listli\")[0]).addCss(\"on\"),this.eventBind();}},eventBind:function(){d(\".video-listli\").addEvent(\"click\",function(b){e(d(this)),b.preventDefault();});}};a.init();}();}(NTES);对于企业的人才机制，格力电器董事长董明珠认为，“企业家不会让创造价值的人喝稀饭。”她认为，企业要坚守自己的人才培养机制。另外，她还强调，企业需要公平的税收环境。对于诚信和责任，董明珠还提到了贾跃亭，“贾跃亭，帮他的人太多太多了，结果他让那么多人的失望。”“员工在创造价值的时候，企业家不会让创造价值的人喝稀饭。”说这话的人，是格力电器董事长董明珠。作为企业家“网红”，她本身就是格力的一块招牌。2018年的第一天，董明珠出席“2018正和岛新年论坛：企业家的新时代”并发表了讲话。对于企业的人才机制，她说道，“那我们要怎么留住人才？我不是高薪，而是给你平台。”《每日经济新闻》记者获悉，董明珠谈到，格力公司门口天天有人站在那里挖人。董明珠说，她不认为盲目加薪是稳住人才的办法，企业要坚守自己的人才培养机制。另外，企业需要一个公平的税收环境。8万员工每人一套两房一厅？董明珠告诉在场媒体，格力电器1991年成立，至今已经28个年头，格力电器1991~2011年累计实现净利润195亿元，2012~2017年前三季度，格力累计实现净利润758.19亿元，近5年的净利润值是1991~2011年的3.9倍，近5年产值是此前21年的2倍；税收也一样，近5年格力贡献的税收是1991~2011年的3.2倍。”董明珠称，在她看来，企业最需要的是环境，她重复强调三次“环境”一词，她说，这个环境是指公平的税收环境。“我们过去最怕的是税收的不公平。你交了，他没交。如何把税收制度建设监督到位，我认为这就是我们今天所想要的，而不是单一地减免税收。”她表示，一个企业没有创新力的时候，即使不交税，其实也未必发展得好。“我们门口天天有人站在这里挖你的人。我们一开会，虽然讨论人不是我们的主题，但一开场，主要话题都是现在我们的人被挖，怎么办。有人提建议加工资。但我想想，格力今天已经有了超过10000人的技术开发队伍，一个人如果是100万元，200万元，企业能够支持得起吗？”此外，董明珠还强调，企业要坚守自己的人才培养机制。“我们最高的一年纪录，连外资企业也到我们这挖人。我们格力电器到今天，万人的技术开发队伍没有一个国际上的外来人才，也没有用高薪引进的人才。而是在中国高校，把应届毕业生、研究生、博士生招到格力电器来培养。”董明珠还说，由于格力研发出了光伏空调，现在格力所有车间员工都可以在25度环境下工作。同时，格力还给8万员工每人一套两房一厅的房子，“你做到退休（这套房子）我就给你。”企业家要牢记诚信和责任在董明珠上台讲话之前，格力自主制造的机器人在台上公开亮相。值得注意的是，在智能装备上，格力似乎十分“执着”自主研发。董明珠说，格力坚决不以合资方式做智能装备，“我们必须走自主创造之路，尽管我今天没有，但是用3年5年甚至10年时间，我们培养一支自己人才队伍的时候，我们就一定能成为世界之最。”《每日经济新闻》记者注意到，在演讲的末尾，董明珠强调企业家无论遇到什么困难，在面对社会、面对员工时，都不能忘记“责任”与“诚信”。董明珠摆出数据称，格力电器1991~2011年累计分红53.97亿元，在这期间格力在股市上募集的资金没有超过50亿元；2012~2016年格力累计分红363.95亿元。董明珠认为，这是上市公司坚守社会责任的体现。“我并不是想，我要拥有多少多少的财富；我在想，如果我真的能够带着我们的人，给这个社会作出点贡献，就感觉自己特别有价值。”董明珠还分享一则经历称，在英国出差的马路上，遇到有人问她是不是格力的董总，跟她说感谢，因为买格力的股票赚钱了。“当一个人没有诚信的时候，别人帮你只能一次。贾跃亭，帮他的人太多太多了，结果他让那么多人失望了。”董明珠说。本文来源：每日经济新闻责任编辑：谷莹_NN6577",
    "Title": "董明珠:员工退休送两房一厅 贾跃亭令帮他的人失望_网易新闻",
    "PublishTime": "01/02/201809:27:03",
    "Source": "Netease",
    "Comment": {
        "Content": "希望你懂的事情你不要做。也希望董小姐能好好实现诺言 树倒猢狲散<br>树大众鸟栖<br>一贯的嘴脸和作风。。。。 不错，好老板！ 即使你退休了，格力掌门人是谁？制度会不会改革，董大妈的诺言会不会被承认？都是未知数 车间员工哪有不上十二小时的？不正常吗？ 退休才给？意思是退休前就可以走人了 人家早说了，我也说了，没用利益关系问题[微笑] 格力一晚一度电。多余的钱，给董大妈买卫生巾，可以绕地球三圈。 傻吊，假月婷风头正劲的时候，网易评论是所有媒体评论中，揭发他比支持他的水军多的一家媒体，那时候你怎么不说墙倒众人推的？你觉得合适吗？难道那时候你也拿钱支持贾跃亭的？还是刚从tx转过来？ 傻逼喷子，你看她这句话具体是说什么没有？ 那是美的的广告吧 正常？去看日企或者米国，英国人开的公司看看，用不用十二个小时？而且格力一个月才休息两天，外资很多都有双休日，礼拜六上班加倍工资，格力呢，十二个小时， 虽然顶了你，但是格力还是不错的，我们农村基本都在用 大妈早停经了 墙倒众人推，用在骗子贾跃亭身上一点都不合适，脑残可以搜搜网易几年前的新闻，看看倒他的多还是拿钱支持他的多？！ 可以给隔壁老王节约十亿电费😰😰😰，广告界没有夸张，只有不得已的比喻，美帝也不是什么好鸟，结论，天下乌鸦一般黑😒 董大姐，是最有良心的企业家 应该是覆盖地球三层 那是美的，格力没说过吧 商人都是为了赚钱炒作而已，她那么一说你那么一听得了 我估计员工既怕她，又恨她 价格贵，我用海尔也没坏呀 这个女人有着蛇蝎心肠 哈哈，那是美的 那是美的...... 黑要找对地方！央视一晚一度电广告的是美的…… 更正一下，公平来讲，一晚一度电，这个广告词是美的空调用的，不能什么地方都乱黑 站着说话不腰疼 枪口🔫对错人啦，那是美的[微笑] 格力的空调在国内任何一个牌子的空调在质量上能超越，包括外资品牌。 多学学再出来当喷子 怎么不敢?这话你听不听得见倒是个问题！言论控制在谁手里? 首先，你得先退休 阴毒的喷子 格力空调，十一年了，除了清洗，没维修过 如果董小姐退休了找谁去 墙倒众人推[狗][狗] 为什么要退休才给，摆明就是不想给，你要是有诚意就该每位员工安排一个两室一厅的房子给他们吗？离职就收回房子 格力车间员工一天上班十二个小时，还要开夜班，一个月才四千左右，懂寡妇不敢去车间说这些话的 言必信，行必果，硁硁然，小人哉。<br>董大姐就看你的了。 贾跃亭出事之前你敢说这话我就服你，现在无非是墙倒众人推。 不管怎么说，董大姨我还是佩服的 就看她对员工的言语和态度，不是个真正的好老板。只是个女强人。 懂发飙了，上次股东不同意她的做法，现在她就开始玩死股东了，涨工资，发房子。等着看戏吧。 应该是覆盖地球三层 是个爷们 格力一晚一度电。多余的钱，给董大妈买卫生巾，可以绕地球三圈。 傻吊，假月婷风头正劲的时候，网易评论是所有媒体评论中，揭发他比支持他的水军多的一家媒体，那时候你怎么不说墙倒众人推的？你觉得合适吗？难道那时候你也拿钱支持贾跃亭的？还是刚从tx转过来？ 傻逼喷子，你看她这句话具体是说什么没有？ 那是美的的广告吧 虽然顶了你，但是格力还是不错的，我们农村基本都在用 墙倒众人推，用在骗子贾跃亭身上一点都不合适，脑残可以搜搜网易几年前的新闻，看看倒他的多还是拿钱支持他的多？！ 墙倒众人推[狗][狗] 也是血汗工厂 那是美的，格力没说过吧 一天一度电是美的，董还喷过一天一度电为什么这么多人顶？ 站着说话不腰疼 格力的空调在国内任何一个牌子的空调在质量上能超越，包括外资品牌。 价格贵，我用海尔也没坏呀 去百度贴吧的格力贴吧问问看，是不是我说的那样，我以前就在格力做实习生 格力的空调在国内任何一个牌子的空调在质量上能超越，包括外资品牌。 树倒猢狲散<br>树大众鸟栖<br>一贯的嘴脸和作风。。。。 格力一要保住现产品，另外要向其它产品转型，而且产品要有可信度，否则另外一批狠竞争者（狼）占据就危险了。 很多上市公司主要是股民资金上的帮助，而上市公司想法设法如果片取股民的钱，你看是不是几乎所有的股民口袋片空了，对不对。 格力空调，十一年了，除了清洗，没维修过 这个女人不一般 退休才给？意思是退休前就可以走人了 退休才给？意思是退休前就可以走人了 10万员工就送一套，还是小编的干老子！没见过这么不要脸的吹 不管怎么说，董大姨我还是佩服的 董母🐷 那些曾经帮贾药停的人，都以为自己其实不只是在帮贾药停… 格力一要保住现产品，另外要向其它产品转型，而且产品要有可信度，否则另外一批狠竞争者（狼）占据就危险了。 人家早说了，我也说了，没用利益关系问题[微笑] 很多上市公司主要是股民资金上的帮助，而上市公司想法设法如果片取股民的钱，你看是不是几乎所有的股民口袋片空了，对不对。 枪口🔫对错人啦，那是美的[微笑] 一天一度电是美的，董还喷过一天一度电为什么这么多人顶？ 可以给隔壁老王节约十亿电费😰😰😰，广告界没有夸张，只有不得已的比喻，美帝也不是什么好鸟，结论，天下乌鸦一般黑😒 那是美的...... 大妈早停经了 跟贴被火星网友带走啦~ 我最怕退休前被你炒掉 这个女人有着蛇蝎心肠 都是这样的企业，老百姓就有福气了 两房一厅只想招一个人目前只有我一个 那要看你房屋原有的格局了,这么说怎么给你建议啊 所以，中国人最容易被舆论裹挟着一股脑的去辱骂一个人，这就是为什么当年那么多红小兵的原因，针对贾跃亭事件网民的暴力言论和那个时代简直同出一辙 多学学再出来当喷子 阴毒的喷子 更正一下，公平来讲，一晚一度电，这个广告词是美的空调用的，不能什么地方都乱黑 如果董小姐退休了找谁去 你是一个人住吗 格力车间员工一天上班十二个小时，还要开夜班，一个月才四千左右，懂寡妇不敢去车间说这些话的 贾跃亭出事之前你敢说这话我就服你，现在无非是墙倒众人推。 树倒猢狲散<br>树大众鸟栖<br>一贯的嘴脸和作风。。。。 应该是覆盖地球三层 即使你退休了，格力掌门人是谁？制度会不会改革，董大妈的诺言会不会被承认？都是未知数 现在家里用的空调就是格力，买两年就坏了，打了五次电话给售后，最后花一周时间修好了。那一周平均温度35度！我想请问董明珠，你所谓的质量在哪 回地下室去，房东要你搬家了 贾跃亭这个人真不简单，我现在倾向于他是个天才 上八个小时一个月拿2000块，董大妈如何到外面吹他们工资高啊，每天加班几个小时月薪才能四五千啊 格力一晚一度电。多余的钱，给董大妈买卫生巾，可以绕地球三圈。 贾跃亭出事之前你敢说这话我就服你，现在无非是墙倒众人推。 董总说的好，格林电器就是不错啊！她不负众望啊！ aefnq;rid 正常？去看日企或者米国，英国人开的公司看看，用不用十二个小时？而且格力一个月才休息两天，外资很多都有双休日，礼拜六上班加倍工资，格力呢，十二个小时， 为什么要退休才给，摆明就是不想给，你要是有诚意就该每位员工安排一个两室一厅的房子给他们吗？离职就收回房子 董大姐，是最有良心的企业家 董母鸡。。。。老鸡。 不错，好老板！ 哈哈，那是美的 令人佩服 我们的主流媒体，在董骂贾之后，才岀来表态，其中有什么隐情，群众不知，但总感觉背后有人保他 那不是美的?没得黑了 忽悠人的事情太多，少相信为好！ 贾跃亭出事之前你敢说这话我就服你，现在无非是墙倒众人推。 黑要找对地方！央视一晚一度电广告的是美的…… 我家两部乐视手机，还不错。老贾摊子拉大了撑不住是事实，但并非一无是处，有人居然扯到庞氏。其实好多人都是别人怎么说就跟着起个哄。 希望你懂的事情你不要做。也希望董小姐能好好实现诺言 她不需要 穷逼买格力[微笑] 买空调首选格力 贾跃亭出事之前你敢说这话我就服你，现在无非是墙倒众人推。 明珠，躺下，我舔你！ 车间员工哪有不上十二小时的？不正常吗？ 像她这种企业有几个能干到退休的。根本甭想着那两居室。快退休也得找点茬儿。让你退不了休😊 楼上懂寡妇请来的水军傻屌，滚出广东回老家吃屎去 就看她对员工的言语和态度，不是个真正的好老板。只是个女强人。 昨天有多少人和懂小姐合影了 工厂承包制。。。懂大姐知道。。。核心科技最重要 董小姐爱面子，应该会承诺 广东的奴才呵呵哒 董大姐用不上了 贾跃亭出事之前你敢说这话我就服你，现在无非是墙倒众人推。 董小姐赌局咋样啦 是啊，五线城市的二居室 商人都是为了赚钱炒作而已，她那么一说你那么一听得了 我估计员工既怕她，又恨她 这女人嘴不值钱，成天胡咧咧，当笑话看看就行了 一堆水军，赶得上吉利汽车水军了 怎么不敢?这话你听不听得见倒是个问题！言论控制在谁手里? 首先，你得先退休 请问贾跃亭不出事，大家怎么失望？跟推墙有啥关系 忽悠人的事情太多，少相信为好！ 格力是国家的格力，董只是办事的，具体事宜她也不能负责的 格力车间员工一天上班十二个小时，还要开夜班，一个月才四千左右，懂寡妇不敢去车间说这些话的 言必信，行必果，硁硁然，小人哉。<br>董大姐就看你的了。 忽悠人的事情太多，少相信为好！ ",
        "Reply": 99,
        "Link": "http://comment.news.163.com/news_guonei8_bbs/D74S1KT40001875N.html",
        "Total": 1167
    },
    "KeyWords": "董明珠,贾跃亭,格力,格力电器",
    "URL": "http://news.163.com/18/0102/09/D74S1KT40001875N.html"
}