{
    "Source": "Netease",
    "KeyWords": "张艺谋,自拍,陈婷,无锡",
    "Title": "张艺谋妻女搞怪自拍 小女儿从小就美_网易娱乐",
    "PublishTime": "12/25/201707:37:57",
    "URL": "http://ent.163.com/17/1225/07/D6G2K4E500038FO9.html",
    "Article": "陈婷与小女儿自拍网易娱乐12月25日报道12月24日，张艺谋妻子陈婷晒出和女儿的一组搞怪自拍，小女儿眼睛、鼻子、嘴巴和卧蚕都很像妈妈，从小就是美人胚子。据悉，陈婷为无锡人，1981年9月30日出生，曾是无锡舞蹈团舞蹈演员，传闻称曾在北京电影学院就读，是张艺谋再婚妻子。育有三个孩子，大儿子张壹男、二儿子张壹丁和小女儿张壹娇分别于2001年、2004年和2006年在北京出生。本文来源：网易娱乐责任编辑：杨明_NV5736",
    "Comment": {
        "Content": "几百万对他们来说不值一提 随她妈了 他也不差几百万，长得一般，哪有那么夸张 脸太大 感觉怪怪的长相 不曝光一毛钱都不用罚 老谋深算 听说张艺谋为了她被罚了几百万 真的是自己拍的吗? 闻艺谋交社扶费有感<br>百万一掷黑变白，气煞穷屌失独怀。无权无靠佛掉头，有钱有势法门开。 好有爱 张艺谋妻女搞怪自拍小女儿从小就美 听说张艺谋为了她被罚了几百万 几百万办理移民后一分钱罚款都不用交。 老谋深算 不曝光一毛钱都不用罚 几百万对他们来说不值一提 随她妈了 他也不差几百万，长得一般，哪有那么夸张 很普通的长像。 脸太大 张艺谋妻女搞怪自拍小女儿从小就美 感觉怪怪的长相 坐等张艺谋第三婚！ 哈哈，挺好 ",
        "Reply": 17,
        "Link": "http://comment.ent.163.com/ent2_bbs/D6G2K4E500038FO9.html",
        "Total": 153
    }
}