{
    "Article": "（原标题：塔吉克斯坦发生5.2级地震震源深度8千米）中国地震台网正式测定：12月27日21时56分在塔吉克斯坦（北纬38.63度，东经72.01度）发生5.2级地震，震源深度8千米。本文来源：中国地震台网责任编辑：张海桐_NN9053",
    "Source": "Netease",
    "KeyWords": "塔吉克斯坦,地震,震源",
    "Title": "塔吉克斯坦发生5.2级地震 震源深度8千米_网易新闻",
    "Comment": {
        "Total": 1,
        "Content": "挽尊 ",
        "Reply": 1,
        "Link": "http://comment.news.163.com/news2_bbs/D6MPGR3F0001899N.html"
    },
    "PublishTime": "12/27/201722:13:33",
    "URL": "http://news.163.com/17/1227/22/D6MPGR3F0001899N.html"
}