{
    "Comment": {
        "Content": "应该是你妹放的电！华为惹你啦！ 国内大部分都是只有淋浴，国外比较喜欢有浴缸的。老外体味重，除了早上的算洗澡，晚上洗澡基本上都算是泡澡了。 只要带northk的新闻都不能评论 插座是高电压！ 发现得快可以刨腹救婴 水里多少V都有危险。不行你拿舌头去舔充电头试试…… 可能她想在冲凉房照裸照😀 肯定是受到ip67级防水广告的影响。。 弱智，你没明白电死人的不是手机的吗 洗澡手机放卫生间以免漏接电话，但是充电的话就危险了 不科学啊，最多9V~12V不可能电死啊。 手机带卫生间我真的不能忍，你拉屎带个手机我能理解，你洗澡也带个手机，拍个谁看？傻逼玩意 要开车了吗？我系好安全带 好湿，好湿 死的随机[狗] 手机当然是接电话啊，文中不也说了她老公在她洗澡外出，回来给她打电话，没准她想随时给老公开门呢，你以为手机只能拍照啊，你才傻逼 论漏电保护开关的重要性。 智能马桶预留的插座 看到标题时居然会想到要谁赔钱。 妻子淹没在浴缸里,估计是电晕了，淹死的 本公主洗澡时也要玩手机，还好现在手机防水[窃笑] 我的插座防水的 浴缸旁边安插座！高！ 脑子让驴踢了。 老外心都挺大的，嗯，经常看到老外在泳池，浴缸里拉插板给乱七八糟的电器充电的 谁告诉你电源线对地电压最多只有12V，220V都是可能的 短~命~手~机~害~死~人<br>破~坏~几~多~好~家~庭<br>小~孩~作~业~也~不~做<br>拿~起~手~机~玩~不~停<br>老~公~拿~着~斗~地~主<br>老~婆~说~话~烦~死~人<br>夫~妻~同~枕~没~话~讲<br>各~收~各~的~附~近~人<br>今~天~出~去~骗~一~个<br>还~说~出~去~有~事~情<br>虽~说~手~机~也~不~大<br>你~说~害~人~不~害~人<br>现~在~离~婚~闹~得~疯<br>就~怪~移~动~和~联~通<br>移~动~移~走~哥~媳~妇<br>联~通~联~走~妹~老~公<br>现~在~网~络~真~的~行<br>害~死~几~多~年~轻~人<br>夫~妻~同~床~没~话~讲<br>拿~起~手~机~找~别~人<br>你~说~害~人~不~害~人 洗澡时候，身上站满水，较正常的电压，更容易触电，学过建筑电学的都知道为什么规范里一定要卫生间五金都要做等电位连接，因为这些金属稍微有电，就可以电死人，正常人接触32V电压，6毫安的电流，可能不会被电死（主要是心脏电击停止跳动），但是裸身洗澡的状态下，3毫安都可以电死，这也是为什么卫生间五金等电位连接成为强规的原因，但是，大多数家庭装修都忽略了这个事情，以至于等电位盒就是个摆设，装修都包死了。 就不能换个时间听歌看小说吗？非要在洗澡的时候 充电器不防水 可怜了肚子里的小生命 一楼的公主👸，下次你好好玩手机，我帮你洗澡，保证干干净净[狗] 泡澡玩手机，直播晒咪咪。<br>充电接通水，艳妇命归西。 在水中2V以上都可能打死人 相信不少人有过类似的操作，年底了，大家都提点心 手机通电打振动棒用？真会作 带手机听歌，听小说奇怪吗？ 开震动的感受确实非同一般。 什么年底，平时就不用注意吗？ 要不，你拿两节干电池试试。 插头不防水呀，姐姐 特别是孕妇，洗澡最好是淋浴，尽量不要在浴缸里泡澡 好诗 因为她老湿机。。。 这法国娘们的智商啊！ 应该是华为手机 220V交流电窜到输出线。 你姐姐是找振动的感觉啊 自己作死，谁也拦不住 国内大部分都是只有淋浴，国外比较喜欢有浴缸的。老外体味重，除了早上的算洗澡，晚上洗澡基本上都算是泡澡了。 洗澡都不忘看手机。。。这上瘾程度 插座是高电压！ 较真什么啊，先了解下英国那个每日邮报是什么鸟媒先，就一个八卦地摊小报啊，和太阳报主打美女花边不同的是，看图编新闻是它们的特色。 水导电啊 120 潮湿导电，尽人皆知 流泪、教训、 可能她想在冲凉房照裸照😀 一看就不是中国的 插手机还算安全插插排时候注意安全 弱智，你没明白电死人的不是手机的吗 不科学啊，最多9V~12V不可能电死啊。 手机带卫生间我真的不能忍，你拉屎带个手机我能理解，你洗澡也带个手机，拍个谁看？傻逼玩意 嗯，卫生间没有安装等电位接地 就不能换个时间听歌看小说吗？非要在洗澡的时候 妻子淹没在浴缸里,估计是电晕了，淹死的 一楼没人顶踩 5000伏以上才算高压 论漏电保护开关的重要性。 智能马桶预留的插座 看到标题时居然会想到要谁赔钱。 手机当然是接电话啊，文中不也说了她老公在她洗澡外出，回来给她打电话，没准她想随时给老公开门呢，你以为手机只能拍照啊，你才傻逼 不要充电就好了 我的插座防水的 死得随机了 浴缸旁边安插座！高！ 脑子让驴踢了。 要不，你拿两节干电池试试。 本公主洗澡时也要玩手机，还好现在手机防水[窃笑] 谁告诉你电源线对地电压最多只有12V，220V都是可能的 短~命~手~机~害~死~人<br>破~坏~几~多~好~家~庭<br>小~孩~作~业~也~不~做<br>拿~起~手~机~玩~不~停<br>老~公~拿~着~斗~地~主<br>老~婆~说~话~烦~死~人<br>夫~妻~同~枕~没~话~讲<br>各~收~各~的~附~近~人<br>今~天~出~去~骗~一~个<br>还~说~出~去~有~事~情<br>虽~说~手~机~也~不~大<br>你~说~害~人~不~害~人<br>现~在~离~婚~闹~得~疯<br>就~怪~移~动~和~联~通<br>移~动~移~走~哥~媳~妇<br>联~通~联~走~妹~老~公<br>现~在~网~络~真~的~行<br>害~死~几~多~年~轻~人<br>夫~妻~同~床~没~话~讲<br>拿~起~手~机~找~别~人<br>你~说~害~人~不~害~人 一楼知道掩耳盗铃么 洗澡听歌没问题吧。这傻货是洗澡充电，电死的。手机能电死谁 【表情】 学过物理的都知道应该看电流而不是电压 这尼玛不是那男的放的手机吧…… 带个充电宝吧 我要做一楼的手机，我也防水的 死神来了，挺个大肚子，在洗澡充什么电啊 手机通电打振动棒用？真会作 带手机听歌，听小说奇怪吗？ 一楼的公主👸，下次你好好玩手机，我帮你洗澡，保证干干净净[狗] 不是讨论电压的问题，肯定不可能是9-12V电死。最有可能的原因就是手上湿的，不小心碰到了插头；还有一种可能就是水进了充电器，里面的变压器和整流器失效，直接触电。这2种情况都是220V触电，不过一般被电一下不容易死，可能是整个线都进浴缸了，那样是真的神仙也救不了了。 人都死了，你个sb还喷 死者为大，什么牌子的手机赔赔赔！，供电部门未尽到安全提醒义务赔赔赔租房的房开商一起告上法庭要不上新闻没意思 插头不防水呀，姐姐 特别是孕妇，洗澡最好是淋浴，尽量不要在浴缸里泡澡 我洗澡都带手机的，可以播放语音节目，边洗边听。这没有丝毫问题。<br>我现在用的手机脏了可以泡在水里洗干净，完全防水的。<br>这个女的是自己作死啊，她居然泡在浴缸里充电。<br>她家应该还没有漏电保护。 因为她老湿机。。。 主要是在水里吧，这个比干燥的环境里触电更危险。 220V交流电窜到输出线。 人家是有浴缸泡澡的 浴缸旁边装插座也不是不可以，这家人没装上漏电保护，才是问题所在。。<br>漏电开关一旦发生触电现象，立即就会跳闸断电，那么就不足以电死人。 智商啊。。 应该是你妹放的电！华为惹你啦！ 现在的笔记本电脑和手机充电器里都有静电卸除电路Y电容和Y电阻取值不当就容易引起伤亡 只要带northk的新闻都不能评论 插座是高电压！ 有没讹手机公司，还有供电公司 发现得快可以刨腹救婴 水里多少V都有危险。不行你拿舌头去舔充电头试试…… 漏电开关一定要装的，地线也要有，安全有保障 图二[色色][色色][色色] 一般手机充电电压不就是5V嘛 死的不冤 看来今后一定不要充电时打电话 肯定是受到ip67级防水广告的影响。。 湿得好，都透明了 浴缸旁装插座算不算谋杀 含住，唔好讲话 手机带卫生间我真的不能忍，你拉屎带个手机我能理解，你洗澡也带个手机，拍个谁看？傻逼玩意 要开车了吗？我系好安全带 谁告诉你电源线对地电压最多只有12V，220V都是可能的 不是插座，人们一直认为手机充电线是安全电压，12伏更本没感觉，却不知道两安培的电流是足以致命。只要有特殊的媒介，电压会立即升高，电死你一眨眼的功夫。 有印象，人妖公主快十年了还在网易都在刷存在感，十年来基本都是发些和罗玉凤差不多的言论 无耻 扣手机害死人 啦啦啦啦啦啦，今天是个好日子呀 不科学啊，最多9V~12V不可能电死啊。 浴缸边安装插座？？这心得多大呀 只能说你对漏电保护、电击原理和人体抗电击能力等等还不够了解 好湿，好湿 本公主洗澡时也要玩手机，还好现在手机防水[窃笑] 一般情况下充电器可以降压转换，但是进水了，直接220v接进来 91自拍 洗澡我也玩手机，但别充电啊，洗澡前充个十分钟就足够洗澡时用了。 老外心都挺大的，嗯，经常看到老外在泳池，浴缸里拉插板给乱七八糟的电器充电的 公主洗澡需要我陪伴吗？😉😚 浴缸旁边装插座真的不能理解 抗水，可不是防水 没有漏电保护？原始社会?一般来说总开漏保，分开漏保！难道两处都没漏保？ 这就是自己找死了 流氓 看到这样的报道,我只想问,难道他们家没有漏电保护装置? 看来没装空气开关 可怜了肚子里的小生命 浴缸里玩手机，泡个澡不是很完美吗 泡澡玩手机，直播晒咪咪。<br>充电接通水，艳妇命归西。 插座漏电和手机有毛关系 KTV公主 这话说得没错，导体有可能会改变。 洗澡不要带上手机.雾气会进去有雾水 开震动的感受确实非同一般。 湿了吧！哈哈😊 还好是国外 孕妇洗澡时给手机充电意外被电死距临盆仅差2周 插头不防水呀，姐姐 好诗 公主洗澡时有我陪伴么？😏😉 5V只是两根电源线间的电压，而两电源线对地电压就难说了，可能超过安全电压 应该是华为手机 注意：请在干燥的环境使用手机震动功能。 手机对人们的影响还真大啊 在水中2V都可能打死人 含住，唔好讲话啦 用震动功能 我倒觉得拍洗澡有人看，拍拉屎没人看 我们的月亮就是一个鸡蛋，我们的地球系就是一个鸡蛋!我们的太阳系就是一个鸡蛋，我们的天郎双星系就是一个鸡蛋，我们的银河系就是一个鸡蛋!坯胎为中心，蛋黄，蛋清，蛋壳层层立体包围着坯胎!固体地球为中心，大气层，平流层，电离层等等以及最外层真空遂道层层立体包围着固体地球!而月亮飘流在地球最外层空间真空遂道里，就像船儿飘流在大气层和海平面之间的空间是一样的!以此类推至太阳系天郎双星系银河系及任何物质!月亮在地球最外层空间真空遂道里绕着地球自转公转着，地月绕着太阳在太阳系第三层真空遂道里自转公转着，太阳系绕着天郎双星在天郎双星系最外层真空遂道里自转公转着!任何物质皆如此运动，天地人合一，阿门 英雄，给广大们上了一课，希望不要有无脑粉追随而去。 咬字眼钻牛角尖没意思 肯定是受到ip67级防水广告的影响。。 脑袋有残疾 洗澡手机放卫生间以免漏接电话，但是充电的话就危险了 为什么会在浴缸旁边设计插座这点安全意识没有嘛 活该 手机带卫生间我真的不能忍，你拉屎带个手机我能理解，你洗澡也带个手机，拍个谁看？傻逼玩意 好吧，习惯了[大笑] 死的随机[狗] 傻吧。不会那个蓝牙音响吗。 不仅防水，加上震动功能更是无敌爽哦！ 给他老公电死的 我家浴室也有插座，但是有个盖儿。茜完澡。老婆还用它插吹风机来着，要给老婆说，洗澡不能插... 可怜归可怜行为是活该 漏电没有这么智能识别测量智商 吓得姐我不敢充电了耶[狗][狗][狗] 有可能是智能马桶的插座 不是绝对能防触电的 安息 时间短一点宝宝可能还有希望，可悲可叹啊， 哦，是这样啊，多谢 洗澡的时候给手机充电？？没看明白 我们的月亮就是一个鸡蛋，我们的地球系就是一个鸡蛋!我们的太阳系就是一个鸡蛋，我们的天郎双星系就是一个鸡蛋，我们的银河系就是一个鸡蛋!坯胎为中心，蛋黄，蛋清，蛋壳层层立体包围着坯胎!固体地球为中心，大气层，平流层，电离层等等以及最外层真空遂道层层立体包围着固体地球!而月亮飘流在地球最外层空间真空遂道里，就像船儿飘流在大气层和海平面之间的空间是一样的!以此类推至太阳系天郎双星系银河系及任何物质!月亮在地球最外层空间真空遂道里绕着地球自转公转着，地月绕着太阳在太阳系第三层真空遂道里自转公转着，太阳系绕着天郎双星在天郎双星系最外层真空遂道里自转公转着!任何物质皆如此运动，天地人合一，阿门 紧邻浴缸的地方居然有插座，能活到20多才出事故也是不容易了。就算这次没触电，等有孩子了万一在浴缸里玩闹也很危险 洗澡时候，身上站满水，较正常的电压，更容易触电，学过建筑电学的都知道为什么规范里一定要卫生间五金都要做等电位连接，因为这些金属稍微有电，就可以电死人，正常人接触32V电压，6毫安的电流，可能不会被电死（主要是心脏电击停止跳动），但是裸身洗澡的状态下，3毫安都可以电死，这也是为什么卫生间五金等电位连接成为强规的原因，但是，大多数家庭装修都忽略了这个事情，以至于等电位盒就是个摆设，装修都包死了。 看到这样的报道,我只想问,难道他们家没有漏电保护装置? 手机防水看电影啊 外国人的智商啊 相信不少人有过类似的操作，年底了，大家都提点心 充电器不防水 南京，曾经全世界都同情的城市。积点口德吧，傻婆娘！ 什么年底，平时就不用注意吗？ 现在不是可以瞬间断电吗？那个什么安全设置 这篇文章要是放在柯南里能拍三集。 插头不防水呀，姐姐 这件事告诉我们洗澡有害健康 见过一边洗澡一边看视频的吗 洗澡时习惯放个脱口秀或保卫战听声音，可怜的宝宝无福见到世界，希望大家都能吸取教训不要在卫生间充电！ 这法国娘们的智商啊！ 拆拿是假冒伪劣货基地，你不知道? 漏电保护不是万能的，不是绝对安全的。 洗澡的时候从不玩电子产品！ 本公主洗澡时也要玩手机，还好现在手机防水[窃笑] 我就喜欢躺浴缸里玩手机。三防手机,仍浴缸里泡半小时都没事。 浴室插座都有盖子的，她边洗澡边充电，怪谁? ",
        "Link": "http://comment.news.163.com/news2_bbs/D783OUNR0001899N.html",
        "Reply": 159,
        "Total": 3142
    },
    "KeyWords": "孕妇,手机,浴缸",
    "PublishTime": "01/03/201815:39:50",
    "Title": "孕妇洗澡时给手机充电意外被电死 距临盆仅差2周_网易新闻",
    "Source": "Netease",
    "Article": "（原标题：法国21岁孕妇边洗澡边给手机充电意外被电死距离临盆仅差两周）据英国《每日邮报》1月2日报道，法国格勒诺布尔的一个小镇新年前夜发生一幕悲剧。一名怀孕八个半月的21岁孕妇在洗澡时，因给手机充电被电死在自家的浴缸里。警方没有透露死者的姓名。警方说，事发当晚，这名孕妇的丈夫在妻子洗澡的时候有事外出。由于没拿钥匙，丈夫回到家后敲了半天门打了好几个电话就是无人应答，于是破门而入。映入眼帘的是妻子淹没在浴缸里，已经没了呼吸。丈夫赶紧拨打了急救电话，医务人员赶到现场实施了紧急救治，但已无力回天，包括其腹中的宝宝。年轻的孕妇就在距离临盆还差两周时离开了人间，丈夫承受不了这样的打击，当场晕厥，之后被送到医院救治。经过调查，警方认为这名孕妇是被电死的，她在洗澡的时候在紧邻浴缸的一个插座上给手机充电，可能是导致其被电死的原因，至于为什么会漏电到浴缸里，相关部门还在调查中。本文来源：看看新闻Knews作者：王鹏责任编辑：李杭_BJS4645",
    "URL": "http://news.163.com/18/0103/15/D783OUNR0001899N.html"
}