{
    "PublishTime": "01/02/201809:34:23",
    "Comment": {
        "Total": 24,
        "Link": "http://comment.ent.163.com/ent2_bbs/PHOTJNRR000300AJ.html",
        "Reply": 7,
        "Content": "孙俪极度闷骚。一旦开腿绝不回头 超哥不是出轨过了 日本秋田。 超哥俪姐别出轨了啊 孙俪极度闷骚。一旦开腿绝不回头 超哥不是出轨过了 文明上网，理性发言 文明上网，理性发言 超哥俪姐别出轨了啊 文明上网，理性发言 日本秋田。 "
    },
    "Article": "孙俪携家人滑雪庆元旦邓超被雪球砸成这样1月1日，孙俪邓超携一对儿女滑雪庆祝元旦。孙俪晒出孩子们坐雪橇的照片和夫妻二人的背影，邓超则上传了自己遭到“雪球攻击”的照片，照片中，邓超满脸都是雪，看来被砸了不少雪球。",
    "Source": "Netease",
    "Title": "孙俪携家人滑雪庆元旦 邓超被雪球砸成这样_网易娱乐",
    "KeyWords": "孙俪,",
    "URL": "http://ent.163.com/photoview/00AJ0003/647035.html"
}