{
    "PublishTime": "12/27/201710:51:00",
    "Source": "Netease",
    "Comment": {
        "Link": "http://comment.news.163.com/news2_bbs/D6LIVKG100018AOQ.html",
        "Total": 52,
        "Reply": 9,
        "Content": "菲律宾也一样啊，什么离境税、上岛税……而且不便宜，比如从卡利博(长滩岛)出发的国内航班收取200p/人的离境税，国际航班750p…… 做个调查物，价油价房价上涨感觉生存压力越来越大的点支持 马来西亚对外国游客疯狂收钱！住酒店就已经有额外费用了还搞了飞机费真的是想钱想疯了 呵呵 反恐呵呵你能防住段氏香那种人 那就不去咯 反正我又不去，管它收多少。 菲律宾也一样啊，什么离境税、上岛税……而且不便宜，比如从卡利博(长滩岛)出发的国内航班收取200p/人的离境税，国际航班750p…… 是的是的是的是的 做个调查物，价油价房价上涨感觉生存压力越来越大的点支持 马来西亚对外国游客疯狂收钱！住酒店就已经有额外费用了还搞了飞机费真的是想钱想疯了 呵呵 反恐呵呵你能防住段氏香那种人 那就不去咯 反正我又不去，管它收多少。 第一个 "
    },
    "Article": "（原标题：大马出入境航班将征“反恐费”遭批收费过高）马来西亚吉隆坡国际机场。东方IC资料图中新网12月27日电马来西亚《诗华日报》近日刊文称，2018年1月1日起，马来西亚政府将正式向国际航班乘客征收35令吉“反恐费”。此收费不仅马来西亚本国出国人民受影响，入境大马的外国游客也需缴付。文章摘编如下：马来西亚政府将从2018年1月1日起，正式向国际航班乘客征收“反恐费”，沙巴旅游协会会长拿督斯里廖吉祥对此表示：“收太多！”廖吉祥阐明，大马政府落实“航前乘客扫瞄系统”(APSS)，以扫瞄所有入境乘客，并阻止恐怖份子入境。因此，凡是出入境外国乘客都会征收一趟35令吉的“反恐费”，来回就需缴付70令吉。他说：“一直以来，乘客都需缴付保安税，现在又多加一个‘反恐费’，有点多此一举，若真的有需要，也无需征收35令吉那么多。”廖吉祥强调，此收费不仅马来西亚本国出国人民受影响，就连入境大马的游客也需缴付，因在购买机票时就已增加这笔“反恐费”。另外，记者询及如何看待2018年旅游业市场时，廖吉祥表示，明年入境市场会稳健成长。他补充，这是因为有了北京每日直飞航班，而中国南方航空也正准备每日从广州直飞亚庇，航班增至每日2班；目前是一星期10班，若每日固定2班，就是1星期14班。另外他预测，2018年沙巴州出国旅游人数会减少，主要是飞机票会比较贵，因入境乘客比较多，相对的就会将离境机票价提高；而明年1月1日起增收的“反恐费”也是导致贵机票的原因之一。本文来源：中国新闻网责任编辑：何雨芳_NN5632",
    "Title": "大马出入境航班2018起将征\"反恐费\" 遭批收费过高_网易新闻",
    "URL": "http://news.163.com/17/1227/11/D6LIVKG100018AOQ.html",
    "KeyWords": "机票,马来西亚,反恐费,出入境"
}