{
    "Source": "Netease",
    "Title": "广西百色市政协原副主席李廷荣受贿550万获刑10年_网易新闻",
    "Comment": {
        "Link": "http://comment.news.163.com/news2_bbs/D6JTP3DT00018AOQ.html",
        "Content": "贫困老区，贪这么多也可信的！ 很好 10年550万，一年55万，我也愿意啊。 边贪边提拔，这个问题应该解决。 值得啊，才10年，我都愿意 边贪边提拔，这个问题应该解决。 贫困老区，贪这么多也可信的！ 很好 不会是穿山甲那位吧 10年550万，一年55万，我也愿意啊。 赶紧去查百色田阳一带的，那边现在正在征收田地，还不晓得有多少黑幕！ 平均一年赚55万也不错了 ",
        "Reply": 8,
        "Total": 42
    },
    "URL": "http://news.163.com/17/1226/19/D6JTP3DT00018AOQ.html",
    "PublishTime": "12/26/201719:20:00",
    "Article": "（原标题：广西百色市政协原副主席李廷荣受贿550万获刑十年）图为庭审现场覃凡摄中新网来宾12月26日电12月26日，广西壮族自治区来宾市中级人民法院一审公开宣判广西百色市政协原副主席、百色市总工会原主席李廷荣受贿案，对李廷荣以受贿罪判处有期徒刑十年，并处罚金人民50万元，对其受贿所得财物予以追缴，上缴国库。法院审理查明，1995年至2017年期间，李廷荣先后利用担任广西百色市平果县县长、百色市人大常委会副主任、百色市政协副主席、百色市总工会主席等职务便利，在房地产项目开发、建设工程承揽、招标业务承揽等方面为他人所属的公司或个人谋取利益，先后收受他人所送钱款共计550万元。图为李廷荣在庭审现场覃凡摄法院认为，李廷荣身为国家工作人员，利用职务上的便利非法收受他人财物，数额特别巨大，为他人谋取利益，构成受贿罪，应依法惩处。鉴于李廷荣归案后，在办案机关已掌握其部分受贿数额线索的情况下，交代了大部分未被办案机关掌握的同种犯罪事实，具有坦白情节，并积极全额退赃，当庭认罪、悔罪，依法予以从轻处罚。其有向办案机关举报他人违法线索的行为，但尚未经查证属实，不能认定为立功。法院遂作出上述判决。本文来源：中国新闻网作者：覃凡林浩责任编辑：李杭_BJS4645",
    "KeyWords": "百色,政协,受贿"
}