{
    "Title": "\"同一天生日\"与\"一元画作\"募捐善款接受方为同一家_网易新闻",
    "URL": "http://news.163.com/17/1226/01/D6I1C9UH0001875P.html",
    "Source": "Netease",
    "Comment": {
        "Total": 791,
        "Reply": 60,
        "Content": "中国人坑蒙拐骗最有本事 腾讯搞的 现在的公益问题多多 骗来骗去，骗到最后就是狼来了的故事，打开城门迎闯王 上上下下，左左右右，前前后后，里里外外<br>全是骗子 深入调查下去，给捐助者真相！！！坚决杜绝以此谋利者！！！ 资质真的没那么重要，信用最关键 这还让别人怎么信 不信任何慈善 光明正大的骗人，前无古人 中国人骗钱的手段多了去了，这不是最后一个。 骗! 这群人又拉低了国家道德底线 是不是该判刑了，一次次的降低道德准则 我特么还捐了呢严重骗人真的是 我的1块钱可以退吗？ 老子连红会都不信，只信看到的，有时候看到的我都不信！ 我和媳妇都捐了一元。一元钱不多，但这件事让我深深的对慈善再次产生怀疑。一元虽少，但汇流成河，好人何其多，我们自小就被教育到：勿以善小而不为。可当下物欲横流，为了目的可以不择手段，面对欺骗百姓只有指责的权利，道德的批判，可是监管在哪里，正义在哪里。我不想整天念叨着：不是不报时候未到这类的话，自我安慰，我怕真的到了那一天，我会无奈的对孩子说：要相信社会还是好人多。我怕我们的未来再受到伤害，再对美好产生怀疑。此后，你们可以告诉我们系统错误，也可以摆出真凭实据，我也更加愿意相信这是失误而绝非欺骗，我们不是傻子，而是对未来抱有希望！ 哎，骗就骗呗！拿贫穷的人来骗，会使信任崩坏，害了真正贫穷受苦的人，只想说脏话。 前面有郭美美，雷声大雨点小，后面的人才能源源不绝，没有后顾之忧。 实话实说 奉劝大家再也不要相信任何网络慈善。如果真想献爱心，完全可以亲自去贫困地区捐助，亲自把爱心送到他们身边才靠谱才更真实。。 全是骗，全是套路！当今社会什么是真？ 有问题还有解决的余地，但是一个国家如果没有慈善没有公益才真的可怕。 奉劝大家再也不要相信任何网络慈善。如果真想献爱心，完全可以亲自去贫困地区捐助，亲自把爱心送到他们身边才靠谱才更真实。。 不信任何慈善！中国人搞自己人的本事很大~~~ 资质真的没那么重要，信用最关键 这还让别人怎么信 现在的公益问题多多 等网络上的慈善也跟现实接轨了，你们这些垃圾公司就满意了，严查，罚到这家公司破产。 人民有信仰国家有力量民族有希望 辣鸡就会骗 借慈善骗钱，<br>骗子太多了！ 优化到你们发现不了破绽 老子连红会都不信，只信看到的，有时候看到的我都不信！ 四同兄妹 厉害了点 😱 😡 👎 全是骗，全是套路！当今社会什么是真？ 深得网络善民的心理，屡试不爽 尼玛！我还捐了10块，再也不信这些鬼玩意 勿以善小而不为，勿以恶小而为之。 骗来骗去，骗到最后就是狼来了的故事，打开城门迎闯王 假的很 新闻 也有不骗钱的，体制问题，但不能悲观，身为国人，还是抱着希望吧。 必须严惩 你猜呢？ 光明正大的骗人，前无古人 除了认识的人（在ＷＸ上那个什么什么筹），一律不鸟。 中国人骗钱的手段多了去了，这不是最后一个。 感觉是骗人骗钱的 这群人又拉低了国家道德底线 是骗子吗？ 难道这样就会保证不出问题了？钱给孩子，给他们家以后，就解决了这个家庭的问题？钱怎么花？花在哪里？捐钱给钱容易，你保证你的钱能对孩子产生正面影响吗？没那么简单吧？只是中国慈善机构需要完善，但不代表我们不需要，于捐助者、受助者，都是一种保护。 钱能退吗？？ 我和媳妇都捐了一元。一元钱不多，但这件事让我深深的对慈善再次产生怀疑。一元虽少，但汇流成河，好人何其多，我们自小就被教育到：勿以善小而不为。可当下物欲横流，为了目的可以不择手段，面对欺骗百姓只有指责的权利，道德的批判，可是监管在哪里，正义在哪里。我不想整天念叨着：不是不报时候未到这类的话，自我安慰，我怕真的到了那一天，我会无奈的对孩子说：要相信社会还是好人多。我怕我们的未来再受到伤害，再对美好产生怀疑。此后，你们可以告诉我们系统错误，也可以摆出真凭实据，我也更加愿意相信这是失误而绝非欺骗，我们不是傻子，而是对未来抱有希望！ 实话实说 赤裸裸的变 8月21 我的1块钱可以退吗？ 经商的诚信都一直在透支来带动经济现在已经透支的差不多了（基本没有诚信可言）更不用说这个“慈善事业”了诚信这个东西建立真的非常困难毁掉可是分分钟的事情 前面有郭美美，雷声大雨点小，后面的人才能源源不绝，没有后顾之忧。 呵呵 骗人的手法都高端啦 我只知道搞慈善的都很有钱。他们自己捐了多少？ 中国人坑蒙拐骗最有本事 腾讯搞的 是不是该判刑了，一次次的降低道德准则 我特么还捐了呢严重骗人真的是 哎，骗就骗呗！拿贫穷的人来骗，会使信任崩坏，害了真正贫穷受苦的人，只想说脏话。 诈骗吗 好事好人 中国人骗钱的手段多了去了，这不是最后一个。 不信任何慈善 呵呵 深入调查下去，给捐助者真相！！！坚决杜绝以此谋利者！！！ 不信任何慈善 也就那样了 上上下下，左左右右，前前后后，里里外外<br>全是骗子 骗! 日你妈退钱 ",
        "Link": "http://comment.news.163.com/news_shehui7_bbs/D6I1C9UH0001875P.html"
    },
    "Article": "（原标题：2009年2月29日出生？“同一天出生的你”募捐被责令停止）连日来在朋友圈刷屏的“同一天出生的你”网络募捐活动，今日被深圳市民政局责令立即停止。募捐活动平台自称筹得近255.6万元资金。但活动中，同一个孩子不同的出生日期、出生日期不存在、受捐助学生不是366人而是2130人等情况，引发公众质疑。“同一个人两个出生日期”366个贫困学生，代表一年366个不同日期；在线捐赠1元，即可帮扶同日出生的儿童。近日，名为“同一天出生的你”的捐助活动，在朋友圈刷屏。活动由北京零分贝科技有限公司和深圳市爱佑未来慈善基金会（简称爱佑未来）联合推出。探员注意到，上述募捐活动，基于微信平台发布并传播。进入微信公号“分贝筹”后，底栏出现“同一天出生的你”链接，点击进入即跳转至活动界面，点击底部“选择出生”，界面即出现这一天出生的被帮扶对象，参与者可为这名贫困学生捐赠一元。一元即可参与的低门槛，帮扶对象为同一天出生带来的“结缘”感，活动一经推出即受到关注。但部分参与者指出，受助学生信息存在多项问题。探员注意到，名为“阿碧”的女生出生日期为2009年1月3日，她还以当年11月24日出生的身份，出现在另一则捐赠信息中。一张男生照片也两次出现在捐赠界面，名字分别为“小豪”和“阿豪”，出生日期为2007年12月26日和5月5日。同样照片的捐助对象姓名、出生日期不同。据网友不完全统计，活动中，类似“同一个人，两个出生日期”的情况，至少6起；此外，一个名为小丹的女生，出生日期标注为2009年2月29日，这一日期并不存在。名为小丹的女生，出生日期标注为2009年2月29日。“一人分饰两角”、出生日期不存在等，让活动陷入争议。24日晚，深圳市民政局通报，调查“同一天生日”网络募捐活动，调查结果将及时发布。366学生参与2130人受助25日下午，“同一天出生的你”活动捐助通道已关闭。活动界面信息显示，本次共筹得近255.6万元，将全部用于云南镇雄县2130名贫困学生一年的生活补助。活动自称筹得近255.6万元，将用于云南镇雄县2130名贫困学生的一年生活补助。“这是意外刷屏，没做好准备”，活动平台方、“分贝筹”创始人王立表示，活动原计划25日上线发布，工作人员为测试效果，将其转发至朋友圈，“原本是小范围举动，没想到迅速发酵”。“分贝筹”官方微信也回应，在测试阶段“出现一些信息错误及界面不稳定情况，开发团队紧急协调优化”。王立称，分贝筹方面共4人参与活动，共上传366个孩子的信息，每人5张照片，“一张张裁剪，按筹款信息编写文案上传”。为何会有2130人受助？探员从分贝筹处获悉，活动所有善款，均进入爱佑未来基金会账户，由其统一直接发放给受助学生，每季度发放一次。资助标准为义务教育阶段每人每月100元，高中阶段每人每月200元。王立表示，登上活动界面的366名贫困学生，若受捐超过1200元（中小学一学年的学费），则余下的钱，将转发给未登上活动页面的学生，因此出现受助学生数量达到2130人的情况。今日下午，爱佑未来官微提到，3月10日向深圳市民政局提交活动备案表，并于5月21日再次提交新一阶段活动备案表。“本着对捐赠人负责的态度，决定停止这一项目，与政府核实信息并落实善款执行，配合民政部门调查”。此外对部分受助者信息出现误差表示致歉。主办方称受助学生为贫困户家庭多名网友称，通过活动界面捐款后，转账信息显示，资金进入爱佑未来基金会账户。不过，在其官网并未出现活动相关信息。对此，基金会一名行政人员表示，由于筹款活动刚结束，具体信息还没有更新至网站。活动中受助学生信息从何而来？探员联系云南省镇雄县民政局，一名负责慈善组织对接的工作人员称，镇雄县与爱佑未来基金会一直有合作项目，主要针对困境儿童救助，但本次活动中的学生信息，并非由县民政局提供。分贝筹平台回应，受助学生都来自“国家建档立卡”的贫困户家庭。学生资料均由各地“驻村干部”和“结对干部”（负责扶贫工作的各级别国家公务员）实地走访了解、拍摄并上传，“孩子照片和信息，均获得监护人书面授权”。王立称，善款发放后，将由帮扶干部上传使用进展，并实时通过微信推送给捐助人。如发放过程出现问题，或结对干部没有及时反馈，下一季度的资金发放会暂缓，并由县扶贫部门督促和追责。深圳市民政局通报，对“同一天生日”网络募捐活动介入调查。民政局信访处一名工作人员告诉探员，主要是调查募捐活动组织程序、善款使用等。活动由分贝筹和爱佑未来慈善基金会联合推出。平台主体无网络募捐资质值得注意的是，本次活动善款接收方爱佑未来基金会，也是此前引发关注的“一元画作”募捐活动的善款接受方。这项活动是用1块钱购买患自闭症等人群的画作为手机屏保，项目筹集到1500万元项目资金，参与者超过580万人。公开资料显示，爱佑未来是在深圳市民政局注册成立的公募基金会。深圳市民政局官网信息显示，其具备公开募捐资格。探员注意到，分贝筹微信公号的账号主体为北京零分贝科技有限公司。工商资料显示，该公司成立于2016年8月24日，经营范围包括策划、咨询等，但并不包括网络募捐。根据《慈善法》规定，慈善组织通过互联网开展公开募捐活动的，“应当在民政部统一或指定的慈善信息平台发布公开募捐信息，并可以同时在以本慈善组织名义开通的门户网站、官方微博、官方微信、移动客户端等网络平台发布公开募捐信息”。也就是说，通过分贝筹账号发布网络募捐信息，本身并不符合《慈善法》要求。分贝筹方面回应称，爱佑未来基金会是联合推出方。民政部《公开募捐平台服务管理办法》第十一条规定，各级民政部门“对慈善组织通过广播、电视、报刊以及网络服务提供者、电信运营商提供的平台发布公开募捐信息、开展公开募捐的行为实施监督管理。慈善组织有违法违规情形的，由批准其登记的民政部门依法查处”。另据深圳市民政局官方微博通报，12月25日上午，调查组约谈爱佑未来基金会秘书长，责令其立即停止“同一天生日”网络募捐活动，并要求提交募捐活动情况报告、与相关企业的合作协议及所有公开发布的文件资料，相关调查将继续进行。本文来源：重案组37号作者：王煜责任编辑：李天奕_NN7528",
    "PublishTime": "12/26/201701:54:41",
    "KeyWords": "募捐,善款,基金会,慈善"
}