{
    "Source": "Netease",
    "PublishTime": "12/26/201714:41:48",
    "KeyWords": "罚单,西安,警车,警用车",
    "Title": "网友爆料:西安一马路一排车都被贴罚单 除一辆警车_网易新闻",
    "Comment": {
        "Link": "http://comment.news.163.com/news_shehui7_bbs/D6JD8UEM0001875P.html",
        "Total": 58,
        "Content": "这有什么好奇怪的，乱停的就得处理，没什么好说的。 西安已经成为新闻富矿了 警车在执行公务，怎么的不服？ 西安已经取代郑州，成为网易的常客了 年底了，指标要完成啊，不然怎么发奖金。 人家是停在那里贴罚单的。那是工作 这有什么好奇怪的，乱停的就得处理，没什么好说的。 警车是贴条交警开的，没毛病 西安已经成为新闻富矿了 警车在执行公务，怎么的不服？ 西安已经取代郑州，成为网易的常客了 年底了啊，大家都想搞钱过钱 年底了，指标要完成啊，不然怎么发奖金。 ",
        "Reply": 8
    },
    "Article": "#直播西安#【网友投稿】@vivian燕子说：“14点左右，路过科技七路的万达西安one，马路边停了一排车无一幸免被贴了罚单。除了一辆陕A6268的警用车！”本文来源：西部网责任编辑：杨强_NN6027",
    "URL": "http://news.163.com/17/1226/14/D6JD8UEM0001875P.html"
}