{
    "Title": "沙特对也门进行空袭 一天内致68名平民死亡_网易新闻",
    "URL": "http://news.163.com/17/1228/18/D6OTE04U0001875O.html",
    "Source": "Netease",
    "Article": "（原标题：沙特对也门进行空袭一天内致68名平民死亡）海外网12月28日电法新社援引联合国消息称，以沙特为首针对也门的空袭，在一天内致68名平民死亡。本文来源：海外网责任编辑：赵亚萍_NN9005",
    "PublishTime": "12/28/201718:00:23",
    "Comment": {
        "Total": 220,
        "Content": "放冷枪之后躲在平民百姓中，对方报复之后就到处博同情；对方杀平民。 也门人的战术应该是，为沙特油库为主要目标发动爆炸袭击。 沙特反巴沙尔是为了叙利亚的民主，炸也门是为了恢复也门的自由。 支持恐怖份子的平民也算恐怖份子吧！！！！！<br><br>好比美国丢日本核弹！！！！！！！！！ 当别人把你逼到走投无路时，不要忘记你身后还有一条路，那就是犯罪，记住这并不可耻。。。拉灯如果有别的办法，也许也不会走这条路 沙特是民主国家么？ 美弟的盟友，谁敢说不民主？ 沙特军队虽然不咋地但是也不会故意往平民区或是非目标单位丢精确制导武器，要知道这些武器的价格基本等同于等重的白银，那就是说这些“平民”当时应该就在沙特的打击目标附近，普通人会贸然接近这些危险的地方吗？又或是这些人会让普通人贸然接近吗？理由无外乎2种，1.这些所谓“平民”是支持者。2.这些是平民就是抓来的肉盾。 你有当恐怖分子的潜质。 拉登没做错？ 美畜也会为沙特这样的国家辨护，真是大开眼界。 你老婆和你女儿吵架，我去你家调戏你老婆，这样可以不？ duang前记得向属地派出所备案😯 战地里面有一句台词很经典：Shame!Youcometoourcountrytomurderus,yetwearetheterrorists？whenwetrytopertactourpeoplefightforournationsandwebecamesterrorists？ 沙门空海 不让女性参政、露脸等是为了防止沙特女性被坚强 沙特军队虽然不咋地但是也不会故意往平民区或是非目标单位丢精确制导武器，要知道这些武器的价格基本等同于等重的白银，那就是说这些“平民”当时应该就在沙特的打击目标附近，普通人会贸然接近这些危险的地方吗？又或是这些人会让普通人贸然接近吗？理由无外乎2种，1.这些所谓“平民”是支持者。2.这些是平民就是抓来的肉盾。 战地里有一句台词很经典：你们入侵我们的国家，杀害我们的人民，我们起来保护国家和人民，却成了恐怖份子。 911 好… 他的办法就是把异教徒都杀了？这就是你们这群绿🐷的可笑的办法？知道沙特🐷怎么看你们这群🐷的不？不过是被征服的奴隶罢了，低等🐷而已…… 支持恐怖份子的平民也算恐怖份子吧！！！！！<br><br>好比美国丢日本核弹！！！！！！！！！ 让它们打吧，不然没事就撅屁股。 Shame!Youcometoourcountrytomurderus,yetwearetheterrorists？whenwetrytopertactourpeoplefightforournationsandwebecamesterrorists？ 有钱人，钱多烧的，过去借拉登搞恐怖主义，哪知道侯赛因这个愣头青不小心把拉登送到天堂了，俄国把is打得作鸟兽散了，所以，沙特急了，亲自出手了。 美畜也会为沙特这样的国家辨护，真是大开眼界。 沙特反巴沙尔是为了叙利亚的民主，炸也门是为了恢复也门的自由。 你有当恐怖分子的潜质。 Shame!Youcometoourcountrytomurderus,yetwearetheterrorists？whenwetrytopertactourpeoplefightforournationsandwebecamesterrorists？ 美弟的盟友，谁敢说不民主？ 拉登没做错？ 沙特变成了拉登，呵呵 放冷枪之后躲在平民百姓中，对方报复之后就到处博同情；对方杀平民。 也门人的战术应该是，为沙特油库为主要目标发动爆炸袭击。 沙特比美国更民主 沙特是民主国家么？ 最民主最自由还数沙特 ",
        "Reply": 29,
        "Link": "http://comment.news.163.com/news_guoji2_bbs/D6OTE04U0001875O.html"
    },
    "KeyWords": "也门,沙特,空袭"
}