{
    "Article": "（原标题：律师团称朴槿惠身体欠佳要求检查其健康状况）中新网1月3日电据韩国国际广播电台3日报道，韩国为前总统朴槿惠辩护的国家指派律师团要求，对关押在首尔拘留所的朴槿惠的健康状况进行确认。据报道，该国选律师团2018年1月2日在首尔中央地方法院进行的裁判中，提出了对朴槿惠的健康状况进行检查的申请。国选律师团认为，鉴于朴槿惠的身体健康欠佳，必须对相关情况进行调查。资料图：韩国前总统朴槿惠。此前，由于朴槿惠的私人律师团全部辞职，韩国法院一度停止了对朴槿惠的审理工作。虽然2017年11月审理工作重新开始，但朴槿惠以腰疼和膝盖浮肿等健康原因为由，多次拒绝出庭接受审理。据悉，朴槿惠回避与外部接触，在过去数月中，与外部接触记录为零。之前，韩国国家指派辩护人多次申请会面，都遭到了朴槿惠的回绝。据此前报道，有分析称，朴槿惠拒绝接受调查，是表达对目前审判和调查进行抵制的态度。本文来源：中国新闻网责任编辑：李杭_BJS4645",
    "URL": "http://news.163.com/18/0103/16/D786PBCG00018AOQ.html",
    "KeyWords": "朴槿惠,律师团,健康,韩国",
    "PublishTime": "01/03/201816:28:00",
    "Title": "律师团称朴槿惠身体欠佳 要求检查其健康状况_网易新闻",
    "Comment": {
        "Content": "",
        "Link": "http://comment.news.163.com/news2_bbs/D786PBCG00018AOQ.html",
        "Total": 0,
        "Reply": 0
    },
    "Source": "Netease"
}