{
    "Title": "绝味鸭脖打低俗广告被罚60万，腾讯天猫也要受罚_网易科技",
    "URL": "http://tech.163.com/17/1227/10/D6LGIUVK00097U7R.html",
    "KeyWords": "天猫,腾讯,广告,绝味",
    "PublishTime": "12/27/201710:18:11",
    "Article": "（原标题：最新！绝味鸭脖低俗广告被连开两张60万罚单后还要罚这俩巨头你肯定想不到）余知都“绝味”低俗广告又有新进展。本文图均为中国消费者报微信公众号图继对广告主长沙绝味食品营销有限公司和广告经营者长沙汇邦广告有限公司分别作出60万元的行政处罚决定后，12月26日，《中国消费者报》独家从长沙市工商行政管理局获悉：该局于当日分别向深圳市市场监督管理局和杭州市余杭区市场监督管理局发出案件移送函，要求深圳和杭州方面依法查处该违法广告的发布平台深圳腾讯有限公司和杭州天猫网络有限公司。向深圳市市场监督管理局发出案件移送函向杭州市余杭区市场监督管理局发出案件移送函至此，有关“绝味”低俗广告的广告主、广告经营者、广告发布平台有望全部受到惩处。低俗趣味营销惹麻烦经长沙市工商局查实，绝味官方旗舰店系长沙绝味食品营销有限公司与浙江天猫网络有限公司签订协议在天猫购物平台开设的网络营销店铺；绝味官方旗舰店截图微信公众平台系绝味食品股份有限公司与北京腾讯文化传媒有限公司签订协议开通的企业网络展示平台。绝味鸭脖微信公众平台截图为了在2017年11月11日的促销活动日进行促销，绝味食品股份有限公司于2017年8月20日与长沙绝味食品营销有限公司签订了《委托合作协议》，由长沙绝味食品营销有限公司在授权期内负责绝味微信公众号的营运以及网络广告投放。长沙绝味食品营销有限公司为了在天猫旗舰店和微信公众号促销业务开展，在2017年8月20日同时授权绝味食品股份有限公司全资子公司湖南阿瑞食品有限公司负责“双十一”促销活动广告投放的相关事宜。2017年8月31日，湖南阿瑞食品有限公司与长沙汇邦广告有限公司签订了《广告设计发布合同》，约定由长沙汇邦广告有限公司全权负责“双十一”绝味天猫旗舰店和微信公众号的广告设计与发布，广告费30万元。11月1日，长沙汇邦广告有限公司设计并推送了天猫旗舰店躺在床上脚带镣铐分开双腿身着短裤的女性卡通图片，并配发“鲜嫩多汁，想要吗？”的文字，因该广告被舆论评价不尊重女性、性暗示等差评，11月2日该图片撤下；11月3日，长沙汇邦广告有限公司又在腾讯微信公众平台发布了以大卫雕像隐私处打上马赛克为背景的图片并配发了以夫妻、情侣口气暗示描述性行为的文字，该广告推出又引起了网络媒体的一致差评，11月6日，这则广告在舆论压力下撤下。已开出两张60万元罚单长沙市工商局认为，长沙绝味食品营销有限公司和长沙汇邦广告有限公司在不同的网络平台上所发布的网络广告图片媚俗，文字低俗，其内容均违反了《中华人民共和国广告法》第九条第（七）项相关禁止性规定，应依据《中华人民共和国广告法》第五十七条之规定进行处罚。12月18日，长沙市工商局分别向长沙绝味食品营销有限公司和长沙汇邦广告有限公司下达《行政处罚听证告知书》，两者均不申请听证，在法定期限内未提出陈述申辩意见。12月22日，长沙市工商局分别向长沙绝味食品营销有限公司和长沙汇邦广告有限公司下达行政处罚决定：责令两单位停止发布违法广告；分别处罚款60万元。长沙绝味食品营销有限公司行政处罚决定书长沙汇邦广告有限公司行政处罚决定书发布平台也该担责此外，长沙市工商局在调查和查处“绝味”低俗广告时发现，该违法广告所发布的网络平台分别为深圳腾讯有限公司所属的微信公众平台和杭州天猫网络有限公司所属的天猫购物平台。根据《互联网广告管理暂行办法》第十八条之规定，遂将案件分别移送深圳市市场监督管理局和杭州市余杭区市场监督管理局。本文来源：中国消费者报责任编辑：白鑫_NT4464",
    "Comment": {
        "Content": "被CcT√点名的xX神药还在电视上卖同样的广告！ 8848小罐茶 主要是已经达到或超出预期效果了，这点儿钱不多，至于正面还是负面影响嘛，不谈，反正国人吃货多 为什么从来不查CCAV呢，天天放假广告假新闻。 CCAV假广告多的一批，没人管？。 十几年不看新闻联播了，听到那个开头的音乐就恶心🤢 虫草嚼着吃，卧槽，笑死我了 这就低俗广告了，那车模都得下岗了吧，我算是知道什么叫浊者见之以为淫了 “我的愿望是全天下的老人都能穿一双足力健老人鞋”。他吗你掏钱给买？ 60万这广告效应，上面有人吧？ 这波广告效应相比罚款的钱，值了 老子进来是看图的，图呢？？ 幸亏没有查到网易，要不然卖了都不够罚的 比广告费便宜多了 图呢？ 这广告的效应超过6000万广告投入的效果 这个免费广告打得好 你敢吗 60w做了n个头版了吧？值了超过预期了。 所以，绝味鸭脖是长沙的。。不是武汉的 如此少的罚款，达到了前所未有的营销效果，佩服 这广告我没看过，在这看的。 我没女儿，让你家女人表演一下？ 策划大才之人，花60万就登上各大媒体，这不，让你成功关注了嘛 我靠，一个鸭脖也能联系到性，估计广告策划的精虫上脑了 那个足力健老人鞋最近看得恶心死了 封面图呢 好多虚假广告，要求严打 Cctv的保健药，尿毒清，月经贴，大便不通、大便干，小便黄药的广告怎么不查呢？ 让我最痛恨的保健品广告就是全松茶，假的太明显了，所有的病就没有它不治的，全都能治，脑血栓，糖尿病，脂肪肝，肾虚，四肢麻木，免疫力低下，感冒，老年痴呆，便秘，脚气，各种心脑血管疾病，防癌，高血压喝了降血压，低血压喝了生血压等等等，只有你想不到没有他治不到。 又不是食品安全问题，不影响销量。 足力健，鸿茅药酒，莎普爱思，肠道清理💊~……………日了狗了 准备到网易了，大肆宣传低俗色情内容😃 啊啊啊 让你女儿拔下裤子你就明白了 我就佩服湖南人，像姓猫的一样，做营销做广告诈骗等等确实有一手 呵呵，锅加鸡密，无可粪告 现在还有人看ccav？我能有六七年不看了，也就每年春晚看一会儿 你懂啥？才罚了60万确上了个大网站热搜榜，变相广告！ 卧槽批准这广告的也是傻逼，还鲜嫩多汁，这下多汁了。 60W做了个广告值了！不对！通知各门店涨价！ 电视购物能不能管管，那么多虚假产品 呵呵，上次绝味鸭脖店爆出在店内厕所蹲坑里洗食材。 电视播放的保健品广告怎么不罚 鲜嫩多汁？谁解释下，看不懂这广告。 武汉鸭脖 我怎么还是副局长 这么一罚，知道的人更多了，广告效果也不错，厂家也不亏 60w做了n个头版了吧？值了超过预期了。 没有杜蕾斯的实力，还想靠这个吸引眼球，这就有点尴尬了。 这广告打的。值 广告内容跟鸭脖什么关系？ 就应该罚。 好早的新闻了，但是才发现绝味是长沙的 虫草嚼着吃，卧槽，笑死我了 广告审核咋过的？要罚也该罚审核的。 这就低俗广告了，那车模都得下岗了吧，我算是知道什么叫浊者见之以为淫了 这个广告，60万，值啦！ 尼玛封面的图呢？ 我们就是播一下，信不信你们自己说了算。管我们AV台什么关系 这营销策略好啊~ 60万花的真值！ 难吃的一比绝味鸡鸭脖子上都是淋巴细胞怎么下的了嘴。不要吃 中央广播电台天天播误导消费者的五粮液酒，很多人上当没人管。 广告内容是啥？好奇 这……，是经常便密！ 那个足力健老人鞋最近看得恶心死了 都是交了保护费的 湖北的是周黑鸭 。。 效果超值！ 很多低俗广告，山寨品牌都可以罚罚了 汇仁肾宝…日了狗了 还有傻逼小罐茶，笑死潮汕人和福建人。 [窃笑][窃笑] 图呢，无图说什么 他哼的是西游记序曲。。。。。 道貌岸然的东西 没图你说个🐔8 足力健，鸿茅药酒，莎普爱思，肠道清理💊~……………日了狗了 鲜嫩，肥美，多汁 我们这公交车上天天放青岛双星八超老人鞋 明明是诺基亚开机铃声 各卫视的应该治治 CCAV假广告多的一批，没人管？。 现在还有人看ccav？我能有六七年不看了，也就每年春晚看一会儿 广告在哪儿看 吐了 最后为什么不报名 60万做个广告，值了 现在价值600万了 看这个才知道绝味是湖南的耶。我一直以为湖北哒。 所以这个就不该管了？ 被CcT√点名的xX神药还在电视上卖同样的广告！ 没看清怎么回事 60w做了n个头版了吧？值了超过预期了。 我觉得这60万值了……好多每天免费帮他们打了一波广告了……虽然名声不好听，但是传播的够远够广了…… 封面图百看不厌， 为什么从来不查CCAV呢，天天放假广告假新闻。 所以说是坏名声……只有广度，没有深度 我希望天下老人都能有一双足力健 至少人家还有鸭（或鸡） 两个人就能演的节目！！！ 绝味营销团队年终奖要翻番了 60万这广告效应，上面有人吧？ 鸿茅药酒广告现在还活跃得很，啥时候到它，眼都快瞎了 这波广告效应相比罚款的钱，值了 感觉身体被掏空虚假又低俗罚了没？ 莎普爱思滴眼睛那个广告真是让我印象深刻，说实话我都想买过后来没买[大笑][大笑][大笑] 来而不往非礼也！ 但知名度不代表销量，至少我知道这个广告后只买周黑鸭不买绝味了 麻痹，图呢 知道满人和汉人的区别了吧！<br>什么？<br>大清要完？ 感觉这60万广告费很值 电视直销的违法广告还少吗？ 那个足力健老人鞋最近看得恶心死了 😣😣😣😣😣😣😌😌😌😌😌😌😌😌😌 封面图呢 是的这个60万价值600万 鸿茅药酒和足力健，烦死了 不打新股、不买上证50和沪深300的股票，坚持两年，操纵股市的恶棍们自然就死亡了！一定要记住… 比打广告划算 你倒是放出来啊 足力健，鸿茅药酒，莎普爱思，肠道清理💊~……………日了狗了 可以查查当年蚁力神，更是通天 准备到网易了，大肆宣传低俗色情内容😃 电视购物明摆着骗人，但是没人管。 绝味高管：已达到预期营销效果，这波不亏。 交了保护费就好了[狗] 啊啊啊 无底线，该罚 咚咚咚咚咚咚， 欲加之罪何患无词 吃鸭脖子的，多数是女的吧？正常的女的看见这样的广告还有购买欲望？ 选择性 好多虚假广告，要求严打 CCAV假广告多的一批，没人管？。 现在还有人看ccav？我能有六七年不看了，也就每年春晚看一会儿 本来就是为了吸眼球，这下赚大了 低俗的图呢？ 哈哈 罚的好，狠狠的罚 电视购物能不能管管，那么多虚假产品 封面图呢！！！骗我进来啃字儿呢？？ 效果已超逾期 8848小罐茶 广告在哪呢 佛主也没办法！ 有多少人是看了cctv的e租宝广告去买的 无图言屌 CCAV假广告多的一批，没人管？。 年底了，缺钱了，大家注意吧 除了日了狗了，我都看过 足力健、脑白金…… 谁没事自己打自己脸呢？ 图呢？ 老子进来是看图的，图呢？？ 这种贴我一般不看评论直接发，因为不看，一定喷子高潮贴。 幸亏没有查到网易，要不然卖了都不够罚的 广告呢 【支f宝】年终红包再加10亿！现在领取还有机会获得惊喜红包哦！长按复制此消息，打开最新版支f宝就能领取！G2xtmf62Ws 一个大帽子扣下去、孝敬爸妈就买脑白金呢？ 咋就低俗了。。。没看出来啊。。。 呵呵 八超老人鞋，特么得脑梗的都可以穿 处罚太轻 那个足力健老人鞋最近看得恶心死了 呵呵 千万别买，很重很重的香精味，难吃得想吐，我买几十块钱的都扔了。草泥马绝味鸭脖赶紧倒闭！ 还我封面 专业打酱油的飘过 都是为了生存 【支f宝】年终红包再加10亿！现在领取还有机会获得惊喜红包哦！长按复制此消息，打开最新版支f宝就能领取！G2xtmf62Ws 这波广告打的好，变新闻了 今天你们洗碗…… 足力健，鸿茅药酒，莎普爱思，肠道清理💊~……………日了狗了 主要是那个演员代言的 我本想来看看他们是如何低俗的，TMD小编把图吃了 国家品牌计划？ 那些是自己人， 呵呵，锅加鸡密，无可粪告 60万你找个明星便宜多啦，现在大家都知道了 香港上市销售一周年 60万就可以打这么多次广告真合算 建议就是鸭脖也要改成团状，别整成条状的 看看 快去请西方如来！！！！ 除了日了狗了，我都看过 电视播放的保健品广告怎么不罚 我养过野鸡，山鸡，竹鼠。现在送快递 敢的人没权，有权人不敢。 罚款创s 60w做了n个头版了吧？值了超过预期了。 图片呢 真想拿整根变态辣鸭脖捅进去 上头版又怎样，恶名昭彰 CCAV假广告多的一批，没人管？。 罚得好！ 刘嘉玲的燕窝广告每天听好几遍特么的 校园暴力怎么没见你政府这么激急的处理呢 没学到杜蕾斯的精髓，东施效颦说的就是它。咋不叫鹿晗去代言妇炎洁呢？ 脑白金这种骗子广告都没人管？ 内心是什么，看到的就是什么，电视广告一堆没人这么操心，一张图就全给顶高潮了，搞不懂 “我的愿望是全天下的老人都能穿一双足力健老人鞋”。他吗你掏钱给买？ KFC好像也有点？ ccav台长是副部级高官呢，谁敢去查？ 还有一个：叫了只🐔 这个对企业正面影响大，做成这样子还是社会影响了。应该算亏了 曹清华牌止痛贴膏 Cctv的保健药，尿毒清，月经贴，大便不通、大便干，小便黄药的广告怎么不查呢？ 罚6000万能叫罚？ 这下出名了，不看网易不知道 要严严严 呵呵，上次绝味鸭脖店爆出在店内厕所蹲坑里洗食材。 那个足力健老人鞋最近看得恶心死了 你敢吗 洗洗更健康，这个更色情，给人无限想象！洗哪里？怎么洗？ 这种广告能审计过，那个公司的人得什么样，不能吃了。 封面图呢 图呢 鲜嫩多汁本来就用来形容肉类的啊 这个谁敢 交了钱就是情色没交就是色情 你手里拿着刀能反手给自己一刀么？ 他妈的，网易就是怕死！别人别罚了，连图都不敢配 呵呵 级别比工商局高副厅级电视台，正处级工商局。怎么罚？ 图呢？ 鲜嫩多汁？谁解释下，看不懂这广告。 让你女儿拔下裤子你就明白了 有多低俗？ 都是体制内的垃圾 以前买绝味的时候，那个服务员把鸭头给弄到地上了，然后当做我的面从地上捡起来装到盘子里面去。从此再也不吃绝味了 同问 最少罚6000 是工商自己脑补了下画面 你敢管么 鲜嫩多汁，想要吗？[不屑][不屑][不屑] 这些傻逼不去抓食品安全，天天想的点子罚钱一套一套的，要说黄，没有人比你们会玩 低俗 电视播放的保健品广告怎么不罚 我谨代表我家表示绝对不会再买绝味。 管一下你们自家后院好不好？ 不要脸的信息z，这些厂家真是渣 各地电台假专家找各种托打电话卖保健品，这么多年了您查过吗？？ 什么💊哪有卖 60w做了n个头版了吧？值了超过预期了。 吃的是一种感觉[窃笑] 高航 CCAV假广告多的一批，没人管？。 这～～估计只有皇军能管。 年底了要给单位谋福利了 广告不审批的？ 说实话没觉得低俗在哪里，不都是这样么？ 都是自己人，怎么管？ 杜…… 足力健那个浪老娘们在那跑来跑去的看着就烦 首页的图片呢 哦哦哦 六个核桃 国家台做假广告你们为什么不敢去查！到地方装逼了！ 廣告創意，我只服匯仁腎寶，妳好我也好！ 网上动不动弹出那些不堪入目的网页怎么解 一天一片，一晚干五次不费劲那个算不算？ “岳不群”们！！！其实自己满脑子男盗女娼，还有脸说别人低俗。孔子都说“食色性也”。装逼犯迟早要完蛋！ 没看过 可以可以 这国家你不懂？没关系没利益你就啥都没有！ 爽歪歪了 我怎么没看出这个广告哪里有毛病啦？[晕][晕] 自己孩子出去强奸了老百姓的孩子，当然是要护犊子的 葛洪药膏，香丹清，鸿茅药酒，曹清华胶囊， 足力健，鸿茅药酒，莎普爱思，肠道清理💊~……………日了狗了 听说赞我的，粉我的，还有在我这买正品奔富红酒的，2018年梦想都会成真哦！我们价格美丽，包邮到家，酒品还支持验货。有想法的亲私我😊 罚得好，有进步。希望下次把罚款单开到电视台。 是秧屎就不同了！ 曹清华，益安宁 我是来看广告的！ 这个广告费值了，全国都在报道 情怀啊😄 这头版你觉得是好的，对品牌有好的宣传，那你就是智障 🔫 想钱想疯了，国家也是如此 鸭脖子有什么可吃的，那部位是最不建议食用的 网易也得罚，那图标醒目低俗 没有名堂！乱罚款！[喷水][喷水][喷水] 罚了太少，多罚点 他好我也好～算不算 什么大罪？比黄有龙赵薇罚的都多？ ",
        "Total": 8768,
        "Link": "http://comment.tech.163.com/tech_bbs/D6LGIUVK00097U7R.html",
        "Reply": 430
    },
    "Source": "Netease"
}