{
    "Title": "潘长江女儿一家外出游玩 晒近照尖下巴抢镜_网易娱乐",
    "URL": "http://ent.163.com/photoview/00AJ0003/646897.html",
    "Source": "Netease",
    "Article": "潘长江女儿一家外出游玩晒近照尖下巴抢镜12月28日，潘长江女儿潘阳在微博晒出一组照片。照片中，潘阳与家人在海边游玩，享受温馨幸福时刻。",
    "PublishTime": "12/29/201708:08:00",
    "Comment": {
        "Total": 518,
        "Content": "天呐真心认不出来 完全认不出来了 有想法顶屁用，赶紧对着照片撸一发！ 长相一般，满大街多的是，不到北京就一农村妞 蛮漂亮，有想法 很明显整容了 也换头了？ 人家是整容，潘阳是换脸，原来多漂亮，何必呢 拜见岳父大人。。岳父大人。。您别跪着啊啊您没跪啊看错了 整容了，其实以前也很漂亮，属于自然美，这一整不认识了，将来老了脸部鼓包塌陷的不如不整容。 整了N次[窃笑] 一张普通不能再普通的脸 潘矮子圆脸啥时变尖了 小地炮--长江！ 潘阳是不是整容了，和我不是明星里面不太一样了 那还整的蛮成功呢 这裙子穿她身上，令她老了十几岁！ 不像以前呢！ 完全认不出来了 小地炮--长江！ 蛮漂亮，有想法 很明显整容了 也换头了？ 再整也红不了 好漂亮 潘矮子圆脸啥时变尖了 老了 整了N次[窃笑] 潘阳是不是整容了，和我不是明星里面不太一样了 艾玛现在手机拍照这么强大，我这两百斤的大脸都能拍成160的，稀奇么？ 人家是整容，潘阳是换脸，原来多漂亮，何必呢 有想法顶屁用，赶紧对着照片撸一发！ 长相一般，满大街多的是，不到北京就一农村妞 天呐真心认不出来 B真就行 一点都不像呢 拜见岳父大人。。岳父大人。。您别跪着啊啊您没跪啊看错了 整容了，其实以前也很漂亮，属于自然美，这一整不认识了，将来老了脸部鼓包塌陷的不如不整容。 以前是个大胖妞 一张普通不能再普通的脸 潘阳很美 鼻子确实不一样了啊。。。这。。 ",
        "Reply": 27,
        "Link": "http://comment.ent.163.com/ent2_bbs/PHOTJNNH000300AJ.html"
    },
    "KeyWords": "潘长江,"
}