{
    "Title": "维罗纳VS尤文前瞻:尤文必擒升班马 外租妖星弑主?_网易体育",
    "URL": "http://sports.163.com/17/1229/17/D6RE6EUI00058781.html",
    "Source": "Netease",
    "Article": "网易体育12月29日报道：北京时间12月31日3点45分，意甲第19轮，尤文客场对阵维罗纳，主队或遭遇本赛季第9次单场丢3+进球，尤文外租的00后小将基恩或首发面对东家，伊瓜因若进球，将连续10个赛季联赛进球上双。交锋历史：两队历史交手63次，其中54场为意甲比赛，维罗纳10胜14平30负，进49球丢93球，坐镇主场的27场意甲比赛，维罗纳10胜10平7负，进32球丢31球。两队最近的交手发生在2015-16赛季，当时双方各胜主场，维罗纳在主场2比1掀翻尤文，但那也是两队2000年以来13次交锋中维罗纳唯一一场胜利。维罗纳再遭3球虐杀？维罗纳本赛季已经8次单场丢掉3球或者更多，那不勒斯、佛罗伦萨、罗马、拉齐奥、切沃、亚特兰大、博洛尼亚以及乌迪内斯均曾羞辱过维罗纳防线，该队上轮0比4不敌乌迪内斯后，已经丢掉36球，仅积13分，排在积分榜第19位，落后安全区两分，此番对决尤文，他们首先要做到的是避免再次大比分输球。基恩首发战东家？本赛季，17岁的基恩被尤文租借给维罗纳，截止到上轮，已经出场13次，在663分钟的出场时间内，贡献两个进球，其中包括对阵米兰时替补登场后的推射破门，在意大利媒体的预测中，这位2000后新星有望在面对母队尤文时首发出战，他会敲开斯泽斯尼的球门么？伊瓜因联赛进球上双？本赛季前17次联赛出场，伊瓜因已经打进9球，此役若能有所斩获，他将实现连续10个赛季联赛进球上双的成绩，自从2008-09赛季开始，他的联赛进球均达到或者超过10个，其中5次破20，1次破30。尤文最近5个联赛进球来自5名不同球员（贝纳蒂亚、皮亚尼奇、曼朱基齐、马图伊迪以及伊瓜因）。烟枪职业生涯4次面对维罗纳打进4球，其中包括一次帽子戏法。双方伤停：维罗纳：切尔奇、法雷斯、扎卡尼、切鲁宾、比安切蒂尤文：布冯、赫韦德斯、德西利奥、皮亚尼奇预测首发：维罗纳（4411）：尼科拉斯；卡塞雷斯、卡拉乔洛、厄尔托、费拉里；罗慕洛、布彻尔、祖库里尼、维尔德；贝萨、基恩尤文（4321）：斯泽斯尼；利希施泰纳、基耶利尼、贝纳蒂亚、桑德罗；马尔基西奥、赫迪拉、马图伊迪；迪巴拉、道格拉斯-科斯塔；伊瓜因本文来源：网易体育作者：远风责任编辑：冯昊天_NSJS2656",
    "PublishTime": "12/29/201717:31:51",
    "Comment": {
        "Total": 5,
        "Content": "三分，全力以赴 顺利通过魔鬼赛程，尤文加油！ 三分，全力以赴 顺利通过魔鬼赛程，尤文加油！ ",
        "Reply": 2,
        "Link": "http://comment.sports.163.com/sports2_bbs/D6RE6EUI00058781.html"
    },
    "KeyWords": "维罗纳,尤文,伊瓜因"
}