{
    "Comment": {
        "Total": 75,
        "Reply": 8,
        "Link": "http://comment.news.163.com/news2_bbs/D76Q8SQB00018AOR.html",
        "Content": "买我们的吧！又坚固又便宜 纽约除了几个公园好一点，其他的真的是一堆脏乱差，中国这几年确实赶上不少，不过空气方面还得努力。他们的小城镇反而比较好，我们国内的小镇就差远了，其实小镇的规划建设营销也是很大的特色增加收入 在国内，撞死一个早就拨款5个亿给你装一堆屏障，这费用你懂 到底怕什么？ 什么时候把地铁站翻新一下？ 像邪教徒妥协了 时代化！ 到底怕什么？ 买我们的吧！又坚固又便宜 纽约除了几个公园好一点，其他的真的是一堆脏乱差，中国这几年确实赶上不少，不过空气方面还得努力。他们的小城镇反而比较好，我们国内的小镇就差远了，其实小镇的规划建设营销也是很大的特色增加收入 厉害了 看看时代广场的天际线，像个什么样子。作为一个北京城管看不下去了 在国内，撞死一个早就拨款5个亿给你装一堆屏障，这费用你懂 什么时候把地铁站翻新一下？ "
    },
    "Title": "多起恐袭之后 纽约将给时代广场安装“永久屏障”_网易新闻",
    "KeyWords": "恐袭,纽约时代广场,街区",
    "Article": "（原标题：多起恐袭之后，纽约将给时代广场装“永久屏障”）纽约时代广场。资料图。海外网1月3日电据美联社报道，美国纽约市长周二（当地时间1月2日）表示，作为2017年纽约发生的多起汽车撞人事件的应对措施，纽约时代广场和周边其他地区将安装永久性的新防护屏障。报道称，纽约市长比尔·德布拉西奥(BilldeBlasio)说，市政府已经投入5000万美元，以便在该市关键地点安装保护措施，其中包括安装1500个金属护栏。他还表示，这项计划将于三月份开始实施，与此同时，临近纽约时代广场的一些街区已经设置了一些安全保障设施。据悉，2017年5月，一名被纽约警方认为吸毒的男子开车冲撞了人群，汽车共穿过三个街区，造成1人死亡。2017年10月31日，纽约曼哈顿下城又发生一起卡车撞人恐怖袭击事件，共造成8人死亡，袭击者最终被警察击毙。本文来源：海外网责任编辑：张海桐_NN9053",
    "URL": "http://news.163.com/18/0103/03/D76Q8SQB00018AOR.html",
    "PublishTime": "01/03/201802:52:22",
    "Source": "Netease"
}