{
    "PublishTime": "12/27/201703:33:49",
    "Source": "Netease",
    "Comment": {
        "Link": "http://comment.sports.163.com/sports2_bbs/D6KPEHP700058781.html",
        "Total": 3750,
        "Reply": 246,
        "Content": "不是曼联球迷就一定是巴狗，没毛病 瓜迪奥拉把伊布按板凳上是有冠军奖杯的，鸟啥都没有 我可以说上半场的丢球是运气差吗 2楼智障没看过球。 鸟粪们欠林加德一句道歉和一句感谢 5年前，伊布就被瓜迪奥拉按在板凳上了，现在穆鸟捡回来当个宝 我怎么觉得曼联板块鸟粪更多，不信去切尔西板块看看，都没评论了，全跑到曼联板块来护主了。相反巴萨板块人数依旧多 伯恩利根本不敢赢，万一在更衣室挨打可怎么办 摆个大巴任由对方不停的进攻？哥们儿，就算你昨晚没看比赛也可以看一下赛后统计吧？到底谁在摆大巴啊？当然，我从来不认为摆大巴可耻，伯恩利摆大巴绝对是合理的选择，但你也不能颠倒黑白说是曼联摆大巴啊。昨晚伯恩利全场总共只有3次射门，射正2次全都进了；曼联全场23次射门，6次射正也只进了2球。控球比曼联71%对伯恩利29%。然后你告诉我曼联在摆大巴？真瞎还是装傻啊？没找对黑点吧？来来来我教你该怎么黑，曼联这破队把握机会能力太差，你看人家伯恩利，3次射门就能进2个，你曼联23次射门也只能进2个，进攻效率太差。控球率有个毛用啊？射门多有个毛用啊？进球才是硬道理。 即使问题多多，还是第二啊…… 那个足球板块的热门不是巴智？ 赞一个，感谢老穆，但来的不是时候，或者说与我魔不搭，最重要的，鸟粪，巴🐶滚蛋，还我魔板块一片清净！支持吉哥上任！ 恭喜曼联成功狙击伯恩利，强行逼平对手豪取一分。联赛冠军唾手可得！ 内鬼是拉什福德 想沾一步联赛冠军的仙气。 这样很差吗？没有BUG的话。 感觉运气在阿森纳那场用完了，后面运气一直差 伊布是站桩式中锋，他要高点抢下球护好再分球，能更大发挥作用，你让伊布去踢10号位，拿球突破组织进攻就是他妈的瞎安排。 嗯，这个心态蛮好的，大家生活压力都那么大了，休闲之余喷一喷自己讨厌的人也是个乐子，可是一楼喷错了点，关于伊布的买卖和使用，瓜更难堪，找其它的点喷吧 第三的时候就会说还在前四啊...跌出第四就会说没有降级区啊.. 鲁尼这赛季进9个了😰 鸟的战术真精彩，双塔战术？伊布就他妈是去给卢卡库搅屎的 没错，所以穆鸟现在感恩伊布，买来伊布坑曼联 伊布老了，留下传奇 臭味相投，死剩把嘴 后面切尔西只差一分，不要看前面的曼城了，切尔西才是曼联的最大对手 恕我直言，伊布顶多算顶级球星，连巨星都不算，传奇就更夸张了。 专攻欧冠吧 伊布给我最深刻的印象，是进过几个匪夷所思的球，很有想象力，身材高大强壮，小技术却很细腻，拿球护球能力突出，可以作为前场的一个支点，仅此而已。是球星不假，要说顶级球星、传奇巨星，论个人荣誉、团队荣誉，他都很欠缺。 哪一次的丢球不是运气差？ 还有人说穆鸟有多牛掰吗曼联的问题太多了范加尔都花了两年时间没解决就更别说穆鸟一个翻译了 懒得跟鸟粪争论谁厉害了，其实没有瓜迪奥拉的话，穆鸟确实是当今第一教练，最少薪水是这样的 尼玛伯恩利金元足球，不也没能赢我大曼联吗？ 伊布原来是内鬼[大哭] 因为穆尼尼奥应聘的资格都没有，都是备胎中的备胎，比如曼联就是瓜迪奥拉，范加尔，甚至莫耶斯的备胎，就好比某些人从未加入过世界前五十强的好公司，还在垃圾公司工作一个道理 这个伊布打amf绝对是开玩笑的，木鸟运气好，捡了一分，不然麻烦大了 穆帅还是走吧，带走鸟粪和萨狗，真心烦，反正成绩又不怎么样，谢谢你的付出 因为瓜迪奥拉总是挑选冠军队来执教，穆里尼奥负责替弱势没落俱乐部提升成绩 一个36岁的人，鸟还一直对他恋恋不忘，高薪求来，只为给自己一个忠实的守护者，曼联的管理层也是傻逼，居然还能答应这比交易 这些球员都是什么态度？别把鸟🐦给气死了[大笑][大笑] 排名不差，但是场面太差，照这样，后面的追分很容易 是的，卢卡库的头球和我一样，有身高但是对高球的判断不是那么的好，比不上很多中下游球队的白人传统英锋。 穆里尼奥对曼联更衣室的控制出了问题……<br>大伊布是穆里尼奥死忠，也是穆来到曼联以后一直想树立的旗帜。他的位置和本来的曼联旗帜大鲁尼是重叠的。因此，穆在赛季初卖了鲁尼留下伊布。<br>然而，伊布老矣，尚能战否？<br>明明不是大中锋的伊布硬生生被改打双塔战术？？？让大伊布情何以堪啊……<br>穆下半场换下伊布，是自我否定，也是自我救赎。最后幸运的扳平比分。至少说明曼联的精气神没有丢👍<br>但是，我魔更衣室从此谁说了算呢？ 很好，第一个诚实人 呵呵，你最懂行了吧？所谓巨星难道不应该像梅罗那样团队荣誉、个人荣誉都具备。伊布拿过金球或是世界足球先生么？拿过欧冠么？亦或是有什么超凡的纪录？我没记错的话他连欧洲金靴奖都没得过，金足奖也就只有一座！谈何巨星？就靠吹牛逼么？说他是顶级已经很给面子了，没说他大牌软脚。传奇就更扯不上了！另外，有他的球队欧冠也注定走不远。 大哥，开场三分钟就丢球了，还是在曼联主场，你想摆大巴对方也不配合你啊！这要是开场三分钟曼联先进球，数据就会掉过来。 穆帅我没你电话，听听我的建议。1卢卡库不能在禁区内防守，头球是他的弱点，在禁区外可以打反击。2少打下底传中，不要迷信长得高就狂轰乱炸，要多打地面直塞，曼城和利记的中前场无球跑动就很出色。3冬窗再买个中场和前锋，辅助博格吧，现有前锋还是嫩了点，球商不太高，少卖黑人，多买白人。<br>总之，每次落后才想起进攻，但是缺乏配合自信再加上不给点球时间越来越少等，心态就出了问题。总之，穆帅再不求变就真的只能来中超了。我是在救你！ 水平高下立现，瓜秃吊打鸟 球员不行不是我鸟的锅…！ 当打之年在强队都是小弟，没当过核心，嘴炮打得好，是一部分球迷的偶像。 你忘记了，瓜用埃托奥加4600万买伊布。然后被穆里尼奥跟埃托奥淘汰，然后低价又转卖伊布给意甲。瓜杠杠的！！ 可惜沾上了怨妇嘴炮的功夫 运气也和概率有关，你摆个大巴镇任由对方不停的进攻，没准哪次就运气不好被进一个。相反你一直控球在对方半场，当然也有可能丢球被打反击，但概率要小很多。 都去打欧联了，还感谢什么，要不是穆帅争取，球员争气，拿个冠军，不然欧冠又进不去 前场需要磨合的曼联刚重建第二年走了之前的鲁尼需要重新打造进攻哪个球队进攻核心走了不需要缓两年的当然进攻核心多的除外 不是曼联球迷就一定是巴狗，没毛病 瓜迪奥拉把伊布按板凳上是有冠军奖杯的，鸟啥都没有 不允许伯恩利拿到1分！！！ 伊布是真老了，技术还在，身体跟不上，卢卡库停球能力有伊布那种水准才可能成为顶级中锋，每次停球都两三米开外。 鸟粪们欠林加德一句道歉和一句感谢 穆帅还是走吧，带走鸟粪和萨狗，真心烦，反正成绩又不怎么样，谢谢你的付出 看比赛了么，运气好一分？ 首先，瓜没有把伊布按板凳上，伊布在巴萨就踢了一个赛季，没记错的话进球20+助攻10+吧，数据很亮眼，其次，伊布在国米和曼联合作过，他俩合作每个赛季都有冠军入账，国米时期是意甲冠军，曼联是个小三冠 曼联在厨师莫耶斯加废物墓表花的钱第一多，不许说鸟粪们的废物嘢爹不好，不然你就是巴沟，没赢球是球员内鬼责任，哈哈赛季前预测的东西慢慢实现了，傻逼球盲废物鸟粪们给它们的废物嘢爹穆表败人品现在遭报应了，又让弱队虐了，不过傻逼球盲鸟粪们会意银说曼联没有输就是胜利，3亿打造的脏笔龟公功夫任人虐槽还不够，必须要6亿，一招龟公大巴足球业余教练都会，却被傻逼球盲鸟粪们吹上天，现实里没有能力的废物专门靠假大空和意银，笑看墓表曼联四大皆空，不过鸟粪会意银曼联砸这么多钱就是为了欧联杯和联赛杯的，每天点漕傻逼球盲鸟粪们么比，哈哈。 老布还是歇歇吧，有时间替老穆打理一下更衣室…… 那个……恕我孤陋寡闻，上帝不是伊布自称的么？ 所以现在知道鲁尼多牛逼了吧，30岁还能前腰能中锋 222222222 廉颇老矣，尚能饭否？ 这种比赛伊布真的不如鲁尼拼 看着心酸。。伊布受伤后一直没恢复到以前的状态 赞一个，感谢老穆，但来的不是时候，或者说与我魔不搭，最重要的，鸟粪，巴🐶滚蛋，还我魔板块一片清净！支持吉哥上任！ 年纪大了 切，卢卡库比伊布还不如，天天神助攻 没事就说林加德配不上曼联，，好心累。还有拉什福德。。欧冠小组进这么多。活活被喷的在曼城连替补都没人要。自家青训的球员就算水平比别人的外援差点肯定是力捧的。 这个伊布打amf绝对是开玩笑的，木鸟运气好，捡了一分，不然麻烦大了 哈哈，木负责挑没落俱乐部提升成绩？哈哈哈哈，脸比城墙还厚，也难怪总有屌丝逆袭的偏执 利物浦又是一场大胜，切尔西和热刺也如此，拿了三分又好看，曼联的第二位置快不保了，还是担心下自己的排名吧，别BB了。 十个了[大笑] 鲁尼这赛季进9个了😰 鸟的战术真精彩，双塔战术？伊布就他妈是去给卢卡库搅屎的 曼联在厨师莫耶斯加废物墓表花的钱第一多，不许说鸟粪们的废物嘢爹不好，不然你就是巴沟，没赢球是球员内鬼责任，哈哈赛季前预测的东西慢慢实现了，傻逼球盲废物鸟粪们给它们的废物嘢爹穆表败人品现在遭报应了，又让弱队虐了，不过傻逼球盲鸟粪们会意银说曼联没有输就是胜利，3亿打造的脏笔龟公功夫任人虐槽还不够，必须要6亿，一招龟公大巴足球业余教练都会，却被傻逼球盲鸟粪们吹上天，现实里没有能力的废物专门靠假大空和意银，笑看墓表曼联四大皆空，不过鸟粪会意银曼联砸这么多钱就是为了欧联杯和联赛杯的，每天点漕傻逼球盲鸟粪们么比，哈哈。 奉先已老，只有卢卡库一个正印中锋问题还是很大。马夏尔和拉师傅他们踢习惯边路去踢中路其实是不行的，边路可以正面拿球，中路只能背身拿球。 曼联在厨师莫耶斯加废物墓表花的钱第一多，不许说鸟粪们的废物嘢爹不好，不然你就是巴沟，没赢球是球员内鬼责任，哈哈赛季前预测的东西慢慢实现了，傻逼球盲废物鸟粪们给它们的废物嘢爹穆表败人品现在遭报应了，又让弱队虐了，不过傻逼球盲鸟粪们会意银说曼联没有输就是胜利，3亿打造的脏笔龟公功夫任人虐槽还不够，必须要6亿，一招龟公大巴足球业余教练都会，却被傻逼球盲鸟粪们吹上天，现实里没有能力的废物专门靠假大空和意银，笑看墓表曼联四大皆空，不过鸟粪会意银曼联砸这么多钱就是为了欧联杯和联赛杯的，每天点漕傻逼球盲鸟粪们么比，哈哈。 切尔西人少?是去年今年人少，鸟在切尔西的时候人多得很，很多鸟粪现在转会到曼联了 三脚射门中两，下半场射门都没，你可以喷曼联防守，喷教练失掉自已看家本领，不可能颠倒黑白说人家摆的就不是大巴吧！ 恕我直言，伊布顶多算顶级球星，连巨星都不算，传奇就更夸张了。 5年前，伊布就被瓜迪奥拉按在板凳上了，现在穆鸟捡回来当个宝 内鬼是拉什福德 伊布老了，留下传奇 以现在曼联的人员和打法，估计遇到上港都得跪，根本挡不住浩克和武磊的冲击。 伊布原来是内鬼[大哭] 曼联在厨师莫耶斯加废物墓表花的钱第一多，不许说鸟粪们的废物嘢爹不好，不然你就是巴沟，没赢球是球员内鬼责任，哈哈赛季前预测的东西慢慢实现了，傻逼球盲废物鸟粪们给它们的废物嘢爹穆表败人品现在遭报应了，又让弱队虐了，不过傻逼球盲鸟粪们会意银说曼联没有输就是胜利，3亿打造的脏笔龟公功夫任人虐槽还不够，必须要6亿，一招龟公大巴足球业余教练都会，却被傻逼球盲鸟粪们吹上天，现实里没有能力的废物专门靠假大空和意银，笑看墓表曼联四大皆空，不过鸟粪会意银曼联砸这么多钱就是为了欧联杯和联赛杯的，每天点漕傻逼球盲鸟粪们么比，哈哈。 曼狗🐶🐶穆鸟🐦都是垃圾废物曼联 你们是不是傻逼？伊布上赛季的表现被吃了？这才大病回归多久？你们就是这么健忘的脑残傻逼么？上赛季征服曼联的牛人复出也没多久就这么一场球就来冷嘲热讽啦？？？特么的辣鸡！ 曼联在厨师莫耶斯加废物墓表花的钱第一多，不许说鸟粪们的废物嘢爹不好，不然你就是巴沟，没赢球是球员内鬼责任，哈哈赛季前预测的东西慢慢实现了，傻逼球盲废物鸟粪们给它们的废物嘢爹穆表败人品现在遭报应了，又让弱队虐了，不过傻逼球盲鸟粪们会意银说曼联没有输就是胜利，3亿打造的脏笔龟公功夫任人虐槽还不够，必须要6亿，一招龟公大巴足球业余教练都会，却被傻逼球盲鸟粪们吹上天，现实里没有能力的废物专门靠假大空和意银，笑看墓表曼联四大皆空，不过鸟粪会意银曼联砸这么多钱就是为了欧联杯和联赛杯的，每天点漕傻逼球盲鸟粪们么比，哈哈。 点赞！ 买一个35岁的伊布，伊布能踢几年自己没点数吗？看看隔壁瓜迪奥拉把亚亚图雷压在板凳上，为的是俱乐部的未来。你鸟爹能为曼联长久考虑吗？年年买自己经纪人的球员，好好想想吧 曼联在厨师莫耶斯加废物墓表花的钱第一多，不许说鸟粪们的废物嘢爹不好，不然你就是巴沟，没赢球是球员内鬼责任，哈哈赛季前预测的东西慢慢实现了，傻逼球盲废物鸟粪们给它们的废物嘢爹穆表败人品现在遭报应了，又让弱队虐了，不过傻逼球盲鸟粪们会意银说曼联没有输就是胜利，3亿打造的脏笔龟公功夫任人虐槽还不够，必须要6亿，一招龟公大巴足球业余教练都会，却被傻逼球盲鸟粪们吹上天，现实里没有能力的废物专门靠假大空和意银，笑看墓表曼联四大皆空，不过鸟粪会意银曼联砸这么多钱就是为了欧联杯和联赛杯的，每天点漕傻逼球盲鸟粪们么比，哈哈。 这游戏让人头狗祸害的不象样，推塔游戏还是抢人头游戏？你永远也和脑残想法不一致的 曼联在厨师莫耶斯加废物墓表花的钱第一多，不许说鸟粪们的废物嘢爹不好，不然你就是巴沟，没赢球是球员内鬼责任，哈哈赛季前预测的东西慢慢实现了，傻逼球盲废物鸟粪们给它们的废物嘢爹穆表败人品现在遭报应了，又让弱队虐了，不过傻逼球盲鸟粪们会意银说曼联没有输就是胜利，3亿打造的脏笔龟公功夫任人虐槽还不够，必须要6亿，一招龟公大巴足球业余教练都会，却被傻逼球盲鸟粪们吹上天，现实里没有能力的废物专门靠假大空和意银，笑看墓表曼联四大皆空，不过鸟粪会意银曼联砸这么多钱就是为了欧联杯和联赛杯的，每天点漕傻逼球盲鸟粪们么比，哈哈。 这不中场把一步拉稀换下给你们鸟粪喂屎了吗，😂😂😂 你别说伊布真适合穆鸟！可惜已经不是原来的伊布穆鸟也不是原来的穆鸟鸟这辈子做的最错的决定就是皇马那几年！搞得现在攻不行守不住的四不像打法！别看大巴，其实我懂他心里极其向往攻势足球 排名不差，但是场面太差，照这样，后面的追分很容易 穆里尼奥对曼联更衣室的控制出了问题……<br>大伊布是穆里尼奥死忠，也是穆来到曼联以后一直想树立的旗帜。他的位置和本来的曼联旗帜大鲁尼是重叠的。因此，穆在赛季初卖了鲁尼留下伊布。<br>然而，伊布老矣，尚能战否？<br>明明不是大中锋的伊布硬生生被改打双塔战术？？？让大伊布情何以堪啊……<br>穆下半场换下伊布，是自我否定，也是自我救赎。最后幸运的扳平比分。至少说明曼联的精气神没有丢👍<br>但是，我魔更衣室从此谁说了算呢？ 伊布经纪人拉伊奥扎，鸟经纪人门德斯，世界上有谷歌百度必应360 穆帅我没你电话，听听我的建议。1卢卡库不能在禁区内防守，头球是他的弱点，在禁区外可以打反击。2少打下底传中，不要迷信长得高就狂轰乱炸，要多打地面直塞，曼城和利记的中前场无球跑动就很出色。3冬窗再买个中场和前锋，辅助博格吧，现有前锋还是嫩了点，球商不太高，少卖黑人，多买白人。<br>总之，每次落后才想起进攻，但是缺乏配合自信再加上不给点球时间越来越少等，心态就出了问题。总之，穆帅再不求变就真的只能来中超了。我是在救你！ 我很欣赏你的坦诚…然而连年没有欧冠资格和冠军的球队不是没落？<br>你的意思是利物浦比曼联强？ 这些年从曼联出去的前锋一个比一个牛逼 大凤仙倒下后，爬进了禁区，可惜裁判不长眼，不给点球。 这场曼联进攻破大巴试过定位球（角球-任意球）试过直塞（马塔、姆希塔良）试过挑传（马蒂奇、马塔、博巴）试过远射（博巴、卢克肖）试过传中（各种高中低的传中，进的第一球和林加德打中佩普弹横梁的就是低传。）试过禁区内配合（卢克肖、拉师傅、伊布，不过少点）能让二球压出去扳平，也算可以了吧。 曼联在厨师莫耶斯加废物墓表花的钱第一多，不许说鸟粪们的废物嘢爹不好，不然你就是巴沟，没赢球是球员内鬼责任，哈哈赛季前预测的东西慢慢实现了，傻逼球盲废物鸟粪们给它们的废物嘢爹穆表败人品现在遭报应了，又让弱队虐了，不过傻逼球盲鸟粪们会意银说曼联没有输就是胜利，3亿打造的脏笔龟公功夫任人虐槽还不够，必须要6亿，一招龟公大巴足球业余教练都会，却被傻逼球盲鸟粪们吹上天，现实里没有能力的废物专门靠假大空和意银，笑看墓表曼联四大皆空，不过鸟粪会意银曼联砸这么多钱就是为了欧联杯和联赛杯的，每天点漕傻逼球盲鸟粪们么比，哈哈。 搅完屎，喂你这条狗吃[狗] 你说 你忘记了，瓜用埃托奥加4600万买伊布。然后被穆里尼奥跟埃托奥淘汰，然后低价又转卖伊布给意甲。瓜杠杠的！！ 楼上，伊布率领瑞典和C罗率领的葡萄牙在预选赛上正面刚过两场，完败！ 老弱病残曼联队 在鸟粪眼里，曼联都是弱队了 还是楼上两位球迷最理性。第一，曼联最恨摆大巴，给球队抹黑。第二，曼联全场进攻是有套路的，是球员不行，尤其楼上所提的几个人拉师傅姆希塔良卢卡库，球员太差，要换。第三，运气太差，任意球防守只有一个起跳的，还是卢卡库！直接造成第一失球，曼联的进球全是实打实的，是通过战术配合进的，一点儿运气都没有。第四，三次射正两个进球，上一场也是这样，何大牙，忍你很久了。 我可以说上半场的丢球是运气差吗 最后进的球是靠运气 还是楼上两位球迷最理性。第一，曼联最恨摆大巴，给球队抹黑。第二，曼联全场进攻是有套路的，是球员不行，尤其楼上所提的几个人拉师傅姆希塔良卢卡库，球员太差，要换。第三，运气太差，任意球防守只有一个起跳的，还是卢卡库！直接造成第一失球，曼联的进球全是实打实的，是通过战术配合进的，一点儿运气都没有。第四，三次射正两个进球，上一场也是这样，何大牙，忍你很久了。 伊布上赛季也跟不上反击的速度…但在前面可以起个支点的作用。 呵呵，双标玩的溜，喷子老有理啊，哈哈 穆帅还是走吧，带走鸟粪和萨狗，真心烦，反正成绩又不怎么样，谢谢你的付出 岁月是把杀猪刀… 主要是鸟粪和萨狗让人烦 重心太高了而已 感觉木鸟真是瞎鸡b搞，让伊布踢10号位也不让塔良马塔踢，下半场一换人马上控制中场，木鸟这是自作孽 所以只有满分才是好成绩？<br>西甲最佳成绩：穆里尼奥缔造<br>英超此前最佳成绩，也是 看到伊布这球，好心塞。时光不再，年老不以筋骨为能啊。 这个黑的太漂亮 埃弗顿还从曼城主场带走一分 想沾一步联赛冠军的仙气。 还是楼上两位球迷最理性。第一，曼联最恨摆大巴，给球队抹黑。第二，曼联全场进攻是有套路的，是球员不行，尤其楼上所提的几个人拉师傅姆希塔良卢卡库，球员太差，要换。第三，运气太差，任意球防守只有一个起跳的，还是卢卡库！直接造成第一失球，曼联的进球全是实打实的，是通过战术配合进的，一点儿运气都没有。第四，三次射正两个进球，上一场也是这样，何大牙，忍你很久了。 慢联再不思变人心就散了，现在打法拖沓经常有好几回都不强凸就是回球。现在需要的是几个像博格巴那样能在中场反抢且带球压上强凸，不知道埃雷拉怎么很少首发，他踢球反抢有一套。应该把埃雷拉马蒂奇跟博格巴重组压上中前场疯狗阵，小马哥马夏尔扮演斯特宁角色，带球狂飙玩死对方后卫，马塔就埋伏在卢卡库身后，卢卡库就不要再回撤过自己中场参与防守了，怕又要助攻对方。右边锋和后卫，随便上吧，就那样 伊布是站桩式中锋，他要高点抢下球护好再分球，能更大发挥作用，你让伊布去踢10号位，拿球突破组织进攻就是他妈的瞎安排。 你好像知道很内幕消息一样，你是007[狗][狗] 鲁尼这赛季进9个了😰 也太难为伊布了，好多前锋34就退役了，他一大把年纪还要去背锅 下半场神换人，紧追曼城12分 透切啊，这就是我一直想说的，中场把伊布换下对于一个前锋来说是侮辱，下面的路怎么走才是关键。 所以喷子哪看比赛，看了也胡说八道，这场压着打，姆希塔良还是糟糕表现，拉师傅有点梦游，各种失误，这还怪教练不给梅西他娘机会？给用费了？而且对方昨天才是摄政王，射正就进，这个他们不说门将神级了，直接忽略，还是说你把大巴，所以喷子不讲道理的，他们只为了喷，编理由也喷，所以不理他们，看看评论现在就是喷，有几个说球的，还有各种冒充曼联球迷、让教练走的人，联赛第二，你说换谁，换他们眼里好的三四五？还是把第一的换来？ 丁丁板凳都没得坐哦 要不谁为输球背锅啊，必须证明是球员不行，不是教练不行 谁去跟梅西抢谁都得坐板凳 伊布老矣、尚能战否？ 伊布纵使再牛逼，也敌不过年龄，都多大了，还刚刚经历那么一场重伤，联赛首发就不要了，大比分领先后上场替主力下来休息还是可以的 来中糙踢前腰吧 凭什么说最后进的球是靠运气，就算最后一秒钟它也是在常规时间内，球员也是在执行战术，说是运气好的人你们看过几场球。 又抓内鬼？ 懒得跟鸟粪争论谁厉害了，其实没有瓜迪奥拉的话，穆鸟确实是当今第一教练，最少薪水是这样的 尼玛伯恩利金元足球，不也没能赢我大曼联吗？ 范、莫厨师看着自己一桌的青菜豆腐，再看了看穆尿了那桌的满汉全席，泪流满面 随便你们怎么说，喷子就喷子，等穆帅走了，鸟粪和萨狗走了，就好了，让人烦 哪位鸟粪能说说木鸟战术能力到底怎么样？伊布打前腰也就媒体所说而已，这货居然就真敢这么安排，球员合适位置在哪儿木鸟到底了解不了解？ 这个伊布打amf绝对是开玩笑的，木鸟运气好，捡了一分，不然麻烦大了 成绩比前2任好太多！换谁来拯救曼联？真心不知道成绩差怎么说出来的 5年前，伊布就被瓜迪奥拉按在板凳上了，现在穆鸟捡回来当个宝 36岁了，打打替补吧 应该让伊布打主力中锋，让卢卡库替补。卢卡库实在太废了！ 范厨师和莫yes相拥而泣 让伊布打前腰是什么操作？现在伊布定位很明确，就是卢卡库替补及非常时期双塔战术。曼联不是没有前腰。 来中糙踢前腰吧 是的，卢卡库的头球和我一样，有身高但是对高球的判断不是那么的好，比不上很多中下游球队的白人传统英锋。 穆里尼奥对曼联更衣室的控制出了问题……<br>大伊布是穆里尼奥死忠，也是穆来到曼联以后一直想树立的旗帜。他的位置和本来的曼联旗帜大鲁尼是重叠的。因此，穆在赛季初卖了鲁尼留下伊布。<br>然而，伊布老矣，尚能战否？<br>明明不是大中锋的伊布硬生生被改打双塔战术？？？让大伊布情何以堪啊……<br>穆下半场换下伊布，是自我否定，也是自我救赎。最后幸运的扳平比分。至少说明曼联的精气神没有丢👍<br>但是，我魔更衣室从此谁说了算呢？ 很好，第一个诚实人 上赛季被鸟粪吹成神！现在成背锅侠....鸟粪们都是些什么物种？ 穆帅我没你电话，听听我的建议。1卢卡库不能在禁区内防守，头球是他的弱点，在禁区外可以打反击。2少打下底传中，不要迷信长得高就狂轰乱炸，要多打地面直塞，曼城和利记的中前场无球跑动就很出色。3冬窗再买个中场和前锋，辅助博格吧，现有前锋还是嫩了点，球商不太高，少卖黑人，多买白人。<br>总之，每次落后才想起进攻，但是缺乏配合自信再加上不给点球时间越来越少等，心态就出了问题。总之，穆帅再不求变就真的只能来中超了。我是在救你！ 伊布还是老中超养老吧！ 大哥，开场三分钟就丢球了，还是在曼联主场，你想摆大巴对方也不配合你啊！这要是开场三分钟曼联先进球，数据就会掉过来。 伊布老了，曼联必须用新人，那么多妖人得用啊 对于高球落点的判断简直业余 万一表现好，那不就是知人善任，挖掘潜力吗？你看隔壁，不就换来换去吗？ 😭😭😭 那时并不是伊布不行，只是他的特性不适合巴萨那种传控打法，换成防守反击的队伍简直猛的一逼 打平当输 球员不行不是我鸟的锅…！ 啦师傅真心傻啊。要是进攻没有好机会回传控制脱下时间还好说…那么好个反击机会居然回传。 你忘记了，瓜用埃托奥加4600万买伊布。然后被穆里尼奥跟埃托奥淘汰，然后低价又转卖伊布给意甲。瓜杠杠的！！ 奉先老矣 可惜沾上了怨妇嘴炮的功夫 即使问题多多，还是第二啊…… 这次伊布布吹自己是上帝了？ 传奇远远谈不上 不愧是马德里警察，马德里基本法挺溜 树挪死人挪活啊。。。 别说教练了，就连我这种才两年的球迷都快被气死了（上一轮的表现），19号最后两分钟的进攻活生生给拖时间，快速反击都不要，最后还被绝平！[暴怒][暴怒][暴怒]MMP的，攻上去进了杀死比赛，不进组织防守两分钟也差不多过了吧？就是不积极的，这表现太幼稚了！[暴怒] 伯恩利根本不敢赢，万一在更衣室挨打可怎么办 上赛季发挥也很好 傻孩子 恭喜曼联成功狙击伯恩利，强行逼平对手豪取一分。联赛冠军唾手可得！ 伊布影响力在场下 英雄迟暮，跟上周西甲国家德比C罗抡空那脚空门一样，动作明显没有年轻时候敏捷准确了。怀念意甲那个伊布 这傻逼终于也老了，看看当年他是怎么对待克雷斯波的 后面切尔西只差一分，不要看前面的曼城了，切尔西才是曼联的最大对手 这续约续得也是醉了 假大空 妈的，英超冠军现在离我大曼联有1光年的距离了。。。。 鲁尼这赛季进9个了😰 已不是来控制更衣室的 伯恩利主帅奶了鸟，鸟就晕了。充分说明鸟老了，一奶就晕。 第二比范加尔时期好啊……不过曼联现在的进攻确实打的很凌乱，传中确实不行 又要抓内鬼了。 马塔：丫有种接着卖我呀<br>摸你鸟抱住马塔的大腿，苟延残喘<br>姆西塔良：丫有种接着卖我呀<br>摸你鸟抱住马塔的大腿，苟延残喘 年纪大了该退则退 伊布是另一种牛，和爪的战术不搭 有鸟的地方，必有喷粪巴狗（新曼城球迷） 伊布毫无摆脱能力？？？看看阿贾克斯时的那个过人就知道了。 我魔更衣室不是很和谐的嘛 看着伊布晃倒自己后在地上蹬腿就是爬不起来感觉心酸 足球不是篮球 还有人说穆鸟有多牛掰吗曼联的问题太多了范加尔都花了两年时间没解决就更别说穆鸟一个翻译了 专攻欧冠吧 伊布能用，但老了不应再没状态的时候首发，应还剩不到20分钟的时候再上，这样他身体状态下降这个缺点就得到保护，还能利用他的经验博一把。如果少于10分钟再上也不好，那时时间又不够了。 5年前，伊布就被瓜迪奥拉按在板凳上了，现在穆鸟捡回来当个宝 这么重的伤，太着急出来了。年纪在那里 一个36岁的人，鸟还一直对他恋恋不忘，高薪求来，只为给自己一个忠实的守护者，曼联的管理层也是傻逼，居然还能答应这比交易 这些球员都是什么态度？别把鸟🐦给气死了[大笑][大笑] 我怀疑鲁尼是内鬼才卖的，没球品，进多少都没用 穆里尼奥对曼联更衣室的控制出了问题……<br>大伊布是穆里尼奥死忠，也是穆来到曼联以后一直想树立的旗帜。他的位置和本来的曼联旗帜大鲁尼是重叠的。因此，穆在赛季初卖了鲁尼留下伊布。<br>然而，伊布老矣，尚能战否？<br>明明不是大中锋的伊布硬生生被改打双塔战术？？？让大伊布情何以堪啊……<br>穆下半场换下伊布，是自我否定，也是自我救赎。最后幸运的扳平比分。至少说明曼联的精气神没有丢👍<br>但是，我魔更衣室从此谁说了算呢？ 毕竟是第七的强队，全场不大巴没给曼联应有的尊重！ 伊布老了，留下传奇 因为鸟对球员不够尊重和维护，所以明明中场有人也用不了。 有内鬼？ 你魔哪有什么精气神，个个都想显呗一把，把最好的机会留给自己，所以进攻没配合，都是一锤子买卖，尤其拉师傅，能寻求配合的只有马塔。 伊布也就联赛还可以吧，谈不上设么顶级前锋[鄙视] 水平高下立现，瓜秃吊打鸟 奉先坠马，老了 某骡没到36岁也能晃倒自己，伊布这年龄算不错了 还让伊布上，作死啊 拜利不是给打到半身不遂，现在还没伤愈吗？还用问？ 你忘记了，瓜用埃托奥加4600万买伊布。然后被穆里尼奥跟埃托奥淘汰，然后低价又转卖伊布给意甲。瓜杠杠的！！ 看了全场，曼联不知道有多少次边路高球传中，回回被对方顶出，也不知道变通一下，非要打高球传中，对面冰岛大个子回回头球解围…… 曼联证明着英超无弱旅，曼城证明着那都是菜鸡互啄 看着伊布晃倒自己后在地上蹬腿就是爬不起来感觉心酸 赛季结束再说吧，现在这个状态季末第6也不奇怪 一个自称上帝，一个自称最特殊一个。真是一对臭味相投的吹货😂 鲁尼不听话，走 不和好 我靠这位易友还有HTC的手机？ 难道为了买人而试阵容？ 别找状态了，上伊布就是错误，罗霍也赶紧卖了吧 伊布+卢卡库=虐菜双傻…[不屑] 廉颇老矣，尚能饭否？ 哎，36岁 你是有多么搞笑？ 高富帅 伊布赶紧走吧 在我看来，曼联的问题主要不是进攻，而是防守，糟糕、混乱 可惜，事实证明是错误的，卢卡库拿得住球？不如留下伊布在场上。 有鸟的地方，必有吃粪狗<br><br>一一瓜瓜 以后少吹点牛逼，这俩条厮太狂！ 大凤仙威武 这要是当年在阿贾克斯的伊布哎 www知我者谓我心忧 臭味相投，死剩把嘴 穆里尼奥对曼联更衣室的控制出了问题……<br>大伊布是穆里尼奥死忠，也是穆来到曼联以后一直想树立的旗帜。他的位置和本来的曼联旗帜大鲁尼是重叠的。因此，穆在赛季初卖了鲁尼留下伊布。<br>然而，伊布老矣，尚能战否？<br>明明不是大中锋的伊布硬生生被改打双塔战术？？？让大伊布情何以堪啊……<br>穆下半场换下伊布，是自我否定，也是自我救赎。最后幸运的扳平比分。至少说明曼联的精气神没有丢👍<br>但是，我魔更衣室从此谁说了算呢？ 失望😞 "
    },
    "Article": "网易体育12月27日报道：伊布11月刚伤愈复出时，穆里尼奥就表示伊布可以和卢卡库共存，因为伊布可以踢10号位，人们因此很期待两人一起首发。等了一个多月，英超第20轮曼联和伯恩利的比赛，伊布和卢卡库终于首次一起首发，但这套组合让人失望了，两人只一起首发踢了45分钟，中场休息后穆里尼奥就承认错误换下了伊布。作为一名前腰，伊布45分钟30次传球成功21次，传球成功率只有70%，这是曼联所有上场球员里最低的，甚至门将德赫亚都有80%比伊布高。威胁传球只有1次：第6分钟边路传中让马塔头球射门。射门也只有1次被对手封堵，没有突破过人。从数据来看，伊布踢前腰是完全失败的。伊布踢中锋时，喜欢回撤拿球组织，因此理论上伊布踢前腰似乎很合适，但现实并不像理论那么好。从中锋位置回撤组织拿球和站在前腰位置拿球，最大的区别是中锋突然回撤拿球很可能能摆脱对方的防守，而站在前腰位置拿球，肯定会受到对方的重点防守。如果是年轻的伊布，被贴身防守也有摆脱能力，但现在伊布已经36岁，而且刚刚经历了一次重伤，他在前腰位置拿球一被逼抢，几乎没什么摆脱能力。第39分钟的一幕充分证明伊布现在身体不行了，当时他接到卢卡库的传球带球向前，在大禁区线前面对防守球员时想要来个变向突破，但他步伐太沉重身体也老迈，结果身体没能转过来一个踉跄自己摔倒在地。因为伊布拿球毫无摆脱能力，因此虽然他护球能力很好，但在对方逼抢下想要传出好球就基本不可能了，而且他无论带球还是传球都显得很缓慢，他踢前腰，给了伯恩利充分的时间去布置防守。上半场伊布踢前腰时，曼联的进攻很难看，这不是伊布能否和卢卡库共存的问题，而是伊布能否踢前腰的问题，下半场换下伊布换上林加德后，曼联的进攻顿时改观了。穆里尼奥本场同时安排伊布和卢卡库首发、让伊布踢前腰的决定比较突然。在这之前两人从未一起这么站位踢过，此前两人一起在场上的几十分钟时间里，往往是伊布踢中锋而卢卡库拉边，因此近期英媒体还爆出了卢卡库不满穆里尼奥安排的新闻。而且本场试验伊布和卢卡库一起首发不是个好时机，原因是伯恩利是本赛季英超的大黑马，在此前的比赛中，伯恩利客场击败了切尔西、客场逼平了热刺、利物浦，是绝对有能力给曼联制造大麻烦的。面对这样的对手，穆里尼奥试验新战术新打法，也不知道是穆里尼奥对伊布太信任还是轻视了伯恩利。本文来源：网易体育作者：恒山责任编辑：马鑫_NS4811",
    "Title": "穆帅试阵变神坑!36岁伊布带不动后辈 过人晃倒自己_网易体育",
    "URL": "http://sports.163.com/17/1227/03/D6KPEHP700058781.html",
    "KeyWords": "穆帅,伊布,卢卡库,曼联"
}