{
    "PublishTime": "01/01/201820:12:43",
    "Comment": {
        "Total": 42,
        "Link": "http://comment.news.163.com/news_shehui7_bbs/D73EJ5MJ0001875P.html",
        "Reply": 10,
        "Content": "染污几亩地不会影响俺，就怕污染了空气 素质一起和这些垃圾丢了。 本来就是一个垃圾民族！！！ 难怪世界想灭了他！ 赣江怎么说都应该是你们南昌的母亲河吧，枯水季我每次去那边玩，都有好多人把垃圾随便扔，没办法南昌没素质的人还是占的太多！ 感觉孔明灯还有放烟花这种应该想别的方法来取代了 岗岗就是杨钰莹 现场很漂亮,我也想弄这样的. 染污几亩地不会影响俺，就怕污染了空气 素质太低 本来就是一个垃圾民族！！！ 难怪世界想灭了他！ 赣江怎么说都应该是你们南昌的母亲河吧，枯水季我每次去那边玩，都有好多人把垃圾随便扔，没办法南昌没素质的人还是占的太多！ 素质一起和这些垃圾丢了。 感觉孔明灯还有放烟花这种应该想别的方法来取代了 岗岗就是杨钰莹 你就是那只狼 "
    },
    "Article": "【南昌赣江边跨年狂欢后一片狼籍遍地孔明灯】昨晚是跨年夜，随着倒计时的来临，南昌秋水广场、赣江边燃起无数孔明灯，一夜狂欢过后，江边一片狼藉。本文来源：大江网-江西日报责任编辑：范姜国一_NN9138",
    "Source": "Netease",
    "Title": "南昌赣江边跨年狂欢后一片狼籍 遍地孔明灯\"残骸\"_网易新闻",
    "KeyWords": "赣江,南昌,江边,孔明灯",
    "URL": "http://news.163.com/18/0101/20/D73EJ5MJ0001875P.html"
}