{
    "Article": "（原标题：（国际）俄罗斯西部地区发生一起严重车祸致１０人死亡）新华社莫斯科1月3日电俄罗斯紧急情况部3日说，位于俄罗斯西部的汉特-曼西自治区当天发生一起严重交通事故，造成包括4名儿童在内共10人死亡。俄紧急情况部说，当地时间14时30分左右(北京时间19时30分左右)，一辆马自达轿车和一辆雷诺轿车在当地一条高速公路上相撞，造成两辆车内全部人员死亡。事故发生后，紧急情况部等共出动50多人和10台设备参与现场救援。俄罗斯警方正在调查事故具体原因。汉特-曼西自治区位于俄西西伯利亚平原中部，石油和天然气资源丰富。本文来源：新华社责任编辑：徐萌_NN7485",
    "URL": "http://news.163.com/18/0104/00/D791BD680001899N.html",
    "KeyWords": "俄罗斯,车祸,情况部,曼西",
    "PublishTime": "01/04/201800:16:43",
    "Title": "俄罗斯发生严重车祸 两车在高速上相撞致10人死亡_网易新闻",
    "Comment": {
        "Content": "什么破新闻？ ",
        "Link": "http://comment.news.163.com/news2_bbs/D791BD680001899N.html",
        "Total": 2,
        "Reply": 1
    },
    "Source": "Netease"
}