{
    "Title": "工信部:明年加大网络提速降费力度、百兆宽带普及_网易新闻",
    "URL": "http://news.163.com/17/1225/13/D6GNEO8G0001875N.html",
    "Source": "Netease",
    "Comment": {
        "Total": 845,
        "Reply": 109,
        "Content": "工信部的政策不错👍<br>关键几大运营商都不当回事。 除了网吧跟有钱人的家，似乎没见过200M的网络耶 以前是电信20M,现在换移动200M？ 费用一点都没少 不知道为什么，以前几M的时候，天天有想下载的东西，现在100M、200M，反而想下载的东西少了…… 电信一年1400，联通不让办，移动龟速。不普及竞争，说降费的都是骗子 没啥好看的，快不快无所谓了 老子真的烦这些边走路边抽烟的人，你说你在咖啡馆餐厅抽烟大不了老子闻到了不进来吃东西就行了，尼玛的比走路抽烟老子跟在后面闻一路的二手烟草尼玛的。真几把没素质！不要说老子也抽烟矫情装高尚什么的，尼玛的比就算抽烟的人也不愿意闻二手烟啊，起码老子没在公共区域祸害你们啊，越戒烟越觉得这些比该死！ 先把5分钱的电价承诺兑现了再说 速度是上来了，但是费用也涨了，便宜的宽带都没有了 我家的200兆没有以前的20兆好用，什么原因？ 我信，你说什么我都信 100m，沈阳，电信，990一年。 好熟悉的标题 移动、电信每年网费300多元。网通每年700多元，怎么降费啊！ 什么时候取消捆绑手机套餐才是王道。 200M还没有50M快，打开网页慢如牛！ 希望三大运营商不要玩数字游戏 难道老爷们真的不调查不了解天天闭门造车吗？网速是上去了点，价格没看来优惠，反而以前便宜的套餐都消失了，并不是每个人都需要那么高的网速，但是没得选，便宜套餐人家下架了。 敢不敢把宽带上行速率提高点？ 明年明年明年~~~ 我只能呵呵😑 最牛逼吧 网站闭着眼都快知道说啥了，除了易友不知道那么好宽带有什哦用 上下行不对称还百兆 手机无限流，降不降随便你， 想得美，通信，能源，金融，想都不要想 我大深圳布吉中心，某知名长某网络的100兆光纤入户，每天一到晚上九点钟后到十二点前后，连个普通网站的网页半天都打不开，一直在打开中、、、，用不同的测速软件提示都在70到80兆的网速，改用手机4G，一点就开。以前没提速，没改光纤入户时，20兆的网速也比这个所谓的提速的100兆要快多了去。 说好的免费宽带，结果又捆绑了一堆收费业务 他们已经玩惯了！ 50兆光纤也没感觉快多少啊？而且还是一个月100，联通 有诚信吗？有没有？到底有没有？ 电信光纤，30M，月98元！看你们到什么时候提速。留贴做标记 开放自由竞争即可，无需行政指令 跟贴被火星网友带走啦~ 他爷爷放手给他爹管，他爹管不好，三个儿子又不拿他爹说的话当回事 听听、看看就好，不能当真 我要YouTube 100M、200M……除了钱的差别，其它没感觉。 也就你这个喷子才说得出，老子现在就是200M，下载电影比以前快了一倍，只能说，你就是大傻逼。 开放竞争，引进国外运营商，必能降低网费。 装机费，月租费，机顶合费，违约费，。。等等等等，你们自己数吧！ 说好的免费宽带，结果又多了一堆收费业务 电信一年1400，联通不让办，移动龟速。不普及竞争，说降费的都是骗子 没啥好看的，快不快无所谓了 老子真的烦这些边走路边抽烟的人，你说你在咖啡馆餐厅抽烟大不了老子闻到了不进来吃东西就行了，尼玛的比走路抽烟老子跟在后面闻一路的二手烟草尼玛的。真几把没素质！不要说老子也抽烟矫情装高尚什么的，尼玛的比就算抽烟的人也不愿意闻二手烟啊，起码老子没在公共区域祸害你们啊，越戒烟越觉得这些比该死！ 以前是电信20M,现在换移动200M？ 还有电力，交通 明明就是你们一句话就能做到的事，妈隔壁的，一拖拖了这么多年 移动、电信每年网费300多元。网通每年700多元，怎么降费啊！ 200M还没有50M快，打开网页慢如牛！ 有诚信吗？有没有？到底有没有？ 敢不敢把宽带上行速率提高点？ 麻烦你换个好点的路由器和用网线，你就感觉出差别了 我只能呵呵😑 除了网吧跟有钱人的家，似乎没见过200M的网络耶 速度是上来了，但是费用也涨了，便宜的宽带都没有了 想得美，通信，能源，金融，想都不要想 说好的免费宽带，结果又捆绑了一堆收费业务 他们已经玩惯了！ 携号转网，唱几年了啥都没进展。明年整个1000M的家庭宽带出来，每月500元，然后美其名曰，已经降到最低每1M0.5元了，就好像商场打广告，1折起。然后100M的继续1280元每年 也是电信，下载速度确实很快！听说是限制了上行？这个不太懂 开放自由竞争即可，无需行政指令 跟贴被火星网友带走啦~ 十年前用的是1兆两兆的网也没觉得慢，现在用50兆100兆的网也没发现多快。 听听、看看就好，不能当真 也就你这个喷子才说得出，老子现在就是200M，下载电影比以前快了一倍，只能说，你就是大傻逼。 开放竞争，引进国外运营商，必能降低网费。 装机费，月租费，机顶合费，违约费，。。等等等等，你们自己数吧！ 说好的免费宽带，结果又多了一堆收费业务 普能用户要那么高的上行做什么呀？<br>这个不可能放开的，要不随便什么人在家就能搭一个服务器了 先把5分钱的电价承诺兑现了再说 这个不合格，还提速降费，移动的宽带都免费送了，还能怎么降？国内很多地方的宽带费用已经降至每天1元，每月30元了，还有多少降资费的空间？网络设备的价格国内外有差异么？中国的人力成本很低么？中国的能源和土地成本很低么？如果这些成本都和国外水平接近又有什么降价空间呢？只能说明这个不懂通信。 好熟悉的标题 什么时候取消捆绑手机套餐才是王道。 惠民政策是人民之福 希望三大运营商不要玩数字游戏 难道老爷们真的不调查不了解天天闭门造车吗？网速是上去了点，价格没看来优惠，反而以前便宜的套餐都消失了，并不是每个人都需要那么高的网速，但是没得选，便宜套餐人家下架了。 有屁用，工信部投诉都没用 上去干嘛让你多上传点种子？😂😂 这个部长不合格，还提速降费，移动的宽带都免费送了，还能怎么降？国内很多地方的宽带费用已经降至每天1元，每月30元了，还有多少降资费的空间？网络设备的价格国内外有差异么？中国的人力成本很低么？中国的能源和土地成本很低么？如果这些成本都和国外水平接近又有什么降价空间呢？只能说明这个部长不懂通信。 最牛逼吧 该换路由器或者看有没有人蹭网了 还提速降费，移动的宽带都免费送了，还能怎么降？国内很多地方的宽带费用已经降至每天1元，每月30元了，还有多少降资费的空间？ 用千兆网卡和网线还是能感觉出来的 50兆光纤也没感觉快多少啊？而且还是一个月100，联通 电信光纤，30M，月98元！看你们到什么时候提速。留贴做标记 我家的200兆没有以前的20兆好用，什么原因？ 移动的吗？ 100M、200M……除了钱的差别，其它没感觉。 谁承诺你的你找谁去！反正我没说过！<br>灵道会这样答复你 明年明年明年~~~ 工信部的政策不错👍<br>关键几大运营商都不当回事。 先解决上下行不一样的问题吧！！移动以前都是一样的，现在也鸡贼了，下行一百上行四，还屏蔽p2p 哎。又要涨价了 不知道为什么，以前几M的时候，天天有想下载的东西，现在100M、200M，反而想下载的东西少了…… 呵呵现在的100兆光纤与以前的10兆adsl.区别不大。 先把5分钱的电价承诺兑现了再说 面子工程啊，宽带数字变大了，网速可没超快 好！ 100m，沈阳，电信，990一年。 别抽梯子 速度确实提了，可是费用呢? 联通使用超900M流量，近300人民币，这个流量扣费也太厉害了 工信部：这个你得找国网公司，是他们运营。<br>国网公司： 你还要怎么样？要知道我们邻居曹县，私人是不允许办网站的！！！ 工信部有什么权利管企业?他可以规定包子只许卖一元钱吗？ 我大深圳布吉中心，某知名长某网络的100兆光纤入户，每天一到晚上九点钟后到十二点前后，连个普通网站的网页半天都打不开，一直在打开中、、、，用不同的测速软件提示都在70到80兆的网速，改用手机4G，一点就开。以前没提速，没改光纤入户时，20兆的网速也比这个所谓的提速的100兆要快多了去。 最水的就是网络速度，我的100兆一到礼拜天必卡 三大运营商流氓行为，最好的是都取消手机月租费用。大家都懂得 提速赶不上加G！都快升5G了，还怀念3G 是的。2005年以前网站很多 跟贴被火星网友带走啦~ 100m,西安，电信，2172一年。 电信100m每年1980太贵了，天威和长城宽带又慢的要死 我要YouTube 延吉，电信99一个月，俩卡共享，省内无限流量(100G全速)，1000分钟通话，200m宽带，送机顶盒 临沂一小区的电信宽带人私人承包了，垃圾的要死。 涨了 多会让国家电网和两桶油也干点人事儿 你说啥都信 还好吧，你是说岛国动作网站吗？ 因为局端有最大限速，人多了就这样了。咱们的还是光纤到路边，离光纤到户差远了。真正的光纤到户，只能是专线。 谁说不能上，好多404啊 网站闭着眼都快知道说啥了，除了易友不知道那么好宽带有什哦用 一百兆，移动，免费。 我只知道网速是提了，费用也高了，169变为209。 套路，拨政策明年还要提取。好，现在100兆一个月180元。明年提到200兆。一个月209元。实际使用可能还是100m的体验。 然后把低速的关了。价格就这样，爱用不用 100m的也好慢呀 百兆不行啊，我的代理线只有2-3M，跟不上啊 200m，郑州，联通网速没得说，捆绑手机99一个月，手机送2G流量。300分钟主叫 我用移动每月4G速度没感觉快多的，费用真是上去不少！ 他爷爷放手给他爹管，他爹管不好，三个儿子又不拿他爹说的话当回事 携号转网携号转网携号转网 你想上哪？ 我信，你说什么我都信 降了再说好不，别画饼 吃我血滴子 上有政策下有对策 费用一点都没少 很赞！ 上下行不对称还百兆 有降过费吗 要不要换号？ 哈哈哈哈哈哈哈哈 呵呵 普及可以，能不能不涨价？ 手机无限流量要提速降费啊 早就200M了，然而并没有什么卵用。 顶一个！ 网通的套餐是10m一年900，现在改成了30m一年900，这算是提速降费吗？ 移动老用户可以享受吗？ 什么时候能携号转网？ 手机无限流，降不降随便你， ",
        "Link": "http://comment.news.163.com/news_guonei8_bbs/D6GNEO8G0001875N.html"
    },
    "Article": "【工信部：2018年加大网络提速降费力度】工信部25日表示，2018年将加快百兆宽带普及，实现高速光纤宽带网络城乡全面覆盖、移动流量平均资费进一步降低。2017年，全国50M以上宽带用户比例超过60％，4G用户平均下载速率较去年同期提高30％，手机国内长途和漫游费全面取消。本文来源：国是直通车作者：刘育英责任编辑：邵小波_NN2479",
    "PublishTime": "12/25/201713:42:01",
    "KeyWords": "工信部,宽带,漫游费,网络"
}