{
    "Source": "Netease",
    "KeyWords": "巴伦西亚,马塞利诺,车祸,野猪",
    "Title": "全家出游撞野猪出车祸:西甲主帅受轻伤 野猪死亡_网易体育",
    "PublishTime": "12/25/201707:46:01",
    "URL": "http://sports.163.com/17/1225/07/D6G32SLB00058781.html",
    "Article": "网易体育12月25日报道：来自西班牙媒体的消息，巴伦西亚主帅马塞利诺在当地时间今天早上遭遇了一场车祸，目前他已经被送入医院。根据巴伦西亚官网的信息，马塞利诺当时正与家人一起前去度假，车祸发生在洛格罗尼奥去到毕尔巴鄂的高速路上。当时一群野猪穿过高速路，与马塞利诺的车发生了碰撞。据《世界体育报》消息，现在马塞利诺已经被送往了医院，不过并没有生命危险。马塞利诺81岁的父亲在车祸中受了重伤，同行的两位女士（马塞利诺的母亲和妻子）没有受伤。据瓦伦西亚当地媒体透露，那头野猪在车祸中死亡。在上周末的西甲联赛中，巴伦西亚主场0-1不敌比利亚雷亚尔，不过依旧以3分的优势领先皇马，位居西甲第三。本文来源：网易体育责任编辑：朱楷正_NS4807",
    "Comment": {
        "Content": "好可惜，怎么没把巴沟撞了 马赛力诺1:0野猪 可以守车待猪了[微笑][微笑] 而且是在客场 还以为某个绰号野猪的撞车死了呢 不会脑筋急转弯吗 范伟说“猪撞树上了，你撞猪上了吧？” 目前野猪家属情绪稳定 这标题也太喜感了，尤其是最后那句“野猪死亡”🤣🤣🤣 西班牙生态环保 所以……味道怎么样？ 我只想知道车子什么牌子 野猪表示本来性命无忧，谁知该裁判是黑哨，向其出示了红牌，它被罚出了猪生。 去野炊烤野猪岂不是美滋滋 野猪戴维斯，，，以为戴维斯被撞死了 恩，看错了，原来是主教练。改一下：野猪找上了马赛力诺强烈要求上场踢球，表示自己身体强壮，跑的快，牙齿也比苏亚雷斯的锋利，为了展示自己的肌肉，还拿该教练的车进行了一番展示。但马赛力诺表示球队是技术型球队，不适合它，建议它去曼联队。猪一听是世界名队，非常开心。马赛力诺电话联系了穆里尼奥，穆里尼奥对猪进行了电话在线考核：你黑不黑。猪：非常黑。鸟：很好，第一关你过了。猪高兴了。鸟：跑的快不。猪：非常快。鸟：歪理股，恭喜你第2关过了。猪兴奋了。鸟：你身体强不强壮，是不是粗又硬。猪自豪的说：又粗又硬，横冲直撞没问题。鸟说：毫无疑问你就是我需要的球员。猪极度兴奋中，鼻子中呼出了粗气。鸟说：你已经合格了，现在只要你身高超过1米8，就可以来我这里报到了。猪看看自己的短腿，然后郁闷的死掉了。 明天来网易上班 野猪戴维斯，，，以为戴维斯被撞死了 马赛力诺1:0野猪 还以为某个绰号野猪的撞车死了呢 范伟说“猪撞树上了，你撞猪上了吧？” 那个.....那里有的看野猪拉.. 猪撞树上了？你撞猪上了吧 生态环境真心好 嗯，比那些看图瞎几把编的好多了，这位兄台都没图 巴尔韦德带的毕尔巴鄂，在联赛表现中相当强劲，而且踢法很像巴萨，控球和进攻都是西甲顶尖级别的，只是防守中游点。如果巴尔韦德能顺利当成巴萨的新主帅，对萨迷来说真是个好消息！ 我只想知道车子什么牌子 西班牙生态环保 莫名想起了《看不见的客人》 今年夏天，瓦伦西亚主帅马塞利诺请求林荣福我想要格德斯，不把格德斯弄过来，你最好也别回来。到底谁是老板？ 所以……味道怎么样？ 明天来网易上班 恩，看错了，原来是主教练。改一下：野猪找上了马赛力诺强烈要求上场踢球，表示自己身体强壮，跑的快，牙齿也比苏亚雷斯的锋利，为了展示自己的肌肉，还拿该教练的车进行了一番展示。但马赛力诺表示球队是技术型球队，不适合它，建议它去曼联队。猪一听是世界名队，非常开心。马赛力诺电话联系了穆里尼奥，穆里尼奥对猪进行了电话在线考核：你黑不黑。猪：非常黑。鸟：很好，第一关你过了。猪高兴了。鸟：跑的快不。猪：非常快。鸟：歪理股，恭喜你第2关过了。猪兴奋了。鸟：你身体强不强壮，是不是粗又硬。猪自豪的说：又粗又硬，横冲直撞没问题。鸟说：毫无疑问你就是我需要的球员。猪极度兴奋中，鼻子中呼出了粗气。鸟说：你已经合格了，现在只要你身高超过1米8，就可以来我这里报到了。猪看看自己的短腿，然后郁闷的死掉了。 还真撞猪身上了！[被黑][被黑][被黑] 野猪表示本来性命无忧，谁知该裁判是黑哨，向其出示了红牌，它被罚出了猪生。 逗死我了 好可惜，怎么没把巴沟撞了 怎么没有巴萨主帅恩里克的新闻消息呢，我进来是看看他还会说些什么呢，巴萨会逆转取胜夺冠，本赛季的西甲冠军，皇马势在必得了，恩里克，你和你们巴萨可以死心了吧，一个国王杯已经可以的了，总比四大皆空强吧！ 可以守车待猪了[微笑][微笑] 而且是在客场 不会脑筋急转弯吗 目前野猪家属情绪稳定 祈福吧 这标题也太喜感了，尤其是最后那句“野猪死亡”🤣🤣🤣 野猪可以拉回去吃不？ 野猪被撞了能活？还有这种题目？ 野...野猪? 荷兰火牛青光眼 。。。。。 去野炊烤野猪岂不是美滋滋 捡到一头野猪？ 一群野猪🐗…… 明天来网易上班 ",
        "Reply": 36,
        "Link": "http://comment.sports.163.com/sports2_bbs/D6G32SLB00058781.html",
        "Total": 873
    }
}