{
    "Source": "Netease",
    "PublishTime": "12/25/201708:16:00",
    "KeyWords": "皮克,成功,巴萨",
    "Title": "皮克2-0后大喊\"多进几个\" 开5300欧红酒庆祝胜利_网易体育",
    "Comment": {
        "Link": "http://comment.sports.163.com/sports2_bbs/D6G4PPB100058781.html",
        "Total": 5822,
        "Content": "牛刀 皮克除了年薪高还是个二代。。老婆也是超级有钱的：）所以大概10到15块钱！这么重大一场比赛就开这么少有点扣啊：） 这他妈都能黑到科比？我怕你是个傻子吧？ 本来一场完美的高水准对决，包括双方主帅的斗智斗勇，可惜又是被拉莫斯玷污了。 皮克踢得不错 不是他赚得少，是她老婆赚得太多 [微笑]🐕这两天死了好多！[窃笑][窃笑][窃笑][喷水][喷水][喷水] 以前外国有统计皮克赚的钱还不如她老婆8分之一 2:0的时候皮克带球突破到前场组织进攻，传给苏牙后苏牙一脚回给后场，笑尿 二楼铁杆黄狗啊。 演又不伤人，好像我罗佩佩不演似的，你下黑脚还是职业球员吗？废别人饭碗能和演是一种性质？ 真性情 哈哈，怎么留的？点球飞了还是怎么滴？ 话也不能这么说，你开瓶青岛会在朋友圈晒图吗 我罗迎球怒射踢成空气球，原地旋转180度翻身跳入水中，居然没有溅起水花。我罗果然是屎上最佳跳水运动员！ 看到最右边的是96年的红酒。 那是对你这种穷逼，我平时喝的酒都是十万起步 有人气急败坏我就放心了，中立球迷留。 你这么有钱？ 这次德比不是巴萨的胜利，是加泰罗尼亚对西班牙的胜利！ 皮克这场踢得真好，防守进攻都不错。 痛打落水狗！指的就是黄狗，即便输成这个🐦样，部分黄狗依然嘴硬！部分黄狗开始装中立呼吁理性评球！当然，更多的黄狗夹着尾巴🏃圣诞前在野外流离失所！<br>大家千万不要心软手软，一定要痛击每一只！ 多进几个，看穿又想亮五指山了？ 这样一算，一楼真的好有钱🧐 这样说。皮克假如年薪1000万欧。<br>5000欧是他年薪的2000分之一。<br>中国人年薪5万的两千分之一大概25快钱... 活捉一只还没死的黄狗🐶！ 梅西已经给伯纳乌留足了面子 总比科比狂打铁还号称科比世界第一的蜗壳要强那么一点。 傻逼，哪场球赛没有身体冲撞？没有类似苏牙的情况？何况胖虎的确有小动作。<br>按你这么说，所有足球比赛都是脏的。<br>哦，忘了梅西轻扯了一下皇马那个谁（具体记不得名字）的衣服，那哥们立即摔倒赚个被犯规，是个人就看出来是跳水，解说都不好意思说是跳水，说“小小用力”。按你的傻逼逻辑，那哥们表演夸张不？ 还想举五个手指头？那一次刺激的皇马对梅西的犯规，把梅西委屈的快哭了。 那反过来比，我有全部资产100元，然后吃饭用了98，那个富翁敢用全部资产的98%吃一餐饭[窃笑][窃笑] 就怕10万买来还是在国内罐装的 苏牙和卡塞米罗倒地的时候那个夸张的表演你眼瞎了？ 腻害了老铁 太便宜了 5300欧买的东西在我们这边要10万RMB往上了。 拉莫斯到巴萨来，皮克都不会去皇马。 苏牙踢球不是很脏，主要是假！太爱演 可能等于开一瓶农夫山泉 黄马只要赢一场黄狗就能满血复活！ 皇马赢不赢对黄狗来说并不重要，只要跳水罗进一个球马上就能让他们高潮 东北的黄狗最多。没办法个性张扬爱装逼首选就说做黄狗。 让了一只球鞋 形容自己很贴切…… 巴狗是死来死去都死不了，球员都是一副小人得志的嘴脸。 就喜欢皮克这种干死皇家马德狗的干劲 八處跪下吃💩 毕竟是蔡🐶[微笑] 酒刀有很多款式了,义乌卓成酒具就是专门做红酒开瓶器的,各种各样的红酒开瓶器都有,定制都可以 皮看穿稅后週薪72000歐左右,5300歐大概是他半天工資,對於月薪5000的都市人,大概是我們的80元人民幣價值 5300歐大概是他半天工資,對於月薪5000的都市人,大概是我們的80元人民幣 对于皮克，开瓶5300欧的酒，你就等同于我开一瓶青岛嘛 不知哪天皮克心血来潮转去皇马就有戏了 西班牙本土球员不会干这种事 我们踢野球碰到某些队伍就想往死里虐！很正常何况是德比！ 皮克的所有资产应该不低于一亿欧元，喝个五千欧元的酒，大概是他两万分之一。青岛啤酒五块钱，那你得有十万块 操死黄狗，哈哈哈 这他妈都能黑到科比？我怕你是个傻子吧？ 本来一场完美的高水准对决，包括双方主帅的斗智斗勇，可惜又是被拉莫斯玷污了。 皮克踢得不错 没毛病任何球队得着阿尔巴乌木弟弟苏牙布教授这帮脏b也一顿暴锤加表演就ok了 今天的巴萨过程给4分、结果给10分、球员苏亚雷斯给1分、皮克给3分、丹苏、保利尼奥、梅西给9分！ 本来就是顶级。 就巴萨这中后场，国家德比得输 [微笑]🐕这两天死了好多！[窃笑][窃笑][窃笑][喷水][喷水][喷水] 《空前绝后，胖虎5秒触电闹剧刷爆三观》<br><br>《充气人C罗主动“撞”人，触电反弹倒地四仰八叉》<br><br>全靠演技!C罗长篇跳水合集,各种假摔大赏_腾讯视频<br><br>天下足球:C罗如教科书般的经典假摔<br><br>皇马与塞尔塔比赛中，C罗与乔尼仅有轻微身体接触的情况下夸张倒地，发生在禁区外，但C罗硬是勉强冲入禁区才轰然倒地，成功赚得一粒点球。赛后乔尼痛斥C罗是个假摔骗子。<br><br>铁血男儿拉莫斯在梅西的轻抚下假摔—虎扑足球视频中心<br><br>滑稽！皇马悍将上演反重力假摔，被拽3秒后才倒地，对手一脸厌恶<br><br>贝尔复制C罗上演假摔神技_体育_腾讯网<br>贝尔传承了C罗绝技，在禁区里上演了一出无风自然倒<br><br>西媒批皇马大将莫拉塔假摔骗点:厚颜无耻<br><br><br>全世界媒体都在嘲讽马塞洛,美国福克斯体育说道,马塞洛这次悲哀的跳水表演,把他的名字刻在FallondFloor(假摔金球奖)上<br>先是脚后跟踢人暗算，接着头顶对手挑衅，再佯装遇袭捂面倒地，马塞洛连串表演<br><br><br>皇马大将奥斯卡级假摔小李子看了都会汗颜!_体育_腾讯网<br><br>演技大爆发!佩佩捂脸打滚名宿痛批:真傻×(..._凤凰体育<br><br>黑哨!皇马逃红牌佩佩最后一秒假摔夺点制胜_体育_腾讯网<br><br>演技差!佩佩影帝级假摔_腾讯视频<br><br>争议!皇马逃清晰红牌漏点?飞翼又影帝假摔_体育_腾讯网 哈哈，怎么留的？点球飞了还是怎么滴？ 没有酒呀，收集的酒瓶吧 喜欢皮克，帅帅帅 亮五指山容易得癌症，比如那个离开巴萨的时候曾动情赞美巴萨，“我代表我的家庭感谢你们所有人，过去的六年将铭记我心，我从心底里呼喊，巴萨万岁，加泰罗尼亚万岁！退役之后我们会回到巴塞罗那，会回到加泰罗尼亚继续我们的生活，我爱这里的一切。”。然后到了法甲说巴萨在他看病的时候没给一分钱工资的阿比达尔 [微笑][微笑][微笑] 皮克帅！ 梅西是狗不解释，拉影全体拉稀，皮克断腿，皇马球迷留 不是18秒？死在纸巾上了 多进几个，看穿又想亮五指山了？ 不是营养快线吗 求求黄马球迷别再侮辱铁血两个字了，水狗这种红牌王就是一个脏字，连国家队队友都不待见，还得卡西打电话道歉，黄马就是被佩佩，水狗带脏的，德比一落后往往就是输球又输人，气急败坏毫无必要的犯规，这一场德比黄马的球踢的除了急躁还是急躁 《空前绝后，胖虎5秒触电闹剧刷爆三观》<br><br>《充气人C罗主动“撞”人，触电反弹倒地四仰八叉》<br><br>全靠演技!C罗长篇跳水合集,各种假摔大赏_腾讯视频<br><br>天下足球:C罗如教科书般的经典假摔<br><br>皇马与塞尔塔比赛中，C罗与乔尼仅有轻微身体接触的情况下夸张倒地，发生在禁区外，但C罗硬是勉强冲入禁区才轰然倒地，成功赚得一粒点球。赛后乔尼痛斥C罗是个假摔骗子。<br><br>铁血男儿拉莫斯在梅西的轻抚下假摔—虎扑足球视频中心<br><br>滑稽！皇马悍将上演反重力假摔，被拽3秒后才倒地，对手一脸厌恶<br><br>贝尔复制C罗上演假摔神技_体育_腾讯网<br>贝尔传承了C罗绝技，在禁区里上演了一出无风自然倒<br><br>西媒批皇马大将莫拉塔假摔骗点:厚颜无耻<br><br><br>全世界媒体都在嘲讽马塞洛,美国福克斯体育说道,马塞洛这次悲哀的跳水表演,把他的名字刻在FallondFloor(假摔金球奖)上<br>先是脚后跟踢人暗算，接着头顶对手挑衅，再佯装遇袭捂面倒地，马塞洛连串表演<br><br><br>皇马大将奥斯卡级假摔小李子看了都会汗颜!_体育_腾讯网<br><br>演技大爆发!佩佩捂脸打滚名宿痛批:真傻×(..._凤凰体育<br><br>黑哨!皇马逃红牌佩佩最后一秒假摔夺点制胜_体育_腾讯网<br><br>演技差!佩佩影帝级假摔_腾讯视频<br><br>争议!皇马逃清晰红牌漏点?飞翼又影帝假摔_体育_腾讯网 酒刀有很多款式了,义乌卓成酒具就是专门做红酒开瓶器的,各种各样的红酒开瓶器都有,定制都可以 梅西已经给伯纳乌留足了面子 绝对赞成👍，同感！！ 赛后暴力鸟接受了媒体的采访：“说出来你可能不信，老子上次输球时还在中国” 总比科比狂打铁还号称科比世界第一的蜗壳要强那么一点。 梅西是狗不解释，拉影全体拉稀，皮克断腿，皇马球迷留 6000欧的小编和5300欧的小编你俩打一架吧 丹苏上场了？ 上次差一丢丢 一群大傻逼 这家伙一碰皇马就像打了鸡血！ 赛后暴力鸟接受了媒体的采访：“说出来你可能不信，老子上次输球时还在中国” 我觉得蛋酥分高了，小狮王分的发挥能打高分 皮克这场踢得真好，防守进攻都不错。 拉图（波尔多），罗曼尼副牌（勃艮第）、贝噶西西里亚（西班牙名酒） 很明显没怎么认真踢，如果认真踢，下死手干，那又奔着5比0去了 不是6000欧吗？一天就降了700 你骂人呢？青岛？应该是自来水 想喝这个酒 刚刚放出来的？ 少了700，刚才有个小编发新闻说是6000欧， 苏牙和卡塞米罗倒地的时候那个夸张的表演你眼瞎了？ 黄马只要赢一场黄狗就能满血复活！ 有张裕爱斐堡好喝不？ 话也不能这么说，我有十万积蓄，我天天都喝青岛也啥事没有，而且还可以不止一瓶，皮克能每天喝5300欧的红酒吗？我感觉不会 不赢那么多,只赢一点点!一点点就够了,加油大郅 夸张了 《空前绝后，胖虎5秒触电闹剧刷爆三观》<br><br>《充气人C罗主动“撞”人，触电反弹倒地四仰八叉》<br><br>全靠演技!C罗长篇跳水合集,各种假摔大赏_腾讯视频<br><br>天下足球:C罗如教科书般的经典假摔<br><br>皇马与塞尔塔比赛中，C罗与乔尼仅有轻微身体接触的情况下夸张倒地，发生在禁区外，但C罗硬是勉强冲入禁区才轰然倒地，成功赚得一粒点球。赛后乔尼痛斥C罗是个假摔骗子。<br><br>铁血男儿拉莫斯在梅西的轻抚下假摔—虎扑足球视频中心<br><br>滑稽！皇马悍将上演反重力假摔，被拽3秒后才倒地，对手一脸厌恶<br><br>贝尔复制C罗上演假摔神技_体育_腾讯网<br>贝尔传承了C罗绝技，在禁区里上演了一出无风自然倒<br><br>西媒批皇马大将莫拉塔假摔骗点:厚颜无耻<br><br><br>全世界媒体都在嘲讽马塞洛,美国福克斯体育说道,马塞洛这次悲哀的跳水表演,把他的名字刻在FallondFloor(假摔金球奖)上<br>先是脚后跟踢人暗算，接着头顶对手挑衅，再佯装遇袭捂面倒地，马塞洛连串表演<br><br><br>皇马大将奥斯卡级假摔小李子看了都会汗颜!_体育_腾讯网<br><br>演技大爆发!佩佩捂脸打滚名宿痛批:真傻×(..._凤凰体育<br><br>黑哨!皇马逃红牌佩佩最后一秒假摔夺点制胜_体育_腾讯网<br><br>演技差!佩佩影帝级假摔_腾讯视频<br><br>争议!皇马逃清晰红牌漏点?飞翼又影帝假摔_体育_腾讯网 让了一只球鞋 👌🏻 楼主最爱舔原地陀螺的💩 西班牙德比是我见过仅次于广洲德比的德比，暴力鸟在赛后接受媒体采访时表示 屎罗进一个也会！哪怕球队输！ 赢个联赛第四有啥好庆祝的，我只想知道巴萨和马竞的国家德比啥时候打 10L煞笔，逻辑也煞笔，鉴定完毕 论演技，拉玛西亚影视学院的实力冠绝全球！ 对于皮克，开瓶5300欧的酒，你就等同于我开一瓶青岛嘛 《空前绝后，胖虎5秒触电闹剧刷爆三观》<br><br>《充气人C罗主动“撞”人，触电反弹倒地四仰八叉》<br><br>全靠演技!C罗长篇跳水合集,各种假摔大赏_腾讯视频<br><br>天下足球:C罗如教科书般的经典假摔<br><br>皇马与塞尔塔比赛中，C罗与乔尼仅有轻微身体接触的情况下夸张倒地，发生在禁区外，但C罗硬是勉强冲入禁区才轰然倒地，成功赚得一粒点球。赛后乔尼痛斥C罗是个假摔骗子。<br><br>铁血男儿拉莫斯在梅西的轻抚下假摔—虎扑足球视频中心<br><br>滑稽！皇马悍将上演反重力假摔，被拽3秒后才倒地，对手一脸厌恶<br><br>贝尔复制C罗上演假摔神技_体育_腾讯网<br>贝尔传承了C罗绝技，在禁区里上演了一出无风自然倒<br><br>西媒批皇马大将莫拉塔假摔骗点:厚颜无耻<br><br><br>全世界媒体都在嘲讽马塞洛,美国福克斯体育说道,马塞洛这次悲哀的跳水表演,把他的名字刻在FallondFloor(假摔金球奖)上<br>先是脚后跟踢人暗算，接着头顶对手挑衅，再佯装遇袭捂面倒地，马塞洛连串表演<br><br><br>皇马大将奥斯卡级假摔小李子看了都会汗颜!_体育_腾讯网<br><br>演技大爆发!佩佩捂脸打滚名宿痛批:真傻×(..._凤凰体育<br><br>黑哨!皇马逃红牌佩佩最后一秒假摔夺点制胜_体育_腾讯网<br><br>演技差!佩佩影帝级假摔_腾讯视频<br><br>争议!皇马逃清晰红牌漏点?飞翼又影帝假摔_体育_腾讯网 你儿女活不过十八岁 这逼 国安就是垃圾 这都不是事 你真有钱，我只能开白开水 咱俩谁球盲他那是出界了故意撞的好吗？我都承认拉莫斯脏你们这帮人还不承认苏牙脏也是够了 这他妈都能黑到科比？我怕你是个傻子吧？ 另一篇自媒体写6000欧，不知道有没有更无耻的写十万欧元的 本来一场完美的高水准对决，包括双方主帅的斗智斗勇，可惜又是被拉莫斯玷污了。 我也是，只能咽口水。咽邻家妹妹的下面的 傻逼皮特 智利民族英雄🇨🇱⚽️👑 “开”这个字眼我觉得你用的很好 [微笑]🐕这两天死了好多！[窃笑][窃笑][窃笑][喷水][喷水][喷水] 不对，应该等同于开一瓶冰露矿泉水 皮克这场踢得真好，防守进攻都不错。 几瓶茅台秒杀 真正的青岛啤酒要去一厂喝<br>青岛市市北区登州路 话也不能这么说，你开瓶青岛会在朋友圈晒图吗 😄哈哈我最喜欢他的五指山了 拉莫斯咋啦 苏牙前两天蓄意肘击是不是也没吃牌脏就脏犟啥我都认为拉莫斯脏你承认苏牙脏怎么了都是事实不敢认呢怎么 苏牙和卡塞米罗倒地的时候那个夸张的表演你眼瞎了？ 朋友，炫富蛮低调的嘛 多进几个，看穿又想亮五指山了？ 这几个哪个偶佩大师、拉莫斯、三票脏？！顶多也就是苏牙，跟科斯塔类似，小动作多，但不足以伤人。而佩大师，拉莫斯，三票，那就是踢不过了，蓄意伤人。 可乐差不多，青岛贵了 活捉一只还没死的黄狗🐶！ 刚刚百度了一下你说的西甲文明奖似乎并没有这个奖项啊…… 您真有钱，还能开青岛。我一天就一碗挂逼面[可怜][可怜][可怜] hola 我也是，只能咽口水。咽邻家妹妹的 严重了昂，只要巴萨有一场踢不好就满血复活了 总比科比狂打铁还号称科比世界第一的蜗壳要强那么一点。 几个月前，皇马超级杯双杀巴萨，两回合5-1的大比分。怎么有些球迷就那么容易选择性忘记？这西甲你们赢了就是赢了，风水轮流转很正常，搞得像过年一样？感觉一辈子没赢过一样，搞笑么[疑问] 张裕？ 上一篇不是写的6000欧么 三只巴🐶吃饱狗粮出来汪汪了 黄马只要赢一场黄狗就能满血复活！ 楼上你女良传授给你不要脸天下无敌的绝招了？ 这比还说自己不是故意的。铁血不是脏 喝酒期间的工资就赚回来了。 拼了血命了！ 记错了，公平竞赛奖<br>度“巴塞罗那最干净球队” 厉害苏牙咬人不伤人肘击不伤人别和科斯塔比科斯塔不咬人 皮主席肯定是想再伸出一巴掌 比你开青岛还轻松[狗] 你错了!真正的好酒有钱人也是舍不得喝的!因为有的是有钱人!但是好酒就那些! SB 皮向前 记错了，公平竞赛奖<br>巴萨=西甲最干净队！快两年没送点+场均犯规仅10次绝不伤人 娃哈哈纯净水吧 香格纳葡萄酒嘛,哈哈. 虽然说的没错但能不能把头像收收名字改改这不找骂嘛 黄蛆支持暴力，还爱玩双标 超级杯的时候内马尔刚离开，新人还没来，巴萨阵容不整，教练打法还没固定 皮向前，正常 要不要戈麦斯那货说不定就真亮了 打嘴仗的前提是他踢得真好！！ 玻璃心 有动作有表演，别跟那群巴狗一样什么都不分就开口喷粪！拉莫斯那个动作是该红牌，咬人苏躺在地上滚来滚去那么夸张的表演就要脸了？ 对于皮克，开瓶5300欧的酒，你就等同于我开一瓶青岛嘛 球盲，场上对抗的身体冲撞是技术动作，苏牙在距离皇马禁区不远持球进攻，还不是被皇马队员撞开了，裁判不会给牌的。按你们一群暴力狂+双标，他是不是可以报复皇马队员？ 话也不能这么说，我有十万积蓄，我天天都喝青岛也啥事没有，而且还可以不止一瓶，皮克能每天喝5300欧的红酒吗？我感觉不会 一瓶拉图干进去好几千欧....平时是有点奢但是这种局面不算啥了 本来一场完美的高水准对决，包括双方主帅的斗智斗勇，可惜又是被拉莫斯玷污了。 交友不慎啊，🐕真的是奇葩！ 楼主还是有钱人啊 皮克这场表现着实高光，防高空球基本都防下来了 [微笑]🐕这两天死了好多！[窃笑][窃笑][窃笑][喷水][喷水][喷水] 几乎死绝了，哈哈😄，过几天他们的健忘症又犯了就开始出来了 要不是戈麦斯，还真有可能5:0 没错，我一个朋友皇马球迷2-0后我嘲讽了几句就给我拉黑了，到现在还没有理过我 2:0的时候皮克带球突破到前场组织进攻，传给苏牙后苏牙一脚回给后场，笑尿 不错不错，小爷也有瓶2000年拉图 话也不能这么说，你开瓶青岛会在朋友圈晒图吗 这么巧，我也开了瓶价值5块的勇闯天涯来庆祝 竟然没有狗喷巴萨红点套餐了，我很怀疑啊 巴萨永久会员，而且一家都是。 好好的一场比赛，下半场一开局就进入了巴萨传控时间，就已经没有多大悬念了！！！ 皮克这场踢得真好，防守进攻都不错。 银麦 我看到红酒就想起大狗刺的怪老头 茅台是公款，青岛是自费 相对来说，比青岛还便宜 你俩中华笨蛋。<br>和廉价的啤酒,山泉杠上劲了<br>中华人文,人类文明你们一点不晓的. 那货从上场就不是来踢球的而是来打人的。神奇的是居然没红卡？ 喝最好的红酒，干最贱的黄🐶——皮克 拉图利热布莱尔贝加西西利亚 皮克家底那么厚，到哪里混不开 不知道为什么，我就是很喜欢看穿兄[窃笑] 刚才还6000欧呢 开水，还不放茶叶的那种 大嘴皮是德比鸡血型选手，这场皇马左路许多下底的传中，都被他顶出来了，还是很稳的一个高中锋。 也才两万多我茅台一个亿都在那摆着 这赛季就看欧冠了，大巴黎连拜仁都虐，如果欧冠不理想，皇狗就会死光的。。。。 那反过来比，我有全部资产100元，然后吃饭用了98，那个富翁敢用全部资产的98%吃一餐饭[窃笑][窃笑] 注意用词，是黄狗，谢谢！ 5300？可以买五台苹果X了……如此奢靡，纪委不管管？ 晚上和夏奇拉造个人庆祝一下 所以我就服你 没毛病 错！屎罗踢空气带头崩盘！ 皮主席可不是喊着玩的！ 1:0领先之后就开始往前浪真心不要这样 维尔马伦伤愈了，了不起 黄马只要赢一场黄狗就能满血复活！ 相当于农夫山泉 皇马明显世俱杯后夜店撸多了，全都不在状态 那你还挺有钱的 [挨揍] 皮克要是每场比赛都能拿出踢皇马的状态，那肯定是足坛中卫前三 就喜欢皮克这种干死皇家马德狗的干劲 还想举五个手指头？那一次刺激的皇马对梅西的犯规，把梅西委屈的快哭了。 也不见得多好，上半场多次没看住人。感觉离卡纳瓦罗不是一点差距 对于皮克，开瓶5300欧的酒，你就等同于我开一瓶青岛嘛 不知哪天皮克心血来潮转去皇马就有戏了 疼打落水狗 菜主任不是开茅台的吗？ 第三球，我一直觉得是传给皮克的，比达尔不解风情[微笑][窃笑] 谁称历史第一人死全家，太尖绝后 一坨💩上最佳而已！ 这次德比不是巴萨的胜利，是加泰罗尼亚对西班牙的胜利！ 哈哈我大网易的大黄狗们还会回来的 一口闷，5000欧没了 [微笑]🐕这两天死了好多！[窃笑][窃笑][窃笑][喷水][喷水][喷水] 皮主席富贵世界，根本不在乎工资~ 这点钱，对他们来说还不是九牛一毛 看到🐕直接打死，千万不能心慈手软！ 哪都有好坏 为什么要来足球板块黑科比。😂😂深仇大恨？ 我罗迎球怒射踢成空气球，原地旋转180度翻身跳入水中，居然没有溅起水花。我罗果然是屎上最佳跳水运动员！ 本来想喷你，一看阁下是菜真滑，[狗] 谁说的巴萨只能掠菜，脸被打肿了 你这么有钱？ 本来一场完美的高水准对决，包括双方主帅的斗智斗勇，可惜又是被拉莫斯玷污了。 狗屁，等同于你开1杯开水 痛打落水狗！指的就是黄狗，即便输成这个🐦样，部分黄狗依然嘴硬！部分黄狗开始装中立呼吁理性评球！当然，更多的黄狗夹着尾巴🏃圣诞前在野外流离失所！<br>大家千万不要心软手软，一定要痛击每一只！ 他们热切期待打西班牙人队 多进几个，看穿又想亮五指山了？ 你个哈比！！你乱说人家职业，是体操运动员， 接了杯自来水? 地域歧视那几个狗，土鳖。你爹我在东北出差，垃圾就知道地域歧视 皮克老婆呢 总比科比狂打铁还号称科比世界第一的蜗壳要强那么一点。 吞了口口水 黄马只要赢一场黄狗就能满血复活！ 看到好几次皮克一个劲往前跑，中卫带球跑到中锋的位置，当时就觉得这小子一打皇马就打了鸡血 一楼不是球迷，是网易专业挑事的 上半场确实水平很高，攻守快速转换，防守球员各种断球，门卫花样扑球。看的真是窒息啊。 土鳖，你爹我在东北出差。垃圾就知道地域歧视。 就怕10万买来还是在国内罐装的 主席太谦虚了 皇马赢不赢对黄狗来说并不重要，只要跳水罗进一个球马上就能让他们高潮 请说出你的亲身悲催遭遇 在勃纳污亮五指山意义非凡！ 说实话，皮克的情商确实低了点 问题是敢进吗？ 看到你的名字，就知道你的整体素质如何！！我是东北人，但我不会骂你！ 拉莫斯没染红已经算克制了，德比最脏的人那次不是拉莫斯 别给北京人丢人了，真正的北京土著没多少，大部分都是大兴、通州的农民、拆二代，河北河南的农民工进京冒充北京土著。 5300欧买的东西在我们这边要10万RMB往上了。 自来水伤不起，只能说到山涧装了一杯。 你们东北人给人印象已经根深蒂固了，垃圾人的代表！[窃笑] 呵呵。这有什么。。风水轮流转嘛。。皇马这个赛季缺少荣誉饥渴感 可能等于开一瓶农夫山泉 已经很值钱在欧洲几十块钱的红酒已经是高档红酒了这5300的红酒不知道是什么东西 他本身就是个富二代，才不在乎赚多少 如果不上戈麦斯，真的能多进一个两个。。 东北的黄狗最多。没办法个性张扬爱装逼首选就说做黄狗。 赛前爷预测巴萨7:0皇马，结果少进四个。<br>爷还预测C骡口吐白沫、四蹄朝天，结果撂蹄打空，还被梅西任意球打骡脸。<br>酸爽、过瘾～ 几个傻逼干了这一杯 你可能高估自己了我连开瓶矿泉水都不敢说 皮看穿稅后週薪72000歐左右,5300歐大概是他半天工資,對於月薪5000的都市人,大概是我們的80元人民幣價值 三瓶酒，代表了三个进球，苏牙那个进球3000多，梅西那个就是1000多，比达尔的就是锦上添花！ 就喜欢皮克这种干死皇家马德狗的干劲 不管菜有没有那些钱，他敢拿出来花吗 我一天工资大概640，如果遇到这么开心的事，花320吃顿饭喝点酒，还是值得的 史上最佳的我罗面对梅西时输过<br>1:0诺坎普<br>2:0罗马（欧冠决赛）<br>3:0伯纳乌<br>4:0伯纳乌<br>5:0诺坎普<br>[窃笑][窃笑][喷水][狗] 你让未来的巴萨主席转会去皇马？ 对于皮克，开瓶5300欧的酒，你就等同于我开一瓶青岛嘛 不知哪天皮克心血来潮转去皇马就有戏了 记得当年4:0的时候，穆尼尔门前浪费五指山的良机，气的主席大骂！主席才是真性情！拉磨狗、骡子那是肮脏、下作！ 皮克终于发挥正常了……已经迷失了有一阵子了 我去，菜真滑的钱会比匹克少？？？ djjrjjdkkdkde 局座您真是低调啊 不是他赚得少，是她老婆赚得太多 [微笑]🐕这两天死了好多！[窃笑][窃笑][窃笑][喷水][喷水][喷水] 皮克一家都是加泰上流，政商通吃的，这势头，将来妥妥的巴萨主席。 我罗迎球怒射踢成空气球，原地旋转180度翻身跳入水中，居然没有溅起水花。我罗果然是屎上最佳跳水运动员啊！ 大家都是上过小学的人，数字还是认识的。要科普就科普一下酒名和历史。 不至于，等同于百威吧[微笑] 蔡主席，你茅台喝多了，是三瓶的价格 皇家德比一边倒并不是球员愿意看到的 主场踢成这样齐达内要反省，梅西一只鞋送助攻也是没谁了。 您太高看自己啦！ 看到最右边的是96年的红酒。 那是对你这种穷逼，我平时喝的酒都是十万起步 你这么有钱？ 各种代言什么的，算下来真就相当于一瓶啤酒， 左至右：拉图，罗曼尼·康帝，96年西班牙产贝加西。标准答案了 5000欧已经是他国屁民的月工资了.<br>再多开。富人不上税，说不过去的.<br>饶的挺复杂的，但人家摆上5300欧的酒。<br>有人家的道理，不在此间不知此事... 呵呵，你说的是巴沟吧，赛季之前呵呵。都不敢出来了。 皮看穿稅后週薪72000歐左右,5300歐大概是他半天工資,對於月薪5000的都市人,大概是我們的80元人民幣價值 你们居然忘了，皮看穿目前职业生涯打扑克赢取的奖金比他踢球多。。更别提他是个二代，恩还有个拉丁天后当老婆。。。 皮克：我想再秀一下五指山 皮克一打黄马就来劲，不是吹得 是欧不是人民币 如果不上戈麦斯，真的能多进一个两个。。 对于皮克，开瓶5300欧的酒，你就等同于我开一瓶青岛嘛 看直播2比0的时候，皮克巴萨开始拖时间，皮克要带球进攻让苏牙一脚把球踢回门将那里了……当时皮克好尴尬…… 最近怎么不报道C罗联赛射门次数了？挺想知道的 又是红酒，有我江小白好喝吗？ 479的红酒就不要放在朋友圈显摆了好不啦，要是那样的话都不好意思说是皮主席的朋友圈好友😰 一楼的意思言简意赅，好几位居然没看懂。。 你们居然忘了，皮看穿目前职业生涯打扑克赢取的奖金比他踢球多。。更别提他是个二代，恩还有个拉丁天后当老婆。。。还有什么，楼下请补充 太便宜了 我也在淘宝上买过这种酒瓶[鄙视] 小人得志 等同我开了瓶1块五的汽水！ 本来一场完美的高水准对决，包括双方主帅的斗智斗勇，可惜又是被拉莫斯玷污了。 总比科比狂打铁还号称科比世界第一的蜗壳要强那么一点。 可能等于开一瓶农夫山泉 黄马只要赢一场黄狗就能满血复活！ 左至右：拉图，罗曼尼·康帝，96年西班牙产贝加西。标准答案了 4楼你算他工资没啥意义，他也是不努力就要被逼继承家产的人 哎呀 这酒为毛这么贵?他经过劳动人民的同意了吗. 4楼算得没错，可是算家庭资产的话[挨揍][挨揍][挨揍] 对于皮克，开瓶5300欧的酒，你就等同于我开一瓶青岛嘛 把戈麦斯换成内马尔，苏牙状态好点，又是五指山 2比0后，全队都在控节奏，而主席不停地带球前插 青岛过了，最多一瓶娃哈哈。 我们踢野球碰到某些队伍就想往死里虐！很正常何况是德比！ 左边-拉图中间-罗曼尼康帝右边-张裕！别问我怎么知道的[微笑][微笑][微笑] ",
        "Reply": 360
    },
    "Article": "网易体育12月25日报道：每次国家德比，皮克都是巴萨求胜欲望最强的球员之一，他经常会后排插上争取进球。在巴萨6比2血洗伯纳乌时，就是皮克在阵地战中疯狂前插打进的最后一球。在伊布当年1比0绝杀皇马时，皮克也冲到前点吸引了皇马防线注意力。在本次国家德比中，皮克在2比0领先后又连续大喊“多进几个”。利用点球机会，梅西将比分变成2比0。在这种比分下，巴萨通常会选择相对保守点的踢法，此时需要的是冷静而不是过度兴奋。但皮克却完全不同，他崇尚宜将剩勇追穷寇。《世界体育报》指出，在巴萨庆祝进球之后，皮克连续四次对队友们大喊“多进几个”。在11打10且2比0领先的情况下，巴萨其实已经把胜利收入了囊中，但皮克仍然在剩余比赛时间内疯狂前插，他一直希望能在伯纳乌再进一球。虽然皮克自己没能进球，但队友比达尔在补时阶段满足了皮克的愿望。比达尔破门之后亮出了让伯纳乌闭嘴的手势，皮克这次可以心满意足了。大胜皇马开启圣诞假期，皮克心情相当愉快。在社交网络上，皮克发了三瓶红酒的照片，并配文“今天一切都值得”。《马卡报》指出，这三瓶酒价格达到了5300欧元。这三瓶酒的身价，分别为3360欧元、1495欧元和479欧元。本文来源：网易体育作者：张琳责任编辑：朱楷正_NS4807",
    "URL": "http://sports.163.com/17/1225/08/D6G4PPB100058781.html"
}