{
    "Article": "（原标题：装有12万港币LV包遗落在座位上空姐找到失主浑然不知）武汉晚报消息，从南航湖北公司获悉，1月1日，南航CZ3809落地温州后，乘务长杨晶发现座位上有一个乘客遗落的LV包，打开一清点，仅港币就有12万元，还有若干人民币及银行卡。杨晶通过各种方式迅速联系多部门，最终在失主离开机场前，物归原主。前天，南航CZ3809准点落地温州。旅客离机后，乘务长杨晶仔细巡查客舱，发现39排座位上有一个精致的LV女士小包，打开一看，好多的现金!全是面额1000的港币，粗粗数来共有12万元，另外还有若干人民币及数张银行卡。杨晶心想，飞机在温州只停留一个小时，必须马上找到旅客，这么多的钱必须亲手交给旅客才安心!她根据小包的位置，断定应该是40C座位上的李女士，马上联系南航湖北销售部门协助查找旅客电话信息。杨晶一边等待消息，一边和同事们又仔细清点一遍小包里的物品。突然，她发现了一张名片，上面显示为李某某。杨晶马上给李女士打电话，打了两遍后电话通了。电话那头，正是刚刚下飞机在等行李的李女士。李女士还没发现自己的包落飞机上了。当全部的物品清点完毕，李女士激动地握着杨晶的手连声称谢。本文来源：重庆晨报上游新闻责任编辑：苏泓珵_NBJ9980",
    "PublishTime": "01/03/201811:35:18",
    "URL": "http://news.163.com/18/0103/11/D77LP9V200018AOR.html",
    "Source": "Netease",
    "Comment": {
        "Content": "女失主不简单 12萬港幣，按照1000港幣金牛一張，也就一鑼一萬人民幣多兩千的厚度。 空姐妆容风尘味弥漫 女失主不简单 12萬港幣，按照1000港幣金牛一張，也就一鑼一萬人民幣多兩千的厚度。 空姐妆容风尘味弥漫 马大哈 ipad南航，出了登机口后马上联系。飞机上的乘务员告诉我对不起，没看见。我是最后几个下飞机的。 ",
        "Reply": 5,
        "Total": 38,
        "Link": "http://comment.news.163.com/news2_bbs/D77LP9V200018AOR.html"
    },
    "Title": "装12万港币LV包遗落在座位 空姐找到失主浑然不知_网易新闻",
    "KeyWords": "lv包,南航,杨晶,遗失"
}