{
    "Comment": {
        "Link": "http://comment.news.163.com/news2_bbs/D70AT8H100018AOQ.html",
        "Total": 7298,
        "Content": "这是对你父母的不负责，对自己的不负责，对所有家人的不负责！我们不该在这样宣传这样的玩命工作是正确的！！ 不懂；连自己的身体都照顾不好。能医好病人吗……<br>不喜勿喷...... 这就是所谓的奇迹用百分之四的gdp搞定了医疗和教育 连续奋战36小时并没有什么了不起，短时间的突击而已，很多医生都达到过。医生的疲劳是长期的，且医生读书多年，体质不如农民工也很正常，所谓积劳成疾，最后猝死，所以收起你那副自以为是的嘴脸。 现在的民生已经全部产业化。各个巨头雄霸，经营的手段不同，但都是用人用到死，追求成本最小化，利益最大化，官商共建国富民强路。 你还不错，能认真当医生、利用休息时间搞课题；有不少是搞基础医学假科研、写假文章、花钱发表SCI，与临床没半点关系；现在，风向变了，这些人摇身一变又成为有高学历的医生；把搞假科研那一套用来看病；忽忽悠悠、连蒙带骗，可有人也相信这就是名医。 最后那口棺材，留给了社会底层的穷苦百姓！ 你是拐弯骂人不带脏字！不过骂得好！ 工作强度太大啦 农民的儿子，父辈的房子就乡下两间瓦屋而已吧 你觉得这是正能量新闻吗？你就没看出点问题？ 连续工作18小时，铁人也吃不消啊。到16个小时的时候，我估计站都站不住了。 没看到2018年的太阳……<br>一路走好！ 医疗产业石油产业房地产业教育产业殡葬产业是经济支柱。 工人农民工加班死的更多，不报道罢了 2018祝大家新年快乐，幸福安康，万事如意！ 我是高校教师，科班出身，一工作就代大量的专业课，好多通过关系进来的低学历的或者公共课教师，上不了课，也不好好上课，每天就东拼西凑花钱发文章发书，我们整天要上课备课什么公开课示范课，根本没时间弄这些，若干年下来，他们都教授副教授了，把名额都占完了，我们还在吭哧吭哧的上课。 人家不把你当人，你也不把别人当人 中国肯定会重戴东亚病失的帽子！因为由于分配不公，不同工同酬，干活的人大多数的收入不如退休在家的收入高，再加上教育，医疗负担和物价高涨，经济大滑坡，心态多数人都不好，年轻人啃老严重～～ 劳动压力大 父母给儿女做一辈子牛马。到老了还给孩子买房子。为什么中国的年轻人都不知羞耻呢？住着父母给买的房子自己不害臊吗？ 我不明白：医生为什么还要加班？谁能告诉我，中国医生太少了？还是招不到医生了？医学院毕业生都被其他医院招完了？坑爹医院宁肯医生累死，也决不多招医生！！！ 问题是，一个社会，为什么人人都想去当上面？一个人人平等的社会会是人人都去争着当上面吗？ 一开始是当全者利用手中权力为个人办事，到八零年代之后，先富起来的人利用金钱交换权力，也办成了事。现在的诸多不公包括教育、医疗等都源于以上两点。 职业喷子都死了好几个！ 疲劳致死？我告诉你们我在钢厂上班的时候，连续奋战过36小时。并且时刻还不能分神休息。虽然我很同情亡者。但请广大娇惯宠溺坏的太子爷娘娘和媒体们，收起以娇弱的自身揣度人类承受能力的行为！乱世养人，盛世养猪。 在校最用功，工作不轻松，倍受人关注，人生拿命赌，你苦，我哭。明星在各卫视群魔乱舞时候，你却死在工作岗位上，做人的差距咋这么大呀。 我就不明白了，你父辈的房子留给谁？死了带走吗？ 民工死在岗位上的多的是！ 不是有通知说元旦期间不允许限号不允许让病人等吗，医务人员的健康难道不值得保护？难道他们不是人民？ 四楼这种傻狗始终不懂物业与业主的关系。 管人的不懂技术,懂技术的管不了人. 知识分子就是农民的寄生虫。 大城市是大量的职称副主任，职务主治医师，年纪还比这位大的在翻18小时的班，劳动法似乎对一线医疗公安无效？ 最关键的是，你不坏，就当不了上面的，导致风气不好。 不是医生伟大，是医院拿医生不当人。没根基的累死你，有关系的闲的要死。 你们也别讨论谁好谁坏了说白了基层的公务员都是累得很只有上面的才是真正的坏 我是一名大学附属医院医生，每天白天上班，晚上下班还得想办法搞文章，写基金，关键搞这些对我的临床一点点帮助都没有，多想晚上回来能花点时间好好看看临床文献！目前医生晋升只和科研有关，和临床技术无关。每年国家大量的科研投入都是被浪费了，那可是纳税人的血汗钱啊！好多人靠这个所谓的科研发了大财！像华大基因就是赚国家的科研经费，实际上医学搞科研，搞了这么多年，投入这么多，很多都是模仿国外，没个P用！希望国家好好管管这个医生晋升！现在是大学校长逼着医院院长搞科研，院长逼着医生搞科研！ 你看你这傻吊样，慢慢像你这么傻逼的狗奴才越来越少直到灭绝中国就会开始变好了。 你给我找找全中国自己能挣钱买房的年轻人有几个？父辈要不是在房价上涨之前买的房子，现在让父辈买房那也是买不起。一年工作到头一个厕所都买不起，还要吃还要穿还要住，生病不敢去医院，领导让无偿加班不敢不加班，加班病了还不敢去医院，自己吃点药对付对付。 劳累是一方面，颅内还是有血管畸形吧（血管瘤之类）；一路走好！ 敬礼！ 美帝那么好！怎么楼上3只贱狗还懒在中国？？你们是傻B吗？？ 全篇报道就是说死着生前怎么怎么好，就不说为什么要连续工作18个小时？在国外这属于虐待劳工。 13亿活该，仇日却纵容500户作恶，一个南京官法对付13亿就绰绰有余！ 是啊，因为医生的名声不怎么好嘛！ 无论哪里，你身边的人，都能杀死你。 没办法，生活所迫吧。医院叫你加班你能不加班吗？敢不加班吗？ 又是正能量新闻，现在很多这种选择性新闻，负能量的不敢报！ 医生不易 可好多毕业生找不到工作基层卫生院闲的要死好多编制被二代占完了还不干活 为什么戏子能赚那么多钱一个医生却赚的很少这是一个神奇的时代！ 一路走好！！ 十八小时，在国内真不叫什么~少见多怪！因为劳动法，就是张纸，仅此而已！ 清洁工很辛苦 护士很辛苦[可怜] 这是对你父母的不负责，对自己的不负责，对所有家人的不负责！我们不该在这样宣传这样的玩命工作是正确的！！ 对患者来说不是好事！！ 连医生都过劳死，这劳动法形同虚设，社保局脱不了干系！ 对患者来说不是好事！！ 人家不把你当人，你也不把别人当人 中国肯定会重戴东亚病失的帽子！因为由于分配不公，不同工同酬，干活的人大多数的收入不如退休在家的收入高，再加上教育，医疗负担和物价高涨，经济大滑坡，心态多数人都不好，年轻人啃老严重～～ 苦、空、无常、无我 赵变香终于要变臭了！！！！ 我说的没毛病啊，老一代的大学生作为主力军才能消化的了引进的技术，你以为炼钢厂烧锅炉的大爷能搞定这些？ 有脱下来过吗？ 我想说，年轻人啃老是身不由己，因为长辈们的控制欲极其变态，总想把孩子留在自己身边，所以从小就限制扼杀孩子的天赋把孩子弄成行尸走肉这样就能很好的控制了！ 不是人说的话！ 假货排挤真货，劣币驱逐良币。 学什么不好，非要学医，你看，累死了吧…… ...是的.领导又说了.穷人可能买不起.例如官财铺2000万一个中将官职.哪个穷光蛋有那么多的钞票....还是给穷人留下用马粪纸做的骨灰盒划算的来..... 赵变香医师连续工作18小时，造成自己劳累过度，引发动脉管破裂离开了我们。我想这也是各大医院主治医师缺乏，人手不够的一个原因。应该引起重视。 这是严重违反劳动法的行为，却被解读成一个英雄事迹。这个医院有不可推卸的责任。 我来告诉你一个事实：我们这儿医院的手术医生都是24小时工作制，手术多是一回事，术后观察也是手术医生的份内职责，不然难道手术后就撒手不管？ 医疗产业石油产业房地产业教育产业殡葬产业是经济支柱。 天使 就是，不能让大家各安本分吗？非得混着来？社会一团云里雾里。 13亿活该，仇日却纵容500户作恶，一个南京官法对付13亿就绰绰有余！ 这么好的医生这么年轻就去世真可惜。希望她一路走好。 你就放心吧，基极在不受外力冲击正常都有200-300年的寿命.然后被老外那种永世的暴揍一顿。不过这个时代就不会再有分久必合的机会了。不过我们看不到，管它呢。 最后那口棺材，只能留给社会底层的穷苦百姓！ 二楼的逻辑和那个白痴皇帝说的何不食肉糜一样 你这情况就跟削尖脑袋往里挤一样，你去小医院不行？你是救死扶伤还是为了钱呢？老想去大医院，升职称，在校医院做个中低级职称的小医生不行？跟公务员一样，那些有权有钱的岗位你往里走，那些普通公务员岗位不是岗位？ 最后那口棺材，留给了社会底层的穷苦百姓！ 还有我们院长的一个学生，天天给院长做实验写论文，勤勤恳恳，现在都混到正高了，外科大夫不看门诊不做手术的专家。 好医生不该早走啊 一点良心也没有！ 人们怀念这位好医生。 我是一名大学附属医院医生，每天白天上班，晚上下班还得想办法搞文章，写基金，关键搞这些对我的临床一点点帮助都没有，多想晚上回来能花点时间好好看看临床文献！目前医生晋升只和科研有关，和临床技术无关。每年国家大量的科研投入都是被浪费了，那可是纳税人的血汗钱啊！好多人靠这个所谓的科研发了大财！像华大基因就是赚国家的科研经费，实际上医学搞科研，搞了这么多年，投入这么多，很多都是模仿国外，没个P用！希望国家好好管管这个医生晋升！现在是大学校长逼着医院院长搞科研，院长逼着医生搞科研！ 疲劳致死？我告诉你们我在钢厂上班的时候，连续奋战过36小时。并且时刻还不能分神休息。虽然我很同情亡者。但请广大娇惯宠溺坏的太子爷娘娘和媒体们，收起以娇弱的自身揣度人类承受能力的行为！乱世养人，盛世养猪。 毕竟护士还有脑力劳动 这是恪尽职守，救死扶伤的好医生赵变香在她的工作岗位倒下，令人心痛！ 理想是救死扶伤没有错，但是2楼这种人不能要求医生甘于清贫。我就是想救死扶伤，我就是想要住大房子、开好车、给父母老婆孩子更好的生活，这些理想没有冲突。为什么一周查房七天还特么时不时值班24小时的人和公务员比待遇？我特么看个门诊才不到十块钱挂号费，还特么不是我的，我特么拿10块钱找个汽修工给我看看汽车哪里有毛病都没人搭理我！为什么一样是4S店奔驰的工时费一定比江淮的工时费贵？为什么维修这世界上最值钱的人的医生们就这么廉价？ 你还不错，能认真当医生、利用休息时间搞课题；有不少是搞基础医学假科研、写假文章、花钱发表SCI，与临床没半点关系；现在，风向变了，这些人摇身一变又成为有高学历的医生；把搞假科研那一套用来看病；忽忽悠悠、连蒙带骗，可有人也相信这就是名医。 我觉得医院和大学的关系是不是搞错了？应该是医学院属于医院，怎么是医院属于大学呢？ 官老爷们这就是你们要的结果！你们要的盛世！！ 哈哈，医院这种评估体制，正好便宜我们这种在大学里专门搞科研的。你们有钱没时间，我们有时间没钱，合作咯 无冤无仇的，她都因工作累死了，你还口这么毒，你是个畜生吗？ 扣12分 劳动法何在？ 2楼的观念就是医生为钱就是不对的，我只想说，不是每个人的理想都是救死扶伤，我的理想就是技术换钱。仓廪实而知礼节，不跟我谈报酬，光跟我谈理想谈道德，那是耍流氓 其实大部分基层工作者和普通人一样都是辛苦的劳动者，真正坏的是那帮信仰鹅毛梅毒的，医生里分信他们和不信他们的，教师里也是，信他们的往往可以抬着头走路或者坐在办公室里指挥，而不信他们的，其实也就是一个普通的居民打工者 假科研、写假文章，这在大学也是一样。写文章的收入远超过工资收入 政策和制度没办法就是这样形式主义还有没人逼着你干。医生在患者身上也没有少捞好处。 赵变香医师连续工作18小时，终于倒在工作岗位上，离开了家人、离开了同事、离开了病人。这条报道竟感人，又悲痛。 不要绑架别人的选择，要去哪里工作是人家的自由，劳动法没有落实不是她的错，二楼那话和何不食肉糜一样 公务员，呵呵，别装纯了，之前工作天天接触了，信了网上那些就傻逼，除了刚进去天天就为老人打杂，资历老点的，哪怕办事员，我就不说了，都懂得。没收到的，肯定也天天看到 是啊，因为医生的名声不怎么好嘛！ 我们全是症脓魉，梅地全是抢技暗 这才是人才，了解中国国情的俊杰，那些笨蛋底层活该老老实实替领到做科研！ 过劳死，医院该陪偿一笔钱。 你就醒醒吧。现在中国的科技都是国外支援或强行作为投资条件抢来的，没有改开，你所谓的中国科学家能干个啥 致敬！走好。 县医院的医生和市里医生同学你说谁差谁啊，并非医生差多少就是医院起点不一样，但是收入也不一样了，我看县医院医生和市里的一起去进修，市里的吃不了那苦没进修完就跑回来了，县里的努力学完，回来与省医院合作开创了新科室，让县里人不用跑大城市就可以用新技术治疗，花费比去大城市少多了，我觉得这样的医生贡献最大，做的是实实在在有益于人民的事！ 民工死在岗位上的多的是！ 你去查查就知道了 人们怀念这位好医生。 劳动法何在？ 医者仁心 不懂郑智！发财的都是领到，需要一些底层劳力干点活！ 尽职尽责 医生不易，走好 连续奋战36小时并没有什么了不起，短时间的突击而已，很多医生都达到过。医生的疲劳是长期的，且医生读书多年，体质不如农民工也很正常，所谓积劳成疾，最后猝死，所以收起你那副自以为是的嘴脸。 主任在家写论文啊!躲在办公室里写材料啊！ 好大夫！一路走好！ 我不是要喷谁，也希望大家别喷我，很多医生工作时间都超长，这是因为这些医生工资很高，比如我就有一位朋友医生，他经常因为开刀做手术而连续加班12小时以上，其中之一是因为，做一次手术能赚500块以上，所以舍不得休息，一天做个5个手术，就2000多一天，还有个原因是他技术好，医院也不喜欢他多休息，因为他少做手术，别的医生就要多做手术，毕竟手术有风险，医院也不希望加大风险，如果上班时间跟工资不挂钩，鬼才愿意干12小时以上 我看你是真的傻！你以为你了解医生护士？ 最后那口棺材，留给了社会底层的穷苦百姓！ 你是拐弯骂人不带脏字！不过骂得好！ 能把自己累死的人都是人才[不屑] 现在房价那么贵，还不是为了生活，否则谁愿意累成狗 原来脑血管病变造成，高强度的工作只是加快了病情的发展，即使这次没发以后也可能发的 医生搞科研没有错，要求写论文也不错，国外也这样的，基层医生也要发论文，问题是出在管理上，管理不科学，管理人员学术上是二百五，在权力的使用上是流氓！-------------------比如，基层医生，一年发一篇论文就可以了，平时将有关的数据，事实积累，到时一写出来，现在互联网方便，发在网上交流，让内行人看到，将自己的经验，揭示的规律，所说的有用事实，丰富医学知识库就可以，德国即使是大学教授，论文印出来，放在本大学图书馆给人们看就是“发表”。中国医生，一是不会写论文，二是没有这理念，三是管理人员外行加流氓。摧毁了科学事业，摧毁了医生的健康，包括心理健康，给医生反对写论文提供了理由，美国等国家，小学老师也必须写论文。并且是真正的论文，中国的老师，甚至医生，根本不知什么叫写论文。一脸垃圾劣等人种相。----------------中国医生看美国医生写出来的论文，是非常折服的，中国的老师看美国老师，包括小学老师，写的论文，也是非常的折服。因为形式非常规范，内容非常原创，有价值，真正是科研的结果。 你觉得这是正能量新闻吗？你就没看出点问题？ 没看到2018年的太阳……<br>一路走好！ 医疗产业石油产业房地产业教育产业殡葬产业是经济支柱。 直接把院长革职安排在医院扫厕所。 高危工种。 是位好大夫，一路走好 2018祝大家新年快乐，幸福安康，万事如意！ 中国肯定会重戴东亚病失的帽子！因为由于分配不公，不同工同酬，干活的人大多数的收入不如退休在家的收入高，再加上教育，医疗负担和物价高涨，经济大滑坡，心态多数人都不好，年轻人啃老严重～～ 神医难治己病。 人家不把你当人，你也不把别人当人 还有打手集团无限公司。奴才集团无限公司。 又是正能量新闻，现在很多这种选择性新闻，负能量的不敢报！ 阅读 太辛苦了。 还有罚款集团无限公司呢！ 医不自治 虽然结局悲剧，你自己支持不住可以休息的嘛，医院少了你不能运作了？ 这年头大家都不易啊 我是一名大学附属医院医生，每天白天上班，晚上下班还得想办法搞文章，写基金，关键搞这些对我的临床一点点帮助都没有，多想晚上回来能花点时间好好看看临床文献！目前医生晋升只和科研有关，和临床技术无关。每年国家大量的科研投入都是被浪费了，那可是纳税人的血汗钱啊！好多人靠这个所谓的科研发了大财！像华大基因就是赚国家的科研经费，实际上医学搞科研，搞了这么多年，投入这么多，很多都是模仿国外，没个P用！希望国家好好管管这个医生晋升！现在是大学校长逼着医院院长搞科研，院长逼着医生搞科研！ 疲劳致死？我告诉你们我在钢厂上班的时候，连续奋战过36小时。并且时刻还不能分神休息。虽然我很同情亡者。但请广大娇惯宠溺坏的太子爷娘娘和媒体们，收起以娇弱的自身揣度人类承受能力的行为！乱世养人，盛世养猪。 你知道的太多了~ 医生更要保重自己的身体啊，该下班下班，救人救己，别放弃自己，死了还怎么去救人 医生搞科研没有错，要求写论文也不错，国外也这样的，基层医生也要发论文，问题是出在管理上，管理不科学，管理人员学术上是二百五，在权力的使用上是流氓！-------------------比如，基层医生，一年发一篇论文就可以了，平时将有关的数据，事实积累，到时一写出来，现在互联网方便，发在网上交流，让内行人看到，将自己的经验，揭示的规律，所说的有用事实，丰富医学知识库就可以，德国即使是大学教授，论文印出来，放在本大学图书馆给人们看就是“发表”。中国医生，一是不会写论文，二是没有这理念，三是管理人员外行加流氓。摧毁了科学事业，摧毁了医生的健康，包括心理健康，给医生反对写论文提供了理由，美国等国家，小学老师也必须写论文。并且是真正的论文，中国的老师，甚至医生，根本不知什么叫写论文。一脸垃圾劣等人种相。----------------中国医生看美国医生写出来的论文，是非常折服的，中国的老师看美国老师，包括小学老师，写的论文，也是非常的折服。因为形式非常规范，内容非常原创，有价值，真正是科研的结果。 适合搞科研的去，适合临床的就别瞎折腾。就如同大学毕业写论文，有个P用。 这校长估计是新上任的中大校长吧? 请问：医院的劳务收费是按市场原则了吗？？？？ 在中国，何止医生加班加点？企业职工加班加点家常便饭，劳动法形同虚设。 就知道有人这样说。你那是单纯的体力劳动，而医生是体力劳动和脑力劳动相结合的，而脑力的高度紧张才是最累人的，十年前，我哥经历了一场大手术，我就在手术室外部守着，6个多小时下来，出来的医生都精疲力尽。。。N年前，我的一个亲属的胃大出血，抢救的时候，一个刚下班换好衣服的大夫看到后立刻跑到抢救室帮忙，我就在外面看着，血喷了他的西服，稳定后他出来，我跑过去给了3百块钱，哥们！去买件衣服。。。他直接将我的手打到一边，一句话没说就走了。。。。。<br>我和家里人都没有做医生的，也没有必须要给他们洗地，这几年医患紧张也是制读造成的，医生里也有很多好人。。。。。其实，读医科大学的，很多都是穷人家的优秀孩子，当初都是怀揣着救死扶伤的理想，官二富二没这个智商，也没这个耐心。。。。。但鸡国这个大染缸，你懂得！ 其实你的生命意义就在于更多的生命。可能他值钱，也可能他不值钱。我知道你没有用金钱衡量过生命。谁的生命比自己的更值钱？ 楼上的朋友新年将至祝你生活愉快。智者不用看到完就能判断出故事的结局。即使是平庸者只要活的够久会看到后世对当代的客观定论！ 一路走好 这究竟是生命太有价值，还是生命一文不值 应该强制休息！！！避免悲剧发生！！！！ 不管怎么样，没有科研投入就没办法发展，我十分同情，谢谢 医者难以自医啊 天使在人间 往水里倒人民币是不是投入？ 好大夫！一路走好！ 好人一路走好 为何工作18个小时？工作狂？年底评先进？赵变香··广东粤语就变香…。 连续工作18个小时？！于公于私，于私于公，都是不负责任的！！！ 你傻不傻，她能休息不休息？现在好多地方都没人愿意当医生了，高危职业。还容易被患者打。 一楼三楼猫佐无疑 2楼说的是真的，现在上海考医的都是根本不知道实际情况，或父母自私，想让孩子以后做自己的家庭医生，把养孩子做一种投资，心疼孩子也知道内情的都不会同意孩子去读的 医生搞科研没有错，要求写论文也不错，国外也这样的，基层医生也要发论文，问题是出在管理上，管理不科学，管理人员学术上是二百五，在权力的使用上是流氓！-------------------比如，基层医生，一年发一篇论文就可以了，平时将有关的数据，事实积累，到时一写出来，现在互联网方便，发在网上交流，让内行人看到，将自己的经验，揭示的规律，所说的有用事实，丰富医学知识库就可以，德国即使是大学教授，论文印出来，放在本大学图书馆给人们看就是“发表”。中国医生，一是不会写论文，二是没有这理念，三是管理人员外行加流氓。摧毁了科学事业，摧毁了医生的健康，包括心理健康，给医生反对写论文提供了理由，美国等国家，小学老师也必须写论文。并且是真正的论文，中国的老师，甚至医生，根本不知什么叫写论文。一脸垃圾劣等人种相。----------------中国医生看美国医生写出来的论文，是非常折服的，中国的老师看美国老师，包括小学老师，写的论文，也是非常的折服。因为形式非常规范，内容非常原创，有价值，真正是科研的结果。 一路走好！！ 农民工有屁的价值，在田里的价值不如耕牛，在工地的价值不如起重机！ 想想搞IT的就不觉得苦了！ 提醒他，别累死了。一天两个手术就行了。 没有老一代的大学生们就不会有高速发展的现中国，某伟人都说过科学技术才是第一生产力！！举个栗子，小时候听爷爷说老家村里的地，每次收麦子都是全村出动干好几天，而且那时候还有驻军和地方机关事业单位帮忙收，现在全村的麦子一天搞定。无技术含量的勤劳并不值钱。 医生搞科研没有错，要求写论文也不错，国外也这样的，基层医生也要发论文，问题是出在管理上，管理不科学，管理人员学术上是二百五，在权力的使用上是流氓！-------------------比如，基层医生，一年发一篇论文就可以了，平时将有关的数据，事实积累，到时一写出来，现在互联网方便，发在网上交流，让内行人看到，将自己的经验，揭示的规律，所说的有用事实，丰富医学知识库就可以，德国即使是大学教授，论文印出来，放在本大学图书馆给人们看就是“发表”。中国医生，一是不会写论文，二是没有这理念，三是管理人员外行加流氓。摧毁了科学事业，摧毁了医生的健康，包括心理健康，给医生反对写论文提供了理由，美国等国家，小学老师也必须写论文。并且是真正的论文，中国的老师，甚至医生，根本不知什么叫写论文。一脸垃圾劣等人种相。----------------中国医生看美国医生写出来的论文，是非常折服的，中国的老师看美国老师，包括小学老师，写的论文，也是非常的折服。因为形式非常规范，内容非常原创，有价值，真正是科研的结果。 姓名：赵变香；职务：副主任；职称：主治医师。我很想问一句：副主任都累死了，主任在干什么呢？ 有这样好的医疗工作者，也有该杀的医生和护士，但愿各得所报！ 现在都在改啊！我们这改了！干啥评啥！论文科研只做参考！ LZ说的看来是普遍现象了。某肿瘤专科医院的某专家教授门诊，隔段时间就是出差停门诊，也就是所谓搞科研开交流会，虽然是另一个行业的，但我很清楚所谓的交流会无非都是借个由头出去旅旅游搞搞人脉罢了。。。每次出什么事的时候都有医生网上诉苦，可是患者就不苦吗？唉 你还不错，能认真当医生、利用休息时间搞课题；有不少是搞基础医学假科研、写假文章、花钱发表SCI，与临床没半点关系；现在，风向变了，这些人摇身一变又成为有高学历的医生；把搞假科研那一套用来看病；忽忽悠悠、连蒙带骗，可有人也相信这就是名医。 四楼这种傻狗始终不懂物业与业主的关系。 医生搞科研没有错，要求写论文也不错，国外也这样的，基层医生也要发论文，问题是出在管理上，管理不科学，管理人员学术上是二百五，在权力的使用上是流氓！ 最后那口棺材，留给了社会底层的穷苦百姓！ 放开了，出家为僧，念经不会累 关爱员工，带好团队，是领导的头等大事 我姐也是医生，职业病心肌炎。累出来的。医生好辛苦。 原意,医生是个没有性别的职业. 你觉得这是正能量新闻吗？你就没看出点问题？ 连续工作18小时，铁人也吃不消啊。到16个小时的时候，我估计站都站不住了。 医疗产业石油产业房地产业教育产业殡葬产业是经济支柱。 真真在基层的，活多钱少，晋级标准也来越多，条条框框，即使国家想要公平，领导也能曲解，反正领导子女先晋。整个中国官僚风气满满，有关系的轻轻松松，没关系的累死累活，加班到死。活着，且珍惜吧！ 不可信！ 好医生一路走好🙏 人民的公扑，一路走好 天堂没有加班，一路走好🙏 问题是它们当正能量啊 医生搞科研没有错，要求写论文也不错，国外也这样的，基层医生也要发论文，问题是出在管理上，管理不科学，管理人员学术上是二百五，在权力的使用上是流氓！-------------------比如，基层医生，一年发一篇论文就可以了，平时将有关的数据，事实积累，到时一写出来，现在互联网方便，发在网上交流，让内行人看到，将自己的经验，揭示的规律，所说的有用事实，丰富医学知识库就可以，德国即使是大学教授，论文印出来，放在本大学图书馆给人们看就是“发表”。中国医生，一是不会写论文，二是没有这理念，三是管理人员外行加流氓。摧毁了科学事业，摧毁了医生的健康，包括心理健康，给医生反对写论文提供了理由，美国等国家，小学老师也必须写论文。并且是真正的论文，中国的老师，甚至医生，根本不知什么叫写论文。一脸垃圾劣等人种相。----------------中国医生看美国医生写出来的论文，是非常折服的，中国的老师看美国老师，包括小学老师，写的论文，也是非常的折服。因为形式非常规范，内容非常原创，有价值，真正是科研的结果。 父母给儿女做一辈子牛马。到老了还给孩子买房子。为什么中国的年轻人都不知羞耻呢？住着父母给买的房子自己不害臊吗？ 天堂有你真好！ 中国肯定会重戴东亚病失的帽子！因为由于分配不公，不同工同酬，干活的人大多数的收入不如退休在家的收入高，再加上教育，医疗负担和物价高涨，经济大滑坡，心态多数人都不好，年轻人啃老严重～～ 我是一名大学附属医院医生，每天白天上班，晚上下班还得想办法搞文章，写基金，关键搞这些对我的临床一点点帮助都没有，多想晚上回来能花点时间好好看看临床文献！目前医生晋升只和科研有关，和临床技术无关。每年国家大量的科研投入都是被浪费了，那可是纳税人的血汗钱啊！好多人靠这个所谓的科研发了大财！像华大基因就是赚国家的科研经费，实际上医学搞科研，搞了这么多年，投入这么多，很多都是模仿国外，没个P用！希望国家好好管管这个医生晋升！现在是大学校长逼着医院院长搞科研，院长逼着医生搞科研！ 劳累是一方面，颅内还是有血管畸形吧（血管瘤之类）；一路走好！ 一路走好！ 太可惜了。 管人的不懂技术,懂技术的管不了人. 又如何，院里有钱有人，赔一百万算多 改了个屁，我就今年晋升没晋上，你说你出色，别人也出色，大家都出色，基础分都一样，那该评谁呢？还他妈是用论文、所谓的科研加分，而且更变本加厉了，以前要两篇国家级，现在可以交三篇了，还他妈的SCI，懂英语吗？知道自己写的什么吗？还不都是买的？ 如果是这样，医院把医生照死了用，要负主要责任。 勤奋的人活全包了累死，废物混子们轻轻松松过日子。哪一行都一样。 是当下我国医院的这种体制！必须要改一改了！ 该做科研的做科研，该管好临床的管临床。 元旦节值班要加班到第二天早上的举手🙋 科研是搞研究,研究是可能失败的结果,病人可以研究着治病吗? 人在做天在看，医生看病的水平无论高低，一定要有医德。对得起病人、对得起自己良心的医生就是值得大家尊敬的好医生！ 其实是悲哀，所有一线工作人员都是一把心酸泪。 房价就是他们买涨的 平民加班，拿回扣死也值 建议任何单位不允许加班，您看都累到了! 我是高校教师，科班出身，一工作就代大量的专业课，好多通过关系进来的低学历的或者公共课教师，上不了课，也不好好上课，每天就东拼西凑花钱发文章发书，我们整天要上课备课什么公开课示范课，根本没时间弄这些，若干年下来，他们都教授副教授了，把名额都占完了，我们还在吭哧吭哧的上课。 辛苦了 我看到了，也请更多人看到，让国家重视，做出好的改革！ 每个岗位都有平凡的好人，一路走好。 管人的只会疯狂搂钱 又是正能量新闻，现在很多这种选择性新闻，负能量的不敢报！ 医生搞科研没有错，要求写论文也不错，国外也这样的，基层医生也要发论文，问题是出在管理上，管理不科学，管理人员学术上是二百五，在权力的使用上是流氓！-------------------比如，基层医生，一年发一篇论文就可以了，平时将有关的数据，事实积累，到时一写出来，现在互联网方便，发在网上交流，让内行人看到，将自己的经验，揭示的规律，所说的有用事实，丰富医学知识库就可以，德国即使是大学教授，论文印出来，放在本大学图书馆给人们看就是“发表”。中国医生，一是不会写论文，二是没有这理念，三是管理人员外行加流氓。摧毁了科学事业，摧毁了医生的健康，包括心理健康，给医生反对写论文提供了理由，美国等国家，小学老师也必须写论文。并且是真正的论文，中国的老师，甚至医生，根本不知什么叫写论文。一脸垃圾劣等人种相。 美帝那么好！怎么楼上3只贱狗还懒在中国？？你们是傻B吗？？ 应该追究卫计委主任那个二逼的责任 一个連自己身體都照料不好的人叻極都有限... 你看你这傻吊样，慢慢像你这么傻逼的狗奴才越来越少直到灭绝中国就会开始变好了。 谁让她工作18小时的？是谁？这个人请站出来承担责任 关爱医生，也是关爱自己 高强度的精神更需要适合长期的自然规律 我姐夫前天过世，生前是广东省人民医院的放射科医生，因为职业关系，过多接触放射性物质，得鼻咽癌10年了，治疗后脑部受损，2018来临之前痛苦的离开了人世 一个連自己身體都照料不好的人叻極都有限... 严格执行上班制度很重要。<br>五一劳动节不是放假游玩的节日，多少人流血牺牲才换来的8小时工作制。 为什么戏子能赚那么多钱一个医生却赚的很少这是一个神奇的时代！ 工人农民工加班死的更多，不报道罢了 我说的有错吗？？ 我经常连续作业。 现在不是么？还用重戴？ 世界上有个工作叫做管理,时间有弹性,不用做具体事务,永远轻松愉快,大家都在追求这样的工作----------------世界上发达国家，市场国家，无数人首先是无资格做管理，下来是给他做也做不了管理，破产，粥也没有吃的，即使在苏联，在学校时成绩等次，决定成年后在社会的地位等次，在有个国家，越是二百五十三点越能做管理，因为他们资源是拿来做人，不是学习，不是做事。他们的做人也是非常简单，金钱，女人的胴体开路，林彪说，理解要执行，不理解也要坚决执行。饿死十二分之一人口也无责任，有个小学不毕业的市长，1990年，无限感慨地说，当年工作是多么好做啊，发个文件下去，甚至说一句话就可以了。那管你洪水滔天，饿脬遍地？不怪那市长，是哥们呢，美国人说，人，都是靠不住的！仁慈而万能的主教导说，人，生时带着原罪，是坏胚来的！必须注意不让他做坏人坏事！ 可好多毕业生找不到工作基层卫生院闲的要死好多编制被二代占完了还不干活 这几个大概从来不生病,而且也不会陪父母或家里老人去看病 这世界上有个工作叫做管理,时间有弹性,不用做具体事务,永远轻松愉快,大家都在追求这样的工作----------------世界上发达国家，市场国家，无数人首先是无资格做管理，下来是给他做也做不了管理，破产，粥也没有吃的，即使在苏联，在学校时成绩等次，决定成年后在社会的地位等次，在有个国家，越是二百五十三点越能做管理，因为他们资源是拿来做人，不是学习，不是做事。他们的做人也是非常简单，金钱，女人的胴体开路，林彪说，理解要执行，不理解也要坚决执行。饿死十二分之一人口也无责任，有个小学不毕业的市长，1990年，无限感慨地说，当年工作是多么好做啊，发个文件下去，甚至说一句话就可以了。那管你洪水滔天，饿脬遍地？不怪那市长，是哥们呢，美国人说，人，都是靠不住的！仁慈而万能的主教导说，人，生时带着原罪，是坏胚来的！必须注意不让他做坏人坏事！ 动脉破裂没得救，多数都是积劳成疾，加上有点高血压什么的、连续作业很容易发病。 老师和医生都好累！ 身体素质也是逐年下降，老龄化的到来会使中国充满病人、胖子、瘦弱伪娘 命都没了，收入高也没用 你说得有道理。 差别可不仅仅是工资 呵呵！或许你说的对！但是忙的人多了去了！ 在校最用功，工作不轻松，倍受人关注，人生拿命赌，你苦，我哭。明星在各卫视群魔乱舞时候，你却死在工作岗位上，做人的差距咋这么大呀。 笑容看着很舒服走好！ 医改改的是病人，致使看病更难、更贵、更卡。但医生的辛苦是肯定的，也是倒霉的牺牲者。 一路走好 公x猿万多元一个月，甚至退休的也万多元~~享受所有的假期~~~<br>而平民累死累活可能就只有3000元 意外总会有的，大可不必如此激动。 男人和女人的区别，是大自然的安排。男人可以频繁睡不同的女人，女人如果这样，真是生理需求的话，是有病，这病很容易治，不信，问妇科医生，给一点药吃就好了。有个农村妇女老公外出打工，她老是叫男人睡她，后来老公跟她离婚了，其实，她不知道这是病，很容易治，农民被无知所害是非常普遍的现象。如一个漂亮的女人，嫁一帅哥，文革时的，第二天就拉去离婚，说是这男人做不得那事，大队也给她离了，后来那男的又娶一个，仍然是离了，因为这男的更紧张更怕了，更做不得了。现在这情况非常非常少了，那时，一个县不有一个正式医学院毕业的医生，常见，社会上多是庸医，巫医。现在，医生会告诉他们，只要男人早上醒来时那硬，就没有问题，出问题是心理，放松心情，慢慢等待，自然而然，就可以了。只要男人顶得上二分钟，就不是阳痿。-----------------中国人厌学成风，不学无术成疾，必然地回报。特别是农民，农民买书非常少的。 中国肯定会重戴东亚病失的帽子！因为由于分配不公，不同工同酬，干活的人大多数的收入不如退休在家的收入高，再加上教育，医疗负担和物价高涨，经济大滑坡，心态多数人都不好，年轻人啃老严重～～ 太年轻太可惜 父母给儿女做一辈子牛马。到老了还给孩子买房子。为什么中国的年轻人都不知羞耻呢？住着父母给买的房子自己不害臊吗？ 在易友眼里。还真不是人民，他们只是纳税人养的狗 医生真的很累人的一个职业 人类的衣食住行，都是农民创造。 可好多毕业生找不到工作基层卫生院闲的要死好多编制被二代占完了还不干活 不是姐多厉害，而是这在现代文明中，是常识！美国极少制造英雄，为什么，因为事实是，英雄常常不是完人，还有是对人家不公平，如有个英雄的事迹，单位的工友指正说，有三人，结果领导报他一人，他得了全国性的英雄福利，这对其它二人不公平。美国理念是，自由，公平，不自由，母宁死，尽量做到公平。在英语，这样不公平，这样不公平，是最常的字眼，中国的高中初中英语教材出现过无数次。 偶发事件，过劳死，各个行业都有，活人就不要拿逝者来贴金了。 工人农民工加班死的更多，不报道罢了 可好多毕业生找不到工作-------这都什么年月了？有真本事会找不到工作？如今的毕业生，什么水平，尽人皆知......... 先看看当父母的能给子女留下一个什么样的国家吧 阿弥陀佛 上有老，下有下，长期工作压力，终于放下了。为变香医生祈祷，往生极乐世界！！！ 想吃大呙饭？ 女性工作者顶起半边天，每个行业最优秀最敬业的基本是女性。 要说其他直属机关被二代们占编制还说得过去，可医生的编制不是说占就占的，不费点苦功，医学院也没那么容易让你毕业，那么多证真不是花钱能买到手的。真正有这个能量搞到这种假证还不露馅的，绝对够能耐自己开家医院了，犯不着给别人打工，而且“二代”们报医学的极少极少。 身体素质不行缺乏锻炼！ 一路走好。 医生大夫医不了自己，风水先生死无葬身之地！ 安息！医院的工作很快就会有人代替你，你的丈夫和孩子却永远失去了你。 医生和公务员、教师不同，医院不是财政发工资的，就算是公立医院也是自负盈亏，自己挣钱给自己发工资，怎么就扯上纳税人和财政之说了？再说，你出生的时候，就是你口中所谓的狗给接生出来的，你可真厉害。 来喷我吧，别说你今年才43岁就因为工作劳累而离世，就是你33岁哪怕23岁离世，也不能阻挡，也不能改变，必须到65岁才能退休的事实。 不是有通知说元旦期间不允许限号不允许让病人等吗，医务人员的健康难道不值得保护？难道他们不是人民？ 一路走好1 -中国的医生太辛苦了，发达国家，一般是一万人口三十个医生，世界长寿冠军日本，却只是二十个左右，原因是日本国民素质非常高，到日本旅游看看，叫你惊叹，而中国人不学书，不学习，一心意淫特权剥削耍流氓，于是，中国权力人睡女人成风，无权人打麻将成风，打扑克也是成疾，还是打赌，赌注又相当大。日本远在1970年代就普及了高中教育，1990年代普及大学教育，日本妇女，持有本科以上文凭的百分之七十以上，妇女的素质，母亲的素质，在很程度上决定儿女的素质和家庭的生活质量，毛左肯定不服，要打人，但这是联合国说的。---------------于是，日本医生需要少，又不忙，日本人，多是老死，中国人，多是病死。--------可上联合国网站看各国寿命排名，日本妇女多年独自第一，平均寿命，日本常常和欧洲二三个国家并列第一。东亚人的韩国，香港，新加坡常居第二三，台湾，被，不进入统计序列。------------------------还更重要的是，发达国家医生是合格的，有严格的，科学的，得到全世界监督认可的入职制度，美国医生收入非常高，入学时学院同他谈话，培养一个医生花上百万美元，是社会出的，阁下必须毕业后当医生才读，同意了才录取。毕业后，无论任何学校，文凭均不承认，必须通过国家严格科学的考试合格才得当，当然不是无限的题深，一就是一，二就是二，不是有个劣等人种什么宁缺母滥屠杀人才，中国医学院毕业生参加他们的考试合格后在发达国家行医，比比皆是。并且管理非常科学，公平，需要医生写论文，但不是什么流氓恶棍式的北大核心期刊发表才算数，公开发表就算，质量由业界检验，敢不讲质量，敢不原创，敢胡来？终生不得当医生。有个国家北方一省重点大学从加拿大回来的大学教授，发医学研究报告，制造假数据，从此医学界宣布，全世界期刊一律不得发表他的论文。有个国家，由于以前不敢进行医生资格考试，导致到处是庸医，巫医，有考试后，才得到了改善，领导许多是二百五，管理上胡作非为。随便鱼肉弱势者，谁敢提出问题，不是解决问题，而是大棒镇压提出问题的人----------------------负责任的医生能不辛苦吗？ 全篇报道就是说死着生前怎么怎么好，就不说为什么要连续工作18个小时？在国外这属于虐待劳工。 医生有时间锻炼吗？每周基本都有48小时班，每天半夜电话都会响，再好的心脏也受不了 仁慈而万能的主啊，中国落后世界何止三百年？铁血狗，酸儒说，中国十五世纪前全面领先世界，是人类笑话史上最滑稽的笑话，赵本山的小品好笑程度不及百分之零点一。-----------------中国的医生太辛苦了，发达国家，一般是一万人口三十个医生，世界长寿冠军日本，却只是二十个左右，原因是日本国民素质非常高，到日本旅游看看，叫你惊叹，而中国人不学书，不学习，一心意淫特权剥削耍流氓，于是，中国权力人睡女人成风，无权人打麻将成风，打扑克也是成疾，还是打赌，赌注又相当大。日本远在1970年代就普及了高中教育，1990年代普及大学教育，日本妇女，持有本科以上文凭的百分之七十以上，妇女的素质，母亲的素质，在很程度上决定儿女的素质和家庭的生活质量，毛左肯定不服，要打人，但这是联合国说的。---------------于是，日本医生需要少，又不忙，日本人，多是老死，中国人，多是病死。--------可上联合国网站看各国寿命排名，日本妇女多年独自第一，平均寿命，日本常常和欧洲二三个国家并列第一。东亚人的韩国，香港，新加坡常居第二三，台湾，被流氓欺侮，不得进入统计序列。 是啊，因为医生的名声不怎么好嘛！ 世界本来就没有均衡过，中国改革开放之前倒是挺均衡了，一起穷，的确好治理 哦，医生拿钱多。所以该死是吗 十八小时，在国内真不叫什么~少见多怪！因为劳动法，就是张纸，仅此而已！ 别忘了中国是九百多万平方公里土地，人家是吗？论人口密度远远低于香港台北。中国是哪里的房价都高于当地收入水平 说得好像香港、台北、纽约的年轻人买得起房一样…… 退休干部的工资真的是太高了，养一大批闲人。 民工死在岗位上的多的是！ 本身有脑血管畸形，在年龄劳累等因素的影响下，突发脑出血，赵大夫一路走好！天国没有超时工作 不要吵了，医生和所有劳动者，同样值得尊重。 劳动者活的没有尊严，工会罪大恶极 环境污染、杀人强奸，也是农民制造。 你们科里多招十个医生不行吗？工资和工作量都降为原来的三分之一，你们同意吗？是谁压迫你们一个人顶几个人的工，亦或是你们自愿？ 人才缺乏呀！！ 还没有你工作强度大呢！24小时不停的发，平均每分钟多少个？ 不懂；连自己的身体都照顾不好。能医好病人吗……<br>不喜勿喷...... 真是忍不住回复你，科里能自己招聘医生吗？拜托用用自己的脑子，别光喷，现在一线护士医师就是不足，而且是很不足，你住住院就知道了，医生忙的要死，门诊、手术、病房、夜班、培训、支农、考核。还有什么创新、论文、等等等等。住院患者抱怨找不到医生，谁知道医生天天在医院忙。不单纯是治病了。醒醒吧，喷是解决不了问题的，多理解。 哀悼！<br>关注医务人员的劳动强度和健康！<br>这算不算“因公殉职”呢？该不该大力表彰呢？<br>就像“警察”一样呢？！ 为什么连续工作18小时？难道其他医生都是庸才吗？ 高层不是不明白这些道理，而是根本就没有耐心、也没有普度众生的善心等着P民的素质慢慢提高，唾手可得的巨大既得利益面前，小农意识决定了必然是自己先吃个肥肠脑满，至于广大的P民你们给我老老实实干活去，吃饱肚子摸摸麻将泡泡妞聊聊明星八卦就行了，谈什么文明、发展、全民福祉 这世界上有个工作叫做管理,时间有弹性,不用做具体事务,永远轻松愉快,大家都在追求这样的工作----------------世界上发达国家，市场国家，无数人首先是无资格做管理，下来是给他做也做不了管理，破产，粥也没有吃的，即使在苏联，在学校时成绩等次，决定成年后在社会的地位等次，在有个国家，越是二百五十三点越能做管理，因为他们资源是拿来做人，不是学习，不是做事。他们的做人也是非常简单，金钱，女人的胴体开路，林彪说，理解要执行，不理解也要坚决执行。饿死十二分之一人口也无责任，有个小学不毕业的市长，1990年，无限感慨地说，当年工作是多么好做啊，发个文件下去，甚至说一句话就可以了。那管你洪水滔天，饿脬遍地？不怪那市长，是哥们呢，美国人说，人，都是靠不住的！仁慈而万能的主教导说，人，生时带着原罪，是坏胚来的！必须注意不让他做坏人坏事！ 工作强度太大啦 赞扬。 还要催款，与病人家属谈话，帮忙抬病人 父母给儿女做一辈子牛马。到老了还给孩子买房子。为什么中国的年轻人都不知羞耻呢？住着父母给买的房子自己不害臊吗？ 为了红包耳 都是医院资源配置严重不平衡惹的祸。一个市，人民医院生意好得要命，其他医院没饭吃。 一路走好！<br>强烈要求对于工作岗位殉职的工作人员（军人、警察、工人、农民、职员、医生、教师、律师等等）都应该大力表彰！<br>发扬正能量，一视同仁！ 这个得赞 谁也没辙。所以省着点花钱吧，至少少交点税。 哎老父母啊 中国肯定会重戴东亚病失的帽子！因为由于分配不公，不同工同酬，干活的人大多数的收入不如退休在家的收入高，再加上教育，医疗负担和物价高涨，经济大滑坡，心态多数人都不好，年轻人啃老严重～～ 一路好走 今年最后一天尽是悲伤的消息 大夫一路走好 上海，户籍市民寿命也长，就是素质问题，还有南方的饮食等，广东人吃狗肉，却长寿。有些人不吃猪肉，长寿吗，不吃好，身体如何有营养滋养，好笑！狗，愿意献身给饲养它的主人吃肉，不信问农民，农民杀狗前，对狗说，明天我杀你吃了。狗听了，垂下头，但它不逃跑，到时老老实实地来主人面前，主人就操作了。一般是棍敲晕它，是安乐不痛苦地死。还有一重要因素，南方人喜欢呼鱼，日本人最吃鱼，广东香港新加坡人最吃鱼，广东俚语叫食海鲜，北方人，没有水，何来鱼，在中国的西北，主啊，三十多元钱一盘鱼，倒不贵，只是一吃就知道是鱼干，不是本地产鲜鱼。本地没有啊，连水塘也没有，何来鱼。 一催款病人就恨医生 很是惋惜，一路走好！希望一线医务人员工作时也要注意一下休息吧，这也是也是对家人负责啊！ 希望除了对那些在工作中超时高危劳动倒下的人，不光是要歌功颂德，还能分析原因找到办法不要让更多人为此离世。 一路走好，愿天堂没有加班，没有劳累！也为每天辛勤工作的人祈福，愿平安健康！”“努力工作也要爱惜身体” 祝福好医生赵变香，一路走好 2楼啊，你在日本就好好幸福吧，上海的房子动则1000万，而且不及时买一年就会上涨30%，你来试试看，你能怎么办？以后孩子上学也和房子户口挂钩，别站着说话不腰痛。 不是医生伟大，是医院拿医生不当人。没根基的累死你，有关系的闲的要死。 一路好走 一路走好 不行啊，一天也就发8个小时左右的 你给我找找全中国自己能挣钱买房的年轻人有几个？父辈要不是在房价上涨之前买的房子，现在让父辈买房那也是买不起。一年工作到头一个厕所都买不起，还要吃还要穿还要住，生病不敢去医院，领导让无偿加班不敢不加班，加班病了还不敢去医院，自己吃点药对付对付。 医生这个职业burongyi 简直可怕 不是有通知说元旦期间不允许限号不允许让病人等吗，医务人员的健康难道不值得保护？难道他们不是人民？ 敬爱的医生，走好---------------------中国的医生太辛苦了，发达国家，一般是一万人口三十个医生，世界长寿冠军日本，却只是二十个左右，原因是日本国民素质非常高，到日本旅游看看，叫你惊叹，而中国人不学书，不学习，一心意淫特权剥削耍流氓，于是，中国权力人睡女人成风，无权人打麻将成风，打扑克也是成疾，还是打赌，赌注又相当大。日本远在1970年代就普及了高中教育，1990年代普及大学教育，日本妇女，持有本科以上文凭的百分之七十以上，妇女的素质，母亲的素质，在很程度上决定儿女的素质和家庭的生活质量，毛左肯定不服，要打人，但这是联合国说的。---------------于是，日本医生需要少，又不忙，日本人，多是老死，中国人，多是病死。--------可上联合国网站看各国寿命排名，日本妇女多年独自第一，平均寿命，日本常常和欧洲二三个国家并列第一。东亚人的韩国，香港，新加坡常居第二三。 …… 干活的累死 工作强度太大啦 都是医院资源配置严重不平衡惹的祸。一个市，人民医院生意好得要命，其他医院没饭吃。 医疗产业石油产业房地产业教育产业殡葬产业是经济支柱 祝福好医生赵变香，一路走好 一直都在，没感觉吗。 没办法，生活所迫吧。医院叫你加班你能不加班吗？敢不加班吗？ 银行都有周六日还有假期休息了，就医生没有周六日还有节假日吧，难道医生是卖身的，是农奴吗，其实只要安排好病人哪里就不能等呢，国外预约等也没怎么样啊，医生要求休息，现在即使能撑住，寿命也会短 医生不易 可好多毕业生找不到工作基层卫生院闲的要死好多编制被二代占完了还不干活 就不能多请几个？ 医生的竞争压力一直很大. 仁慈而万能的主啊，中国落后世界何止三百年？铁血狗，酸儒说，中国十五世纪前全面领先世界，是人类笑话史上最滑稽的笑话，赵本山的小品好笑程度不及百分之零点一。-----------------中国的医生太辛苦了，发达国家，一般是一万人口三十个医生，世界长寿冠军日本，却只是二十个左右，原因是日本国民素质非常高，到日本旅游看看，叫你惊叹，而中国人不学书，不学习，一心意淫特权剥削耍流氓，于是，中国权力人睡女人成风，无权人打麻将成风，打扑克也是成疾，还是打赌，赌注又相当大。日本远在1970年代就普及了高中教育，1990年代普及大学教育，日本妇女，持有本科以上文凭的百分之七十以上，妇女的素质，母亲的素质，在很程度上决定儿女的素质和家庭的生活质量，毛左肯定不服，要打人，但这是联合国说的。---------------于是，日本医生需要少，又不忙，日本人，多是老死，中国人，多是病死。--------可上联合国网站看各国寿命排名，日本妇女多年独自第一，平均寿命，日本常常和欧洲二三个国家并列第一。东亚人的韩国，香港，新加坡常居第二三，台湾，被流氓欺侮，不得进入统计序列。----------------男人和女人的区别，是大自然的安排。男人可以频繁睡不同的女人，女人如果这样，真是生理需求的话，是有病，这病很容易治，不信，问妇科医生，给一点药吃就好了。有个农村妇女老公外出打工，她老是叫男人睡她，后来老公跟她离婚了，其实，她不知道这是病，很容易治，农民被无知所害是非常普遍的现象。如一个漂亮的女人，嫁一帅哥，文革时的，第二天就拉去离婚，说是这男人做不得那事，大队也给她离了，后来那男的又娶一个，仍然是离了，因为这男的更紧张更怕了，更做不得了。现在这情况非常非常少了，那时，一个县不有一个正式医学院毕业的医生，常见，社会上多是庸医，巫医。现在，医生会告诉他们，只要男人早上醒来时那硬，就没有问题，出问题是心理，放松心情，慢慢等待，自然而然，就可以了。只要男人顶得上二分钟，就不是阳痿。-----------------中国人厌学成风，不学无术成疾，必然地回报。特别是农民，农民买书非常少的。 祝福 自己都不会保护,当医生/应以自己的健康模范教育世人才对/我不主张以死来教育人们. ",
        "Reply": 468
    },
    "Source": "Netease",
    "PublishTime": "12/31/201714:56:00",
    "Title": "女医生连续工作18小时后离世:查房时倒在病人身上_网易新闻",
    "Article": "（原标题：山西43岁医生查房时突发脑出血经抢救无效离世）山西晋中榆次区人民医院呼吸科副主任赵变香，连续工作18小时后，查房时倒在病房，经抢救，终因动脉血管破裂，于12月30日7时16分离世。12月30日，距离新年到来仅剩两天的时间，一个令人悲恸的消息突如其来。“一路走好，愿天堂没有加班，没有劳累！也为每天辛勤工作的人祈福，愿平安健康！”“努力工作也要爱惜身体”……微信朋友圈里人们纷纷留言，双手合十、点亮蜡烛，泣别这位年仅43岁的好医生。505病房是赵大夫倒下的地方本文图片山西云媒体“姓名：赵变香；职务：副主任；职称：主治医师。”呼吸内科医护人员一览表上，关于赵变香的介绍，简单明了。干练的短发，和蔼的表情、温和的目光……工作照上的赵变香，亲切而从容。这一天，住在榆次区人民医院的患者和患者家属，路过这里时，总会驻足观看，仔细寻找赵变香的名字。有的人还拿出手机，想留住这位刚刚逝去的让人尊敬的好医生。505病房是赵变香大夫倒下的地方。里面的病床上，躺着一位病情看起来比较严重的老人。赵变香大夫倒下之时，就是在查看这位患者的病情。老人是脑梗、呛肺，切开气管治疗，3天前从ICU转到呼吸科，算是危重病人。老人的女儿，非常感谢赵大夫对她母亲病情的关心，不愿意再去回忆赵大夫倒下的那一幕。“你妈怎么样？”这是赵大夫生前说的最后一句话，当时是笑着问老人女儿。“赵大夫是上午坐诊，中午看完门诊上的病人，放心不下过来查房。进来边问边往病床走，可能是要交代啥呢，说了半句忽然就晕倒了。”老人女儿赶紧抱住赵大夫，大喊“护士！护士！”倒下前已连续工作18小时赵变香倒下后，呼吸和心跳骤停，同事们在病房中就地紧急施救。病情持续恶化，之后转入重症监护室。同时，医院紧急从太原邀专家第一时间火速赶来会诊。医院几乎所有休息的同事听闻赵医生突然倒下，纷纷赶来守在重症监护室门口，边流泪边祈祷。经过近20小时全力抢救，12月30日早晨7时16分，赵变香大夫因蛛网膜下腔出血，抢救无效，不幸逝世。“她是个工作狂，无论上下班，只要有人开口她从未拒绝过。”赵变香同事回忆。12月28日18时，赵变香接上夜班，到12月29日12时看完门诊，又去查房，赵大夫连轴转，工作了18小时。所有人都在心痛，也许是过度劳累，引发了赵大夫的病情。“进入冬季，儿科和呼吸科病人最多，医生们经常忙得下不了班。再加上，这段时间呼吸科里的事情特别多。”同事非常哀恸，“赵大夫最近真是太累了！”不时有患者从病房出来，低声交谈，回忆赵变香大夫留给他们的温暖。“赵大夫人好，跟病人打成一片，可能就是太累了。”“我上周二一整天都见到她在医院，周三下午，她还在上班。我当时问，你就不休息？赵大夫回答，太忙了。”“大家都知道，呼吸科找赵变香，态度好，技术好。”504病房的患者已经79岁，是呼吸科老病号了。老人说着，双手合十，“昨天下午我一直在这儿祈祷。赵大夫每天风风火火的，说没就没了。唉……”离世前5小时，赵变香八旬老父母被搀扶进重症监护室，见了女儿最后一面。“女儿的手怎么这么凉……”两位老人双手紧捂着女儿的手不放，刚强了一辈子的老父亲，瘫倒在病床前哭喊。本文来源：中国新闻网责任编辑：徐萌_NN7485",
    "URL": "http://news.163.com/17/1231/15/D70AT8H100018AOQ.html",
    "KeyWords": "脑出血,医生,监护室,病房"
}