{
    "URL": "http://news.163.com/17/1228/11/D6O77F2J0001875O.html",
    "Article": "（原标题：俄总统发言人：普京目前没有计划出席平昌冬奥会）新华社莫斯科12月28日电据俄罗斯媒体28日报道，俄总统普京的新闻发言人对媒体透露，普京目前没有出席2018年平昌冬奥会的计划。在回答俄罗斯媒体关于总统是否考虑在2018年2月9日至25日期间前往韩国出席冬奥会时，新闻发言人佩斯科夫回答道：“目前还没有这样的安排。”今年9月，韩国总统文在寅曾邀请普京出席平昌冬奥会。但此后俄罗斯代表团因兴奋剂问题被国际奥委会禁止参加平昌冬奥会，不过符合条件的运动员能够以“来自俄罗斯的奥林匹克运动员”名义参赛。(完)本文来源：新华社责任编辑：程钢_NN7377",
    "Source": "Netease",
    "PublishTime": "12/28/201711:32:20",
    "KeyWords": "普京,平昌冬奥会,俄罗斯,俄总统",
    "Comment": {
        "Content": "那咋行呢，要是地球不转了咋办 那咋行呢，要是地球不转了咋办 ",
        "Total": 35,
        "Link": "http://comment.news.163.com/news_guoji2_bbs/D6O77F2J0001875O.html",
        "Reply": 1
    },
    "Title": "俄总统发言人：普京目前没有计划出席平昌冬奥会_网易新闻"
}