{
    "Article": "（原标题：马英九谈大陆一些地方招聘台湾人才：高兴都来不及）中新网1月3日电据台湾《联合报》报道，针对大陆一些地方招聘台湾地区人才，前台湾地区领导人马英九3日表示，大陆愿意提供给台湾年轻人很多机会，帮台湾解决失业问题，“我高兴都来不及”，可以带动台湾薪资水平，不是坏事。资料图：台湾地区前领导人马英九。中新社记者张朔摄马英九3日上午出席东吴大学严家淦法学讲座，谈到大陆一些地方大量招聘台湾地区人才时表示，形势在转变中，台湾人才被大陆挖走，很多人很担心人才外流，“但我高兴得要命”。他说，大陆愿意提供给台湾年轻人很多机会，“这样很好啊”，也可以带动台湾薪资水平，不是坏事。马英九说，台湾人才有一点过度供应，他们在台湾找不到工作，若能在大陆或海外有工作，不是很好吗？台湾人才可以再培训也没有问题，这样双方也能更多交流。本文来源：中国新闻网责任编辑：李杭_BJS4645",
    "URL": "http://news.163.com/18/0103/16/D78867N900018AOQ.html",
    "KeyWords": "马英九,台湾,招聘,人才",
    "PublishTime": "01/03/201816:44:00",
    "Title": "马英九谈大陆招聘台湾人才:高兴都来不及_网易新闻",
    "Comment": {
        "Content": "谁都看得出你跟马英九一样虚伪啦！ 台湾人才……大陆本土的都用不完…… 马哥不独不统不武的战略，害了两岸人。 这家伙儒雅又清廉。 小马哥大大的狡猾的 他说过要统一的！前提条件是利用未来数十年时间通过民主选举来实现统一 支持，鼓掌，有希望了 下台领导，说大话，在任为什么不做不说。 虚伪 哈哈哈哈！你也知道啊？ 台湾电信诈骗人才济济 狡猾 说的对！ 这家伙儒雅又清廉。 史可法式的人物 不做不说就是最大的贡献，就按现在的情况每年安稳发展，和平统一是迟早的事 上了台又是另一种口气了 支持，鼓掌，有希望了 台湾人才……大陆本土的都用不完…… 会晤功不可没 台湾电信诈骗人才济济 要饭总统 台巴子别来了 哈哈哈哈！你也知道啊？ 虚伪 小马想想在台上你都干了什么，别他妈老耍存在感了 摸摸摸 谁都看得出你跟马英九一样虚伪啦！ 弯弯都一个尿性。 马哥不独不统不武的战略，害了两岸人。 小马哥大大的狡猾的 他说过要统一的！前提条件是利用未来数十年时间通过民主选举来实现统一 下台领导，说大话，在任为什么不做不说。 马英九是真心实意为台湾人好，可惜台巴子不识货。 阴暗的呆湾人签个服贸怕大陆人过来抢饭碗就搞大规模运动 你不也是那货瑟吗，不统不独，大陆的人们早已识破， 狡猾 ",
        "Link": "http://comment.news.163.com/news2_bbs/D78867N900018AOQ.html",
        "Total": 149,
        "Reply": 25
    },
    "Source": "Netease"
}