{
    "PublishTime": "12/31/201701:34:03",
    "Comment": {
        "Total": 3166,
        "Reply": 270,
        "Link": "http://comment.sports.163.com/sports2_bbs/D6US63LE00058781.html",
        "Content": "现在骂蔡振华还有人顶吗 萨拉赫也算独？你妈的看没看过球 当初谁能想到他变成真大腿 太超值了萨拉赫 当时买来想着，如果在英超也能踢出在罗马的数据，利物浦就赚了。然而现在，利物浦赚翻了 这么多助攻还毒啊…… 浪费了很多机会，但也决定了比赛。感觉萨拉赫跟渣的战术简直绝配呀。 送巴萨都不会要他，能力有点。问题太独 凯塔也喜欢带球啊。我们缺个坎特，还缺个能穿手术刀的。裤子传手术刀一般，可能还要走。格雷斯咖加凯塔就好了。 4楼这傻子什么时候瞎的，你给他看什么数据。 还好卖了，不然就废了。 个子虽小，但看他用身体压住对方高大后卫很有一手 张伯伦年轻估计还能练练级 3000英国🇬🇧户口，怎么了？ 卢卡库半个赛季给当机器人这样踢。也差不多要废了。可怜伊布。已废。 就当7500w买了萨拉赫，4200w买了范迪克，这样心态就平衡了 罗马老板以哭晕 埃及球王，求主能手，在国家队也把埃及扛进了世界杯。 顶你上去！ 就当7500w买了萨拉赫，4200w买了范迪克，这样心态就平衡了 当年大罗小罗C罗苏牙也独，25岁的年龄不独和咸鱼有什么区别 C罗不独? 中场真心不行，一群工兵，拉拉纳还可以，能拿住球，亨德森只有回传，横穿，詹不评价，不晓得尤文看上他什么了，维纳尔杜姆也喜欢带球，还带不好，米尔纳典型工兵！有些丢球真不能怪后卫，中场拦截一出问题，直接让对方前锋面对后防，真心缺一个好的后腰，只能等凯塔来了 你他妈不会看球吧！你不独，还有谁独。你确定会看球，他有助攻吗，他浪费的机会比他进球多十倍 大帅拼，克吊喜欢这样的 来了时候就说了，看面相就是能吃苦爬雪山过草地的料，适合我军 这货能力还是有，不过太独。不适合超级豪门 罗马傻逼了，现在没有8000万估计是买不下，对比一下，张伯伦4000万有什么卵用 大写的🐂 不是罗马傻逼，而是在车子被谁个傻逼卖去意甲的？才是真正的傻逼！ 我军队里助攻仅次于库鸟，你跟我说他没助攻？今年英超创造20+进球第一人，凯恩18球一助，射门次数是116次，法老王射门81脚射正数41，进17球另有助攻五次。我也是醉了，麻烦了解清楚数据再来喷好不好？ 他也成为了2013-2014赛季之后第一位在单赛季打入20+进球的红军球员。<br>上一个人是路易斯·苏亚雷斯 巴萨欢迎你 前面浪费得更多，而且都是容易的球，进的都是难度的……囧……不然现在都30+了 就当7500w买了萨拉赫，4200w买了范迪克，这样心态就平衡了 凯塔的风格和威廉一个鸟样，别指望他防守 卧槽萨拉赫独？喷之前看看球好不好？葡萄酸不酸啊？ 也不撒泡尿看看巴萨是个什么东西 巧了，也是木鸟任期卖的 “萨拉赫曾经在切尔西踢球”，哪个不长眼的卖掉的！ 两笔都赚了 骂你个傻逼顶的更多 突然就爆发了 现在骂蔡振华还有人顶吗 库鸟必须卖，不然没法补强阵容，用鸟换一个中卫、一个边卫、一个后腰还是划算的，利物浦后防简直全是坑 阿根廷萨拉赫 渣叔眼光独特 以他现在的表现不能带梅西啦，自带称号，埃及法老。 也是战术适合他。渣叔的边锋都是冲到最前的，反而中锋做策应。当然萨拉赫也确实打得好 凯塔也喜欢带球啊。我们缺个坎特，还缺个能穿手术刀的。裤子传手术刀一般，可能还要走。格雷斯咖加凯塔就好了。 很快就后悔骂蔡振华啦 天后一那什么了,机器人你也开始牛气起来了? 萨拉赫是牛逼，在狭小的空间被紧逼还能摆脱防守，现今没几个球员能做到这么精细的技术了，要是射术好一点，分球更合理一点，比梅西都不差 太超值了萨拉赫 外贸不行，哈哈哈 你会看，多少次中场传球失误，直接被断打反击，利物浦这几个中场，在排名前4没有一个有能力首发得，亨德森还可以，毕竟有防守，其余2个，替补都费劲！利物浦比赛一场不落，最差的不是后防，是中场这2个人！ 可以去看凯特集锦，简直就是威廉的翻版，各种风骚带球，防守不指望，但绝对比目前的威杜姆和埃姆雷强一个档次，这个人能控场，不算失望，但绝非绞肉机 就当7500w买了萨拉赫，4200w买了范迪克，这样心态就平衡了 就当7500w买了萨拉赫，4200w买了范迪克，这样心态就平衡了 中场真心不行，一群工兵，拉拉纳还可以，能拿住球，亨德森只有回传，横穿，詹不评价，不晓得尤文看上他什么了，维纳尔杜姆也喜欢带球，还带不好，米尔纳典型工兵！有些丢球真不能怪后卫，中场拦截一出问题，直接让对方前锋面对后防，真心缺一个好的后腰，只能等凯塔来了 卢卡库很郁闷！ 这货能力还是有，不过太独。不适合超级豪门 罗马傻逼了，现在没有8000万估计是买不下，对比一下，张伯伦4000万有什么卵用 人家德甲现在半程最佳阵容里打后腰，你说他不能踢后腰？不管是中前卫还是后腰位置，完全有能取代利物浦现在中场3个人中的任何一个，包括亨德森！他来了，亨德森可以安稳去踢后腰了！ 那切尔西不是更傻啊了？前有丁丁，后有萨拉赫！而且是同一个人卖的！ 户口本啊！ 穆里尼奥战术没有问题（大巴也是战术），但他买人用人都是用现成的，有能力在他的战术中发挥作用，而不是激发球员的潜能和培养他们的能力。当然说到底还是他的战术的僵硬（大巴战术没有问题，只是比较落后了，尤其对强队而言，例如曼联，如果他还用这种战术，曼联可能每年都在前四，甚至偶尔还能争冠，但对于球员的锻炼发展提升，和球队的发展是有缺陷的；毕竟曼联这种豪门是希望能够发展的，就像当年弗格森培养出的以贝克汉姆为代表的红色青年军。） 两笔都赚了 青岛梅西正在摆水果摊，我只卖西瓜、橘子、柚子、葡萄等⚽型的水果，为了纪念我那逝去的梦 也不撒泡尿看看巴萨是个什么东西 超过了，可见环境对球员也是有影响的 凯塔又不是后腰 同意楼上。后卫太多一对一也确实难为了他们。这3人中场需要做多点 失望是说利物浦现在创造进球能力在英超不比曼城差，该调整的是防守。利物浦进攻失败后瞬间落位防守总出问题，这就是球员的习惯问题了 我发现利物浦买人真踏马神经刀，罗杰斯那时候就是。总是一个大腿加上一帮2块钱彩票，以为苏牙走了得低迷很久，这又是库蒂尼奥又是萨拉赫，到底是克洛普牛逼，还是利物浦体育总监牛逼 速度很快，个人能力强。但是配合意识确实稍微差点，第一个进球传下也很稳，不需要过掉后卫。当然进了是个人能力强，万一没进，机会就没了。 为什么不是真c罗 确实，马内近来心情差了点，好像和渣叔有点小情绪，渣叔现在也更偏向法老 送巴萨都不会要他，能力有点。问题太独 精彩啊！ 梅西他娘表示不服 没有了 你咋看球的哼少不光是回传偶尔有直塞和长传詹就是个傻逼只有抢断其他一无是处经常丢球米尔纳勤奋防守还行进攻真是没天分杜牧最平衡表现也最稳定 洛夫伦偶尔还能送个长传呢！本来就是一群拿不住球的糙哥，有什么可洗的，都是工兵选手！没有一个带球能摆脱传出好球的，偶尔这种事，卡里乌斯都能传一个 最炫霉侏风<br>汪！吐！碎！佛！<br>百万的税款是我的爱，<br>芭莎的生长素是我等待，<br>什么样的大门它射呀射不开，<br>什么样的干爹才是最牛掰。<br>决赛点球飞机打下来，<br>退出国家队不和你们玩，<br>教练队友背锅是我在耍大牌，<br>一路边走边呕才是最自在，<br>我们要吐就要吐得最痛快！<br>你是我天边飞机的舞台，<br>让我一脚把你打下来（打下来）！<br>悠悠的唱着最炫的霉侏风，<br>赶忙退队不带你们玩（不带玩）！<br>你是我心中最美的税款，<br>亲爹出马把你偷下来（偷下来）！<br>永远都唱着最炫的霉侏风，<br>当了罪犯不用做劳改（偷下来）！<br>（哟啦啦呵啦呗）<br>（伊啦嗦啦呵啦呗呀）<br>我听见你呕吐动人的天籁，<br>下次点球照样飞天台~ 最近的豪门不给力啊. 当时买来想着，如果在英超也能踢出在罗马的数据，利物浦就赚了。然而现在，利物浦赚翻了 凯塔是b2b很像现在的5号。下赛季基本会取代他的位置。实际还差一个4号位。但是队长替补有说不过去 这？ 埃及近年世界杯就这次进了 ^_^ 萨拉赫这尊大佛，利物浦容不下的。 这货第二球，那球连停带转身，简直帅掉渣，停完球后卫就在身后了，还有之前有一球也是，后场一个大力低平球算是长传给他，这货竟然能直接踩球后接着用脚底拉，神了 一句话！你不会看球！ 绝頂 贾跃亭回来没？还钱 不错的球星 是啊库鸟踢球有一种闲庭信步的感觉有他在进攻梳理的更好马内萨拉赫单兵能力爆表但是组织差点明年凯塔来配队长前场马内库鸟萨拉赫画面太美攻守更平衡 巴萨欢迎你 就当7500w买了萨拉赫，4200w买了范迪克，这样心态就平衡了 真系希望裤子不要走，虽然这有点难，新闻吹的太厉害，假都成真了 一亿也买不下 8000万？皇马都准备了1.6亿了？ 马内也很好啊，调整一下心态，更团队一点，也回到顶级行列 能换这么多吗，即插即用的很贵啊，而且知道利物浦拿着这么多钱，谁不会抬价 现在骂蔡振华还有人顶吗 我觉得第一进球要是梅西的话他会不贪功，最后时刻会冷静横传给左侧自己的两个队友打空门。 还记得鸟叔的歌嘛？萨拉赫 赶紧卖，他也就这么一年 ……萨拉赫组织了多少次威胁进攻，实力在这里摆着，不必要这么恶心的黑人 这货是萨拉丁转世么…… 利物浦加油萨拉赫厉害加油 3000英国🇬🇧户口，怎么了？ 卖毛 萨拉赫，无敌了 太超值了萨拉赫 给你科普科普，罗马不卖人自己运转都快成问题了，必须立刻得入账3000+万，萨拉赫态度又很坚决必须得走，那只能卖了 这货是切尔西不要的人，现在居然练级了 人也要煅炼成熟的，再踢一段时间，成熟后沙拿很可怕。 埃及C罗 能不说这么幼稚的话吗？拜托！警告你这样容易没朋友，以后只管骂！点赞的事交给我我们就行，骂的越难听赞就越多 中场真心不行，一群工兵，拉拉纳还可以，能拿住球，亨德森只有回传，横穿，詹不评价，不晓得尤文看上他什么了，维纳尔杜姆也喜欢带球，还带不好，米尔纳典型工兵！有些丢球真不能怪后卫，中场拦截一出问题，直接让对方前锋面对后防，真心缺一个好的后腰，只能等凯塔来了 一看这两楼就是篱笆老哥 梅西比赛前默默的祈祷：‘主啊！这场比赛我该进球啦’。比赛结束后梅西默默的祈祷：‘主啊！快点让萨拉赫受伤吧！我还未启动，萨拉赫就在禁区了，我刚前插到禁区，他们就在中场等我开球了，主啊！球不是这么踢的’。 罗马傻逼了，现在没有8000万估计是买不下，对比一下，张伯伦4000万有什么卵用 埃及球王，求主能手，在国家队也把埃及扛进了世界杯。 凯恩，来啊。追不上！ 凯塔就是下一个京多安。攻防兼备。亨德森卖了吧。詹走了。下个赛季主力就是凯塔，拉拉纳，裤子。 规划过来，进世界杯妥妥的 C罗不独? 哈哈，送你妹。2亿。裤子也是2亿。花钱呀。花不起钱就不要想着要。巴萨管理层真心傻b 对小张是真爱啊。您这名字！ 就没人留意这两球都是穿裆的么？野球算双倍[大笑] 拿卖萨拉赫的4200Ｋ换稀客至今还在养伤 他自己申请离队能留的住吗 看着萨拉赫的表现，不知道车子后悔不？ 说太独的你到底有没有看他踢球？ 利物浦后防还是不够稳哪 如果一直这么高效前途不可限量 罗马也是美国老板？ 送巴萨都不会要他，能力有点。问题太独 这货能力还是有，不过太独。不适合超级豪门 户口本3000万 哈哈。下个赛季在看。 以后沙拿会的，这样就6亿违约金了才能拿人 要求巴萨了 梅西散步？上场德比对战第二球，梅西禁区外传苏牙，苏牙射门未果捅给梅西梅西迅速出现在禁区点球点附近又做球给苏牙，这一套动作也是散步能完成的么……看不懂球不要乱喷，现在梅西年龄大了，对手都会针对梅西制定2到3人的订防，疯狂的跑只会浪费体力，而且联赛赛程密集想要每场都出场，出场就有关键表现，传控踢法以及你们说的散步是性价比最高的，德比战同样看皇马，下半场体力明显下降，马塞洛被梅西轻易的加速过去，这就是最好的证明！ 买切尔西的就对了 以前最期待的是曼市德比，现在贼他妈期待曼城打利物浦 一句话！你不会看球！ 维纳顿基本不丢球，算不过不失，中场可靠，创造力全靠苦鸟的进攻三人组 同一个老板 当时罗马老乡说要平账[窃笑] 比凯恩能力好吧，不需要一直吃饼，都是自己创造射门，位置都是罗老汉的 萨拉赫厉害加油萨拉赫厉害👍 666 巴萨欢迎你 独到是不独，吐饼能力有点强。好在能创造出来大把机会，浪费点算了。如果在满脸切尔西这种主防守的豪门，是肯定上不了场的 球员状态都是慢慢踢出来的 别侮辱他，人家能拿非洲杯 同一盘账，转来就镀金了。 4000万买个户口本已经很便宜了[微笑] 梅西说不能买确实不能买 现在骂蔡振华还有人顶吗 当初谁能想到他变成真大腿 顶你上去！ 看张伯伦积极拼抢的态度就值 萨拉赫最近成长很快，当年在切尔西看他比赛真是着急，一股脑向前冲和盘带，常常丢球，很少配合。当时给我的感觉这货技术粗糙，意识差，就一个速度。去了罗马，罗马的比赛看的少，不过偶尔有高光时刻。来了利物浦真是成熟很多，现在感觉比马内还自信。 利物浦前场四天王，库蒂尼奥，菲儿米诺，萨拉赫，马内，都不是独比，尤其菲儿米诺，就马内稍微独一点，但也只是一点点而已，这几个人联手创造机会能力非常强，不输现在任何一家豪门的前场组合，但是这几个人再强，也架不住利物浦防守天团。。。 不会摆大巴的球员都不是好球员 都说是小梅西，但没有人是小c罗 说得好像真的会送似得 期待世界杯上萨拉赫的表现 哎，别这样，这样的话担心马内会走 凯塔可以持球，总比现在这几个要好多了 梅西上身效果 浪费了很多机会，但也决定了比赛。感觉萨拉赫跟渣的战术简直绝配呀。 厉害 这货能力还是有，不过太独。不适合超级豪门 罗马傻逼了，现在没有8000万估计是买不下，对比一下，张伯伦4000万有什么卵用 此人速度奇快！ 不是罗马傻逼，而是在车子被谁个傻逼卖去意甲的？才是真正的傻逼！ 网易就是养喷子的，其他一律屏蔽！ 其实最近几场比赛，张伯伦已经越来越好了，这场比赛替补出场也比几个首发状态好 赚大了。 鸟岛户口本有有用的？ 卧槽萨拉赫独？喷之前看看球好不好？葡萄酸不酸啊？ 前面浪费得更多，而且都是容易的球，进的都是难度的……囧……不然现在都30+了 真没想到这货能这么火，我很高兴自己看走眼了 “萨拉赫曾经在切尔西踢球”，哪个不长眼的卖掉的！ 中国梅西在打麻将中。。。 中场真心不行，一群工兵，拉拉纳还可以，能拿住球，亨德森只有回传，横穿，詹不评价，不晓得尤文看上他什么了，维纳尔杜姆也喜欢带球，还带不好，米尔纳典型工兵！有些丢球真不能怪后卫，中场拦截一出问题，直接让对方前锋面对后防，真心缺一个好的后腰，只能等凯塔来了 斯特林其实不错的，罗杰斯还是差点意思，如果给到渣叔应该也可以像现在在曼城一样打出来 埃及梅西，海湾梅西都这么厉害，希望中国梅西能勃起一把 水平还可以，但只能算是埃及武磊 太超值了萨拉赫 这么多助攻还毒啊…… 凯塔就是下一个京多安。攻防兼备。亨德森卖了吧。詹走了。下个赛季主力就是凯塔，拉拉纳，裤子。 送巴萨都不会要他，能力有点。问题太独 8000万？呵呵，现在没有3亿欧拿不下 看过斯特林在我军时期的表现吗？那才叫浪费... 确实是这样，中场就裤子技术好能突破，其他的球员都比较糙，没看过凯塔的比赛，不知道是不是能多一个突破出球好的点，磁卡要是渣叔能撸过来就好了 皇马都看上了，一亿起 真的很值。 蔡振华回归二线了。 再看看曼联 当时买来想着，如果在英超也能踢出在罗马的数据，利物浦就赚了。然而现在，利物浦赚翻了 骂他有鸟用，都是领导安排 能力在那儿摆着的 巧了，也是木鸟任期卖的 萨拉赫像罗马里奥！ 要说弱点，就是吃饼能力有点弱，仅此而已 凯塔又不是后腰 他也成为了2013-2014赛季之后第一位在单赛季打入20+进球的红军球员。<br>上一个人是路易斯·苏亚雷斯 利物浦买对了，比小魔兽好用多了。 4楼这傻子什么时候瞎的，你给他看什么数据。 巴萨欢迎你 独到是不独，吐饼能力有点强。好在能创造出来大把机会，浪费点算了。如果在满脸切尔西这种主防守的豪门，是肯定上不了场的 其实杜牧算是技术比较好的，年少成名边锋出身，其他的特别是亨德森和詹真的差劲，詹能卖500万赶紧卖了省的自由走人，亨德森是史上最弱队长没有之一。 再来一个格雷茨卡，完美 大写的🐂 YY图PK 现在骂蔡振华还有人顶吗 个子虽小，但看他用身体压住对方高大后卫很有一手 哦们家里 四月五号巴萨跟马竞什么鬼 因为户口本啊张无绩 然而熬不了夜 两个传球助攻也非常棒啊。太默契了 第一球确实可以吹一下！ 楼主真好，领了14.3元，刚好一会吃早餐可以用。 比梅西还差远了。 哎呦卧槽…… 总有大腿续命不幸中万幸 allomorph 浪费了很多机会，但也决定了比赛。感觉萨拉赫跟渣的战术简直绝配呀。 又一次打脸切尔西 感谢穆尼尼奥 这货能力还是有，不过太独。不适合超级豪门 罗马傻逼了，现在没有8000万估计是买不下，对比一下，张伯伦4000万有什么卵用 第一个进球起脚之前传给左路是必进球，自己射门靠运气， 同感。我觉得第一进球要是梅西的话他会不贪功，最后时刻会冷静横传给左侧自己的两个队友打空门。毕竟这样空间强行射门很可能被挡。 米兰德比还能排上号 算了吧，骂他有卵用，他也不过是马仔，有本事你骂他大佬 能把那些球踢进他就是第二个梅西了，别要求这么高 应该说梅西是阿根廷萨拉赫 论矮个子背身拿球我就只服萨拉赫 太超值了萨拉赫 一个后卫都6000多万，现在应该上亿了 第一球就注定他没朋友 送巴萨都不会要他，能力有点。问题太独 户口本 真·大腿无双 球迷的节日 第一个进球我觉得左侧包抄到位的队友位置更好，应该传球的 我摸争 木鸟不用，必定精品 球将进前，就已站起的球迷真令人动容 第一个球是独啊 C罗梅西不也经常好机会不进吗？要求别那么严苛！反正我觉的超值 中超召唤来吗 巴萨欢迎你 前面浪费得更多，而且都是容易的球，进的都是难度的……囧……不然现在都30+了 真不是一般牛，希望继续保持！ 同感。我觉得第一进球要是梅西的话他会不贪功，最后时刻会冷静横传给左侧自己的两个队友打空门。 我记得，当初前两轮不进球不是称别人埃及武磊吗 下雨啦 怎么不骂切尔西傻逼 骂你个傻逼顶的更多 技术确认屌 萨拉赫也算独？你妈的看没看过球 米尔纳，史上最粗7号 切尔西老板晕倒在厕所，这都是穆帅卖了的精英。 凯塔也喜欢带球啊。我们缺个坎特，还缺个能穿手术刀的。裤子传手术刀一般，可能还要走。格雷斯咖加凯塔就好了。 传球那个人也传的超好哦，前场创造性很重要，制造出球员发挥的空间出来 你真的想多了… 你巴萨咋那么牛逼的呢[喷水] 渣叔体系进攻机会实在太多....简直是挥霍机会都能赛季轻松十几个进球..... 罗马卖完，今年球都不会进了。。。[喷水]年年这样卖主力，我村真是。。。 Wishmymotherlandprosperity 当年大罗小罗C罗苏牙也独，25岁的年龄不独和咸鱼有什么区别 内马尔金球奖悬了 浪费了很多机会，但也决定了比赛。感觉萨拉赫跟渣的战术简直绝配呀。 张伯伦在场上主要踢中场，表现还不错啊，很努力 坎特是没戏了，凯塔搭配亨少凑合用吧，伤前两场亨少向前的传球有起色，毕竟队长，有感情的。再撸来个哈姆西克中场做球，前插可以和菲尔米诺配合。库鸟回左路绝对世界一流左边锋，马内萨拉赫一起右路轮换，别给用废了。后卫范迪克来了后看疗效吧，守门员再撸个多纳鲁马。明年可以和表妹一较高下了吧。 这货能力还是有，不过太独。不适合超级豪门 罗马傻逼了，现在没有8000万估计是买不下，对比一下，张伯伦4000万有什么卵用 那个脚后跟传的太漂亮了 又是切尔西出去得[喷水] 送巴萨都不会要他，能力有点。问题太独 粗壮可靠真大腿 明年凯塔的加入会是利物浦更加强大 太超值了萨拉赫 突然就爆发了 张伯伦年轻估计还能练练级 开顶薪 户口本 你们有萨拉赫，我们有武磊 心塞的车仔 呃呃 这独b明年各队都研究他就完了没有支配球意识 现在前场攻击力明显增多，上场比赛菲尔米诺进两个球，这场成了萨拉赫。换做两个赛季前，没有裤鸟的远射打开局面，比赛基本拿不下 还好卖了，不然就废了。 当时买来想着，如果在英超也能踢出在罗马的数据，利物浦就赚了。然而现在，利物浦赚翻了 看到了吧，就靠这群中场，能夺冠就是奇迹。。。亨德森赶紧卖了，詹要走就走了。。。米纳还是打左后卫吧。。。唯一杜牧留着替补。。。 萨拉赫是真梅西哦不是真牛逼！ 对对对，太独了，巴萨最好别要 要是现在皇马买萨拉赫起步价也得一亿欧以上吧 缩水版都那么屌，所以说梅西不适合英超那是bullshit！ 海湾梅西快看看…埃及梅西已经在意甲英超证明自己了，你还在守着自己的终身合同混日子 得便宜卖乖，还不快谢谢罗马！ 能不能看点球上场比赛落后凯恩射手榜有射门机会都送给菲儿米诺空门 大帅拼，克吊喜欢这样的 来了时候就说了，看面相就是能吃苦爬雪山过草地的料，适合我军 中场真心不行，一群工兵，拉拉纳还可以，能拿住球，亨德森只有回传，横穿，詹不评价，不晓得尤文看上他什么了，维纳尔杜姆也喜欢带球，还带不好，米尔纳典型工兵！有些丢球真不能怪后卫，中场拦截一出问题，直接让对方前锋面对后防，真心缺一个好的后腰，只能等凯塔来了 皇马有屎上最佳球员就他这么独不给最佳球员传球一样不要的…😂 不是说英超是防守最好最难进球的吗？估计换成梅西C罗的话一年能刷100球吧 怕抢球王点球？ 巴萨欢迎你 前面浪费得更多，而且都是容易的球，进的都是难度的……囧……不然现在都30+了 瞅着进球那几队可都是菜队啊 卢卡库半个赛季给当机器人这样踢。也差不多要废了。可怜伊布。已废。 那皇马欢迎你 "
    },
    "Title": "埃及梅西?今夜他是真梅西 半赛季23球超8支英超队_网易体育",
    "Source": "Netease",
    "KeyWords": "梅西,英超,利物浦",
    "URL": "http://sports.163.com/17/1231/01/D6US63LE00058781.html",
    "Article": "网易体育12月31日报道：英超第21轮比赛，利物浦主场对战莱斯特城，红军在开场不到三分钟就丢球的情况下凭借着萨拉赫梅开二度逆转对手获得胜利。萨拉赫的两个进球非常精彩，一次禁区内的梦幻舞步闪出角度射门，一次禁区前灵巧的转身后杀入禁区推射入网，惊艳的发挥有些梅西的神韵。萨拉赫此前曾经切尔西踢球，但是由于得不到机会，因此离开蓝军来到了意甲，在佛罗伦萨以及罗马效力期间，萨拉赫也得到了充分的锻炼。在上个赛季的意甲联赛中，萨拉赫交出了15球11助攻的两双数据，而凭借着出色的发挥，萨拉赫也得到了红军的关注，并以4200万欧元的身价加盟利物浦。来到红军后，萨拉赫主打右边锋，这位埃及球员与红军无缝对接，迅速适应的全队的战术，并有着高光的发挥。在前20轮的联赛中，萨拉赫一人打入15个进球，同时各项赛事打入21个进球，他也成为了2013-2014赛季之后第一位在单赛季打入20+进球的红军球员。在本轮对战莱斯特城的比赛中，又是萨拉赫拯救了红军。利物浦开场不到三分钟就丢掉一球，随即红军展开强攻但是一直没有进球。第53分钟，萨拉赫在禁区内右侧得球，面对着对方球员的防守，萨拉赫十分自信的选择在禁区内横向带球，晃过对手后打门得分。而在比赛第76分钟，萨拉赫背身接到米尔纳的传球，他的身后是英格兰国脚马奎尔，而萨拉赫灵巧的转身，利用速度优势杀入禁区，一脚推射帮助红军逆转了对手。萨拉赫本场比赛的两个进球都十分惊艳，尤其是第一个进球更是有梅西的风采。截止到目前为止，萨拉赫本赛季在各项赛事已经为红军打入23个进球，他一个人进球数就比目前八支英超球队各项赛事的进球还多，这八支英超球队分别为水晶宫、伯恩利、布莱顿、斯旺西、西布朗、哈德斯菲尔德、南安普顿以及纽卡。本文来源：网易体育作者：塞尔吉责任编辑：冯昊天_NSJS2656"
}