{
    "URL": "http://news.163.com/18/0101/11/D72H1BI30001875O.html",
    "Title": "特朗普新年\"献辞\":朋友们敌人们 祝你们统统快乐_网易新闻",
    "KeyWords": "特朗普,新年,推特,美国",
    "Article": "（原标题：特朗普新年\"献辞\":朋友们敌人们，祝你们统统快乐）特朗普在推特上送出新年祝福。(资料图)海外网1月1日电当地时间2017年12月31日，特朗普在推特上连发多条推文，送出2018年新年祝福。他在推特上写道，“我们正在让美国再次伟大，比任何人想象的速度都要快。”特朗普推特截图。特朗普同时写道，“随着我们的国家迅速变得越来越强大，我想祝所有的朋友，支持者，敌人，憎恨者，甚至是那些不诚实的假新闻媒体新年健康快乐。2018年对美国而言，将是伟大的一年!”本文来源：海外网责任编辑：谷莹_NN6577",
    "Source": "Netease",
    "PublishTime": "01/01/201811:36:10",
    "Comment": {
        "Link": "http://comment.news.163.com/news_guoji2_bbs/D72H1BI30001875O.html",
        "Reply": 693,
        "Content": "我得跟去監督你們才行。 这里只有俩种，一种美狗，一种正常人类 奴才哪里走，你妈日记还没写完呢😂 我能忍受这煎熬，请组织派我过去做卧底如果不成功誓不回伟大的祖国。 快乐尼玛了个币，人家一天无时无刻不在想的怎么整你，你还快乐。 筒子们，女士们，先生们，朋友们，全国各族人民，香港同胞，澳门同胞，台湾同胞， 二楼，新年快乐，无论你是赞同方，还是反对者。川普又给我们上了一课，教会我们理解什么是民主。 越来越发现川普靠谱 那你定义一下你自己？ 一点正型都没有，嘻嘻哈哈的二流子，国民怎么能忍受的，悲惨的美国人啊。 你祝福的人我这全都有😜 我想祝所有的朋友，支持者，敌人，憎恨者，甚至是那些不诚实的假新闻媒体新年健康快乐。2018年对美国而言，将是伟大的一年!”<br>不诚实的假新闻媒体若有所指啊 川普总统，新年快乐！ 美狗在正常人眼里才是狗屎💩 4楼说的有错吗？ 无知者无畏，郁闷还高调！你就是傻逼 自古二楼出傻逼谁整你你心里没一点逼数吗？ 把你手机换成华为吧井底之蛙 你们每天为美国操碎了心，累不累？ 你这个汉奸，请带上我! 川普这样搞，感觉世界大战不远了毕竟谁能忍一家独大。 哪有点总统的样纸，怎么说话呢？为什么不代表共和党、总统府、美利坚三军司令部向全球美人祝新年快乐呢？！发言的水平连我们的看门大叔都不如。差评 川普老头，还是比较务实的，都是些实话 不扯淡不侃侃而谈不装有文化后面不放几十张相片。就是说话真牛逼。 二楼的爷爷可能在抗日的时候死在美国人手里了 牛逼 坦坦荡荡、光明磊落、有啥说啥，这样的人才可交。不像有的人天天装神弄鬼的。 实力装笔 这个献词，墙都不扶，就服你！ 祝美国2018新年快乐<br><br><br>enemyhater国民敬上 君子坦荡荡，特郎普率直，真诚伟大的总统。 美国有特朗普思想奥巴马理论吗 多出去看看走走，或者就知道谁更实在 我选出来的总统！ 有这样的胸怀美国如何不强大 这才是大胸襟 什么一个自信两个自信。。。。。。这才是自信 川普整谁了？你还真有主人公责任感啊 敌人:“哦”<br>憎恨者:“哦”<br>不诚实的假新闻媒体:“哦” 打什么打？全世界加起来都挑不过美帝一个舰队。 夜郎自大表现的淋漓尽致 大国总统！ 这舔的。。自己不呕心？ 川普，新年快乐！😁 二楼，你在川普眼里就是狗屎，他整你干什么？脑子进大粪了 发现网易有几千个舔美日的间谍狗一直在评论军事，那些狗是有工资的，获赞量高的基本是那些狗搞得，只有它们有这时间，除了那些不能让这些狗叫的贴子，哪里都有它们吠。 霸气 也祝您新年快乐 川普总统，新年快乐！ 特靠谱 唯一一个讲真话的总统 必是伟大总统实在 建国同志，新年快乐呦~ 用着美国人的手机骂别人，这种人最恶心 2楼，整你的人真不是川普 大国风范 您配吗 多了一份企业boss的务实，少了很多政客的套路，不知道是好是坏。 老表还不如打工？ 穷逼和初中以下学历的人都说美国比恶魔还可怕。初中以上学历的人和有权有钱的人都想移民美国及其走狗国家。 真实的总统 老头儿有自己的风格 反美是工作工作和生活是两码事 霸气 谢谢川普总统。在冲绳这边培训完独立组织的人CQC射击我就去俄罗斯安保公司报道了。希望您的人能安静不反抗的被我们打死，谢谢了 有自己的思想 川普老头，还是比较务实的，都是些实话 自欺欺人，好，继续！ 对川普来说，内部的敌人多于外部的敌人。内部的危害大于外部的危害。 美国狗太多了 反对是反对，但是他家的东西还是好用啊😄 恭喜你们 看看你们一个个想移民的样子 比你好我好大家好好好好好多了 川普怎么不坐着发表？ 当奴才久了已经站不起来了，只要意见不一就不是正常人，这逻辑好啊能打倒一切反对者。 美国重点在国内，对外只是捞经济，捞钱！想依靠美国发财国家没门！ 比假大空舒服！！ 服了，真敢说 美狗自己看不清自己，我来告诉你们美狗是怎么回事：小时候班级里总有那些弱小的好孩子总幻想加入到那些坏孩子群里，那个群里有阳光有自由还有钱。那个坏孩子头总是利用或者欺负好孩子，可是那些好孩子就是佩服喜欢他，觉得他很酷很屌很有型要跟他混给他当小弟，可惜，其实坏孩子头只是想卡油。慢慢的长大了，好孩子骨子里还有小弟情节，觉得大哥能带领你找到人生幸福，殊不知坏孩子头早已经变得现实冷酷因为他早已经看透现实看透这个世界没有了幻想只有利益，而那些可怜的好孩子依旧天真等待着被人利用被人出卖被人在危急时刻拿出来献祭，他们到死才明白～原来，坏孩子唯一真正关心的人是人家自己的家人，而自己永远成不了“家人”，只是被利用的对象而已，最后只能悲惨的死去，到死都是一个善良天真的傻孩子。当然，还没死的时候他可能已经变成一条伸着舌头红着眼睛跟在人家后边捡骨头吃的看家狗，自己却以为自己站起来成为真正的人了。 牛逼 不玩虚的，顶你！ 夜郎自大表现的淋漓尽致 特靠谱 大国风范！ 网易上这些臭傻逼狗腿子天天跪舔美国爸爸，人家认识你吗， 总统先生新年快乐！ 大国总统！ 未来是人类的吗？那么，全人类就共同努力吧，不要再做煮豆燃豆萁的事了。 快乐尼玛了个币，人家一天无时无刻不在想的怎么整你，你还快乐。 祝川普新年快乐！ 华为手机是送滴呵呵 在网易敢说美国不好！？想死了吗？！ 女儿小学五年级，喜爱英语。我说bbc太难了，先学学川普英语吧！ 我虽然用华为但是真为他难过，看新闻联播看中毒了，不可救药 我能忍受这煎熬，请组织派我过去做卧底如果不成功誓不回伟大的祖国。 一群脑残，该真把自己当美国人了，都沦落到要当狗的地步了，你何来的优越感啊？ 看准了，美爹的祝贺词里没有狗类哦，别太过兴奋。新年是人过的，狗狗就别掺合了。 特靠谱！ 新年快乐！！！ 一点正型都没有，嘻嘻哈哈的二流子，国民怎么能忍受的，悲惨的美国人啊。 也祝你新年快乐 川普总统，新年快乐！ 中美的唯一共识：美国媒体都是谎话连篇。。。。 现实靠谱，不论是朋友还是敌人统统快乐！多真实的讲话。 说实话提高效率 把你手机换成华为吧井底之蛙 美国的敌人正在焦头烂额之际…… 那个啥核按钮，就在老子的桌子上😂 不错哦，这个总统 献词与祸词区别挺大呵！ 这家伙让你们舔的，老普拉完屎都不用擦屁股，都让你们舔干净了，老普还不认得你是谁！🤣 能从一个政治家身上明显感觉到真实，确实难得 圈养的眼光有局限，这个很正常 为它跳墙了吧！ 有点曹操的感觉 牛逼的老头 电视都不用了 为什么川普不需要假正经？ 这个献词，墙都不扶，就服你！ 王淀河，总统在祝贺你呢 哈哈，这老头有意思 川普老头，还是比较务实的，都是些实话 美利坚合众国人民，新年快乐！祝你美国再次伟大！ 好智障的华为😛 这个助词的确牛逼诚实 名字用英文，手机用苹果，还往死诅咒别人！说人一句好立马炸，这群人心理扭曲到什么程度？ 特朗普要害我，难道他看上了我的破房子，还要给我减税，真是防不胜防。 不好吗 有性格 甚至是那些不诚实的假新闻媒体″。他指的是谁？我们是否要抗议一下？！ 楼上这个华为还是合格的 都快乐才是真的快了 假新闻媒体似有所指啊 新年快乐！ 毛左好无聊 傻逼！你他妈的还想当世界警察，带领国家任意欺凌他国，到处宿敌，还口口声声说你的敌人！？傻逼黄毛🐶 特朗普祝他的朋友和敌人们统统快乐。那么，即便特朗普是中国的敌人，我们祝他新年快乐，有错吗？ 和平年2018 一起快乐 快乐尼玛了个币，人家一天无时无刻不在想的怎么整你，你还快乐。 没个御用师爷润稿就是没格调！ 他没吠，尼玛死 2018 诚实的人啊 台湾不好吗？最起码言论自由，民主 当初那些嘲笑贬低特朗普的，就问脸红吗？ 川普就一逗比 川普不是说明了吗！美国人优先，美国人伟大，其他的全都是狗屎…… 筒子们，女士们，先生们，朋友们，全国各族人民，香港同胞，澳门同胞，台湾同胞， 10楼的意思是美国人就是日本人了？ 这个老头，怎么天天作怪 没有夸夸其谈，只有务实言谈。 不诚实的假媒体不得好死 让你们过个好年，接下来就是尔等的噩梦！ 我们收到的祝福最多，得好好谢谢人家川普 川普总统，新年快乐！ 读书少、阅历少、脑子不好使的人，很难从小时候被植入的思维中转过弯来的。 无论是谁祝福还是都要给的😁😁😁 hh 都黑出翔了 哪有点总统的样纸，怎么说话呢？为什么不代表共和党、总统府、美利坚三军司令部向全球美人祝新年快乐呢？！发言的水平连我们的看门大叔都不如。差评 有个性 川普老头，还是比较务实的，都是些实话 真有意思 二楼的爷爷可能在抗日的时候死在美国人手里了 说到做到牛逼 越来越喜欢这老哥了！ 这个献词，墙都不扶，就服你！ 真的头脑有问题，以后美国永远由这种小儿总统来领导就好了！全世界不会跟他一起幼稚☞ 小特，新年快乐！ 霸气侧漏 论靠谱，还得川谱！ 9岁就死了的那个么？ 川普大叔取消了百无聊赖的国宴。假大空可以休矣。<br>一个汉堡可以解决的事情，何必要摆一桌呢。<br>一切以美国人的生活为福祉。嘴炮可以休矣。 假媒体，😄 全世界都是它们的同胞 实在人 说到做到 祝特朗普总统及家人新年快乐！ 这牛的啊人生赢家也祝你新年快乐 敌人:“哦”<br>憎恨者:“哦”<br>不诚实的假新闻媒体:“哦” 这“献辞”真是“统统快乐”，是真心还是耍嘴皮子，就看这一年的表现了。 大爱无疆！👍🏻 我在想，我们到底是朋友还是敌人呢？又或者什么都不是！ 特朗普是全世界的敌人是普京一个人的朋友 就一个逼货 新年快乐 厉害了 哈哈哈，同感 呦西 快乐尼玛了个币，人家一天无时无刻不在想的怎么整你，你还快乐。 别跟二楼较劲，毕竟过年！ 美国梦吧？ 特朗普特靠谱 人家美国公民可不这样认为 多出去看看走走，或者就知道谁更实在 哈哈 率真的川普 民粹主义的典型代表，二杆子 奴才哪里走，你妈日记还没写完呢😂 川靠谱声望越来越高啊！ 这家伙越来越有意思了……比奥巴马靠谱得多 哈哈 如果拿出打日本的狠劲，十个越南也不够打吧？ 不诚实的假新闻媒体，，，哈哈 川普，带我去美国🇺🇸，好吗？ 川普总统，新年快乐！ 务实！ 人民选的才是人民的 伟大的美利坚 伊朗的新闻呢？ 霸气 一块喷子自留地，芳草满地。 比如抗日神剧…… 二货 你逼啊 美国打不过越南，你意思越南比日本还强大吧，哈哈 深圳的公公起来说话 川普这样搞，感觉世界大战不远了毕竟谁能忍一家独大。 这个献词，墙都不扶，就服你！ 网易年度有个性人物就是你了 川普洋气 敌人:“哦”<br>憎恨者:“哦”<br>不诚实的假新闻媒体:“哦” 特靠谱 这个献词，墙都不扶，就服你！ 我做外贸的，别的不说，阻碍我发财的都得死！川普去死！ cnnbbc 华为定律还是那么的靠谱。 开创了一个新的致词方式与态度。 支持川普死去！阻碍我发财！ 不做作 我能上推特点个赞吗？ 抗美援朝惊魂半个世纪。 人家是不忍心再打了！你这条傻狗！ 点个赞！<br>朋友和敌人只是政见不同和普世观的不同。 川普总统你真是个傻乐。 假新闻？是谁的谁 打什么打？全世界加起来都挑不过美帝一个舰队。 夜郎自大表现的淋漓尽致 祝你早日下台。 特朗普明白事理的人不愧是 大实话，听的懂 野心家 快乐尼玛了个币，人家一天无时无刻不在想的怎么整你，你还快乐。 傻逼川普赶紧滚蛋 二楼没毛病呀不用核全球都打不过美帝呀人家国力投送能力后勤能力很强呀可以把士兵送到全球任何角落人家确实有这个实力而且不要忘记美帝本土可是从来没有受过轻虐的美帝本土受过最严重的打击也就911飞机撞大楼了 哈哈哈哈哈哈 为什么你用美国的手机这么激动 务实的主！一句废话都没有! 它妈正在太阳，顾不上记，来人帮帮～ 奴才哪里走，你妈日记还没写完呢😂 美国有特朗普思想奥巴马理论吗 说话小心！ 不扯淡不侃侃而谈不装有文化后面不放几十张相片。就是说话真牛逼。 你妈妈说的。 越来越发现川普靠谱 狗奴才，正在愤青 霸气、务实，无与伦比的讲话！ 野鸡文凭狗屎不如。 大国总统！ 川普总统，新年快乐！ 这么龌龊啊！ 美狗在正常人眼里才是狗屎💩 大丈夫！ @总统先生～新年快乐！ 伟大美利坚 嗯，打个越南差点没把自己给整死😂 噗噗噗噗噗 气个球。 川普哥厉害👍👍 大国范 祝您新年好，世界进步就看你的了～～ 川普老头，还是比较务实的，都是些实话 应该说全美打一个朝都不能赢，这样才好增加军费。 别穷吃穷喝当心冐肠胀气穿孔。 不诚实的假新闻媒体新年健康快乐！ 川普这样搞，感觉世界大战不远了毕竟谁能忍一家独大。 川普是四川的种。 肯定有 因为他跟其他人不一样是体制内，所以爱 那些不诚实的假新闻媒体？这明显干涉内政了 这个献词，墙都不扶，就服你！ 就是 嘘🤫， 时代不同了，什么叫死士，什么叫战俘 直言不讳啊。大兄弟 二楼的,你还真正的丢脸! 这么爱国者少有啊 大气， 凡是不拿国外文凭的都是土鳖，再怎么也是土鳖 黑白黄宗杂交大锅会。 四楼是川普肛边的蛋。 好好的👌👌 没有政客做派的大政客 算了吧你们根本不用被害妄想了，用不了几年自己就会毒发的。 你祝福的人我这全都有😜 虽然祝辞很张扬，却是基于强大的实力，有底气说。 嗯，特别是指几十年来一直忽悠和坑蒙拐骗世界包括美国自身的美国全部媒体！ 钻夜壶的总统。 舔川普的吊蛋者一个。 放个辢屁你全家老小受用半天。 狗觜里也有象牙。 不要上当，万恶的资本家又在装逼了。打到资本主义。 没文化没素质没函养的生意饭子而已。 打什么打？全世界加起来都挑不过美帝一个舰队。 务实！不鱼肉百姓！ 连川普老儿都想跪拜普大帝，还霉驴奸。 大赞4楼，经典评论 厉害厉害👍👍👍 他喽某就是和领导写日记的那位？ 兄弟，既然是实力的话就没有半点装逼了。美国🌹！ 快乐尼玛了个币，人家一天无时无刻不在想的怎么整你，你还快乐。 实力装笔 二楼，你在川普眼里就是狗屎，他整你干什么？脑子进大粪了 好个宽宏伟大的老头，顶！ ",
        "Total": 28620
    }
}