{
    "URL": "http://ent.163.com/17/1228/07/D6NOOKHO00038FO9.html",
    "Comment": {
        "Reply": 115,
        "Content": "有钱谁不会玩[不屑] 周杰伦真的很爱昆凌。 喷子们，别人汶川地震捐4000万，你们做了什么？别人写歌传播正能量，你们做了什么？ 这女的脸看这别扭 这种夫妻感情最可靠。女方只能靠男方。 嗨，周轮子 啪啪啪，成全你，你真他娘的是个煞笔，舒服吧 简单爱啊！周董 昆凌的下巴和脸颊有点... 在国外还戴个口罩这么有自信？ 不用为钱、为生活奔波，应该都会漂亮。 昆凌真丑！对，我就是嫉妒，怎么滴 不写歌？不发专辑？ 我都不是贬低你、你要是出过国我直播吃屎。全球个大旅游景点豪华购物中心你都能看到中国人。 不要整天上头条秀恩爱，既然已经成为夫妻了，那就好好回家照顾带小孩儿去哇！昆凌周杰伦哈哈 我也不喜欢周结巴这个sb，但是这种造谣我也不信，他是sb，但是不笨吧，怎么可能公开说自己日本人 周杰伦不是还有个妈吗？ 那你他妈犯贱点进来 学生：老师，您教的都是一些没用的东西，<br><br>老师：我不许侣们这样说记己。 有钱 周杰伦情人节宣布昆凌怀二胎喜讯，并晒出爱妻穿比基尼露孕肚美照，月中他将在英国开演唱会，夫妻俩也抵达当地，他也在脸书分享昆凌近照，不过穿着斗蓬披风包裹严实的她，看不出孕肚大小。 像我们有孩子的哪里能到处旅游，努力挣钱！ 额额额额 昆凌眼睛看着别扭。。 封面跟马蓉挺像 冬瓜和榴莲你漏掉了 祝福周杰伦 应该是有好几个保姆 他旅游的钱粉丝们有一份🤣 狗仔好可怜，买了三大洲机票，却没得玩儿 跟下跟你来私人假期超长了[微笑]新专辑嘞[暴怒] 今天早上打完飞机，全弄手上了，然后我就去超市，把黄瓜、茄子、连偶摸了个遍，孩子，爹只能帮，你到这里了 实话 不用带孩子真好。 新专辑呢？ 周的品味真令人捉急 哦呦，不错哦 周杰伦是你们爹！别当戏子的狗！天天报道这些有意思吗？ 得明年下半年或者年底。绝对滴 昆凌跟了周杰伦越来越漂亮了可见周董对你的爱 人比人气死人我还是好好喂奶吧！ 在中国赚完钱，去日本消费 跟贴被火星网友带走啦~ 明星真好，只管生不管养 贴出来 这女的脸看这别扭 是准备3胎吗？ 嗨，周轮子 我只想问，你啥时候出新专辑 这女人上辈子做了什么好事 一日千里啊，杰伦老师好样的 真会玩 昆凌的下巴和脸颊有点... 支持支持。 在国外还戴个口罩这么有自信？ 昆凌真丑！对，我就是嫉妒，怎么滴 有钱人的生活真好 专辑看来没戏了，天天玩 周杰伦不是还有个妈吗？ 我就随口 么理解 呢计策 学生：老师，您教的都是一些没用的东西，<br><br>老师：我不许侣们这样说记己。 幸福呀 人生赢家 [暴怒][暴怒][暴怒][暴怒][暴怒] 周杰伦情人节宣布昆凌怀二胎喜讯，并晒出爱妻穿比基尼露孕肚美照，月中他将在英国开演唱会，夫妻俩也抵达当地，他也在脸书分享昆凌近照，不过穿着斗蓬披风包裹严实的她，看不出孕肚大小。 百度(毛卑零），就明白大幂幂为什么会火，不知道被多少个名导给潜了，那里真的是黑，去瞧瞧 昆凌眼睛看着别扭。。 好不错 恩爱夫妻。 明星都不用看娃，太美了，还是有钱好 应该是有好几个保姆 他旅游的钱粉丝们有一份🤣 到处游山玩水，请问新专录好了吗[疲惫]作业做完再出去玩行不行[微笑] 跟下跟你来私人假期超长了[微笑]新专辑嘞[暴怒] 路上带口罩的还真不少[喷水]，都是自信吗？ 实话 不用带孩子真好。 新专辑呢？ 星期六去吧! 哦哦 得明年下半年或者年底。绝对滴 羡慕！ 有钱人的钱不是大风刮来的 我啊来PK了 新专辑最起码也得明年下半年 昆凌太漂亮了。 明星真好，只管生不管养 是这样的，我有一个朋友就在波斯湾开面馆。最早去的伊拉克，现在已经在阿富汗、利比亚、叙利亚都开了分店，前两天打电话很兴奋的和我说，准备去叙利亚开面馆了，就是人手不够，问我有时间没有？其实我这个朋友最早是个混混，工厂不要，公司开除的那种，基本在国内走投无路了，无奈之下在一家川菜馆当小工。2001年吧，美军进攻伊拉克，这兄弟的老板居然疯了，跑到伊拉克开了家川菜馆，这兄弟也就跟着去了。结果生意好的不得了，美军经常坐着直升飞机来点餐，螺旋桨就这么“咣当咣当”的开着，几个黑大兵就这么端着机枪等炒菜，完了用塑料筐装走，大把的美金哗哗的扔，一盘泡菜国内不要钱，卖给美军那就是15美金小半碟子，一个鱼香肉丝要120美金，一碗白米饭20美金。每天老板数钱手都在抖。可惜好景不长啊，2个月不到，他老板就被汽车炸弹轰上了天，这兄弟他命大，那天去美军司令部送外卖，算是捡了一条命。这兄弟，经过这一回也算是想开了。豁出去了，川菜是没法开了，就开面馆了。胆子也大，不要店面（免得美军聚餐的时候基地来放炸弹），只要流动面点车。就是一辆废弃的装甲车，后面割开做成开放式的售货车，遮阳，安全，还防弹。好家伙，生意好的牛上了天。这车就跟着美军走，美军打着打着饿了，坐下来来一碗兰州拉面，热腾腾，吃完嘴一擦，提着步枪上去接着打。有时候和基地打胶着了，分不清南北，也有基地的来吃面的，便吃面还边叫唤：阿拉-阿克吧！不要辣椒！阿拉阿克吧，牛肉少了老子要弄你····。他小子也是大方，经常是一半儿面，一半儿牛肉。最后搞的是装甲车左边坐着美军，右边坐着塔利班，大家都形成默契了，吃中国人的兰州拉面的时候，不许开枪。这兄弟后来跟着美军又去了阿富汗、巴基斯坦，现在已经跟着几个基地的老客户去了叙利亚。据说在北京最近入手了3环内的别墅，年底还要在上海外滩买两个店面。他在电话里和我说：兄弟，美军上将拉德乌斯将军给他电话了，说美军要在伊拉克和叙利亚动手打IS了，估计出动的美军至少10万人，很想念他的兰州拉面。问我有没有兴趣当个分区经理？装甲车他都看好了，伊拉克美军剩余物资，防地雷装甲车，美军还送7.62机枪一挺和一台移动炊事车，我觉得很不错，但是我不会炒菜，我就想问问学炒菜那家比较强。 不错不错收藏了 喷子们，别人汶川地震捐4000万，你们做了什么？别人写歌传播正能量，你们做了什么？ 这种夫妻感情最可靠。女方只能靠男方。 孩子呢…… 额额额额 啪啪啪，成全你，你真他娘的是个煞笔，舒服吧 简单爱啊！周董 在国外还戴个口罩这么有自信？ 有钱任性 有钱谁不会玩 不用为钱、为生活奔波，应该都会漂亮。 不写歌？不发专辑？ 好好玩吧！ 我都不是贬低你、你要是出过国我直播吃屎。全球个大旅游景点豪华购物中心你都能看到中国人。 不要整天上头条秀恩爱，既然已经成为夫妻了，那就好好回家照顾带小孩儿去哇！昆凌周杰伦哈哈 我也不喜欢周结巴这个sb，但是这种造谣我也不信，他是sb，但是不笨吧，怎么可能公开说自己日本人 [疑问] 1楼真是傻屌。 羡慕 有钱 结巴司马 像我们有孩子的哪里能到处旅游，努力挣钱！ 真幸福的一对 挺好 冬瓜和榴莲你漏掉了 是应该休息休息。有时间放松下来。才有更多创作灵感。新专辑快点写吧！18年年中能出级我弥陀佛了 有钱就是好 没钱了就开大陆开演唱会[窃笑]现在明星都不爱出唱片了 祝福周杰伦 玩够了没钱了，开个演唱会 狗仔好可怜，买了三大洲机票，却没得玩儿 嫉妒 [色色] 真好 周的品味真令人捉急 幸福 周杰伦是你们爹！别当戏子的狗！天天报道这些有意思吗？ 昆凌跟了周杰伦越来越漂亮了可见周董对你的爱 孩子呢？ 人比人气死人我还是好好喂奶吧！ 在中国赚完钱，去日本消费 那你他妈犯贱点进来 扎手啊老铁 昆凌何德何能嫁给周杰伦 虽然对周杰伦无感但是现在居然还有你这种弱智早就辟谣的消息了 混血处女保护欲呗 今天早上打完飞机，全弄手上了，然后我就去超市，把黄瓜、茄子、连偶摸了个遍，孩子，爹只能帮，你到这里了 杰伦是在为新专辑取材吗[微笑] 封面跟马蓉挺像 有钱谁不会玩[不屑] 周杰伦真的很爱昆凌。 白天旅旅游，晚上啪啪啪！ 。。 呦，还不错噢。 有钱可以休息一辈子 周杰伦杀了你全家？？？ 记得记得 有钱任性 只有在圈内没有异性朋友才会在圈外包养自己是女粉 哦呦，不错哦 有钱周游世界都是小数目 只想知道杰伦在街上见到东尼大木会怎么样 昆凌跟了周杰伦越来越漂亮了可见周董对你的爱 台湾是日本殖民地 结巴就爱干萝莉 虽然对周杰伦无感但是现在居然还有你这种弱智早就辟谣的消息了 宠妻狂魔！ 周董2014年迎娶昆凌，同年生下长女小周周Hathaway海瑟薇，5日昆凌广邀友举行产前派对，提前庆祝儿子出生，6日有媒体则报道，周杰伦稍早现身上海 不错哦 昆凌跟了周杰伦越来越漂亮了可见周董对你的爱 ",
        "Total": 1209,
        "Link": "http://comment.ent.163.com/ent2_bbs/D6NOOKHO00038FO9.html"
    },
    "Title": "私人假期超长！周杰伦昆凌爱之旅玩遍三大洲_网易娱乐",
    "Source": "Netease",
    "KeyWords": "周杰伦,昆凌",
    "PublishTime": "12/28/201707:19:34",
    "Article": "周杰伦日前放照，背景疑似在日本但又有网友爆料两人在澳洲逛街被遇见网易娱乐12月28日报道据台湾媒体报道，周杰伦和昆凌26日被网友直击现身澳洲黄金海岸，昆凌身穿细肩带吊带裙，展现窈窕身材，周杰伦则穿着宽松短裤、帽T，两人都穿轻便的拖鞋在商场逛街，享受愉快的圣诞及新年假期。而由两人路透照片推估，小两口这趟恩爱之旅，足迹共横跨了三大洲。周杰伦日前才和昆凌赴日本东京旅游，平安夜当天，他还在IG晒出合照，纪念结婚3周年，但昆凌却Po出极光照，表示去了圣诞老人的故乡，地点疑似在芬兰。周杰伦昨又陪着老婆出现在澳洲，令人相当好奇两人的移动速度，对此周杰伦所属的杰威尔音乐回应：“公司不过问私人行程。”昆凌经纪人也表示不清楚她的行程。周董12月3日结束“地表最强”巡演佛山场后，近一个月暂时不需开演唱会，他也不接跨年活动，陪昆凌回澳洲娘家，将于明年1月6日在新加坡重新启动巡演，也将为演唱会做一些调整和升级。本文来源：网易娱乐责任编辑：李彤_NK4455"
}