{
    "URL": "http://ent.163.com/17/1228/18/D6OVG3I300038FO9.html",
    "Comment": {
        "Reply": 82,
        "Content": "尼玛网易转变这么快，前一段时间还说浙卫蓝不是东西呢！难道又收人家钱了 这种公益也挺好，但没有那么好。做了公益就能无脑喷？就能不讲规则？你这80w下次还有谁给？ 所以写这篇文章浙卫给你多少钱 两个都不站，都比我有钱，用的着我心疼？ 别特么闹了，浙卫无耻 浙江卫视别不要脸了，袁立是不会跟你一起炒作的，你现在身败名裂了，只能这么写骗骗一些好骗的观众 后面一段说的对，台上15分钟的表演真的值税后80万？如果真的值，岂不是对社会上大部分辛辛苦苦加班熬夜的人的一种讽刺么？！ 顶！ 说水军都抬举帮浙卫说话的人了，应该用智障形容。 此文不敢苟同[骷髅] 一派胡言！ 80万多？人家小鲜肉动辄几千万相比80万多？ 论脑洞就服你们这些搞公关的，真的不骗你们。 你他妈的浙江卫视还有完没完啊太得寸进尺 所以浙江卫视开始出招了？ 哈哈😄以“唯我独尊”做幌子 你他妈的是睁眼说瞎话 傻逼抢手，这种写法，诛心啊！ 这作者的立场，文风，逻辑<br>我只想说一句，当初怎么没有被射在💩里面 这个编辑收钱了⚡️⚡️⚡️⚡️⚡️ 说得对 你试15分钟搞80万捐出来 这个作者想表达什么？连个观点都没 浙江卫视也够卑鄙 这篇水文浙江卫视花了多少钱 就佩服搞公关的人 你以为你不写明显观点群众就信你了？你就是某某台的写手 袁立以慈善公益为幌子，招摇撞骗竞有如此多的屁民跟着为它摇旗呐喊，可见它背后那股势力不－般 这个小便是个犊子。 以前对她是没感觉，这次真恶心死了 很理性，很中肯 浙江卫视的水军到了啊 浙江卫视怎么这么恶心，作为浙江人感到可耻 我相信袁立，恶心浙江卫视这帮孙子 但凡不同意见就是浙卫水军，某些群体得多少愚蠢 其实写得很好！ 前者是大公益、后者是小公益。前者才是真正的公益、因为是在解决根本问题、是在提高造血能力；后者是借花献佛式的公益、对社会当然有帮助、然而仅仅是断断续续输血。显然社会需要的是大公益、不是小公益！<br><br>得有多无知的人才会说出这样的话 我选择相信袁立 这个作者得顶，敢说话，说实话， 这个作者要被骂惨了 确实浙卫不讲信用，毁约再先。 是不是炒作，走着看呗！ 说水军都抬举帮浙卫说话的人了，应该用智障形容。 小编是浙江卫视的卧底？？大傻逼吧你 照小编的意思，南京遇害同胞是自然死亡喽，你是不是欠揍啊。 你他妈的浙江卫视还有完没完啊太得寸进尺 我有个朋友,跟这小编差不多,也是爱编故事去年走的,走的时候并不安详,尸体在太平间抽搐了三天,火化的时候烧得滋滋响,嘴里还在嚎叫,烧了几个钟头才烧完,烧完以后上了灵车,出门就翻车了,骨灰洒了一地,还被风吹走了不少,刚想把剩下的扫起来,迎面来了一辆洒水车,唉…… 这个文章的作者署名：师伟。艹。 这作者的立场，文风，逻辑<br>我只想说一句，当初怎么没有被射在💩里面 NB 真特么傻逼的角度 多少钱一篇？这种文章我也会写，给我介绍一下呗 我相信她 傻逼水军自媒体 很理性，很中肯 小编你是死叉 小编再怎么黑袁立，我还是支持袁立，袁立做公益最起码人家身体力行，下煤矿，进农村，上医院陪护尘肺病人，现今娱乐圈有几人能做到。浙卫视不要再派写手黒袁立了，越这样越说明你们心里是黑暗的。 这种公益也挺好，但没有那么好。做了公益就能无脑喷？就能不讲规则？你这80w下次还有谁给？ 但凡不同意见就是浙卫水军，某些群体得多少愚蠢 这个垃圾电视台，真是没底线了 网易发了这文章成最大赢家…… 你试15分钟搞80万捐出来 我选择相信袁立 哈哈看来这个小编应该比他还惨这应该叫死无葬身之地 尼玛网易转变这么快，前一段时间还说浙卫蓝不是东西呢！难道又收人家钱了 就这样也比其它明星强的多多 毛，你看我怎么写 后面一段说的对，台上15分钟的表演真的值税后80万？如果真的值，岂不是对社会上大部分辛辛苦苦加班熬夜的人的一种讽刺么？！ 顶！ 80万多？人家小鲜肉动辄几千万相比80万多？ 服了，这个社会，颠倒是非黑白，好人能被说成恶人，怪不得好多人对人生没有好的憧憬了 哈哈😄以“唯我独尊”做幌子 你他妈的是睁眼说瞎话 傻逼 说得对 你以为你不写明显观点群众就信你了？你就是某某台的写手 这个作者很好反驳啊，浙卫水军看到希望一样，真可乐。。。作者来来来，你来怼我，我一个个告诉你，你写的没有一个能成为袁立黑点的。 小编受贿了 袁立以慈善公益为幌子，招摇撞骗竞有如此多的屁民跟着为它摇旗呐喊，可见它背后那股势力不－般 这个小便是个犊子。 开始了，浙卫反击了 他10秒种就能搞几十亿 浙江卫视怎么这么恶心，作为浙江人感到可耻 把国际章挨过的家伙事儿，一根一根用刀子割下来，统统丢地上，用大铁锹铲进大号的背篼里，汪皮裤蹲下，这背篼都背不动。嘴里嘟囔着说:“我靠，这背篼里面装的是啥？真沉！” 多么傻逼的标题，想搞袁立的心昭然若是。 这个作者要被骂惨了 特别 浙江卫视也够卑鄙 所以写这篇文章浙卫给你多少钱 跟贴被火星网友带走啦~ 别特么闹了，浙卫无耻 浙江卫视别不要脸了，袁立是不会跟你一起炒作的，你现在身败名裂了，只能这么写骗骗一些好骗的观众 这个作者想表达什么？连个观点都没 此文不敢苟同[骷髅] 一派胡言！ 我拒绝 这个编辑收钱了⚡️⚡️⚡️⚡️⚡️ 所以浙江卫视开始出招了？ 傻逼抢手，这种写法，诛心啊！ 估计这是合伙炒作呢！ necklace 小编是为了黑而黑吧？ necessary 这篇水文浙江卫视花了多少钱 以后别人的捐款别再捐出去了，省的说 小编还能在编点吗？SB 小编浙江卫视的看门狗，<br>好廉价的臭货，下三滥的野b！ 小编收了浙江卫视多少钱 以前对她是没感觉，这次真恶心死了 小编纯属傻逼中的战斗机 这个小编可以写故事会了。 浙江卫视的水军到了啊 论脑洞就服你们这些搞公关的，真的不骗你们。 我相信袁立，恶心浙江卫视这帮孙子 就佩服搞公关的人 两个都不站，都比我有钱，用的着我心疼？ 其实写得很好！ 雷锋不是做公益的，谢谢！好人好事而已 骗就骗吧，反正爱死不死的，跟我没关系，我过好我的穷日子就好 前者是大公益、后者是小公益。前者才是真正的公益、因为是在解决根本问题、是在提高造血能力；后者是借花献佛式的公益、对社会当然有帮助、然而仅仅是断断续续输血。显然社会需要的是大公益、不是小公益！<br><br>得有多无知的人才会说出这样的话 很好，作者公众号都给加粗了 这个作者得顶，敢说话，说实话， ",
        "Total": 1527,
        "Link": "http://comment.ent.163.com/ent2_bbs/D6OVG3I300038FO9.html"
    },
    "Title": "浙江卫视和袁立合伙骗观众 究竟哪个才是真相？_网易娱乐",
    "Source": "Netease",
    "KeyWords": "浙江卫视,公益,综艺节目,袁立",
    "PublishTime": "12/28/201718:36:29",
    "Article": "本文转自公众号“现代质量”作者：师伟1、浙江电视台和袁立合伙骗观众；2、袁立现场癫狂胡闹遭到淘汰；3、双方互撕、袁立稍占上风。浙江卫视和袁立合伙骗观众究竟哪个才是真相？事情的起因是浙江电视台办了一个无聊的综艺节目《演员的诞生》——当然无聊了。现在有正经的综艺节目吗？没有！现在有真实的综艺节目吗？没有！现在有上进的综艺节目吗？没有！不正经、不真实、不上进，当然是无聊的！《演员的诞生》节目组的一个业务人员找袁立，承诺黑箱操作、确保袁立晋级——也就是浙江电视台和袁立不但合伙坑和袁立演对手戏的演员、而且合伙骗观众。双方没一个好东西！现场表现袁立稍好一些，观众投票环节袁立也领先。可是这个有恃无恐的家伙在和主持人及评审导师互动时疯疯癫癫、口无遮拦，终于把大家惹恼了，结果被评审导师干掉了！这样等于浙江电视台没有兑现条件，袁立顺势开撕，弄得一地鸡毛。现在事情没有结果，袁立的人气倒上升了不少、招来不少蹭热点的人站台。尝到甜头的袁立士气大振，披着公益的道德铠甲乘胜追击，誓把炒作进行到底！中间出了不少笑话，比如袁立攻击节目现场观众的投票器是模型，最后发现证据其实是另一个综艺节目的（造假成风、可见综艺节目烂到什么程度）——而且这袁立的脑子也真够可以的——现场投票器是假的话，说明自己更高的观众人气也是浙江电视台造假的结果，那自己被淘汰岂不是接近合理？网友从这个细节也大致能知道袁立是个什么脑子的人，她的故（劣）事（迹）实在是太多了，众多网友多有揭发，我就不赘述了。算了，还是说一条吧：她称呼在南京被日本人屠杀的死难同胞为“非正常死亡”！本文谈谈袁立作为护身符的公益是怎么回事——有个很有意思的现象，当袁立处于下风的时候，她只要嚎一嗓子“我是做公益的”，局面马上不同。什么是公益？网上的解释是这样的——公益是个人或组织自愿通过做好事、行善举而提供给社会公众的公共产品，行动的结果是向非特定的社会成员提供公益产品。按照这个定义——师老师是做公益的，因为我每天坚持不求报酬地写一篇文章给读者看，写文章的时间如果来讲课的话、大约至少是三千的收入；雷锋是做公益的，因为他坚持为大家做好事、直到生命的最后一刻；任正非是做公益的，因为他领导华为向社会提供廉价的通讯产品，而且在华为造就了众多的富翁；陈光标是做公益的，因为他花自己的钱帮助别人；你也是做公益的、只要你为社会做出有益的贡献；中国政府也是做公益的，因为拨款大力进行扶贫，改善环境、防治劳动者的职业病；……袁立号称也是做公益的，她把别人捐的钱送给了需要帮助的人。发现不同了吗？别人是真金白银地花自己的钱搞公益，袁立是让别人捐助、自己出面花钱搞公益！前者是大公益、后者是小公益。前者才是真正的公益、因为是在解决根本问题、是在提高造血能力；后者是借花献佛式的公益、对社会当然有帮助、然而仅仅是断断续续输血。显然社会需要的是大公益、不是小公益！一个运作良好的社会是不需要小公益的——小公益不是努力去解决社会不公的成因，而是客观上粉饰这种不公、从而使这种不公更加牢固。甚至很多公益组织借助无需交税的规则搞避税，更是慷国家之慨、肥自己腰包！而且不论公益形式如何，发下去的钱给谁、如何给是公益组织一方决定的，因此公益不但掩盖了社会的不公，而且破坏了人格的平等，而人格的平等其实是最容易实现的平等。所以小公益是社会公平的慢性毒药，而与小公益有关的人也不可能独善其身。这个道理很简单——搞小公益的爱心爆棚、激情无限、感性当家，账目不可能是很清楚的，所谓常在河边站、怎能不湿鞋？这几年国内爆出的类似问题还少吗？袁立是最新的一例而已！这次袁立上台15分钟，个人拿到的出场费竟然是80万！当她和浙江电视台开撕后，为了占领道德高地、号称捐出了这80万，把一些糊涂虫感动得不要不要的，然而她话是说出来了、你们看到什么证据了吗？看不清小公益本质的人不理解公平的社会应该是不需要小公益的社会、不理解缺乏监管的小公益组织的猫腻。举个例子吧：雅安庐山地震的善款赔付率方面，震后半年红会是45％、壹基金是9％——都拿去存到支付宝生利息去了！袁立的公益组织就是壹基金这种类型的。浙江卫视和袁立合伙骗观众究竟哪个才是真相？在浙江电视台和袁立直接的风波问题上，我认为——1、双方都不是好东西；2、袁立的欺骗性更强！他们的关系是狼狈为奸、欺骗观众、污染社会风气！想想吧，袁立15分钟的表演赚80万！而2016年中国人均国民总收入（GNI）是8260美元、折合人民币54589元。这种令人乍舌的差距合理吗？我们的文艺界表现算正常吗？2017年11月8日，号称“国内高空挑战第一人”的吴永宁在湖南省长沙市天心区因表演失误坠楼身亡——他如此搏命是为了挣钱补贴家用，今年在某直播平台上传了300个视频、记录了217次的徒手爬楼，仅仅收获5.5万的打赏而已！需要说明的是，我很不赞同吴永宁赖以谋生的方式——这是西方腐朽病态文化的体现、这是国内猎奇看客鼓噪的结果。吴永宁的悲剧是个人的、也是社会的。虽然吴永宁是凭自己的真本事吃饭，然而他和过气戏子袁立的收入相比、简直是天上地下。这说明我们的文化领域很不正常。这让我想起杜甫的悲叹：朱门酒肉臭、路有冻死骨！如今这个肉，还是五花肉的肉！本文来源：网易娱乐责任编辑：陈恺_NK4686"
}