{
    "Source": "Netease",
    "PublishTime": "12/26/201709:32:33",
    "KeyWords": "列侬,唱片,披头士",
    "Title": "约翰列侬控诉唱片公司亲笔信将以22万出售_网易娱乐",
    "Comment": {
        "Link": "http://comment.ent.163.com/ent2_bbs/D6IRIM6F00038FO9.html",
        "Total": 8,
        "Content": "多少收? 非常好找的东东,除非你看版本. 宝丽金华纳曾经的唱片公司两大巨头但如今 多少收? [晕] 🐞 ",
        "Reply": 5
    },
    "Article": "约翰列侬网易娱乐12月26日报道据外媒报道，披头士乐队约翰·列侬（JohnLennon）奋笔疾书控诉唱片巨头百代公司的手写信，将以3.5万美元的高价出售。这封信写于1971年单曲《Imagine》发行的前后，列侬在信中愤怒指责百代公司阻止他1968年实验性专辑《UnfinishedMusicNo。1：TwoVirgins》的发行，因为专辑的封面是他与妻子大野洋子（YokoOno）的裸照。他写道，“真正掌权人百代公司给他们在全世界的傀儡写去警告信，命令他们不得以任何形式发行专辑。”列侬写这封信是为了确保与百代公司之间的情形不会再次上演。《UnfinishedMusicNo。1：TwoVirgins》最初以棕色纸封套的包装由另一家唱片公司发行。交易中间商加里·齐默特（GaryZimet）告诉媒体：“这封信是列侬手写的草稿……字里行间充满愤怒。‘UnfinishedMusicNo。1’是列侬录作的第一张非披头士专辑。”本文来源：网易娱乐责任编辑：李彤_NK4455",
    "URL": "http://ent.163.com/17/1226/09/D6IRIM6F00038FO9.html"
}