{
    "Source": "Netease",
    "KeyWords": "直升机,黑鹰,导弹,军事",
    "URL": "http://war.163.com/17/1222/15/D695S1PI000181KN.html",
    "PublishTime": "12/22/201715:19:58",
    "Comment": {
        "Content": "反坦克导弹威力不大，但是贯穿力非常强 动能弹而已。打直升机这种薄皮可能连金属射流都无法形成。 不，反坦克导弹不是动能弹。 反坦克导弹威力不大，但是贯穿力非常强 啊？ 动能弹而已。打直升机这种薄皮可能连金属射流都无法形成。 夜间红外线。 就是动能弹。我懒得解释 沙发，金币，迷茫弟都不见了 不，反坦克导弹不是动能弹。 ",
        "Total": 51,
        "Link": "http://comment.war.163.com/news_junshi_bbs/D695S1PI000181KN.html",
        "Reply": 7
    },
    "Article": "（原标题：实拍黑鹰直升机遭导弹袭击瞬间）【环球网军事报道】12月21日外媒上的一段视频显示，武装人员用一枚反坦克导弹击中了一架UH-60黑鹰直升机，据称，该直升机属于埃及军方，飞行员丧生。本文来源：环球时报-环球网。更多精彩，请登录环球网http://www.huanqiu.com责任编辑：姚文广_NN1682",
    "Title": "实拍黑鹰直升机遭导弹袭击瞬间_网易军事"
}