{
    "PublishTime": "01/01/201821:35:09",
    "Comment": {
        "Total": 198,
        "Link": "http://comment.news.163.com/news_shehui7_bbs/D73JA3S20001875P.html",
        "Reply": 19,
        "Content": "损失4460，赔偿4000然后就完了？这不算寻衅滋事么 标题党 这里的评论是刚磕过药？人家说音响，你们评论喇叭？ 气喇叭确实很恼人,尤其是低素质的司机,摁起来没完.记得有文件说客车不让装气喇叭了,谁知道? 有些公交司机确实很缺德,被前车挡住过不去就一直按着大喇叭. 新来的？网易多脑残。大惊小怪。 一楼明显是混入咱喷子的卧底，故意来搞破坏 你说的对不对我不知道，但是你肯定是ZZ我确信无疑，因为你都不知道这新闻在说什么。 ZZ的意思是不是智障？ 很讨厌开车音响放大声的SB 现在都不看新闻直接评论了，还有这种操作？ 嫌声音小怎么不自己买车开 2015年的事情，2017年4月投案自首，然后2018年放这个新闻？ 损失4460，赔偿4000然后就完了？这不算寻衅滋事么 干了这么一票还主动投案，秦桧转世。所以说投降派最可恨 标题党 这里的评论是刚磕过药？人家说音响，你们评论喇叭？ 气喇叭确实很恼人,尤其是低素质的司机,摁起来没完.记得有文件说客车不让装气喇叭了,谁知道? 有些公交司机确实很缺德,被前车挡住过不去就一直按着大喇叭. 新来的？网易多脑残。大惊小怪。 脑残应该被人道毁灭。 一楼是混入喷子的卧底，是来搞破坏的 你说的对不对我不知道，但是你肯定是ZZ我确信无疑，因为你都不知道这新闻在说什么。 2015年的事情，2017年4月投案自首，然后2018年放这个新闻？ 很讨厌开车音响放大声的SB 车型大的车就应该装气喇叭，这样一听声音，前面人和车就知道避认，免得车祸 嫌声音小怎么不自己买车开 神经病 现在都不看新闻直接评论了，还有这种操作？ ZZ的意思是不是智障？ 在有些地方，音响跟喇叭是一类东西。 "
    },
    "Article": "（原标题：车上争吵被劝泄愤报复砸车）与同车乘客发生争吵受到司机劝阻，为泄愤报复，竟然打砸车辆。经湖南省汉寿县检察院提起公诉，近日，法院以寻衅滋事罪判处被告人彭维明拘役四个月，缓刑六个月。2015年11月26日，彭维明搭乘司机张某所驾轿车回家。途中，彭维明要求张某将车上音响声音调大一点，一旁的女乘客李某认为声音太大，影响到自己休息，与彭维明发生争吵。张某为了息事宁人，随即将声音调小。彭维明再次要求调大音响音量，张某以照顾李某为由予以拒绝。彭维明认为张某偏袒李某，心中不满，随后打电话邀集饶某（另案处理）等人砸车。当车经过彭维明家附近时，被饶某等人拦下，彭维明随后从饶某手中拿过钢管猛砸张某的轿车。经鉴定，张某的车辆损失价值4460元。2017年4月1日，彭维明主动向公安机关投案自首，并赔偿被害人损失4000元，取得其谅解。本文来源：正义网-检察日报责任编辑：范姜国一_NN9138",
    "Source": "Netease",
    "Title": "乘客嫌音响声音小与同车人争吵 被司机劝后怒砸车_网易新闻",
    "KeyWords": "乘客,轿车,砸车",
    "URL": "http://news.163.com/18/0101/21/D73JA3S20001875P.html"
}