{
    "Source": "Netease",
    "KeyWords": "武装分子,伊拉克,伊斯兰国,政府军",
    "Title": "伊拉克警方人员遭IS武装分子袭击 5人丧生_网易新闻",
    "PublishTime": "12/25/201705:12:09",
    "URL": "http://news.163.com/17/1225/05/D6FQ95NA0001875O.html",
    "Article": "（原标题：伊拉克警方人员遭“伊斯兰国”袭击5人丧生）新华社巴格达12月24日电伊拉克警方24日说，伊警方人员当天在北部基尔库克省遭极端组织“伊斯兰国”武装分子袭击，5人丧生。基尔库克省警方人士告诉新华社记者，“伊斯兰国”武装分子在该省西南部连接里亚德镇和哈维杰镇的公路上设置了一个假检查点，法德勒·萨巴维上校等5名伊警方人员乘车途经该地时，被武装分子开枪射杀。警方人士说，伊拉克安全部队随后对逃离的武装分子展开搜捕。24日早些时候，“伊斯兰国”武装分子在伊北部萨拉赫丁省制造一起袭击事件，造成4名民兵死亡、6名民兵受伤。伊拉克总理阿巴迪12月9日宣布，政府军已收复“伊斯兰国”在伊控制的所有领土，伊拉克取得打击“伊斯兰国”的历史性胜利。但是，目前仍有部分极端分子藏身于伊境内部分地区，伺机发动袭击。本文来源：新华网作者：程帅朋魏玉栋责任编辑：李天奕_NN7528",
    "Comment": {
        "Content": "都是米国害的 ：我要宣布一件事情，大家还记得2011年的抢盐的事情吗？我家里的盐在今天，就是今天，终于吃完了，吃完了呀！我的个亲娘啊！终于给吃完了。​​​ 那些蒙面人是地狱使者 今不如昔，伊拉克被美帝害惨了。 傻逼 今不如昔，伊拉克被美帝害惨了。 向往和平，都是人何必难为人。 今不如昔 ：我要宣布一件事情，大家还记得2011年的抢盐的事情吗？我家里的盐在今天，就是今天，终于吃完了，吃完了呀！我的个亲娘啊！终于给吃完了。​​​ 化整为零，和基地组织一样，放弃建国走恐怖袭击的老路 都是米国害的 那些蒙面人是地狱使者 论49年后收缴民间枪支并禁枪的正确性与必要性，哈哈哈。 消灭恐怖分子 不是说IS已经被消灭了么 堪比电影情节 哈哈！<br>美国武器又有销路了！ 宛如地狱 傻逼 ",
        "Reply": 14,
        "Link": "http://comment.news.163.com/news_guoji2_bbs/D6FQ95NA0001875O.html",
        "Total": 79
    }
}