{
    "Source": "Netease",
    "PublishTime": "12/26/201714:03:04",
    "KeyWords": "传销,培训师,职场,法律",
    "Title": "为啥被忽悠?曝企业搞\"培训\"要学员回到3岁喊妈妈_网易新闻",
    "Comment": {
        "Link": "http://comment.news.163.com/news_shehui7_bbs/D6JB20KV0001875P.html",
        "Total": 633,
        "Content": "那个讲解的，咱们开个房，我叫你一天妈，还让你爽 传销式的精神洗脑 忘记一切，从头开始，你会发现另一个自己，你会达到前所未有的境界。电影里的武林高手也是这样子的，想练成秘决，要么自宫，要么自废武功，只有净空的心灵和身体，抛弃一切杂念，才能接受新的挑战并超越自己👸 妈妈，我要吃奶 这个培训会那个联谊会其实就是各个“X总”坐在一起吹牛逼 回到三岁不是可以光明正大的进女厕所了吗？ 和这种女人约炮那就是强奸幼女 我已经上了二阶了，三阶还没走 奴性加固。 还有这几年流行的教练技术传销，天价培训费，去了天天以传销的方式灌输思想，传销的方式拉人入会，国家也不管管 听说【教练】传销非常厉害。 不把你脑子忽悠进水怎么能往下骗钱？ 国外早就淘汰的那一套糟粕，居然还在用，真是不能理解！ 大部分成功学员工培训基本都是奴性洗脑。让你忘记劳累忘记现实忘记微薄的工资死命为业绩。比如保险行业、洗剪吹行业、美容行业，保健品行业 唉，哪里来这么多傻逼呀 草民粥粥叹奈何，庙堂营营怎除疴。<br>蒋干妙计仙境似，史迁笔下幸福多！ nlp这些全都是忽悠人的，以所谓的各种鸡汤、人格、正能量等洗你的脑子。我国华夏五千年文明，没有什么nlp、教练技术之类的，也照样诞生了那么多杰出人才 你赶紧为了挣钱自宫，你媳妇我帮你照顾了 莫怪洗脑集团作恶多端，只怪自己财迷心窍 又是NLP 传销式的精神洗脑 怎么不回到娘胎去？ 妈妈，我要吃奶 和这种女人约炮那就是强奸幼女 最后三阶是感召，基于目标，突破自己 个人的体会，教练技术还是好的，反正对我自己有很大的帮助 值得深思，为什么这么多人容易受骗，是挖掘了人性的恶还是哲学的空？ 奴性加固。 没出息、臭不垃圾的、当然是去女澡堂 洗脑讲师这个有拍摄过一部日剧无名毒的第二部彼得的葬礼由小泉纯一郎的大儿子主演 现在脑残的人这么多？ 还有这几年流行的教练技术传销，天价培训费，去了天天以传销的方式灌输思想，传销的方式拉人入会，国家也不管管 你自己愿意去的，谁能管，要是管了，肯定后面一群人闹事 唉，哪里来这么多傻逼呀 草民粥粥叹奈何，庙堂营营怎除疴。<br>蒋干妙计仙境似，史迁笔下幸福多！ 不嫌臭啊，我去女澡堂。 忘记一切，从头开始，你会发现另一个自己，你会达到前所未有的境界。电影里的武林高手也是这样子的，想练成秘决，要么自宫，要么自废武功，只有净空的心灵和身体，抛弃一切杂念，才能接受新的挑战并超越自己👸 你赶紧为了挣钱自宫，你媳妇我帮你照顾了 现在的培训市场也不知道是哪里弄出来的，为什么会有傻逼企业花钱搞这种傻逼培训。 对各类形形色色的骗子，得用83年的好办法进行坚决铲除！ 听说【教练】传销非常厉害。 有什么帮助？说来听听，这个我爱听！ 我喊鸡婆 做培训现在最大的收获:顺着流走........风景真好,早安,亲爱的们! 要求喝奶 回到三岁不是可以光明正大的进女厕所了吗？ 三岁的时候我经常摸女的身体 不把你脑子忽悠进水怎么能往下骗钱？ 🐶屁耶[挨揍][挨揍][挨揍] 我已经上了二阶了，三阶还没走 国外早就淘汰的那一套糟粕，居然还在用，真是不能理解！ 呵呵呵 这都他妈的啥培训， 路遇一毛虫，<br>跪地拜称龙。<br>如此瞎胡搞，<br>何能有成功？ 爱妃，朕交代你的事又忘了？别说话～ 大部分成功学员工培训基本都是奴性洗脑。让你忘记劳累忘记现实忘记微薄的工资死命为业绩。比如保险行业、洗剪吹行业、美容行业，保健品行业 这个培训会那个联谊会其实就是各个“X总”坐在一起吹牛逼 那个讲解的，咱们开个房，我叫你一天妈，还让你爽 nlp这些全都是忽悠人的，以所谓的各种鸡汤、人格、正能量等洗你的脑子。我国华夏五千年文明，没有什么nlp、教练技术之类的，也照样诞生了那么多杰出人才 还可以进女浴室 又是NLP 莫怪洗脑集团作恶多端，只怪自己财迷心窍 企业就是传销组织。 ",
        "Reply": 43
    },
    "Article": "（原标题：荒唐的“企业魂”培训，他们为啥被忽悠？|内参快评）据湖南经视节目“经视大调查”曝光，最近有长沙市民称，在星沙吉美国际会展酒店里，有个名为“企业魂”的“精神培训”。所谓“精神培训”，具体事务却是“学员每天在培训导师引领下，做出非常荒唐的行为”。甚至学员为了获得所谓“能量”，还会“自称三岁娃娃、鬼哭狼嚎大喊妈妈和疯狂跳舞”。看到这样的描述，您是不是觉得有点诡异？更诡异和荒唐的事还有：按照某些培训师的说法，“人生不如意的漩涡会屠宰你，因此，你要跟她上道，而上道前的准备工作要求，现场所有的学员要把自己变回3岁孩子的状态，要放下、要敞开”。稍有理智的人，都不会相信这番鬼话。警方介入调查后，“企业魂”长沙团队运营活动被责令立即停止。要命的是，这个培训班涉嫌传销。有学员表示，自己“一共花掉了将近40万元，但参加完课程之后却发现，这个培训所说的能创造财富的方式竟然和传销如出一辙”。传销之所以能有“洗脑”功效，就在于按照它的套路，能让人丧失理智乃至伦理道德。其一，传销组织很擅长编织一套“理想的话语”，告诉学员按照他们的方法，可以赚大钱、实现人生逆袭，等等。其二，所谓“合作”和“共赢”，也是传销手段的典型特征，让人误以为进入了“兄弟姐妹般的温暖”，可以从他人的“鼓励”下获得人生能量。其三，传销组织多有“有钱大家一起赚”一类的调调，看似是一种商业模式，其实就是协助组织者盈利的忽悠技法。值得注意的是，落入这类圈套的人，其实也不见得就没知识文化。有些人遭遇了人生意外，比如情感背叛、事业失败、病痛折磨等，就开始“怀疑人生”，质疑既有的一切观念和规则。而在他们精神迷惘、内心空虚的时候，这类培训班宣扬的那套理论就会俘获他们的心灵。与其说这是一种心灵慰藉，不如说是精神麻醉。就像“经视大调查”曝光的这个培训班，学员们被要求“以不睁眼又不闭眼的表情大声呼喊”，正与上述洗脑套路吻合。而且，这些洗脑套路很少让学员单独“学习”，而一定要安排他们在一个共同的空间里、与其他学员一起“学习”。心理学上认为，“心理共振效应”借助人们的从众心理，让个别人的观念渗透到他人心中，以至于让群体产生了共同的感觉，甚至诡异的幻觉。按照培训班的套路，个体无法独立思考，必须按照“导师”的要求来做，这就让人很难去反思和挣脱错误的诱导。对于传销组织的行为，自有法律的惩处。笔者最关切、也最揪心的，还是那些被忽悠的学员们。其实，增强自己的辨别能力、提高文化水平，就可以防止被培训班的“导师”们忽悠。而且，人们对所谓的“财富神话”“成功秘诀”要保持警惕，毕竟，天下没有免费的午餐，要想获得成功，走捷径的念头是不可取的。本文来源：中国青年报责任编辑：韩佳鹏_NN9841",
    "URL": "http://news.163.com/17/1226/14/D6JB20KV0001875P.html"
}