{
    "Comment": {
        "Content": "现在英超流行闯更衣室? 教授一定是忘了迪恩是热刺球迷？ 英足总也是傻B，明知道麦克迪恩是热刺球迷，还经常派他来执法枪手的比赛，这是以前戴恩当主席的时候能安排的事情吗？ 因为曼联有英足总这个亲爹，所以母鸟也沾了光 哈哈哈哈哈哈哈哈哈哈哈哈哈哈这次我是真服英足总了 穆鸟怎么没罚 监控坏了啊 鸟去的是客队更衣室… 你这一提醒啊，冲击客队更衣室没事，下次木鸟没准就端着冲锋枪去了。 没想到教授居然会干这么出格的事 教授一定是忘了迪恩是热刺球迷？ 英足总也是傻B，明知道麦克迪恩是热刺球迷，还经常派他来执法枪手的比赛，这是以前戴恩当主席的时候能安排的事情吗？ 处罚不过分 四爷停赛，枪手有救了 应该演技加上 鸟去的是客队更衣室… 你这一提醒啊，冲击客队更衣室没事，下次木鸟没准就端着冲锋枪去了。 指控属实，停赛三场，修拉链去吧 没想到教授居然会干这么出格的事 现在英超流行闯更衣室? 一张莫须有的红牌,英足总也真是可以的. 哈哈哈哈哈哈哈哈哈哈哈哈哈哈这次我是真服英足总了 穆鸟怎么没罚 监控坏了啊 因为曼联有英足总这个亲爹，所以母鸟也沾了光 点球没问题，虽然球运行路线，即使不用手，身体也正还挡住，但是毕竟防守队员向球的方向伸手……只能说笨~~~~~~ 你个傻逼本命年挺乐呵啊，进客队更衣室跟裁判更衣室是一个性质吗？ ",
        "Link": "http://comment.sports.163.com/sports2_bbs/D77AHHNM00058781.html",
        "Reply": 17,
        "Total": 120
    },
    "KeyWords": "温格,英超,阿森纳,西布朗",
    "PublishTime": "01/03/201808:18:53",
    "Title": "温格疑闯主裁更衣室遭英足总指控 或难逃停赛处罚_网易体育",
    "Source": "Netease",
    "Article": "北京时间1月2日晚，英足总官方宣布，针对上轮对阵西布朗赛后的“不当行为”，纪律委员会对阿森纳主教练温格提起指控。当地时间31日晚，英超第20轮阿森纳做客西布朗的比赛中，当值主裁判迈克-迪恩在最后时刻判罚给了西布朗一个争议点球。阿森纳全队上下对这粒点球反应强烈，主教练温格也参与到了对迪恩质疑的队伍中。英足总在官方声明中表示：“温格因赛后的在比赛官员更衣室的语言及/或行为被指控，他在赛后滥用及/或不适当评论及/或对裁判员的公正性提出质疑。”《每日镜报》等英媒解读称，这份公告表明，温格在遭受误判后可能有闯进裁判更衣室理论的行为，被迪恩写到了裁判报告中。而这也成为了他受到指控的关键。温格在赛后新闻发布会上公开发表了质疑：“多年以前，我和大卫-迪恩着力推动了这些裁判的职业化，给了这些人职业化的身份，但这么多年来，他们毫无进步。目前只有英格兰和意大利有职业裁判，但是没有一个英格兰裁判能去世界杯。”如果指控成立，温格或将面临时长不定的禁赛处罚。本文来源：肆客足球App责任编辑：马鑫_NS4811",
    "URL": "http://sports.163.com/18/0103/08/D77AHHNM00058781.html"
}