{
    "Title": "瑞典外交大臣声援台湾参与WHO 中方:反对说三道四_网易新闻",
    "URL": "http://news.163.com/17/1225/19/D6HAOACH0001899N.html",
    "Source": "Netease",
    "Comment": {
        "Total": 208,
        "Reply": 5,
        "Content": "垃圾瑞士 不要以为你是中立国家就不敢打你 刷存在感呢 支持一个中国 瑞典真是好了伤疤忘了疼。 垃圾瑞士 不要以为你是中立国家就不敢打你 刷存在感呢 支持一个中国 瑞典真是好了伤疤忘了疼。 ",
        "Link": "http://comment.news.163.com/news2_bbs/D6HAOACH0001899N.html"
    },
    "Article": "（原标题：2017年12月25日外交部发言人华春莹主持例行记者会）问：据台湾媒体报道，瑞典外交大臣日前在接受议会议员质询时表示，对协助台湾有意义且不以国家身份参与各项国际组织的做法持支持立场，并愿意继续支持台湾参与飞行安全等领域专家会议。关于台参与世界卫生组织问题，瑞外交大臣表示，对台湾期待成为世界卫生组织观察员的诉求持正面态度，但此议题仍需获世卫组织内部共识，目前来看，共识似乎并未出现。中方对此有何评论？答：我刚才在回答台湾“中央社”记者提问时，已经表明了中方在此类问题上的立场。在中国台湾地区参加国际组织活动问题上，中方的态度是一贯和明确的，即必须按照一个中国原则来处理。台湾问题是中国内政，中方坚决反对其他国家在此问题上说三道四。本文来源：外交部网站责任编辑：徐萌_NN7485",
    "PublishTime": "12/25/201719:19:17",
    "KeyWords": "台湾,瑞典,中国,世界卫生组织"
}