{
    "PublishTime": "12/27/201722:54:02",
    "Source": "Netease",
    "Comment": {
        "Link": "http://comment.news.163.com/news2_bbs/D6MRQUHJ0001899N.html",
        "Total": 9300,
        "Reply": 408,
        "Content": "打发乞丐吗？才三十万？ 通报上说没人看到拉象尾啊，不过你只会相信你愿意相信的而已。 交涉什么？？？ 刚从泰国回来，发现中国人素质确实低。看一场LADYBOY秀，明明VIP是对号入座，有个女的在秀都要开始前，觉得自己的位子不好，便带着两个孩子私自乱坐别人的座位。秀开始后，后来别人来了，他们还不愿意让座。当时觉得同为中国人，真的丢脸。没有规矩。 事不过三，你当你是不倒翁 说真的，象园老板人挺好的，起码没有推卸责任。 泰方态度还可以吧，能主动承担责任，不像某国，出事了首先推卸责任 已经辟谣，没人拽尾巴，园方后来又有人说有人拍照打闪光灯也被当场游客否认。个人倾向园方推卸责任。一般闪光都是自动的，天气好的情况下并不会出现闪光。 骗子，我去年就赞了你，结果跟女友分手，想买彩票在碰碰运气，每期都买到现在五块都没中过。心灰意冷来网易散散心，结果又碰到你在这里骗赞！ 朋友！骂人之前先审视一下自己，否则出丑的是自己，前几天报道了，两个二货跑进去跟大象合影还拉大象尾巴，被大象追，这个导游是见义勇为被踩死的！ 真不明白大象有什么可骑的，就看看不就行了吗？ 处以5 就不告诉你！ 易友们，苍白那只可怜的大象吧！它冤枉啊 拿中国护照的人类在国外出事，该找当地中国大使馆。 跟国内动不动一两百万相比，只赔30万RBM，足以说明园方是无过错人道赔偿。人家可不吃你死哪讹哪这一套。 大象🐘🐘发疯了？还是游客作死了？导游最倒霉了 凭借感觉我宁肯相信泰国象园无过错，中国旅行团简直就是旅行界毒瘤，不要赖别人造谣 那个两个中国游客抓大象尾巴怎么解决呢？不如就地枪决 大象发情了哎 国内这里马戏团还可以骑老虎，拍张照20，一般都是大人带着小孩照。看着都发毛 一定要有危险意识，安全第一。 被救的游客应该补偿 哎，一条人命，变成了一串数字！ 赔给家属有什么用？人都死了即使赔一亿也是徒然！ 好人不长久、坏蛋活千年！ 坑到外国了 不知道该说点啥了，好人小何，一路走好吧🙏️🙏️🙏️ 这老板够倒霉的，那俩拽尾巴的呢？ 大象本不该受折磨 不如国内赔的多！ 可怜的大象发配到木材厂劳动改造了🐘 150万，这个价格已经很公道了 泰国收入不比中国低吧？这个赔偿金额太少了，在中国怎么也得赔100万以上。 最可怜的是大象，一个本能的反应，带来一辈子的折磨和受苦。 八达岭野生动物园那个可是索赔2百多万噢！ 已经证实大象没疯了。那两个华人白痴游客不仅仅害死了导游，还快害死这只大象了！ 一象二狮三虎四豹[惊讶] 5万美金 十年前的12月，一个人赞了我，他娶了年轻貌美的女朋友。去年的12月，另一个人赞了我，他中了500万。今年的12月，赞了我的人都娶了年轻貌美的姑娘结婚那天中了500万。别说我不够意思，话已经放这里 这个要让外交部去交涉！ 有点少了吧 150w泰铢？多少人民币？ 二货，你看到他们拉象尾巴？往国人脸上摸黑就是你这种垃圾。 当场的游客否定？什么游客？是一个团的？还是那两个人自己？如果是一个团的我不相信他们的话 老虎比大象安全多了真的 八达岭的老虎还没说什么就被击毙了 那你看看今天的报道呀。大象受惊了，因为有中国游客不守规矩拍照片 别人不是不解决问题，法治社会该怎么赔就怎么赔找大使馆做什么 那次动车事故开始也不过三四十万，后来才提到91.5万？知道为什么提高吗？因为里面有个意大利人，凑了个10万欧元，转换成人民币就刚好91.5万。我早就说了，中华民族，劣等，不怪别人瞧不起。 摸大象的哪个游客叫什么名字？老朽只想知道这孩子是谁？如果是未成年人就不要说了。 泰国枪支管理很严格？ 赔给家属有什么用？人都死了即使赔一亿也是徒然！ 主动和野生动物亲密接触出事的，不管怎样自己都要付大部分责任，说不好听的就是活该，你隔着玻璃栅栏看看不就行了，没事你非要去骑人家老虎大象，人家都是兽中之王，你出事了也是死有余辜，自找的。 那几个人是我们本地人，当地媒体采访，已经辟谣了根本没扯尾巴，是象园的安保不到位造成的，如果只是意外象园老板可能会判刑？国人素质是相对较低，不过不分青红皂白的乱喷的人也是恶心 没有用？没有用他们嫌少干嘛？至少后续钱要到手，这是中国人的特性 二楼，道理我们都懂，游客拉了大象尾巴只是犯错，罪也不足于被踩死，但TM大象不知道这个道理呀！ 以往中国客人赔偿标准的两倍？中国人命在泰国就值十几万？欧美人标准是多少？ 9楼说的一点没错，出国越多感受越深。 就算出国的全是傻逼也不可能每时每刻都在搞事情。我出国算很多了，见到国人素质低脑残的不少，但不可能是全部，大多时候也是很正常的。没有依据就自动喷国人似乎是显示优越感的好办法。 事件起因到底是不是因为有游客拉大象尾巴？！ 象园有标识，提醒游客不要随意触碰大象，不要照相，因为闪光灯可能会刺激大象。入园导游一般都会对游客进行口头教育，保安也会提醒。“但总有中国游客不听。” 第一,很少看腾讯,所以没看到你说的这条腾讯新闻.第二,有扯尾巴的新闻,但不是在腾讯上看到的,但很快有人否认,现在也没有证据证明有人扯了象尾巴,当然你也可以说没有证据证明游客没扯.第三,腾讯什么时候成了组织的舌头? 2楼得逻辑挺奇葩的，这个说法，游客跳进老虎笼子里也只是犯错而已.老虎抹抹嘴说:怪我咯 拉圾出境，连大象都讨厌！ 说这话的都是养狗养傻逼了的吧 我家狗不咬人，不用拴 你去过吗，你以为是动物园啊，进去就是骑大象，拍照的， 但总有中国游客不听 将大象送去做苦力，，太不人道了！ 2楼哪里胡搅蛮缠了，你倒是说说 可怜的何止是大象，现在的人的本能反应都要控制。 大象表示不服 没大象骑还不去呢，愿者上钓吧。 就算拉了，象园也有控制发怒大象的措施和责任。游客和大象是能接触的，游客拉了大象尾巴只是犯错，罪也不足于被踩死，况且被踩死的是没拉大象的人。追究拉大象尾巴的游客很难，没有立法，他们也回国了，认倒霉吧。 错！！！ 上次在普吉岛幻多奇看演出，进场前手机、相机全部不能带进去，当时还以为是怕有人录像，原来是怕吓到大象 动物是无辜的，人类太贪婪了 现在的国人被利益至上彻底洗脑，忠孝仁义何在？给易友们提个醒：如果家里不缺钱，首先提出的条件就是在泰国提供土葬的墓地，以及后人们可以每个节日祭拜的承诺，当然是否免费都不是首要！回国就会烧成灰，这是亲人真正能为死者尽的心与力！ 大象表示不服 这老板够倒霉的，那俩拽尾巴的呢？ 说真的，象园老板人挺好的，起码没有推卸责任。 国人不论去哪儿，都应文明跟上！愿导游家人未来安康 涉事象园赔偿150万泰铢 为什么大象遇到那几个游客时就突然产生攻击行为了？ 中国就是有太多二楼这样的胡搅蛮缠的了，唉，这就是秀才遇上兵有理说不清，宁跟明白人打架不跟糊涂人说话了。 还想赚中国人的钱，否则下次没人来，得破产 泰国有的大象都是用铁链锁住，大象动都动不了，也不喂，就等游客买香蕉喂，所以大象一看有客人过，立马就不停的点头，看的真是心酸 去云南我骑过老虎🐅现在想来后怕的很！ 腾讯新闻都说是拽尾巴，腾讯新闻知道吧？组织的舌头。 我明白你的意思，你爸爸有胡子，你父亲没胡子！ 不是国内，没有人让你为所欲为 老板相当有担当，人品不错，希望好人一生平安吧！ 最可怜的是大象，一个本能的反应，带来一辈子的折磨和受苦。 罪不至死的多了。。、 小黄车那一起案子索赔八百多万，无耻的中国人啊 那两个拽尾巴的就没事了 吃瓜看戏吧，不明真相不做评论。 八达岭野生动物园那个可是索赔2百多万噢！ 才30万，还不够个首付的 以前去泰国旅游还不理解为毛工作人员不让拍照现在总算是明白了 大家还是少去参与这种骑大象的游玩了，包括大象的表演，不只是安全问题，大家在为人服务、表演前的训练太残忍了.... 没赔泰国大米给你就不错了 逝者安好 二货，你看到他们拉象尾巴？往国人脸上摸黑就是你这种垃圾。 你去骑过大象就知道了，还有就是你爸爸有胡子，并不有胡子就是你爸爸。 按你说怎样才合适呢？不赔又说咋的，赔了又说咋的，就你这种人最难伺候，整天一副假仁义善良，其实说白了就是自己也没什么好的办法，但就是挑别人毛病。 比八达岭老虎的事要好多了起码承认责任 我表姐家儿子去美国旅游还试图去摸马屁股，被老外制止了。我表姐还称赞她儿子。 被救的两名游客各赔150万RMB 打发乞丐吗？才三十万？ 按照GDP计算，国内还不到这个钱 人家那里都是依法依规，超过法规根本不行。不像某国宪法都是擦屁股纸 天下所有保险一个样，买的时候，你是爷，陪的时候，公司是爷！ 人的气味、衣着对动物的刺激：<br>请科学家们研究一下：某些游客自身的气味、某些化妆品等的气味或衣着颜色、花色是否会惹怒大象（包括其它动物）？以避免或减少类似事件发生。 刚从泰国回来，发现中国人素质确实低。看一场LADYBOY秀，明明VIP是对号入座，有个女的在秀都要开始前，觉得自己的位子不好，便带着两个孩子私自乱坐别人的座位。秀开始后，后来别人来了，他们还不愿意让座。当时觉得同为中国人，真的丢脸。没有规矩。 30万能干嘛？一年开支都不够一家用的吧 说真的，象园老板人挺好的，起码没有推卸责任。 能倒是能，但是我也觉得这事情很不靠谱。去拉尾巴的话，头部会无限靠近大象的菊花。。。。 看清文章再说，没文化，真可怕 就是救治不机时造成死亡！！！赔偿太少了！！！ 泰国收入不比中国低吧？这个赔偿金额太少了，在中国怎么也得赔100万以上。 真不明白大象有什么可骑的，就看看不就行了吗？ 就像刚度一样。 人巳死了，说什么也没有用。钱赔多赔少，对逝者只是个数字而已。事件发生后，给人们留下的是教训。 国外的老板和保险公司都积极赔偿了，接下来就看国内旅游公司和保险公司了~ 国人吃大象肉也没什么奇怪的骑个大象有什么不明白的，象园老板好人 大象将终生受到灵魂的谴责 小何是为救别人而牺牲的，人品非常高尚。要弘扬这种精神。见义勇为基金会应该出来走两步。不要装聋作哑。 老虎🐯咬的两百万<br>大象🐘踩的三十万？ 那你应该怪人类太残忍把野生的动物圈养 大象也可怜，中国旅行社应该集体拒绝骑大象项目。 我也凭感觉9楼就是个SB 为什么去泰国那边溺水的，被大像踩死的，把火葬场当寺庙在前面合影的都是大陆人？ 为什么老虎咬死一个赔200万，大象踩死一个才赔30万？大象心理mmb 在外国可没有在国内任性啊。 很多啦 以前看过一个训象的血腥视频，从那时起就很反感这些骑象的节目。<br>可惜了这个小伙子。 知道一个成年大象有多高吗，你想靠近大象拉他的尾巴，你能碰到吗？ 凭你这种思想，我简直不敢想象你生活有多么阴暗 30万人民币，你认为挺合理？ 妈的，你连二货都不是 这老板够倒霉的，那俩拽尾巴的呢？ 那个顶多给点人道主义的赔偿。<br>自己作死结果害死亲妈，向别人索赔，逻辑都不合理。 。。 30万人民币 天下所有保险一个样，买的时候，你是爷，陪的时候，公司是爷！ 30万人民币。 150万，这个价格已经很公道了 人的气味、衣着对动物的刺激：<br>请科学家们研究一下：某些游客自身的气味、某些化妆品等的气味或衣着颜色、花色是否会惹怒大象（包括其它动物）？以避免或减少类似事件发生。 你想赔多少？一般旅游团都有意外险的，国内保险也会赔。<br>而且赔偿是根据各地的人均水平去衡量的，不是你想多少就多少。 最可怜的是大象，一个本能的反应，带来一辈子的折磨和受苦。 玩归玩，千万不要去与挑战动物的野性！ 扯尾巴的人赔多少万 八达岭野生动物园那个可是索赔2百多万噢！ 很多啦！ 就没人骂骂那两个惹事的游客吗？ 纯粹是穷，命不值钱。 你要找找起因，如果不是那个无畏的人冒犯大象，事情根本就不会发生。 千防万防也防不住没有底线的中国人，真为他们臊的慌，丟尽了中国人民的脸。 无法无天的地方，赔多少看能力、本事，人家是依法 二货，你看到他们拉象尾巴？往国人脸上摸黑就是你这种垃圾。 我也凭感觉9楼全家都是大SB 泰铢能在国内花？ 泰国人民大多都很和善，毕竟是信佛之人。 我就摸过大象鼻子，没敢骑 那次动车事故开始也不过三四十万，后来才提到91.5万？知道为什么提高吗？因为里面有个意大利人，凑了个10万欧元，转换成人民币就刚好91.5万。我早就说了，中华民族，劣等，不怪别人瞧不起。 凭借感觉我宁肯相信泰国象园无过错，中国旅行团简直就是旅行界毒瘤，不要赖别人造谣 人家那是钱，我们这是券。 按这样算来，动物园被老虎咬死的应该倒赔动物园才对！ 导游是好人，赔了，拉圾游客太拉圾，不需要赔，就这样! 中国游客呢？他们赔偿死者么 都已经翻倍赔了。 如果真的是有人先拉了象尾巴，才导致的这个结果，那我觉得泰国象园真倒霉。一分钱都不应该赔偿，因为没做错啊，凭什么要承担？那俩拽尾巴的活该死，导游多余救人，那一个愿意送死，一个愿意救傻逼，关我象园什么事？就像当年咱们的八达岭公园一样 也有可能狼狈为奸 你煞笔吧都隔开了为什么告诉你别做的事你非要去做死了才他吗活该可怜领队了被害死了 就服你 赔给家属有什么用？人都死了即使赔一亿也是徒然！ 坑到外国了 说真的，象园老板人挺好的，起码没有推卸责任。 大象表示很冤枉！ 自己作死，怪得了谁？ 骗子，我去年就赞了你，结果跟女友分手，想买彩票在碰碰运气，每期都买到现在五块都没中过。心灰意冷来网易散散心，结果又碰到你在这里骗赞！ 拽大象尾巴的事情，是象夫为了推卸责任乱编的，泰国警方都没有确认此事，不知道你这种为什么抓住这个尾巴不放。 被救游客家属需要承担赔偿责任吗？ 二货，你看到他们拉象尾巴？往国人脸上摸黑就是你这种垃圾。 就是救治不机时造成死亡！！！赔偿太少了！！！ 对不起了，回复错楼层了 游客呢？游客怎么了？为什么要救援游客？ 都是作死的 事情都要结了，完整监控都没放出来。 没什么奇怪的国人旅游都这样 赔三十万元。一条人命连一只狗都不如，也不如一个中层一年的工资，宁可不要 你看见了？ 兄弟不骑怎么照相不照相怎么证明出去旅游了 我在动物园骑过一次，还没骑牛的感觉好 真不明白大象有什么可骑的，就看看不就行了吗？ 怎么叫作死呢？人家去旅游看个大象不很正常么？哪天您出去爬山摔着了是不是也是作死啊？ 应该贱女人赔老虎2百多万 八达岭野生动物园那个可是索赔2百多万噢！ 哎，一条人命，变成了一串数字！ 居然玩死了...... 明显冲着虎鞭去的。 大象表示很冤枉！ 打发乞丐吗？才三十万？ 楼上拉的人家尾巴啊？ 这老板够倒霉的，那俩拽尾巴的呢？ 每个国家的经济发达程度不同，在美国可能能赔出个天价，在印度可能就白死了。 中国游客为啥要赔死者 啥叫坑到国外去了，亡者又不是故意激怒大象的，说话有点难听了吧。 那二个拉尾巴的傻逼呢，应该让他们赔。 原来是凭感觉啊，以为你凭新闻报道呢，可惜你的感觉也是新闻报道出来的，你选择性相信了而已 150万，这个价格已经很公道了 居然玩死了...... 这种大象是怎么生产出来的 泰铢…… 诚信经营，不会没生意做的。 那种低素质的大煞笔就不要出去丢人了这下还把人领队给害死了咋没把你俩踩死呢两个大煞笔 已经证实大象没疯了。那两个华人白痴游客不仅仅害死了导游，还快害死这只大象了！ 大象表示很冤枉！ 带国人旅行团真是危险职业 十年前的12月，一个人赞了我，他娶了年轻貌美的女朋友。去年的12月，另一个人赞了我，他中了500万。今年的12月，赞了我的人都娶了年轻貌美的姑娘结婚那天中了500万。别说我不够意思，话已经放这里 这算不算冤家路窄？ 谁证实的 没办法啊，因为中国潜在游客基数实在是太庞大啊，只能打落牙齿往肚子里吞。 先是🐯，后是🐘，猜猜下一只被坑的动物是什么？ 泰国人好，但大象园的人例外，我去东芭乐园就觉得骑大象太过残忍，大象妈妈带着小象太阳底下一圈圈的走。这种项目应该早日取缔 大象🐘🐘发疯了？还是游客作死了？导游最倒霉了 这是意外事故。 去拉人家尾巴，活该被大象踩死😄😄 凭借感觉我宁肯相信泰国象园无过错，中国旅行团简直就是旅行界毒瘤，不要赖别人造谣 还是2楼善解人意，哈哈哈哈哈哈 只看到你一个 所以说，别去穷乡僻壤的地方旅游 尼玛13尼玛13尼玛13尼玛13尼玛13尼玛13尼玛13尼玛13尼玛13尼玛13尼玛13尼玛13尼玛13尼玛13尼玛13尼玛13尼玛13尼玛13 狗日的正在找旅行社索赔 这种事一有领头的，后来便顺理成章的讹钱了 一楼被你逮住了就做你女朋友… 事不过三，你当你是不倒翁 骗子一律乱棍打死。 无讹不作 一开始不说40万RMB吗 自私自利，不守规矩，肆无忌惮，中国人典型特点，还是留在国内吧 骗子，我去年就赞了你，结果跟女友分手，想买彩票在碰碰运气，每期都买到现在五块都没中过。心灰意冷来网易散散心，结果又碰到你在这里骗赞！ 其实我认为动物园给的赔偿已经相对积极和迅速 40万交流之后变成30万了 讹向亚洲。讹向世界。 老板和大象倒了霉 哪两个狗日的没有表示吗？ 如果我没记错，这赔偿额度算泰国天价了。 你这样是不对滴[狗] 尼玛13 不守规矩也会连累无辜！ 到现在不知道事实真相是怎么回事 根本就没人拽尾巴，出事了就往国人身上抹黑，竟然都信！ 不是说了吗，有了拽大象，大象怒了，他们都跑了，导游不知道啥情况，站着没跑，大象去踩他了 老虎蹲，老虎蹲，老虎蹲完，大象蹲。大象蹲，大象蹲，大象蹲完。。。。。 英雄是为了救人才献身的，一路走好，小伙子。 这象园老板还是通情达理的人 究竟有没有扯尾巴？ 俩蠢货就不受制裁吗？ 生命可贵 坑到外国了 这老板够倒霉的，那俩拽尾巴的呢？ 团友没买保险就自求多福吧！买了保险就自己跟保险公司斗智斗勇吧！ 啥叫坑到国外去了，亡者又不是故意激怒大象的，说话有点难听了吧。 根本没人拽尾巴 30万RMB[狗] 。。。。。 没有扯尾巴，只扯了大腿，差点扯着蛋了。 如果是150万人民币？ 八达岭野生动物园那个可是索赔2百多万噢！ 水土不服就服你 “但总有中国游客不听。” 十年前的12月，一个人赞了我，他娶了年轻貌美的女朋友。去年的12月，另一个人赞了我，他中了500万。今年的12月，赞了我的人都娶了年轻貌美的姑娘结婚那天中了500万。别说我不够意思，话已经放这里 “象园有标识，提醒游客不要随意触碰大象，不要照相，因为闪光灯可能会刺激大象。入园导游一般都会对游客进行口头教育，保安也会提醒”。按照国内某些人的说法，象园已尽到了提醒义务了，根本没必要赔偿，游客死了园方无责。再看人家象园的救助措施多么具体（给象夫配一个铁钩，有一套专门控制大象的钩法，比如往下拉向右转）。不像某些动物园，一旦发生险情就是按喇叭，喊叫几声，动物若被吓跑算你运气，如果动物没被吓跑，游客就只有自求多福了。救助措施越具体，责任就越容易分清，无需扯皮。 二货，你看到他们拉象尾巴？往国人脸上摸黑就是你这种垃圾。 当场的游客否定？什么游客？是一个团的？还是那两个人自己？如果是一个团的我不相信他们的话 流星月亮地球太阳系有发动机么？没有!他们却高速在宇宙中运行!为什么？因为他们的运行轨道本身就是太空高速时空隧道!他们的运行路线一半为去路一半为来路，周而复始地运行着!地球自转公转着，本就没有东西南北上下左右等方位!谁定的？我们的天父啊!目的只有一个，告诉人类我们天父的星座方位!所以九曲桥的方向始终对着东北方!在宇宙一切物质中，永远是子体围绕母体运动，这是恒定的!所以地球自转并围绕太阳公转!因地球是自转公转的，所以根据地球的东西南北是找不到星外文明的星座方位的!只有找到太阳的上下前后东西南北才能准确地给天父星座方位定位!我们天父星座方位在太阳系东北上方第九颗恒星那里!那里以双伴恒星为中心带动周围108颗恒星运动着! 这次又出去作死，你们下次出去看大象直接把你们按大象粪堆里！<br>中国人这么多，像你们这种虎园下车，拉大象尾巴，故意作死的国人都该去吃屎！死多少算多少垃圾中的战斗🐔！<br>死了还能为国家的人均GDP做贡献！ 小伙子是一名响当当的中国纯爷们，他是为了保护中国人而牺牲的，他的死重于泰山！！ [被黑][被黑][微笑] 通告：<br>即日起，不论哪个国家，旅游胜地，只要遇到中国人，全部动员，紧急戒备！<br>以前是坑人，现在连动物也不放过！ 没扯尾巴，扯蛋了 应该让那几个不守规则的人赔偿给死者。 你懂不懂大象的习性？别整天不懂装懂！该惩罚的不惩罚！ 没少陪啊？还是TMD泰铢。怎么不陪秘鲁币啊？ 呃…… 不少了 客观讲，游客负有一定的责任！ 游客素质太差，出国旅游前要进行素质文明教育，这个课必须上。 大象也可怜，到木材厂受苦受难还要挨打的。 你说这之前，你们是不是应该对哥白尼说声对不起呢。 不干活，没人白养它，它只有死，要不你去买了回来当宠物养。 想认外星人做爹尽管去，何必在这忽悠人？ 泰方态度还可以吧，能主动承担责任，不像某国，出事了首先推卸责任 那几个游客不负责吗？ 希望下次别干傻事 泰国人不值钱啊😄 要文明旅游 你倒是说说看游客有啥过错。 30万，不过几年的工资而已，这可是一个年轻人的生命，一个家庭的顶梁柱！也许上有老下有小呢。大象没有训养好就绝对不能拿出来挣钱的，否则还会出事。以后不要去玩那些有潜在危险的项目。 交涉个屁，不上规距怪谁！问题是大象该把调戏它人踩个腿断胳膊不全的，倒是导游顶了罪！ 等以后可以星际旅行了，作死的游客把太空服的头盔取下来缺氧而死 看！ 泰国一半多的经济是中国支持的，他如果不认真负责，他的旅游业怎么发展。 一定要有危险意识，安全第一。 中国保险：很抱歉，因为您是在国外受伤的，不属于我们赔偿的范围。 金幣 你这话说的真脑残，鸡鸭鱼肉是保护动物吗？不然你吃个熊猫给我们看看？动物虽然没有高低贵贱之分，但是有有限保护等级。没事多看看书，最烦你这种货色，别人声讨吃狗的，你们就说为什么要吃鸡鸭鱼肉？日历吗，这逻辑就跟你把尼玛跟小姐划等号一样的弱智 死者安息吧 不知道该说点啥了，好人小何，一路走好吧🙏️🙏️🙏️ 你不吃肉啊 导游有什么责任游客素质太差不听导游的 其他团员没有一个发声的原因只能是有游客激怒了大象导致此次事故 比起大象，发情的公骆驼更可怕一些 可憐的应該是大象啊！ 流星月亮地球太阳系有发动机么？没有!他们却高速在宇宙中运行!为什么？因为他们的运行轨道本身就是太空高速时空隧道!他们的运行路线一半为去路一半为来路，周而复始地运行着!地球自转公转着，本就没有东西南北上下左右等方位!谁定的？我们的天父啊!目的只有一个，告诉人类我们天父的星座方位!所以九曲桥的方向始终对着东北方!在宇宙一切物质中，永远是子体围绕母体运动，这是恒定的!所以地球自转并围绕太阳公转!因地球是自转公转的，所以根据地球的东西南北是找不到星外文明的星座方位的!只有找到太阳的上下前后东西南北才能准确地给天父星座方位定位!我们天父星座方位在太阳系东北上方第九颗恒星那里!那里以双伴恒星为中心带动周围108颗恒星运动着! 前年去清迈骑过大象，觉得太残忍了 大象本不该受折磨 不做评论 比起那个救人被踩死的人，你竟然同情大象，人死了，大象只是换了个工作而已。 😨😨 泰国还真就不依赖中国人。 河南人自觉承认不如泰国人 怎么帮啊？ 你吃的鸡鸭鱼猪牛本也不该挨刀子的，还被分尸，都是因为你的口腹之欲，你还还有脸同情大象。 考虑泰国国情 可怜的大象发配到木材厂劳动改造了🐘 英勇的导游！ 最好不出事 这个要让外交部去交涉！ 杀人的动物还帮， 才给30万？ 才赔30万人民币太少了。 此外涉事公象此前没有事故记录，这次出事后可能要被卖到木材厂。。。 送他去哥白尼那边学习！！ 30万 大家帮帮那只可怜的大象吧 "
    },
    "Article": "（原标题：“中国导游在泰国遭大象袭击”续：涉事象园赔偿150万泰铢）新京报快讯(记者曾金秋)今日(12月27日)，中国导游何永杰在泰国被大象袭击一事有了新进展。涉事象园老板巴硕表示，中午他们已经与何永杰家属签订了赔偿协议，园方赔付150万泰铢(约30万人民币)，保险赔偿另行计算。目前象园已经增设水泥栏杆，此外涉事公象此前没有事故记录，这次出事后可能要被卖到木材厂。12月21日，重庆北国假期国际旅行社领队何永杰，在泰国芭提雅援救游客时被大象踩踏身亡，同团2名游客轻伤、1名游客重伤。事发后，涉事象园已经停止骑行服务。象园老板赔付150万泰铢象园老板巴硕对新京报记者表示，今日中午，在曼谷hipo酒店，园方已经与遇难导游何永杰家属达成协议，由园方赔付150万泰铢，保险赔偿100万泰铢，这些不包括中国国内的保险公司赔偿。赔偿金额是按以往中国客人在泰国出事的标准制订的，但由于他对导游非常内疚，赔付了以往金额的两倍。巴硕表示，他自认为没有尽到管理义务，非常内疚，愿意承担相应的法律责任。根据泰国法律，他和驯养大象的象夫可能面临20万左右的罚款，还可能面临2年到3年刑期，是否要服刑，视其表现而定。另据中国驻泰国清迈总领馆网站今日发布的消息，2018年元旦将至，驻清迈总领馆特别提醒，新年期间赴泰北地区的中国游客需注意以下旅游安全事项，谨慎选择丛林飞越、大象骑行、亲近野生动物等具有一定危险系数的项目。象园增设钢筋水泥围栏巴硕介绍，踩死导游何志杰的大象今年17岁，是一头公象，此前未曾经历过事故。在泰国，每只供游客观赏的大象都有身份证，出事后都要登记，但这只大象没有发生过事故。事发后，当地市政府还曾派人去查过大象的DNA，未发现异常，只是受到了惊吓。出事后的大象已经不可能再继续工作，可能会被卖到木材厂。此前，有网友质疑其救援过于缓慢，耽误了救治何永杰的时间。巴硕称，事发后，他们马上把伤者送到附近的医院，整个过程在20分钟以内。但何永杰当场死亡，必须要等警方到场才能移动。“有人说他重伤后半小时都没人救，怎么可能呢?只要客人受伤，不管什么伤，都会先送到医院。”也有游客质疑象园隔离措施过于简单。巴硕承认，象园没有足够安全的防护措施，之前是用花草丛隔离，现在改成了钢筋水泥围栏来隔离。不过，象园有标识，提醒游客不要随意触碰大象，不要照相，因为闪光灯可能会刺激大象。入园导游一般都会对游客进行口头教育，保安也会提醒。“但总有中国游客不听。”他还称，泰国法律对骑大象有规定，要去当地县政府申请，三个月验收一次，看大象有没有发情，有没有被虐待。如果虐待大象，老板会被起诉。由于泰国对枪支管制很严格，没有使用麻醉枪的条件，一般都给象夫配一个铁钩，有一套专门控制大象的钩法，比如往下拉向右转，等等。本文来源：新京报责任编辑：张海桐_NN9053",
    "Title": "中国导游在泰国遭大象袭击:涉事象园赔偿150万泰铢_网易新闻",
    "URL": "http://news.163.com/17/1227/22/D6MRQUHJ0001899N.html",
    "KeyWords": "大象,泰国,中国,导游"
}