{
    "Source": "Netease",
    "KeyWords": "律师,台湾,公园,警察",
    "Title": "台律师被抓后遭警方丢公园 律师:抓我们锻炼身体?_网易新闻",
    "PublishTime": "12/24/201723:43:47",
    "URL": "http://news.163.com/17/1224/23/D6F7FTC50001875N.html",
    "Article": "（原标题：台湾陈抗律师被抓后被警方丢包在公园律师：抓我们锻炼身体？）部分抗议群众不愿离去转战西门町，24日凌晨，警方将抗议者拖上警备车载走。据台湾《中时电子报》报道，台湾地区劳工团体23日发起大游行，深夜开始强制驱离不愿离去的抗议民众，多名民众被带走，连律师也被抓捕。台湾气象主播李富城直言，台湾从“新党四少”事件，就已经回到了“戒严时期”，抓一两个律师又算什么，再来就是无故来“查水表”！律师也被押走！昨日深夜陈又新等多名律师前往台北车站，协助被带上警车的民众，不料也被警察抓上警备车。律师陈又新今天在脸书不满地说：“昨晚的实况，在我们律师争取协调空间的时候，警方却在没有任何法律依据的前提下，直接将我们4位律师拖走。”并指在抗争现场抓走律师，竟然出现在以“民主进步”为名的政党所治理的台湾！后来4位律师都被警方丢包在大湖公园。陈又新说：“抓我们是抓身体健康国泰民安的？”本文来源：中国台湾网责任编辑：姬雪莹_NN6784",
    "Comment": {
        "Content": "呵呵，这比某大陆的强力部门要文明百倍了吧。 湾湾 收复台湾的时候快到了 跟贴被火星网友带走啦~ 是抓去跳广场舞 选择民进党，这可是你们当初投的票 还说不是中国人？ 还放公园？难道不该是被消失，得肝癌？ 那边是新闻对岸靠传才有部分人知道 这律师难道希望警方把他送到台北天上人间会所，并且帮他签单？ 不是涉嫌xxxxxx罪就很给你们面子了 你什么都能想到自己的母亲、是真爱呀！ 台北车站 呵呵，这比某大陆的强力部门要文明百倍了吧。 好的不学 是抓去跳广场舞 疯了！ 雄起，雄起 台湾太乱了！ 半徑八兩，有個女的被脫光了衣服按在地上，然後拿黑袋子套住帶走，對律師兩邊都不敢太過，畢竟告起來沒完沒了。 查水表怎么回事？ 这几个律师不是证人吗?😂 很好，继续…… 不是涉嫌xxxxxx罪就很给你们面子了 那边是新闻对岸靠传才有部分人知道 湾湾 乱乱的台湾 你什么都能想到自己的母亲、是真爱呀！ 还放公园？难道不该是被消失，得肝癌？ 到公园跳广场舞 这律师难道希望警方把他送到台北天上人间会所，并且帮他签单？ 收复台湾的时候快到了 跟贴被火星网友带走啦~ 选择民进党，这可是你们当初投的票 一回到台湾机场马上释放，再去泰国。所以泰国警方該怎么办 哈哈哈哈 有的一拼，學的像模像樣，呵呵 还说不是中国人？ 哈哈，要说抓律师嘛……😂 放毒蛇在公园，万一被游客没注意，咬着，有可能会死，这种人判大轻了。人命啊 ",
        "Reply": 26,
        "Link": "http://comment.news.163.com/news_guonei8_bbs/D6F7FTC50001875N.html",
        "Total": 602
    }
}