{
    "Comment": {
        "Total": 30,
        "Reply": 6,
        "Link": "http://comment.ent.163.com/ent2_bbs/D77ITIM600038FO9.html",
        "Content": "少奮鬥近幾年 长粗活好 此男必有过人之处 这个男的看起来就应该很大吧，要不怎么降服这个妖精 17年最好的连续剧：1白鹿原2白夜追凶3鸡毛飞上天，炒作最厉害连续剧：1人民的名字2三生三世，最佳外剧：权游！最佳电影：摔跤！最炒作：战狼2！最失望：猩球3，加勒比5！丑闻：马蓉，白百何，宋小宝，赵四，薛之谦，李小璐，陈思成，郭敬明，周立波！最创新综艺：演员的诞生！最尴尬：奚梦瑶！最幸福：郭富城，鹿晗，陈冠希！最佳音乐：大鱼，成都！只代表个人观点！ 长粗活好 此男必有过人之处 这个男的看起来就应该很大吧，要不怎么降服这个妖精 17年最好的连续剧：1白鹿原2白夜追凶3鸡毛飞上天，炒作最厉害连续剧：1人民的名字2三生三世，最佳外剧：权游！最佳电影：摔跤！最炒作：战狼2！最失望：猩球3，加勒比5！丑闻：马蓉，白百何，宋小宝，赵四，薛之谦，李小璐，陈思成，郭敬明，周立波！最创新综艺：演员的诞生！最尴尬：奚梦瑶！最幸福：郭富城，鹿晗，陈冠希！最佳音乐：大鱼，成都！只代表个人观点！ 少奮鬥近幾年 器大活好 "
    },
    "Title": "名媛希尔顿与演员男友订婚！22克拉钻戒抢眼_网易娱乐",
    "KeyWords": "希尔顿,钻戒,订婚,名媛",
    "Article": "帕丽斯·希尔顿和克里斯·泽尔卡交往1年多。帕丽斯·希尔顿在度假时被男友求婚。22克拉鸽蛋钻戒抢镜网易娱乐1月3日报道?美国名媛帕丽斯·希尔顿（ParisHilton）总是给人炫富、娇娇女的印象，经常因为惊人之举引发争议，更因全裸的性爱影片外流声名大噪。而她和演员男友克里斯·泽尔卡（ChrisZylka）交往1年多后，3日突然在IG晒出大批被求婚照片，开心公布喜讯。现年36岁的帕丽斯·希尔顿在照片中笑容满面，在白茫茫的雪地中和男友亲吻拥抱，也在PO文中说道：“我说好！很开心、很兴奋和我生命中的挚爱订婚了，他是我最好的朋友和灵魂伴侣，在各方面都很完美，是如此忠诚、专情、善良、充满爱意的男人。”更称自己是这世上最幸运的女孩，如今梦想成真，让她感受到童话故事彷佛真的存在。但外界的焦点全放在如鸽子蛋大小的钻戒上，据悉钻戒为22克拉，价值高达美金200万元（约为人民币1300万元）。帕丽斯·希尔顿坦承在第一次约会时，就对克里斯·泽尔卡很有好感，“从一开始就知道，我会想永远跟他在一起。”男方也说：“派瑞丝希尔顿是最美又最不可思议的女人，我感觉像是全世界最幸运的男人，可以娶到理想中的女人，我已经等不及和她度过接下来的人生。”帕丽斯·希尔顿和克里斯·泽尔卡是相差4岁的姊弟恋，男方外型高大帅气，演过《对面的恶女看过来》、《新飞越比佛利》等剧，两人8年前在奥斯卡派对上认识，直到2年前才开始密集联络，进而交往，她也在2017年2月宣布这段恋情。本文来源：网易娱乐责任编辑：陈少杰_b6952",
    "URL": "http://ent.163.com/18/0103/10/D77ITIM600038FO9.html",
    "PublishTime": "01/03/201810:45:16",
    "Source": "Netease"
}