{
    "Article": "（原标题：千年银杏藏深山村民自筹资金修建赏杏路封面新闻2018-01-0207:073684）泸州市叙永县观兴镇普兴村：山顶上有棵千年银杏树，天然形成了独木成林的壮观景象。叙永县观兴镇普兴村，一个国家级贫困县里藏于大山深处的小山村，多年来，因为一棵千年古银杏树，这个偏僻的山村被外人熟知，并吸引了不少游人慕名前往。银杏树位于山顶，尽管近年来水泥路已经修到村里，但一段近两公里的陡坡往往令许多老年游人望而却步，每每看到这样的景象，当地村民心里总不是滋味。为了改变这样的现状，并不富裕的村民们做了一个大胆的决定，自筹资金打通从村上通往银杏树的公路……深山藏美景2200岁银杏独木成林叙永县观兴镇普兴村山高地险、条件恶劣、经济落后，耕种的土地多数是25度以上的斜坡，因此，传统的农业生产多年来并未改变村子偏僻落后的面貌。得益于扶贫政策，公路修到了小山村，解决了村民们出行难的问题。然而，和其他落后的乡村相似，普兴村的青壮年都统一外出打工养家糊口，留下的多数是空巢老人和留守儿童。和其他山村不一样的是，普兴村有着宝贵的自然生态资源：千年古银树。据介绍，这棵古银杏胸径达5米，胸围约15米，要十余人手拉手才抱得完；此树每年产果实近500公斤，是当之无愧的镇山之宝。上世纪90年代，经四川省林科院专家考证并科学测算，古银杏已有2200岁。古银杏顽强地生长在山顶上，天然形成了独木成林的壮观景象。每年银杏叶黄时分，普兴村因众多外来游人的到来，显得格外热闹。树下村民刘洪亮一家是古树的义务看守者，据族谱记载，刘家义务看守古树，已经有15代人。刘洪亮向记者讲述了古银杏的传说。明朝时，一位名叫白秀君的英俊后生，进京赶考，中得状元。报喜人员风餐露宿，将喜帖送到了该考生登记的观兴小湾子(现银杏树所在地)，经过连续数月查找，却始终找不到这名考生。直到看到这棵银杏树，报喜人员这才恍然大悟。报喜人员将喜帖，挂在了银杏树之上，至此，古树化身考取状元的故事流传至今，而这棵银杏树，也就留下了“千岁状元”的美名。陡峭狭窄的上山小路。赏杏路难行“走到山顶要40多分钟”每年银杏叶黄之时，这棵古银杏树就会成为不少摄影爱好者的拍摄景点之一。摄影爱好者刘传福曾多次前往普兴村拍摄这棵古银杏树，回忆起初次寻觅古银杏树的经历，刘传福直言：“路太难走，第一次去过后，再也不想去第二次。”20年前，刚参加工作的刘传福在普兴小学教书，初来乍到，便听村里人多次提及这棵古银杏树，一个周末，刘传福约上三两朋友，准备一看究竟。交通不便的山路里，刘传福和朋友步行了3个多小时才得以看见这棵古银杏树，“可以说是寻山问水了，从山底走到山顶就要40多分钟。”而后，公路修通了，刘传福可以骑着摩托车到山底了，随着公路硬化后，外来的轿车和大巴车也能开到山底了。20年来，刘传福看着通往山村的道路一步步地完善硬化，而上山的路也从最初的山间小道修成了石板阶梯路，唯一不变的是，坡还是一样陡、一样险。尽管去过多次，但直到2016年国庆期间，带上了鱼眼镜头的刘传福才终于将这棵古银杏拍摄完整。刘传福介绍，虽然早已不在当地工作，但由于对当地熟悉，每当自己的朋友想去观赏银杏时，都会向他咨询路线和“攻略”。赏杏热渐起慕名而来者络绎不绝2017年12月29日，赶在年末，普兴村一组的村民们举行了一个隆重的开工典礼，当天，从普兴村一组栋青树（地名）开始，一台挖掘机缓缓向山上驶去，将一条条小道和土地挖开，这标志着，村民们心心念念的银杏公路终于开建了。对于68岁的许绍扬而言，这一天的意义尤为特别。许绍扬家就在栋青树，这里是每一位游人去观赏银杏树的必经之路。许绍扬曾在当地当了20余年的村干部，谈及修这条路，他言语中的激动和兴奋难以抑制，“90年代就想修这条路了，做梦都想修。”在许绍扬的记忆中，但凡当地人，都知道村庄山顶有着这么一棵大树。上世纪50年代末大跃进时期，古银杏树干被拦腰斩断，只剩下一截树桩，然而第二年，古银杏居然奇迹般地在树桩之上吐出新枝。目前，新枝已有120余株，其中，最粗的枝桠直径已达60厘米以上，远远望去，恍若一片树林，呈现出了千年银杏，独木成林的奇特景观。“90年代开始，慢慢就有外面的人来看这棵银杏树了。”许绍扬介绍，近十余年，各地慕名前来的游人越来越多了，逢年过节时，来烧香还愿的游人更是络绎不绝。集资修公路“一年修不好修两年”“看到这一条陡坡，也没有保护措施，车上好多老年人都不敢上山，只能在山底等着。”许绍扬说，游人慕名前来，原始的小山村甚至不能提供一个喝水歇脚的地方，更别说那段陡坡路，即便是身强力壮者爬上山顶后，也可能累得气喘吁吁。因此，每当看到在山底等待的老人和孩子，他的心里总觉得不是滋味。多年来，普兴村村民们一直想从山底修建一条通往古银杏树的公路，直到2017年年底，修路的事情终于取得实质性进展。2017年12月9日，在普兴村一组组长刘显培的组织下，召集了全组户代表依法召开了村民小组会议，决定修建通往古银杏的一条公路，全长约3公里，实行占地无偿、自愿捐款的方式筹集资金。村民们当场全票通过决定，并现场筹捐资金近2万元。而后，村里还发出《修路赏银杏捐款倡议书》，并成立了一个筹备小组。截至2017年12月29日的公路开工仪式前，筹备小组一共筹得资金47000元，其中1万余元是一些大户所捐，其余都是村民们三五百凑成的。村民们知道，要修好这3公里的路，第一阶段筹得的资金还远远不够，不过，全村人已做好了愚公移山的准备。“一年修不好修两年，两年修不好就三年……只要我们人在这里，就会想方设法修好这条路。”许绍扬说。本文来源：封面新闻责任编辑：谷莹_NN6577",
    "Title": "深山2200岁银杏独木成林 村民自筹资金修建赏杏路_网易新闻",
    "PublishTime": "01/02/201809:33:42",
    "Source": "Netease",
    "Comment": {
        "Content": "你没闻过屎吗 此树虽不是我栽，但此路是我修。 抓住重点，大跃进时期被砍过 独木成林后树下摆几张咖啡桌如何? 中蜀自古嘴贱 真漂亮，希望别变味！！ 砍了吧，领导正好缺个棺材， 说实话，银杏真没什么好看的，要是果子成熟的时候就跟屎一样的味道。 原来你是吃屎长大的！ 你确定你跟那37个点赞的都吃过屎？ 2200岁，这树秦朝以前～～是谁确定的？ 比崂山的那棵还大，这样的银杏都成精了 有味道的？家里种了三颗，但是不结果的，公的 杭州街上很多银杏树，每年11月真是满大街屎味 杏芋高 此树虽不是我栽，但此路是我修。 快该圈起来卖票了 绿色资源 你没闻过屎吗 中蜀自古嘴贱 当事人抓起来，路扒了重新铺变成景区收费 抓住重点，大跃进时期被砍过 真漂亮，希望别变味！！ 杏芋糕 不错啊 就一棵树，也能成旅游资源？ 砍了吧，领导正好缺个棺材， 基本都用元素检测了吧 60年结果 现在不止了 说实话，银杏真没什么好看的，要是果子成熟的时候就跟屎一样的味道。 路修好了，收钱么 我觉得桂花味真好闻，淡淡的 比崂山的那棵还大，这样的银杏都成精了 2200岁，这树秦朝以前～～是谁确定的？ 那是在春秋战国时期？ 此文的亮点就是：大跃进时期被砍过！ 圈起来 原来你是吃屎长大的！ 数年轮啊，蠢货[微笑] 上世纪50年代末大跃进时期，古银杏树干被拦腰斩断，只剩下一截树桩，然而第二年，古银杏居然奇迹般地在树桩之上吐出新枝。目前，新枝已有120余株。<br>我家附近也有这样的一颗！ 等你把路修好，这树就成了国家的了，那时候，嘿嘿 你的意思是还不如修座厕所供参观😄 独木成林后树下摆几张咖啡桌如何? 2200年，活化石啊 白痴树有年轮 树锯掉后，从树头的横切面来细看才知道年伦，整体树还是好好的挺着，怎么数年伦？你是神仙？ 山东省临沂市郯城县新村乡有一和这个差不多大的老银杏树 你确定你跟那37个点赞的都吃过屎？ 能不能直接收停车收费多少，门票多少钱？ 点赞的已到74人 杭州街上很多银杏树，每年11月真是满大街屎味 这棵树见证了历史的变迁 成熟腐烂时味道很臭，必须及时清理 挺漂亮 ",
        "Reply": 42,
        "Link": "http://comment.news.163.com/news_shehui7_bbs/D74SDQP30001875P.html",
        "Total": 428
    },
    "KeyWords": "成林,银杏树,古银杏,独木",
    "URL": "http://news.163.com/18/0102/09/D74SDQP30001875P.html"
}