{
    "Title": "小克鲁伊维特踩单车轰世界波 18岁已被曼联盯上_网易体育",
    "URL": "http://sports.163.com/17/1225/10/D6GBG34100058781.html",
    "Source": "Netease",
    "Comment": {
        "Total": 1495,
        "Reply": 210,
        "Content": "去巴塞 克鲁伊维特有一米九了吧？他前妻也是模特，你告诉我他儿子172？我好像明白什么了…… 自己拿自己开玩笑有什么丢人的，只要别随便拿别人开玩笑攻击别人就好，譬如楼上 简直一模一样不是亲生的才怪 最后一个球停球真好 都他么眼瞎吗？难道看不出来儿子长得和他老子很像吗？！ 小克啊，你爸可是当年是叔叔的偶像啊！我不盼你达到你爸一样的高峰，只希望你不要再像你爸一样不自律就行！希望你努力，跟你爸一样披上红蓝战袍的9号球衣！ 突然想到，21年前我才开始看球的时候，克鲁伊维特就是荷兰新星！时间太快了 弱弱的说句内心话，年轻的进攻球员不适合去现在的曼联。<br>不是任何人的黑，喷子请远离，谢谢 适合去曼城！去了曼联前峰就变成黑又硬了[窃笑] 影响身高的因素很多，遗传只是其中之一罢了。现实中，子女和父母身高差距较大的不少见吧。 参考马夏尔和拉什福德 基因不稳定~！~没办法100%决定成长 一定是荷甲借鉴了足球发达国家的政策每场必须上一个u18 悟性很高，，孺子可教也。。。 当年克鲁伊维特一脚送阿贾克斯登顶欧冠也差不多是这年龄吧，现在儿子都这么大了。 曼联球迷表示你说的对别耽误人家的进攻天赋 奈何2000年碰到开挂的托尔多腿软了[微笑][微笑] 还有自称抬米的。丢人 他有一个队友叫戴维斯，好像也是黑人身高很矮。 不会去曼联的，会来巴萨。 防反一个是防，再一个是反，反击要能给对手压迫性才能巩固防守，摸你鸟似乎忘了进攻是最好的防守这句话了，在死守上越走越远，反击完全没有，18年抬迷伤心路过 骂得好！小克鲁伊维特和他爹长的9成相似！ 克鲁伊维特如果不是因为强奸案，他的成就应该比范尼和罗本要高 你是有多贱，赚这种钱不怕遭报应？ 那也停不下来 哈哈我又来点漕3楼的傻逼球盲废物鸟粪，你废物嘢爹墓表好久没赢球了哦全主力还被英冠球队淘汰哈哈，废物，傻逼这次怎么洗和跪添你废物嘢爹啊，你说别人喷子？看看你的发帖你是打自己狗嘴吗？不过你这类傻逼球盲废物鸟粪天天吃自己拉的屎打自己的狗脸，去曼联夺欧联杯还是联赛杯？傻逼球盲废物鸟粪们的废物嘢爹穆表子毁人不倦，参考线是姆希塔良，说吧小克鲁伊维特你想来做龟公还是内鬼？？ 魔力鸟放过他吧！！！好好圈养自己的黑又用，挺好！！不要还没有真正成才的年轻人了！！！ U18和外援数量要一致 。。。克鲁伊维特那么高怎么生儿子个子那么矮。。。 98年头顶巴西的球很帅 他爹这个年纪欧冠决赛一剑封喉，绝杀了当年无敌的米兰，和大罗号称双娇，未来球王人选 30年前看国内的顶级足球比赛，当球员推进到禁区前沿，我激动的大喊射门！身旁一资深球迷，白了我一眼，说这个距离怎么可能射门呢？还说，要不你下去试试？30年过去了。国内的球员有多少能在这个位置射门的？ 样子还是真像。 奥维马斯说你们先聊 你说喷子远离，他们立马就凑过来了 我去，你们看看小克鲁伊维特的脸。和他爹一样好吗。<br>你俩搞得很不幽默啊！ 哈哈一辈子都学不到了 实况数据克鲁伊维特188，几十年来荷兰超过190的前锋只有一个————范霍伊栋 速度快，突破犀利，踩的一脚单车，与防守反击的大巴战术简直就是绝配！ 好像1.88，不过按这个逻辑…… 去曼联？？？？？我看还是去曼城或者巴萨吧,曼联目前战术节奏非常的不稳定，谁晓得穆鸟啥时候下课，曼联除了弗格森能玩得懂其他的都是打酱油（除了瓜秃），这小克鲁伊维特去了等于是废了。小克适合巴萨和曼城的节奏，曼联目前的战术节奏只会用废这小伙子。。。。。。。。瓜秃的曼城是11个人，虽然瓜秃的战术倔强无情，但真融入其战术节奏那对自己的发展真是无可限量的。。。。。去巴萨有大佬梅西辅佐会成为一代传奇巨星！！！！！！ 最后一张图那个停球，够国足学一辈子了。 看你就是伪球迷，当年高峰和马明宇郝大炮内切之后多少25-30米的打门，郝大炮96年中韩对抗赛的内切远射，高峰97年世预赛绝杀科威特，马明宇98年中韩对抗赛上内切之后的远射还是当年亚足联前五的最佳进球。 破案了 绞尽脑汁喷？？！！！傻逼。。。这小子长的多像他爹！！你个傻逼都不知道克鲁伊维特长啥样吧？？？ 我是他爹粉丝 弱弱的说句内心话，年轻的进攻球员不适合去现在的曼联。<br>不是任何人的黑，喷子请远离，谢谢 克鲁伊维特有一米九了吧？他前妻也是模特，你告诉我他儿子172？我好像明白什么了…… 一看就是亲身，和他爹一个模子 看起来不错，希望不会是德佩第二 简直一模一样不是亲生的才怪 进的的都是远射死角，牛逼 小克啊，你爸可是当年是叔叔的偶像啊！我不盼你达到你爸一样的高峰，只希望你不要再像你爸一样不自律就行！希望你努力，跟你爸一样披上红蓝战袍的9号球衣！ 然后一个去米兰一个去国米，当时一大看点 他爸方当年是真厉害啊，可惜巅峰期太短了。 技术不错，身体条件跟他爸比不了 还是差远了 很好很强大 我觉得这个年纪去意甲或者西甲比较适合 参考马夏尔和拉什福德 哈哈。没记错的话188。确实有点搞不懂！ 要想生活过得去，就得头上带点绿<br>荷兰这个平均身高全球第一的国家，这种身高不好找，应该是奥维马斯的 想当年看球的时候，克鲁伊维特还在进球，现在连他的儿子都进球了……岁月不饶人啊！ 不可能，他是黑人，成才率太低了。 木鸟买来打后卫？ 脚下比他爹强的多但是他爹头球无敌.. 曼联球迷表示你说的对别耽误人家的进攻天赋 悟性很高，，孺子可教也。。。 在国内，这身高没有出头之日啊，青训都选不上 苏亚雷斯接班人啊，巴萨下手吧 我一米六五，明白了吧！ 不会去曼联的，会来巴萨。 速度快，突破犀利，踩的一脚单车，与防守反击的大巴战术简直就是绝配！ 骂得好！小克鲁伊维特和他爹长的9成相似！ 克鲁伊维特如果不是因为强奸案，他的成就应该比范尼和罗本要高 离任两米远的单车，吹鸡吧牛 尼玛，真牛逼 克鲁伊维特188 这么矮，不可思议 你个穷鬼，用小米的关你鸡吧事了 难不成是爷爷的儿子？？ 克鲁伊维特我记得个子很高啊这。。。。 就这技术做的这么舒展的中超找不出一个 孩子你还太年轻😄😄 人球结合不错 身高182以下，请自动去曼城，曼联不需要 克鲁伊维特和莫伦特斯的头球是我最喜欢的 什么时候自行车被被追回是这么神速的. 确实一个模子出来的。。。 他爹牛是真牛 他爹这个年纪欧冠决赛一剑封喉，绝杀了当年无敌的米兰，和大罗号称双娇，未来球王人选 看长相肯定是克鲁伊维特的儿子。。妈是谁不好说 7号就位 老爸189.儿子172是亲生的吗？ 我的意思是好歹也自称曼联球迷吧，没听过日本人自称鬼子的。 要有前途去曼市，瓜瓜能调教你。 😂😂😂 我一米六五，明白了吗？ 难道现在成就没范尼罗本高？ 虎父无犬子 666 绞尽脑汁喷？？！！！傻逼。。。这小子长的多像他爹！！你个傻逼都不知道克鲁伊维特长啥样吧？？？ 停球那下很屌啊，能突能射，是块瑰宝。来萨村吧，跟着梅球王学学上帝视角的传球，接过你老爹曾经的9号球衣，成就有望超过他爹。 踩单车那几下子很像大罗 弱弱的说句内心话，年轻的进攻球员不适合去现在的曼联。<br>不是任何人的黑，喷子请远离，谢谢 除了脸像克鲁伊维特其他都像奥维马斯 克鲁伊维特有一米九了吧？他前妻也是模特，你告诉我他儿子172？我好像明白什么了…… 这身高颜值和小技术，明显巴萨的菜，巴萨高层还不赶紧下单😄 这个名字听着就很厉害 这个可是宝贵的U23，还有马夏尔姆巴佩拉什福德登贝莱 他爹陨落的太快，不自律的生活真不行 从小蹲杠铃蹲的吧 黄健翔最开始喜欢叫他爹克莱夫特 内环唔俾踩单车哦 这射门太精彩了 适合去曼城！去了曼联前峰就变成黑又硬了[窃笑] 有什么用？？除了俱乐部名气大一点，来，你来说说，现在的年轻进攻球员去曼联可以得到什么？ 影响身高的因素很多，遗传只是其中之一罢了。现实中，子女和父母身高差距较大的不少见吧。 基因不稳定~！~没办法100%决定成长 这场比赛小克鲁伊维特表现很好，但表现更好的是7号雷内斯，阿贾克斯又开始贩售妖人了 这外貌一个模子出来的 拉师傅，马夏尔对比萨内，斯特林就知道了。 调侃是吧。那是不是加盟曼联算加入了有无数冠军的豪门，去曼城算不算去一个毫无底蕴的暴发户？ 按照你这种说法豪门都不适合 悟性很高，，孺子可教也。。。 好像就会一招内切射门啊 追随你爸。来巴萨吧。 他有一个队友叫戴维斯，好像也是黑人身高很矮。 变成奥维马斯了 步频真是快 克鲁伊维特如果不是因为强奸案，他的成就应该比范尼和罗本要高 从这个年龄来看，成就会超过他父亲。 小克的球风虽然不像老克，但非常像奥维马斯！ 那也停不下来 30年前，你这是20年前[可怜][可怜][可怜] 还好脸长得像，不然这身高，真有隔壁奥维马斯的嫌疑 好像1.88，不过按这个逻辑…… 把对方门将打跪下了！ 你们忘了野猪戴维斯？ 可以 最后一张图那个停球，够国足学一辈子了。 原谅我的错看成范志毅 尼玛跟他爹地简直一个模子刻的 说得在理 第一次听说自行车追回是这么神速的,还是当国际友人好啊 。。。克鲁伊维特那么高怎么生儿子个子那么矮。。。 有什么用？？除了俱乐部名气大一点，来，你来说说，现在的年轻进攻球员去曼联可以得到什么？去曼城的话又可以得到什么 他爹这个年纪欧冠决赛一剑封喉，绝杀了当年无敌的米兰，和大罗号称双娇，未来球王人选 [喷水] 比他爹牛逼 看这长相也不是隔壁老王 30年前看国内的顶级足球比赛，当球员推进到禁区前沿，我激动的大喊射门！身旁一资深球迷，白了我一眼，说这个距离怎么可能射门呢？还说，要不你下去试试？30年过去了。国内的球员有多少能在这个位置射门的？ 样子还是真像。 没错啊，现在30米左右射门的还有多少。 哈哈一辈子都学不到了 为什么只有172，老爹188啊！ 实况数据克鲁伊维特188，几十年来荷兰超过190的前锋只有一个————范霍伊栋 看你就是伪球迷，当年高峰和马明宇郝大炮内切之后多少25-30米的打门，郝大炮96年中韩对抗赛的内切远射，高峰97年世预赛绝杀科威特，马明宇98年中韩对抗赛上内切之后的远射还是当年亚足联前五的最佳进球。 破案了 需要司机[疑问] 巴萨刚好缺左边锋，来吧，梅西苏牙都可以回到熟悉的老位置，你跟登贝莱两翼齐飞，苏牙坐等吃饼，画面美得不要不要的 德佩更了得......然后呢？ 将门虎子 弱弱的说句内心话，年轻的进攻球员不适合去现在的曼联。<br>不是任何人的黑，喷子请远离，谢谢 克鲁伊维特有一米九了吧？他前妻也是模特，你告诉我他儿子172？我好像明白什么了…… 買吧，好好練肯定比林加德和拉屎上限高 别去曼联！去了就完了 不要指桑骂槐，你的真实意思是那些没有拿过欧冠的岂不是连鸟粪穆婊都不如 奥维马斯说你们先聊 这个新闻这呃多人顶贴看起来荷兰足球粉丝还是大有人在！ 来我萨吧 你看看小克鲁伊维特的面孔就不会说啥了 明白什么，父子一个模子 克鲁好像是181，应该比范尼低一点。 适合去曼城！去了曼联前峰就变成黑又硬了[窃笑] 1楼无聊，小克这脸型跟他爹一模一样，确定亲生无疑了 那年他爹18 一定是荷甲借鉴了足球发达国家的政策每场必须上一个u18 是领养的吗？身高怎么会差这么多？ 1楼真球迷，曼联打法不适合年轻球员 哈哈去曼联夺欧联杯还是联赛杯？傻逼球盲废物鸟粪们的废物嘢爹穆表子毁人不倦，参考线是姆希塔良，说吧小克鲁伊维特你想来做龟公还是内鬼？？ 悟性很高，，孺子可教也。。。 呵呵，齐达内的儿子，贝利的儿子，马拉多纳的儿子，魔术师的儿子……犬子太多了，自己去看 這幾年荷甲出了不少水貨，之前德佩的集錦比這花多了 很明显 说好了来巴萨的啊？ 克鲁伊维特如果不是因为强奸案，他的成就应该比范尼和罗本要高 你是有多贱，赚这种钱不怕遭报应？ 难道不比他们高吗？ 奈何2000年碰到开挂的托尔多腿软了[微笑][微笑] 看面相是老克的子嗣！ 哈哈我又来点漕3楼的傻逼球盲废物鸟粪，你废物嘢爹墓表好久没赢球了哦全主力还被英冠球队淘汰哈哈，废物，傻逼这次怎么洗和跪添你废物嘢爹啊，你说别人喷子？看看你的发帖你是打自己狗嘴吗？不过你这类傻逼球盲废物鸟粪天天吃自己拉的屎打自己的狗脸，去曼联夺欧联杯还是联赛杯？傻逼球盲废物鸟粪们的废物嘢爹穆表子毁人不倦，参考线是姆希塔良，说吧小克鲁伊维特你想来做龟公还是内鬼？？ 去曼联？现在的明眼人都懂，垃圾教练带出什么新星过？ 黄粱一梦二十年啊。喜欢巴萨就是从瓦刀和克鲁伊维特时期开始！现在克鲁伊维特的儿子都进入职业足坛了！ 但问题长相和他爸还蛮像的 多废话一句，当年马明宇98年中韩对抗赛的进球被评为年度最佳的原因是从中圈弧沿边路盘带连过四人之后的内切打门世界波，现在的国猪的确是没有这种能力的人了。 看看舒梅切尔，克鲁伊维特和齐祖甚至C罗的儿子，再看看贝克汉姆的儿子 U18和外援数量要一致 虎父无犬子 98年头顶巴西的球很帅 他爹这个年纪欧冠决赛一剑封喉，绝杀了当年无敌的米兰，和大罗号称双娇，未来球王人选 虎父无犬子 那会儿荷兰点球输了我竟然哭了！那一届的荷兰队个人认为是最强的！和巴西对攻基本五五开！而且加时赛本可以绝杀的！可惜了！ 30年前看国内的顶级足球比赛，当球员推进到禁区前沿，我激动的大喊射门！身旁一资深球迷，白了我一眼，说这个距离怎么可能射门呢？还说，要不你下去试试？30年过去了。国内的球员有多少能在这个位置射门的？ 最后那一脚停球就够国足学一辈子 虎门无犬子，这小子我看行，虎将的儿子目前已经展现过人的才华，未来的发展无可限量。。。。 我去，你们看看小克鲁伊维特的脸。和他爹一样好吗。<br>你俩搞得很不幽默啊！ 德佩当年比这猛有吊用 的确，在荷兰人里，身高太低，和戴维斯身高差不多 真的是虎父無犬子！勁！ 去曼联？？？？？我看还是去曼城或者巴萨吧,曼联目前战术节奏非常的不稳定，谁晓得穆鸟啥时候下课，曼联除了弗格森能玩得懂其他的都是打酱油（除了瓜秃），这小克鲁伊维特去了等于是废了。小克适合巴萨和曼城的节奏，曼联目前的战术节奏只会用废这小伙子。。。。。。。。瓜秃的曼城是11个人，虽然瓜秃的战术倔强无情，但真融入其战术节奏那对自己的发展真是无可限量的。。。。。去巴萨有大佬梅西辅佐会成为一代传奇巨星！！！！！！ 看你就是伪球迷，当年高峰和马明宇郝大炮内切之后多少25-30米的打门，郝大炮96年中韩对抗赛的内切远射，高峰97年世预赛绝杀科威特，马明宇98年中韩对抗赛上内切之后的远射还是当年亚足联前五的最佳进球。 克鲁伊维特当年是少年天才不错，不过评价貌似没这么高吧？从全面性上来说克鲁伊维特甚至还略胜大罗，但是爆发力尤其是破门能力比不上大罗啊。 前天拉什福德那个球。。。确实不适合年轻前锋去了，有潜力的年轻前锋应该去利物浦、曼城、阿森纳、热刺 这种球员应该去巴萨。比等北来好多了！！ 没他的位置 去巴塞 克鲁伊维特有一米九了吧？他前妻也是模特，你告诉我他儿子172？我好像明白什么了…… 克鲁伊维特应该是183 这身高应该是巴萨的风格 荷兰真不缺高水平球员，但是拼成一个整体就比较难了。 哈哈我又来点漕3楼的傻逼球盲废物鸟粪，傻逼这次怎么洗和跪添你废物嘢爹啊，你说别人喷子？看看你的发帖你是打自己狗嘴吗？不过你这类傻逼球盲废物鸟粪天天吃自己拉的屎打自己的狗脸，去曼联夺欧联杯还是联赛杯？傻逼球盲废物鸟粪们的废物嘢爹穆表子毁人不倦，参考线是姆希塔良，说吧小克鲁伊维特你想来做龟公还是内鬼？？ 又一个德佩？ 哈哈去曼联夺欧联杯还是联赛杯？傻逼球盲废物鸟粪们的废物嘢爹穆表子毁人不倦，参考线是姆希塔良，说吧小克鲁伊维特你想来做龟公还是内鬼？？ 7号的理想人选，但鸟在曼联，7号也会变0号 突然想到，21年前我才开始看球的时候，克鲁伊维特就是荷兰新星！时间太快了 弱弱的说句内心话，年轻的进攻球员不适合去现在的曼联。<br>不是任何人的黑，喷子请远离，谢谢 适合去曼城！去了曼联前峰就变成黑又硬了[窃笑] 同感 小克鲁伊维特他妈多高 曼联还真是毁人不倦呐 好好在小球会练级千万别太早来豪门 这家伙儿子都18了？他去巴萨仿佛还是昨天 悟性很高，，孺子可教也。。。 到穆尼尼奥手里面首先你要会防守，然后再谈其他的！<br>到瓜帅手里面，首先要证明你有头脑！<br>到了温格手里面，你要有天赋！ 当年克鲁伊维特一脚送阿贾克斯登顶欧冠也差不多是这年龄吧，现在儿子都这么大了。 去曼联夺欧联杯还是联赛杯？傻逼球盲废物鸟粪们的废物嘢爹穆表子毁人不倦，参考线是姆希塔良，说吧小克鲁伊维特你想来做龟公还是内鬼？？ 和他爹长的真像 人家是调侃，真的！去曼城的话，可以提高跑位，传接球等的意识和技术，去曼联的话就等着摆大巴 哈哈去曼联夺欧联杯还是联赛杯？傻逼球盲废物鸟粪们的废物嘢爹穆表子毁人不倦，参考线是姆希塔良，说吧小克鲁伊维特你想来做龟公还是内鬼？？ 哈哈去曼联夺欧联杯还是联赛杯？傻逼球盲废物鸟粪们的废物嘢爹穆表子毁人不倦，参考线是姆希塔良，说吧小克鲁伊维特你想来做龟公还是内鬼？？ 克鲁一维特185以上没道理儿子矮爸爸那么多吧 这是踩单车？？？？ 从身高看有疑问，但是长得完全就是他爹18岁的模样 瓜帅要的人不止有情商还要有技术，看流畅的配合和突破，鸟粪的废物嘢爹只需要人高马大会功夫足球即可 去曼城差不多，老爸和瓜还是队友呢。 😂克鲁伊维特·王…… 长的跟克鲁伊维特恨不得一个模子出来的，你能明白什么。 球风模板:孟菲斯德佩。。。 如果不是脸长和他爸得一模一样，这身高真怀疑是不是亲生的，1.72在荷兰算是侏儒了 说是克鲁伊维特的儿子，咋越看越像隔壁的奥维马斯呢？ 魔力鸟放过他吧！！！好好圈养自己的黑又用，挺好！！不要还没有真正成才的年轻人了！！！ 罗本换了右脚的样子。 。。。克鲁伊维特那么高怎么生儿子个子那么矮。。。 嘿，问题是看脸就知道绝对亲生的 来巴萨吧，巴萨缺人 阿贾克斯出来的球员适合利物浦曼城巴萨这种球队 最后一个球停球真好 如果在巴萨那就是阿牛了 荷兰终于有新血冒出 跟德佩比哪个厉害？ 7号的理想人选，但鸟在曼联7号也会变0号 英超后卫会贴身的，宁可球过，也要用膝盖顶带球的人，手上不拉人都不是后卫，急了抱摔 哈哈去曼联夺欧联杯还是联赛杯？傻逼球盲废物鸟粪们的废物嘢爹穆表子毁人不倦，参考线是姆希塔良，说吧小克鲁伊维特你想来做龟公还是内鬼？？ 他爸一米九多，他为何才一米七二？ ",
        "Link": "http://comment.sports.163.com/sports2_bbs/D6GBG34100058781.html"
    },
    "Article": "网易体育12月25日报道：英国《每日邮报》消息，荷兰传奇球星克鲁伊维特的儿子又进球了，在阿贾克斯对阵威廉二世的比赛里，小克鲁伊维特（贾斯汀-克鲁伊维特）打入了一记精彩的世界波，而他是曼联主帅穆里尼奥的猎物。小克鲁伊维特（左）与队友庆祝进球前不久，阿贾克斯的管理层发生了重大变故，主教练马塞尔-凯泽尔、助理教练斯皮克曼、教练组成员博格坎普全部遭到了解雇。在对阵威廉二世的比赛里，阿贾克斯率先丢掉了一球，在比赛里0-1落后。不过在丢球后仅仅10分钟，小克鲁伊维特就帮助阿贾克斯扳平了比分，当时他在左边路拿球，面对防守球员，贾斯汀漂亮的踩着单车向禁区突进，随后又一个变向轻松的摆脱防守球员，在对方两人上前封堵射门角度之前，小克鲁伊维特在禁区线内一步的位置右脚重炮轰门，皮球打入死角，对方门将无力扑救。小克鲁伊维特踩单车轰世界波在小克鲁伊维特打入世界波后，阿贾克斯又连续的打入两球，最终3-1击败了威廉二世，此役过后，他们落后领头羊5分。值得一提的是，在11月份，阿贾克斯对阵罗达JC的比赛里，小克鲁伊维特还有过帽子戏法的表现，当时他的进球也是个个精彩。当时他的第一个进球是禁区外爆射，非常的漂亮，而第二个进球，也是踩单车后推射远角。小克鲁伊维特此前曾上演帽子戏法小克鲁伊维特的身高是172cm，这意味着他并非像父亲那样，是前场的进攻支柱，他是一名非常不错的突击型前锋，据称，穆里尼奥已经盯上了这名荷甲天才，而在上个赛季欧联杯决赛后，穆帅和小克鲁伊维特也有交流。本文来源：网易体育作者：补刀责任编辑：冯昊天_NSJS2656",
    "PublishTime": "12/25/201710:13:02",
    "KeyWords": "曼联,荷兰足球"
}