{
    "KeyWords": "签证,远东,中国,俄罗斯",
    "PublishTime": "01/02/201809:02:53",
    "Comment": {
        "Link": "http://comment.news.163.com/news_guoji2_bbs/D74QLCK70001875O.html",
        "Content": "去港澳台七天日本人来中国免签能呆十多天哈哈哈中国人 我的领土，还签什么证？ 谁去 傻逼从清朝开始就割给沙俄了你还在这叫唤呢 俄狗死妈 sb，什么是你的，这些地方跟你有什么关系，脑残 再买两桶高价油，压压惊 别喊了，领导听到你这么喊，腿都打抖！ 中俄友谊源远流长[窃笑][窃笑][窃笑] 那个地方叫伯力，不叫什么哈巴洛夫思克 还你份工作如何 自己的地方，呵呵，你醒醒吧，sb 脑残 还我海参崴，还我库页岛 去自己的地方才尼玛八天 外加一個俄羅斯大妞，一樓怎樣？ 傻逼你是个几把东西 一楼这种键盘侠太多了，国内游还没被宰够啊，5A景点门票哪个不是300开档，吃饭贵，住宿贵，节假日还上浮50%。去俄罗斯远东，会便宜到你不可想象。 普京又要竞选连任了？ 你要求北方四岛？ 一次签证,可以进出一次.最多停留7天. 我想一辈子呆在那里，享受俄姐的幸福。 俄狗死妈 不免签,也未开放落地签,需提前办理签证,但很简单,几乎没有拒签 傻逼从清朝开始就割给沙俄了你还在这叫唤呢 sb，什么是你的，这些地方跟你有什么关系，脑残 HK7天 别喊了，领导听到你这么喊，腿都打抖！ 挽尊 我们老百姓还算人吗？ 去港澳台七天日本人来中国免签能呆十多天哈哈哈中国人 我的领土，还签什么证？ 自己的地方，呵呵，你醒醒吧，sb 广东这些猴子被黑鬼日的认洋人为父？ 俄罗斯真朋友，这个免费签证相当于香港自由行七天，去美国两次拒签一次，害得老子损失宾馆预订费。 再买两桶高价油，压压惊 你能上得了网再说 还你份工作如何 咋去？ 谁去 俄狗死妈 想好多好多话 不错了，去香港好像还没八天， 那个地方叫伯力，不叫什么哈巴洛夫思克 符拉迪沃斯托克属于牡丹江<br>哈巴罗夫斯克属于佳木斯<br>萨哈林岛…无主，给爸爸了 中俄友谊源远流长[窃笑][窃笑][窃笑] 已经快死了。 鸡鸡都耷拉下来了， 呵呵 还我海参崴，还我库页岛 去自己的地方才尼玛八天 外加一個俄羅斯大妞，一樓怎樣？ 傻逼你是个几把东西 是你家北方四岛吗？ 一楼这种键盘侠太多了，国内游还没被宰够啊，5A景点门票哪个不是300开档，吃饭贵，住宿贵，节假日还上浮50%。去俄罗斯远东，会便宜到你不可想象。 ",
        "Total": 320,
        "Reply": 39
    },
    "Title": "俄远东城市对中国公民开放电子签证 最多可停留8天_网易新闻",
    "Article": "（原标题：俄罗斯远东城市对我公民开放电子签证）据俄罗斯远东发展部公布的消息，从2018年1月1日开始，俄罗斯远东地区的勘察加边疆区和萨哈林州开始对包括中国在内的18个国家公民开放电子签证。旅行者需要提前至少4天在俄罗斯外交部网站上申请，办理过程完全免费。持电子签可在上述地区最多停留8天。不过，目前凭电子签证进入上述两个地区只能通过萨哈林的科尔萨科夫港口和勘察加的彼得罗巴甫洛夫斯克港口入境。2014年以来，俄罗斯政府加大了对远东地区的开发力度，在俄远东地区兴建符拉迪沃斯托克自由港和若干个跨越式发展区，旨在吸引俄国内和外国投资者投资俄远东地区，加快俄远东地区社会经济发展。本文来源：央视新闻责任编辑：程钢_NN7377",
    "Source": "Netease",
    "URL": "http://news.163.com/18/0102/09/D74QLCK70001875O.html"
}