{
    "Article": "（原标题：橡胶子弹致死率达3%！美报告称非致命武器对人体伤害大）参考消息网12月28日报道据法新社12月18日报道称，据一份评估报告称，因橡胶子弹受伤的每100人中，约有3人因此而死亡。报告呼吁采取其他的人群控制措施。报道称，美国的一个研究人员团队研究了1990年到2017年期间发生在以色列和巴勒斯坦领土上、美国、印度、北爱尔兰、瑞士、土耳其和尼泊尔的橡胶子弹致伤、致残以及死亡的26篇科学报告。他们发现，上述报告总共纪录有1984人受伤，其中53人死亡，约占3%。该研究团队在一项声明中说：“约300名（15.5%）幸存者因橡胶子弹而留下永久残疾，通常是头部和颈部。”“其中大部分残疾都是致盲或因腹部受伤而导致脾脏或部分肠子被摘除。”另外，英军在上世纪70年代使用了动力冲击弹或橡胶子弹，用于对付北爱尔兰的暴徒。在上世纪80年代则用以对付南非的示威者。此外，以色列的安全部队也曾采用这种子弹。图为警用橡皮子弹这些子弹旨在击晕而不是杀死目标人群，作为一种对付暴徒及人群控制的手段。但这种子弹在使用过程中造成很多人死亡。研究报告的作者写道：“我们发现，在过去的27年，这些子弹造成了重大的致伤率和死亡率。”“鉴于其固有的误差，不当使用的可能以及重伤和死亡造成的相关的健康后果，动能子弹似乎不适于作为人群控制的武器使用。”该研究团队指出，其他人群控制武器，比如催泪弹、高压水枪、声波武器和电击，过去几年也曾造成“重大伤害”。他们在在线杂志《英国医学杂志·公开》期刊上写到：“这一讨论并没有以任何方式表明，其他武器更安全。”但它的确暗示，“在任何情况下都必须要考虑适当使用武力和武器，”研究人员总结道，并呼吁紧急创建使用人群控制武器的“国际指针”。（编译/许燕红）本文来源：参考消息网责任编辑：姚文广_NN1682",
    "PublishTime": "01/02/201810:08:24",
    "URL": "http://war.163.com/18/0102/10/D74UDBR3000181KT.html",
    "Source": "Netease",
    "Comment": {
        "Content": "视频的标题主要是《实拍防暴警察连开数十枪射抗拆村民》 这个问题比较复杂，一个论点是好死不如赖活着；另一个论点是与其让人残疾的痛苦活着，还不如一枪打死好。到底哪个更好，实无定论，心证罢了。 1.8j，我们怎么会那么不开明 那还是用重机枪伤害小 在香港人眼里，1.3焦耳算个毛 O(∩_∩)O哈哈~ 是1.8焦 屁不光有动能啊，如果算上热能，体温大约是310开，平均一个屁有9.6E+20个原子，在310开的温度下差不多是6焦耳的能量。另外，如果加上屁里的CH4燃烧的情况下可以释放的化学能，又有大约100焦耳 刚扔了块小石头超过1.3J...瞬间有超能力的感觉，右手要不要备案下 最好的办法就是喷辣椒水 老朋友卡扎菲从来没有这般烦恼，直接上导弹，你看，效果一下子就出来了。 那我放个屁还有坐穿牢底喽 那要看你站对了队木有 刚扔了块小石头超过1.8J，右手要不要备案下 08年洋大爷要进城 真敢说 你的屁威力这么大么？ 秤砣才是好办法 秤砣不行，动能超标了。 您了听说过辣椒过敏致死的吗，赶寸了，吃口东西都能卡食道卡死，这个就能算是命吧！[骷髅] 论1.3焦的重要性 南宁强拆开48枪视频，估计也是橡皮子弹。 我放个屁恐怕都有1.3J~~ 视频的标题主要是《实拍防暴警察连开数十枪射抗拆村民》 用水枪不好吗。 这个问题比较复杂，一个论点是好死不如赖活着；另一个论点是与其让人残疾的痛苦活着，还不如一枪打死好。到底哪个更好，实无定论，心证罢了。 论1.3焦的重要性 1.8j，我们怎么会那么不开明 美国jc也可以在这一秒内赏你一个弹夹，真是先进 那还是用重机枪伤害小 也挺厉害 08年洋大爷要进城 O(∩_∩)O哈哈~ 是1.8焦 这种万恶的东西谁造出来的 坦克呢？ 以后你 南霸天的奴才。 最好的办法就是喷辣椒水 秤砣才是好办法 那我放个屁还有坐穿牢底喽 警察应该改用BB弹枪 那要看你站对了队木有 刚扔了块小石头超过1.8J，右手要不要备案下 傻啊，没事找事，小心膀子给你扣在警局 真敢说 安全的还是高压水枪安全些。 你的屁威力这么大么？ 老朋友卡扎菲从来没有这般烦恼，直接上导弹，你看，效果一下子就出来了。 还不是家长闹的，以前小孩被bb枪打伤打瞎眼的新闻少了？ 秤砣不行，动能超标了。 在香港人眼里，1.3焦耳算个毛 您了听说过辣椒过敏致死的吗，赶寸了，吃口东西都能卡食道卡死，这个就能算是命吧！[骷髅] 兹有任泉，多好，，迈错腿都可能被打死，呵呵 吓得屁民怕不怕？呵呵 刚扔了块小石头超过1.3J...瞬间有超能力的感觉，右手要不要备案下 视频都有，5楼你说为什么不敢说？ 我们从来不曾为这种事情烦恼过。 法国🇫🇷总统马克龙 ",
        "Reply": 40,
        "Total": 635,
        "Link": "http://comment.war.163.com/news_junshi_bbs/D74UDBR3000181KT.html"
    },
    "Title": "橡胶子弹致死率达3%！报告称非致命武器伤害大_网易军事",
    "KeyWords": "子弹,武器,致命武器,橡胶"
}