{
    "Title": "两部门拟规定：医药代表不得承担药品销售任务_网易新闻",
    "URL": "http://news.163.com/17/1225/18/D6H8DMAU0001899N.html",
    "Source": "Netease",
    "Comment": {
        "Total": 642,
        "Reply": 90,
        "Content": "请看爱情与灵药 头不用医，光医脚就行了 如果在民选总统国家，投票时，民众就会要求竞选者日后兑现免费医保承诺。 有利益就捞，有责任就推，官僚作风，官僚习气，别指望了 请看神盾局特工 中国就是你这种无知脑残太多了，卖房没有销售？卖产品能没有销售员？没有医药代表医生从哪知道新药品？ 现在凡是医改教改的报道我一律不看直接开骂，特么地改了这么多年越改越糟，是特么笨还是特么的故意的 竞争是对于终端市场而言，药品的终端市场是“病人”，直接销售者是“医生”，医生是通过病人的病情“有偿”配给病人的，“有偿配给制”的商品是没有竞争的，是根据“利益”、“领导意向”等选择与病情相符的药品进行配给，药品的竞争只是药厂与医院、医生、采购商等之间的“利益优先性竞争”，不是真正的竞争，医药代表和医药销售只是其中的“利益再分配”协调者和获得者。 爱情与灵药～～医药代表的电影[大笑] 以药养医的现象是医药代表造成的？装腔作势的要改革，无非是换一批利益代言人 卧槽，医药代表不承担销售任务？！那药厂招聘人是嫌爹少吗？ 医药代表是干什么的？ 请看当幸福来敲门 这其中的问题等你真正的参与到这个行业中，并成为这个行业的一个环节后你就知道你现在的想法有多么简单天真了 全民免费医疗啥时候能实现？ 生活大爆炸里Penny就是医药代表 很快医药代表就换名 应当把医药代表取消了！用药单位直接和生产厂家挂钩！生产厂家和用药单位来一个直销！这样就没有中间环节了！老百姓得到了实实在在的实惠 头疼医头脚疼医脚 用药单位需要利润支撑，如果从厂家直销，医院平进平出一定亏本，即使国家不允许从药价赚钱，医院还是千方百计套取利润，利润从哪里来？不就是生产厂家赚到的利润返给医院。即使直销也好，中间商也好，肯定有中介完成交易流程，中介可以是经销商，可以是医药代表，或任何名义的中间人。对于药物企业，质量好的药需要研发成本，利润就不如质量差的仿制药，所以医院一味追求利润导致老百姓用上大量劣质药，又贵又没疗效的中成药，乱打输液乱用抗生素。一楼说的取消中间环节是大势所趋，但是前提是用药单位必须恢复纯公益性质，医药代表回归医学本质。可惜上梁不正那么久，下梁早就歪得无可救药。 事实证明，应该把搞医改的官员绳之以法，祸国殃民。 医生收入全靠医药带表行 2楼天真了，一个药企靠一种药能成百亿资产，你以为发改委真为老百姓着想啊 有但是国外的医药代表是提供药品临床信息服务的不像我国行走在医院的人民币而已 销售员不得承担销售任务。这他妈是狗屎出的主意 去药店买点感冒药看看，都翻倍了！还免费，别涨价就烧高香。 他妈的是医药代表的事情？ 医院领导收入少一大截。 一针见血 怎么样治疗费用降低才知道你的作法对不对 如果是医药代表抬高的药价，那就枪毙医药代表吧，全国人民将欢呼赞同。 那医药代表干什么？ 医药代表就类似于外地各省市的驻京代表。起什么作用大家都懂。 医药代表制度就是一个垃圾一般存在的制度， 应当把医药代表取消了 吃回扣早就列入行贿受贿，但奇怪的是，医生吃回扣是法外之地 头痛医脚 故意的啊。关键问题它们都知道，但不会去解决，因为它们是最大收益者。 只要有竞争，就需要有销售，不管是什么行业 你们球都不会管 医药代表不卖药？还卖身？看不懂！ 外国有医药代表没？ 最好祈祷自己不要生病不要去医院，不然总有被坑的一天 想太多，中间太多利益关系，这不是有发改委这些定价吗？直接算成本药企合理利润配送这不是从源头堵住？ 医药代表是干什么的？ 头不用医，光医脚就行了 如果在民选总统国家，投票时，民众就会要求竞选者日后兑现免费医保承诺。 可惜没有药 爱情与灵药～～医药代表的电影[大笑] 有利益就捞，有责任就推，官僚作风，官僚习气，别指望了 请看神盾局特工 哈哈，4楼太认真，其实我前半部分就说了利益者太多！我当然知道有关部门不会这样做，这些只是形式主义，做给老百姓看的罢了…… 现在凡是医改教改的报道我一律不看直接开骂，特么地改了这么多年越改越糟，是特么笨还是特么的故意的 竞争是对于终端市场而言，药品的终端市场是“病人”，直接销售者是“医生”，医生是通过病人的病情“有偿”配给病人的，“有偿配给制”的商品是没有竞争的，是根据“利益”、“领导意向”等选择与病情相符的药品进行配给，药品的竞争只是药厂与医院、医生、采购商等之间的“利益优先性竞争”，不是真正的竞争，医药代表和医药销售只是其中的“利益再分配”协调者和获得者。 请从审批和定价环节入手，从源头抓起 医院不卖药，就可以解决问题，偏偏不作为 对，医院不卖药，市场不卖商品，4s店不卖车，学校不卖书，游乐园不卖票，饭店不卖吃的，就不会有那么多问题了，偏偏不作为 销售员不得承担销售任务。这他妈是狗屎出的主意 一楼sb,买一瓶药也要找厂家？ 承担的话，怎么处理？ 你们这是什么逻辑？脑子里面装的什么？ 用药单位需要利润支撑，如果从厂家直销，医院平进平出一定亏本，即使国家不允许从药价赚钱，医院还是千方百计套取利润，利润从哪里来？不就是生产厂家赚到的利润返给医院。即使直销也好，中间商也好，肯定有中介完成交易流程，中介可以是经销商，可以是医药代表，或任何名义的中间人。对于药物企业，质量好的药需要研发成本，利润就不如质量差的仿制药，所以医院一味追求利润导致老百姓用上大量劣质药，又贵又没疗效的中成药，乱打输液乱用抗生素。一楼说的取消中间环节是大势所趋，但是前提是用药单位必须恢复纯公益性质，医药代表回归医学本质。可惜上梁不正那么久，下梁早就歪得无可救药。 卧槽，医药代表不承担销售任务？！那药厂招聘人是嫌爹少吗？ 陪睡 请看当幸福来敲门 这其中的问题等你真正的参与到这个行业中，并成为这个行业的一个环节后你就知道你现在的想法有多么简单天真了 全民免费医疗啥时候能实现？ 生活大爆炸里Penny就是医药代表 请看生活大爆炸 很快医药代表就换名 应当把医药代表取消了！用药单位直接和生产厂家挂钩！生产厂家和用药单位来一个直销！这样就没有中间环节了！老百姓得到了实实在在的实惠 头疼医头脚疼医脚 以药养医的现象是医药代表造成的？装腔作势的要改革，无非是换一批利益代言人 放屁。 事实证明，应该把搞医改的官员绳之以法，祸国殃民。 中国就是你这种无知脑残太多了，卖房没有销售？卖产品能没有销售员？没有医药代表医生从哪知道新药品？ 对！如果按照一楼说法去实施，大部分药厂都会倒闭，国家税收缩水，失业人口增加几个点，税收减少的同时政府却要支出几倍税收的费用去投入医疗。药厂出现垄断，到头来药价还是得涨涨涨。参考现在两桶油和电信行业…… 2楼天真了，一个药企靠一种药能成百亿资产，你以为发改委真为老百姓着想啊 有但是国外的医药代表是提供药品临床信息服务的不像我国行走在医院的人民币而已 吃回扣早就列入行贿受贿，但奇怪的是，医生吃回扣是法外之地 医生收入全靠医药带表行 这就好比不然妓女卖Y，不然嫖客PC一个性质，而且还用了一个“拟”多么传神啊，中国文字博大精深！ 一楼太幼稚 治标还得治本，我国政策让制药企业为非作歹，药价彪升，百姓不堪重赋，药价放开需有严格管控， 医院领导收入少一大截。 不应该有医药代表 现在网络信息这么发达！为什么不都在网上竞价，进货？ 最好祈祷自己不要生病不要去医院，不然总有被坑的一天 那医药代表干什么？ 医药代表就类似于外地各省市的驻京代表。起什么作用大家都懂。 应当把医药代表取消了 取消医药代表，百姓才能得实惠，医药代表就是百姓的坑 你到印度去吧，那边全免费，外面人在哪里也是全免费的。 头痛医脚 那到底是先有医院才有药品厂家？没人做业务？是不是我要开厂前先去跟医院说：老板，我最近要开一个药厂，请问你需要多少药……动不动就砍掉中间环节，没有渠道厂家去吃屎就有份 故意的啊。关键问题它们都知道，但不会去解决，因为它们是最大收益者。 只要有竞争，就需要有销售，不管是什么行业 看来监管当局觉得药厂缺个爹 哈哈哈哈哈哈哈哈 你们球都不会管 医药代表不卖药？还卖身？看不懂！ 外国有医药代表没？ 祈祷自己睡的桥洞不被占用不要去买房，祈祷自己坐的2路汽车不要太挤不去买车，祈祷自己孩子自学成才不要去学校，不然总有被坑的一天 用药单位需要利润支撑，如果从厂家直销，医院平进平出一定亏本，即使国家不允许从药价赚钱，医院还是千方百计套取利润，利润从哪里来？不就是生产厂家赚到的利润分给医院。即使直销也好，中间商也好，肯定有中介完成交易流程，中介可以是经销商，可以是医药代表，或任何名称的中间人。对于药物企业，质量好的药需要研发成本，利润就不如质量差的仿制药，所以医院一味追求利润导致老百姓用上大量劣质药，又贵又没疗效的中成药，乱打输液乱用抗生素。一楼说的取消中间环节是大势所趋，但是前提是用药单位必须恢复纯公益性质，医药代表回归医学本质。可惜上梁不正那么久，下梁早就歪得无可救药。 想太多，中间太多利益关系，这不是有发改委这些定价吗？直接算成本药企合理利润配送这不是从源头堵住？ 神奇，要不改名药品代表？ 那医药代表干什么？ 去药店买点感冒药看看，都翻倍了！还免费，别涨价就烧高香。 怎么监管！？ 大家都吃土吧 扬汤止沸，医院医生医务人员都想着怎么去赚钱想着走市场经济，那怎么行。应该政府干预评价药价和医价，同时提高医务人员的物质待遇和身份待遇，荣誉感，给这个群体社会定位，严格准入制度和法律。 能控制么 不销售，再聘一波人，解决就业好方案 都是谁在研究的文件，一点意义没有 怎么样治疗费用降低才知道你的作法对不对 药品企业为什么能上市？ 可能吗？那还要医药代表干什么呢？？？ 如果是医药代表抬高的药价，那就枪毙医药代表吧，全国人民将欢呼赞同。 他妈的是医药代表的事情？ 没人说话，有抵触情绪？ 医药代表制度就是一个垃圾一般存在的制度， 卧槽，医药代表不承担销售任务？！那药厂招聘人是嫌爹少吗？ 全民免费医疗啥时候能实现？ 不承担销售任务，难道承担学雷锋任务？ 你就换个名字不会嘛？ 一直以为医药代表就是销售 头痛医头 那谁负责呢？ 那谁销售？ 需要政府规定一个公司的内部职位是干什么？ 给医生买饭取快递呗 那工厂的生产部门会被玩死的 太幽默了 应当把医药代表取消了！用药单位直接和生产厂家挂钩！生产厂家和用药单位来一个直销！这样就没有中间环节了！老百姓得到了实实在在的实惠 医药代表干嘛去 头痛医脚 ",
        "Link": "http://comment.news.163.com/news2_bbs/D6H8DMAU0001899N.html"
    },
    "Article": "（原标题：医药代表从业新规征求意见：医药代表不得承担药品销售任务）新华社北京12月25日电国家食品药品监督管理总局和国家卫生计生委日前发布《医药代表登记备案管理办法(试行)(征求意见稿)》，向社会公开征求意见。意见稿提出，医药代表不得承担药品销售任务，不得参与统计医生个人开具的药品处方数量，不得直接销售实物药品，不得收款和处理购销票据，不得进行商业贿赂。意见稿提出，医药代表不得误导医生使用药品，不得夸大或误导疗效，不得隐匿药品不良反应。根据意见稿，医药代表的姓名、性别、照片、身份证号等信息需在登记备案平台备案。药品生产企业是登记备案主体，应当对其聘用或授权的医药代表在统一的平台上进行登记备案。医药代表登记备案平台由食药监总局指定。据了解，医药代表是指代表药品上市许可持有人(持有药品批准文号的企业)在中华人民共和国境内从事药品信息传递、沟通、反馈的专业人员。进口药品总代理商可以代理境外药品上市许可持有人负责医药代表的登记备案管理工作。药品销售人员不属于医药代表。本文来源：新华社作者：陈聪责任编辑：李杭_BJS4645",
    "PublishTime": "12/25/201718:38:32",
    "KeyWords": "医药代表,药品,医生"
}