{
    "Source": "Netease",
    "KeyWords": "顺德,广东,枪支",
    "URL": "http://news.163.com/17/1225/08/D6G6QNO2000187VE.html",
    "PublishTime": "12/25/201708:36:00",
    "Comment": {
        "Content": "多多健身吧警察們，我在裡的警察沒有個啤酒肚都不好意思說自己是警察 这叫因公殉职 你的敬意够廉价 在我们民企，非工作原因导致的死亡连工伤都不算。更别提…两个字。 作孽啊 农民工尼玛一个月多少钱，民警一个月多少钱。<br>农民工混的最次的也1万多，我手下拔钢筋的一个月下来1.4，料尼玛自己还留一半 社保白交了！ 走好 连数字都算不上 病了不休息……这媒体想宣传什么思想？ 57岁还值班。。。有很多过50就不值班了。 超生 他们不用自己交 在值班岗位上病故 你听说过人民的农民工这身份吗？ 应按工伤处理，咋和牺牲搭边了呢？ 各类职业岗位都有当班死亡的这种情况。 向这一位警察致敬 值得尊敬 工伤都不一定算 快退还值班领导小的多唉人脉 这种事在企业也时有发生 可惜。都快退休了，一个幸福家庭从此变得不幸福了！默哀 因病叫病故吧，牺牲谈得上吗 烈士吧，毕竟病死，与病魔作斗争！ 有你这么算的吗？你怎么不说农民工干一天活赚一天的钱，一年工作几天挣几天的工资，平时生病或者工期结束没活的时候一分钱没有，任何福利也没有，今天你敢生病，明天就敢开除你，干不动了的时候，还有工头会招你干活吗？这些有可比性吗傻逼？ 还没领社保 英雄一路走好 养老保险还没领 一线人员都不容易，人手少，压力大，面对矛盾多。 心肌梗塞？一路走好 他们好像不用自己交吧 问个问题，农民工干活累死，可以叫牺牲吗？ 基层确实不容易。走好。 过劳死 有你这么算的吗？你怎么不说农民工干一天活赚一天的钱，一年工作几天挣几天的工资，平时生病或者工期结束没活的时候一分钱没有，任何福利也没有，今天你敢生病，明天就敢开除你，干不动了的时候，还有工头会招你干活吗？这些有可比性吗傻逼？ 值得尊敬 农民工尼玛一个月多少钱，民警一个月多少钱。<br>农民工混的最次的也1万多，我手下拔钢筋的一个月下来1.4，料尼玛自己还留一半 还没领社保 走好 连数字都算不上 前几天才有四个环卫工在工作时被撞死，向他们致敬！ 我奇怪他怎么有这么多儿女 早就该病退了 你听说过人民的农民工这身份吗？ 向这一位警察致敬 累的 有农民工干活累死的么，退一万步说，你干活累了可以休息，人家值班听从安排，有服务社会的性质，薪资不高，但是有社会地位，得了个称号人没了，又如何？ 家属可以申请继承 因病叫病故吧，牺牲谈得上吗 烈士吧，毕竟病死，与病魔作斗争！ 该加强锻炼了 人死了，交的保险金怎么办？ 呵呵 好人为什么都这样啊😭 哎悲哀 57岁还值班熬夜，警察真的应该52前退休 刚入职民警，4线城市的县份6000一个月市里面8000。是刚入职几个月的。做了几年的都过万。不过工作强度也很大。也值得那个收入。但是协警真的可怜 打工的干到六十五，身体还倍棒 我上班路上，由于天桥上的护板损坏，没有保护，没有警示，导致我不慎摔伤都不算工伤，人家说必须得在公交车、地铁上或者在公司内导致的受伤才算 😭😭😭😭 多多健身吧警察們，我在裡的警察沒有個啤酒肚都不好意思說自己是警察 你的敬意够廉价 作孽啊 唉，为什么不去种地呢，农民多幸福 社保白交了！ 请问你那里还招人吗，拔钢筋的那种 把锄地的锄头，平时干活的农田以及牵着的耕牛，平时的什么肩周炎啊腰肌劳损的病例证明什么，照片病例都给我，我给你发个算农民耕地牺牲在岗位的新闻通稿来 病了不休息……这媒体想宣传什么思想？ 这个行业，机会是留给有准备的人的，看你怎么理解了 工伤都不一定算 养老保险还没领 应按工伤处理，咋和牺牲搭边了呢？ 心脏病 糊说八道 这种事在企业也时有发生 因公和因工是不一样的，所以，，，， 他们不用自己交 呵呵 他们好像不用自己交吧 问个问题，农民工干活累死，可以叫牺牲吗？ 这叫因公殉职 在我们民企，非工作原因导致的死亡连工伤都不算。更别提…两个字。 主题是什么？ 生活不容易,大哥一路走好~~~ 不应该 57岁还值班。。。有很多过50就不值班了。 超生 默默无闻， 在值班岗位上病故 看没看到，警察叔叔工作多累多辛苦 一路走好！！ y一路走好 一路走好 一路走好 终于要，熬到头，却 一路好走 快退还值班领导小的多唉人脉 可惜。都快退休了，一个幸福家庭从此变得不幸福了！默哀 带病上岗 心肌梗塞？一路走好 英雄一路走好 寒心 一线人员都不容易，人手少，压力大，面对矛盾多。 👏👏👏👏👏👏👏👏 多注意身体 难过 各类职业岗位都有当班死亡的这种情况。 熬夜熬的 基层确实不容易。走好。 一路好走。 过劳死 ",
        "Total": 1245,
        "Link": "http://comment.news.163.com/news2_bbs/D6G6QNO2000187VE.html",
        "Reply": 77
    },
    "Article": "（原标题：广东顺德57岁民警值班时因病牺牲，冬至夜吃最后一顿团圆饭）12月24日凌晨3时许，广东佛山市顺德区公安局伦教派出所民警陈顺辉病倒在值班岗位上，经抢救无效不幸因公牺牲，年仅57岁。据顺德区公安局工作人员提供给澎湃新闻的文字材料显示，23日22时许，正在伦教派出所枪室值班的陈顺辉突然感觉身体不适，让门卫叫救护车。门卫保安阿锦回忆说，当时陈顺辉一边将手机交给他，一边拉开椅子坐下，“脸色一片苍白，已经透不过气了，不断地点头和用手拍打心口，还抽搐了几下。”几分钟后，120救护车迅速到达现场，陈顺辉被送往顺德第一人民医院抢救。24日凌晨3时许，陈顺辉抢救无效因公牺牲，享年57岁。陈顺辉同志生前的办公室。办公桌前再也见不到他忙碌的身影。治安中队指导员刘文锋是陈顺辉的直接领导。刘文锋表示，陈顺辉虽然年纪大，患高血压和糖尿病十多年，每天需坚持吃药控制病情，但是他对待工作一直尽职尽责，从没因年纪大或有病懈怠，从来不拖单位后腿。曾与陈顺辉一起共事的警务中队指导员周培洪也表示，陈顺辉是一头“老黄牛”，除了做好枪支管理本职工作，还参与巡逻等任务。原来，陈顺辉曾在一次交通事故中受过伤，虽行动不便，但他也坚持每月巡逻工作，带病坚守岗位。陈顺辉去世前填写的枪支领取登记本。陈顺辉（右）生前检查收发枪支管理工作照。陈顺辉有2个女儿和1个儿子，还有3个兄弟。49岁的阿添是陈顺辉的弟弟，哽咽着说，“大哥突然就走了，记得前晚冬至夜我们一家人还齐整地一起吃饭，有讲有笑。没想到，冬至夜就是我们家团圆的最后一顿饭......大嫂受到了严重打击，从昨晚开始一直痛哭到24日下午，眼泪都流干了。”据阿添介绍，为了避免84岁母亲受刺激，陈顺辉去世当天，他们就把母亲送入医院住院治疗，“我们打算在大哥出殡当日再告知母亲”。本文来源：澎湃新闻责任编辑：邵小波_NN2479",
    "Title": "57岁警察值班时因病牺牲 冬至夜吃最后一顿团圆饭_网易新闻"
}