{
    "URL": "http://ent.163.com/18/0101/21/D73II2AM00038FO9.html",
    "Title": "唐艺昕张若昀低调合体 见男友被调侃老司机露笑容_网易娱乐",
    "KeyWords": "唐艺昕,张若昀,国剧盛典",
    "Article": "甜蜜同框网易娱乐1月1日报道张若昀与唐艺昕这对情侣公开恋情以后一直都很低调，就连录制2017《国剧盛典》走红毯时都低调得没有同框。今日，《国剧盛典》在安徽卫视播出，当镜头给到张若昀时才发现，原来他与女友坐在了一起，可以说是新年第一颗糖了。在《亲爱的她们》中，张若昀饰演的画家命运坎坷，但不放弃、不认输的精神也是圈粉不少。当主持人介绍称他在剧中给宋丹丹当女婿时，张若昀起身致意，被调侃“多年的媳妇熬成婆，而多年的女婿则是熬成老司机”时，坐在张若昀一旁的唐艺昕忍不住露出了羞涩的笑容。值得一提的是，录制之前的红毯上，张若昀并未与唐艺昕一起亮相，他还解释称两个人代表不同的作品，不希望大家关注作品之外的事情。不过看到嘉宾席上二人坐在一起时还是被甜到了，也算是二人在2018年撒的第一颗糖啦。本文来源：网易娱乐责任编辑：李彤_NK4455",
    "Source": "Netease",
    "PublishTime": "01/01/201821:22:01",
    "Comment": {
        "Link": "http://comment.ent.163.com/ent2_bbs/D73II2AM00038FO9.html",
        "Reply": 13,
        "Content": "网易怎么总有他俩的新闻，这俩人是谁呀 回击他,看他怎么调侃你,不能惯着. 谁知道邵氏演员董力现在在干嘛，曾经用过艺名康华，演过黑店，鹰王，游侠儿等等一些电影。 谁是男的谁是女的 看《漂亮的房子》唐艺昕是什么东西，装逼，还做作 最近在看虎啸龙吟才认识的唐，演技很垃圾， 看跑男，女的性格不错 啊哈哈哈哈哈,他自己也这么说 怎么个合体？？[狗][狗][狗] 谁是男的谁是女的 看《漂亮的房子》唐艺昕是什么东西，装逼，还做作 啊哈哈哈哈哈,他自己也这么说 看跑男，女的性格不错 这两装的，其实各玩各的 网易怎么总有他俩的新闻，这俩人是谁呀 我一直以为这俩人是兄妹。 谁知道邵氏演员董力现在在干嘛，曾经用过艺名康华，演过黑店，鹰王，游侠儿等等一些电影。 整天秀，只看能不能秀到最后。 这女的看起来怪怪的，总感觉哪里不对 最近在看虎啸龙吟才认识的唐，演技很垃圾， 回击他,看他怎么调侃你,不能惯着. ",
        "Total": 115
    }
}