{
    "URL": "http://news.163.com/17/1231/11/D6VVK24700018AOQ.html",
    "Article": "（原标题：埃及前总统穆尔西因侮辱法庭被加判3年有期徒刑）资料图：2014年11月18日，埃及开罗，埃及前总统穆尔西和其他穆兄会成员一起出庭受审。图片来源：CFP视觉中国中新网12月31日电据俄罗斯卫星网31日报道，埃及前总统穆尔西因侮辱法庭被开罗刑事法庭判处3年有期徒刑。据报道，除穆尔西外，另有19名他的支持者也被判处3年有期徒刑，其中包括埃及前议长和3名新闻工作者。同时，法庭还判处穆尔西向两位法官偿付11.2万美元的罚金。法庭之前曾表示，此前对穆尔西的判决仍然有效。穆尔西2012年当选埃及首位民选总统，执政一年后在大规模民众示威中被埃及军方解除职务。穆尔西下台后，穆兄会被埃及当局列入恐怖组织名单。穆尔西本人因实施越狱、间谍行为等多项指控而受到审判。本文来源：中国新闻网责任编辑：李天奕_NN7528",
    "KeyWords": "穆尔西,总统,埃及,法庭",
    "Source": "Netease",
    "Comment": {
        "Reply": 3,
        "Content": "穆巴拉克时代不可能做到这样，这就是中东“浪潮”的进步 6666 双击666 6666 穆巴拉克时代不可能做到这样，这就是中东“浪潮”的进步 朴槿惠是韩国的前总统，她做的任何决定都代表本国人的利益，这也很正常，让历史去评价吧！不要骂一个女人，特别是一个上了年纪的女人，何况她还曾是一个民选的总统。 双击666 ",
        "Total": 15,
        "Link": "http://comment.news.163.com/news2_bbs/D6VVK24700018AOQ.html"
    },
    "PublishTime": "12/31/201711:40:00",
    "Title": "埃及前总统穆尔西因侮辱法庭被加判3年有期徒刑_网易新闻"
}