{
    "Article": "（原标题：媒体：中国海军2017更强大战时可吓阻美军？）【环球网军事12月27日报道环球时报特约记者石留风任重】临近2017年年末，一向风头强劲的中国海军再次被中外媒体密集点名，从新舰服役、建设成就、实力变化等多个视角，回顾2017年中国海军的重大发展。新入列军舰“饺子出锅”《人民日报》《当代海军》官方公众号分别以“霸气点名”“集合检阅”为主题对2017年中国新入列军舰进行了详细盘点。从中不难看出，2017年入列的中国海军舰艇吨位大、数量多、火力强、类型多、功能全，涵盖了从航空母舰、大型综合补给舰、驱逐舰、护卫舰、测量船、电子侦察船、训练舰、远海救助拖船等多个舰种。美国海军研究学会网站则回顾了2017年若干重大军事新闻，中国海军055型导弹驱逐舰和国产航母榜上有名。《舰载武器》主编石宏对《环球时报》记者表示，从媒体盘点情况来看，2017年中国新军舰的舰名分布基本覆盖了北至内蒙古呼伦贝尔、南至贵州六盘水、东至安徽芜湖、西至青海西宁的广大地域，暗示北海、东海、南海三大舰队迎来了诸多新生力量。而且很多新舰体型相似、部件通用、功能互补，从一开始就贯彻了“全寿命成本”“模块化功能”“实战化编成”等理念，有利于信息化条件下海战编组，便于组成以航母为核心、以导弹驱逐舰为外围、以保障舰艇为支撑的远洋打击集群。全方位发展受关注不少外媒认为，中国海军在2017年迎来了较大发展和提升，由近海防御向深海大洋积极挺进，不断从远洋航行、联合演练、海外建基地等多领域全面提升战力。美国《国家利益》网站23日称，中国正在有条不紊地发展自己的蓝水远洋军事能力。中国军舰在索马里附近海域执行反海盗任务，还在非洲的吉布提建设海军基地。未来中国军队将以较高的费效比对敌人形成非对称威胁。美国《纽约时报》报道称，近年来，中国一直积极采取行动，通过快速推进海军现代化增强自身力量投射能力。近来，从东海的争议水域到斯里兰卡，都有包括核潜艇在内的中国海军舰只出没。香港《南华早报》称，不久前，中国海军的首要任务还是近海防御。如今，中国正通过投资硬件和改变战略，加紧军事交流、访问国外港口、与外国海军展开联合军演，打造一支蓝水海军。随着在海外的利益不断扩大，中国还在扩大本国海军的全球覆盖面方面加大投入。2017年在波罗的海举行的中俄海军联合军演引发外媒别样解读。美国有线电视新闻网称，中国把军舰送到地球对面至少在10年前是难以置信的。波罗的海是俄罗斯与美国及其北约盟友之间紧张关系的源头之一，中国的到来表明它希望人们认为它与这些强国平起平坐。一位美国咨询公司的分析师说：“北京开始派遣海军进行越来越多种类的尝试，让官兵积攒宝贵的远海行动经验。”美国海军研究学会网站认为，中国海军的海上演习不仅是对美国的警告，也是未来日常计划活动的基础，中国的海上战略已超越传统的“岛链”边界。吉布提军事保障基地的成立备受外媒关注。美国詹姆斯敦基金会23日称，吉布提军事基地在7月的正式启用，使中国深化在非洲外交和军事影响力变得更有持续性。该基地大大提高了中国军队为反恐、反海盗以及人道主义救援提供后勤支持的能力。虽然中国淡化该基地的军事意义，强调其后勤保障功能，但此前的实弹射击演习是该基地军事作用强化的迹象。这个基地既有利于中美反恐合作，但长期来看，也会提升中国的情报收集能力，这将给美国在该地区的军事行动和情报互动带来风险。《纽约时报》认为，吉布提基地的建设堪称中国重大战略动向，标志着北京日益扩大的全球雄心，以及对美国长期以来的军事主导地位的潜在影响。中国海军战时可吓阻美军？中国海军实力的增长变化，迅速引来了大洋彼岸美国朝野的“热切”关心以及夸张解读。美国国会调查局12月中旬发布题为“中国海军现代化以及对美国海军力量的启示”的报告，称如何应对中国军事现代化，是美国国防规划和预算的关键问题。自上世纪中叶开始，中国一直稳步建设一支现代而强大的海军。如今，在中国近海，中国海军已经成为一支令人生畏的军事力量，而且它在远海的军事活动也逐渐加强，包括在西太更广阔的海域、印度洋及欧洲附近海域。报告称，中国希望其海军成为一支具备“反介入/区域拒止”能力的力量，可以吓阻美国在台湾及其他近海地区冲突发生时的干涉行动，或降低美军干涉的有效性。中国人民解放军在总体能力上不如美军，但他们不需要赶上美军就能主宰周边地区。未来5到15年里，如果美中军队保持大致发展轨道，美国在亚洲的支配地位将会逐渐下降，未来中美冲突中，解放军有能力构建本土作战的海空军早期优势。在某些地区突发事件中，这种时空或局部优势可能使解放军实现有限作战目标。本文来源：环球时报-环球网。更多精彩，请登录环球网http://www.huanqiu.com责任编辑：姚文广_NN1682",
    "Source": "Netease",
    "KeyWords": "中国海军,美军,军舰,舰艇",
    "Title": "媒体：中国海军2017更强大 战时可吓阻美军？_网易军事",
    "Comment": {
        "Total": 3526,
        "Content": "不意淫睡不着不觉！ 因为当年美帝的参与，4楼没能成为小日本的亲儿子，所以恨极了美帝。 他娘要是有爱国心就应该主动奉献一下。 掩耳盗铃的功夫真心了得............ 中印几百亿美元的贸易量，让洞浪都不敢打了。<br>中美贸易量多了几十倍，中国怎么可能敢跟美国打？<br>演戏的好好演，观众好好看。 战时解放军应打败骄横不可一世的美军。 为他国的自由而战，牛逼，角度刁钻，思路清奇，可惜不是人的思路 说明它们惶惶不可终日 吓阻不可能，吓尿、震精、失落、后悔莫及、中逼赢……是一定的……！ 自己给自己壮胆。。。 楼上还是去看新闻联播好，就别在这丢人现眼了 用什么吓阻？潜艇么？或者用0条随时能作战的航母，对抗人家10条随时能作战的航母？其实伤伤伤的关键在于——为何而战？把当下幸福生活赐予对岸么？让对岸也海淘奶粉？ 红警里有可能 我有个朋友,跟这作者差不多,也是爱编故事去年走的,走的时候并不安详,尸体在太平间抽搐了三天,火化的时候烧得滋滋响,嘴里还在嚎叫,烧了几个钟头才烧完,烧完以后上了灵车,出门就翻车了,骨灰洒了一地,还被风吹走了不少,刚想把剩下的扫起来,迎面来了一辆洒水车,唉…楼下队形跟上 傻逼环球时报！ 中国吹牛逼的本事所向无敌 美国驻日本占领军像日本的女人们问候新年好，感谢这一年来日本女性的殷勤伺候，感谢日本男人们辛苦的看门端尿壶，送纸巾！更是感谢这些年生下的儿子们这么孝心，你们虽然身在中国，但是我们想着你们！在新的一年里，我驻日本占领军会再接再厉，也希望日本女人能多喊几句亚麻跌……————大不列颠.美跌.驻日韩占领军 吹捧也是一种腐败！没有经过战争只能是吓别人。美国人是吓大的吗？ 靠欺骗壮大的 掩耳盗铃的功夫真心了得............ 整天夜里吹口哨 横店不行……？ 海带灭航母，雾霾灭F22，嘴炮统一全宇宙！ 哈哈哈哈哈 中国海军无心吓阻美军，美军见到中国海军情不自禁地都要尿。哈哈哈！ 给你傻逼提个醒，美国为越南而战死了几万人，美国也为韩国而战，死过几万人，现在美国在为阿富汗而战，在为叙利亚而战，在为自由而战，你傻逼说你是井底的蛤蟆一点也不过分 美帝吓一跳<br><br>嚯，游乐场里的东西都开出来了 关键是那么多人质在人家那里 h千万别低估美国的军事保护承诺，三八线、琉球海槽、台湾海峡，这些都是红线。 用海带啊 印度大摇大摆的进驻洞朗，大小便71天，你又是声嘶力竭的谴责，又是气急败坏的军演，印度都不鸟你，你还想吓阻美国？ 吓阻不可能，吓尿、震精、失落、后悔莫及、中逼赢……是一定的……！ 梁静如真好，又给了咱这么多吹B的勇气！！ 狗奴才混球屎报 傻逼官媒一直在自说自话，已经没人信了。 自己给自己打气，能被你忽悠的还有几个? 震精了，吓尿了 毛子还有几个干儿子和毛子一起祸害着文明世界和人类 美国为台湾而战，你当美国sb吗 坏球屎报也算媒体？ 苏额比那萃更坏更邪恶的垃圾，发明的主意对人类的危害至今还在 人家日本女人为了自己国家的战后重新建设牺牲那么大，3楼你回家看你娘有没跟的主子写日记啊 天天吹牛逼啊 美军：吓劳纸一跳！<br><br>随手一拳，KO！ 那还等什么？去收复弯弯啊。难道你还等着我的大玉棒给你含着一辈子算了？ 果然是華為團狗紅粉蛆智商！ 那不是再把普大帝拉在一起，就可实现马大爷的遗梦了一一哈哈哈 总觉得中国这航母取“辽宁舰”，非但没有一点霸气，还特么有种二人转的感觉！ 中国海军已形成完整的航母战斗群，辽宁舰编队形成初始体系作战能力。 中印几百亿美元的贸易量，让洞浪都不敢打了。<br>中美贸易量多了几十倍，中国怎么可能敢跟美国打？<br>演戏的好好演，观众好好看。 懦夫手握屠龙刀，也还是懦夫！ 中国确实强大但是要合租美国可能还需要30年最起码和航母要出来才行 自己给自己壮胆。。。 玛德小学生都知道没有美国拦着早他喵的武统了。现在台湾问题已经是个面子问题了。也就呆湾自己觉得自己很叼四处蹦哒。台湾海峡说兔子现在实际控制了也不为过。射程之内就是正义。 头一回听说打仗是靠吓的 所以才要改革开放 用什么吓阻？潜艇么？或者用0条随时能作战的航母，对抗人家10条随时能作战的航母？其实伤伤伤的关键在于——为何而战？把当下幸福生活赐予对岸么？让对岸也海淘奶粉？ 开战试试？ 核大国绝对不会爆发全面战争，武器装备只是威慑作用。 这只是刚刚开始 震惊作者的意淫失力吓跑美军 一帮美狗正在赶来，我是华为[大笑] 那你愿意去为自由而战吗 这里有几个人有自由这东东？ 意淫强身 什么是“吓阻”？ 你他妈这汉奸当得还特么冠冕堂皇！ 吓得美帝屁滚尿流。 把美军打退到深海区最好方法是，不把战场放在南海和东海，你爱来就来，中国欢迎你们。我们只需要把我们的一到两个航母编队加十几艘潜艇派到美国海岸去巡逻 70年代的这些事情，都是我亲身经历过的，历历在目。碎布拼接的花书包，我背过，打着补丁的衣服我穿过；当年最好的服装，就是现在军训时穿的军装，都是干部子女才能够穿得起的。<br><br>我排队买过杂粮面，买过碎煤（回家再团成煤球），以及成车的冬存菜。豆腐、糖、肉、蛋、奶，新鲜蔬菜及水果，都是清一色的奢侈品，过年才能够吃上一点所谓的点心与水果罐头。<br><br>寒冬腊月，家里的窗户上没有一块玻璃，贴的都是窗户纸，小时候，大街上拖儿带女要饭的屡见不鲜，一直到1993年才废除了粮票。如有一句谎言，天打五雷轰。（此一时期为猫佐当家，是认珉逐步走向饥寒交迫的30年）。<br><br>70年代末以前，没有中国的参与，西方照样飞速发展；中国不再与西方为敌了，西方才给中国敞开了市场，给中国输入了科技与资金。<br><br>贡献最大的就是日本，日本几十年如一日，提供巨额的无息与低息贷款，提供技术援助，帮助中国把工厂建立起来，没有日本的技术援助，就没有中国最现代化的宝钢，没有日本的技术援助，就没有中国的现代电子工业。<br><br>美日欧还给中国敞开市场，把中国逐步纳入了西方主导的世界经济体系，让中国出口产品，换取外汇，这才解决了吃饭穿衣的问题。（此一时期为改革开放时期，是认珉逐步走向丰衣足食的30年）。<br><br>如果西方对中国关闭市场，断绝科技输入，中国立刻就会陷入困境，甚至绝境。西方离开中国照样飞速发展，但是中国离不开西方，否则立刻倒退。<br><br>传统电视，液晶电视，全自动滚筒洗衣机，录音机，录像机，CD机，影碟机，微波炉，BB机，模拟手机，数字手机，智能手机，传真机，复印机，磁盘，硬盘，数码相机DV机，以及电脑互联网，B超，X光机，CT扫描机，核磁共振仪，DNA识别系统，试管婴儿，心脏支架搭桥，微创手术，等等医疗技术及器械，，，没有西方科技源源不断的输入进来。你以为，中国能够制造出来？？<br><br>没有谷歌，你以为会有摆渡？没有优步，你以为会有滴滴？没有GPS，你以为会有北斗导航？没有西方的原创科技，你以为会有中国琳琅满目质优价廉的山寨产品？以此类推……<br><br>中国离西方有多遥远，中国贫困化的程度就有多深。<br>中国与西方有多接近，中国现代化的程度就有多高。<br><br>邓曾经有略偏于朴素的观察总结：即亚洲国家里，偏重美国发展模式，及与美国保持良好关系的国家地区，大都走向繁荣发达富裕；而固守成规，或沿袭苏联模式的，竞相堕落向贫困、内乱和封闭。（联合早报） 中国已经明确警告美国，不要插手，你们认为只是吹牛逼？？可见你们是 真正关乎国家利益的战争是要硬碰硬打服别人的，不是说吓退别人就赢了。本文的作者意淫程度5颗星。 你再强大能强过英美同盟？你自己的同盟短期还建立不起来吧？就靠从非洲拿钱砸出来的盟友？ 美国这时肯定会被吓得半死了 给你傻逼提个醒，美国为越南而战死了几万人，美国也为韩国而战，死过几万人，现在美国在为阿富汗而战，在为叙利亚而战，在为自由而战，你傻逼说你是井底的蛤蟆一点也不过分 环球时报你懂的 全民皆敌，怎么打？ 印度，你都吓阻不了，你还想吓阻美国？ 智障。 如果能吓住，就没有战争了，这标题前后矛盾！ 我想说，自媒体不少人都是中老年写手，这些人是散落在民间的《环球时报》。我们之所以没有被美帝和日皇所吞并，过着幸福的生活，他们功不可没。 震精了，吓尿了 参考北洋水师。 一年比一年更强大。 全世界都怕中国了？厉害 环球良心发现，说了大实话——吓！ 届时叫那些唱歌唱成大校、少将的比如什么李栓浆，送猪因、菜锅庆呀等等在海崖边上高歌几首，保证能把美狗吓阻回老家去！ 中国已经明确警告美国，不要插手，你们认为只是吹牛逼？？可见你们是 印度大摇大摆的进驻洞朗，大小便71天，你又是声嘶力竭的谴责，又是气急败坏的军演，印度都不鸟你，你还想吓阻美国？ 苏额比那萃更坏更邪恶的垃圾，发明的主意对人类的危害至今还在 中国什么时候靠吓人过日子了。我不喜欢骂人。。。。真操蛋的一个沙比 整天夜里吹口哨 光有勇气是不够的 夜郎自大，整天自吹自擂！ 二逼，当下的幸福生活怎么来的？ 吹牛逼第一 大部分借古讽今过奖过奖 美国为台湾而战，你当美国sb吗 噗，还是你比较搞笑，为自由而战，我他妈差点就信了[微笑] 他娘要是有爱国心就应该主动奉献一下。 你说吓退越南猴子之类的就行了。吹牛过了吹得我都瑟瑟发抖。美国的十一搜航母还在瑟瑟发抖呢。都差开你国家路地上来压压惊了。 哈哈哈哈哈哈哈哈哈 能踏实点么？到处在吹！先不说能不能自己造涡-轮，就F-22和歼-20发动机推进力比较一下，就是宝马和拖拉机比速度、。。。。。 中印几百亿美元的贸易量，让洞浪都不敢打了。<br>中美贸易量多了几十倍，中国怎么可能敢跟美国打？<br>演戏的好好演，观众好好看。 这些，和那些腌杂们是说不通的。他们的脑袋被阉割了。 战时解放军应打败骄横不可一世的美军。 在军舰上放个大气球吓跑美军 吓阻不可能，吓尿、震精、失落、后悔莫及、中逼赢……是一定的……！ 自己给自己壮胆。。。 楼上还是去看新闻联播好，就别在这丢人现眼了 你真二笔，你是怎么到了鸭绿江了？不亮名号不宣战？ 美军配备尿不湿，咋办？ 最后一句标点符号几个意思？ 我有个朋友,跟这作者差不多,也是爱编故事去年走的,走的时候并不安详,尸体在太平间抽搐了三天,火化的时候烧得滋滋响,嘴里还在嚎叫,烧了几个钟头才烧完,烧完以后上了灵车,出门就翻车了,骨灰洒了一地,还被风吹走了不少,刚想把剩下的扫起来,迎面来了一辆洒水车,唉…楼下队形跟上 随便给你踩过红线老大还用混？ 吓阻不可能，吓尿、震精、失落、后悔莫及、中逼赢……是一定的……！ 被你妈舔的受不了了退回三八线 海带灭航母，雾霾灭F22，嘴炮统一全宇宙！ 造这些东西就是为吓人用的？ 整个标题，就最后个问号还行……😂 一对拖鞋“熬游”全球！ 反美是工作，赴美是生活。不反美，它们没钱去美帝那过幸福生活，所以，可以理解。 军舰上载有城管大队和袖章大妈，他们冲锋在前，永不后退。 这报告咋看都是要钱的报告。看来军费还是少了。继续涨。弄一万亿美金。到时还会有人说军费少。弄十万亿。还会有说钱不够军种发展不足，美国的军工复合体要钱真有一套。 天天吓尿。好想去美国卖纸尿裤 用海带啊 哈哈就服你 用报纸就裹牛逼用 看了《延坪海战》，感觉也就是韩国炮艇的实战经验。先能跟上日本再说吧。 整天夜里吹口哨 彼此彼此，唯一的区别老美是几十年前的旧玩具，中国是新的 横店不行……？ 哈哈，小渔船晃悠晃悠到那上边装一些炸药包吸附到上头去，到处炸得都是洞，隐形驱逐舰你不就完了吗。。。 文中说的战时是指谁跟谁开战？ 天天喊打这个打那个，我们老百姓是爱好和平的 特色国家的特色报纸 能踏实点么？到处在吹！先不说能不能自己造涡轮，就F22和歼20发动机推进力比较一下，就是宝马和拖拉机比速度、。。。。。 环球屎，请不要夸张了 你知道就不要说出来 美帝吓一跳<br><br>嚯，游乐场里的东西都开出来了 用什么吓阻？潜艇么？或者用0条随时能作战的航母，对抗人家10条随时能作战的航母？其实伤伤伤的关键在于——为何而战？把当下幸福生活赐予对岸么？让对岸也海淘奶粉？ h千万别低估美国的军事保护承诺，三八线、琉球海槽、台湾海峡，这些都是红线。 无耻 差点把我笑死了。 我有个朋友,跟这作者差不多,也是爱编故事去年走的,走的时候并不安详,尸体在太平间抽搐了三天,火化的时候烧得滋滋响,嘴里还在嚎叫,烧了几个钟头才烧完,烧完以后上了灵车,出门就翻车了,骨灰洒了一地,还被风吹走了不少,刚想把剩下的扫起来,迎面来了一辆洒水车,唉… 一天吓死美帝多少回 美帝不是吓大的，还是赶紧提高吧。 这里有多少走狗。汉奸。美帝不是牛逼吗？中俄就喜欢和你对着干。哈哈哈，现在谁都想做老大。当然日韩菲印这些这辈子都不可能。 傻逼官媒一直在自说自话，已经没人信了。 红警里有可能 美国为台湾而战，你当美国sb吗 震惊！！！！！ 人家日本女人为了自己国家的战后重新建设牺牲那么大，3楼你回家看你娘有没跟的主子写日记啊 不错 脑残的逗逼，谁会被谁吓倒呢？ 是肾虚尿不出来 浑求屎报又在吹牛逼！ 抗日神剧那么牛，抗美神剧就不行了？ 傻逼环球时报！ 美帝吓一跳<br><br>嚯，劳资不吃饺子！ 不意淫睡不着不觉！ 美国驻日本占领军像日本的女人们问候新年好，感谢这一年来日本女性的殷勤伺候，感谢日本男人们辛苦的看门端尿壶，送纸巾！更是感谢这些年生下的儿子们这么孝心，你们虽然身在中国，但是我们想着你们！在新的一年里，我驻日本占领军会再接再厉，也希望日本女人能多喊几句亚麻跌……————大不列颠.美跌.驻日韩占领军 傻逼楼主~~~ 你就是苏额和那萃余孽 给你傻逼提个醒，美国为越南而战死了几万人，美国也为韩国而战，死过几万人，现在美国在为阿富汗而战，在为叙利亚而战，在为自由而战，你傻逼说你是井底的蛤蟆一点也不过分 結果引來鬼嚇自己。晚上吹口哨是叫鬼魂來的。 说明它们惶惶不可终日 自己给自己壮胆。。。 看标题能闻出一股屎味！我都成闻屎砖家了 你又尿了？ 给你傻逼提个醒，美国为越南而战死了几万人，美国也为韩国而战，死过几万人，现在美国在为阿富汗而战，在为叙利亚而战，在为自由而战，你傻逼说你是井底的蛤蟆一点也不过分! 对方10条航母并不可怕，可怕的是人家福特级是10W吨级电磁弹射，大到能弹射C2运输机、E2C预警机，小到能弹射舰载无人机大大小小近百架次，还有补给舰护卫舰核动力航母编队人家的韩国日本等军事基地都在你家门口..，一个航母壳子能对抗米国航母战斗群，“航母战斗群”“航母战斗群”，不是光开条航母壳子出去溜溜 用什么吓阻？潜艇么？或者用0条随时能作战的航母，对抗人家10条随时能作战的航母？其实伤伤伤的关键在于——为何而战？把当下幸福生活赐予对岸么？让对岸也海淘奶粉？ 一群给把枪都不知道哪头能开火的二五仔在军事评论区里为所欲为，真是醉了 坏球屎报也算媒体？ 傻逼环球时报！ 中国吹牛逼的本事所向无敌 美国国会调查局12月中旬发布题为“中国海军现代化以及对美国海军力量的启示”的报告，尽管有“中国威胁论”的调子，但对中国海军的评价还算比较中肯。今天的中国海军在战时（近海）确实可以吓阻美海军，但还不够，要发展强大到在全球任意海域都能吓阻美海军才行，因为国家利益已经遍布全球了，需要保护不受侵犯。 吹捧也是一种腐败！没有经过战争只能是吓别人。美国人是吓大的吗？ 靠欺骗壮大的 掩耳盗铃的功夫真心了得............ 擦，只是吓阻管卵用，要实打实干的过才行 马克思是德国人，所以，一楼是傻逼，你跟傻逼争什么~~~ 整天夜里吹口哨 整天夜里吹口哨 中国海军无心吓阻美军，美军见到中国海军情不自禁地都要尿。哈哈哈！ 你又不是对岸，你代表别人幸福了？你又不是人，你代表人生活了？ 要和你 给你傻逼提个醒，美国为越南而战死了几万人，美国也为韩国而战，死过几万人，现在美国在为阿富汗而战，在为叙利亚而战，在为自由而战，你傻逼说你是井底的蛤蟆一点也不过分 美舰停靠台湾~~~<br>就等你们的爹破这出戏 美帝吓一跳<br><br>嚯，游乐场里的东西都开出来了 我也等着这个~ 掩耳盗铃的功夫真心了得............ 中国或成最大赢家 中印几百亿美元的贸易量，让洞浪都不敢打了。<br>中美贸易量多了几十倍，中国怎么可能敢跟美国打？<br>演戏的好好演，观众好好看。 梁静如真好，又给了咱这么多吹B的勇气！！ 自己给自己打气，能被你忽悠的还有几个? 哈哈 毛子还有几个干儿子和毛子一起祸害着文明世界和人类 美舰停靠台湾~~~<br>就等你们的爹破这出戏 不，我认为不用吓，你们直接可以用嘴吹死美帝 美国为台湾而战，你当美国sb吗 那还等什么？难道还等着我的大玉棒给你？ 苏额比那萃更坏更邪恶的垃圾，发明的主意对人类的危害至今还在 天天吹牛逼啊 遊樂場的東西可厲害的。麻痺你的警覺心、弱化你的戰鬥力，如再加比基尼美女扭腰擺臀可讓敵軍丟盔棄甲，而達到不戰屈人之兵。 关键是那么多人质在人家那里 那还等什么？去收复弯弯啊。难道你还等着我的大玉棒给你含着一辈子算了？ 美军：吓劳纸一跳！<br><br>随手一拳，KO！ 给你傻逼提个醒，美国为越南而战死了几万人，美国也为韩国而战，死过几万人，现在美国在为阿富汗而战，在为叙利亚而战，在为自由而战，你傻逼说你是井底的蛤蟆一点也不过分 给你傻逼提个醒，美国为越南而战死了几万人，美国也为韩国而战，死过几万人，现在美国在为阿富汗而战，在为叙利亚而战，在为自由而战，你傻逼说你是井底的蛤蟆一点也不过分 那还等什么？去收复弯弯啊。难道你还等着我的大玉棒给你含着一辈子算了？ 给你傻逼提个醒，美国为越南而战死了几万人，美国也为韩国而战，死过几万人，现在美国在为阿富汗而战，在为叙利亚而战，在为自由而战，你傻逼说你是井底的蛤蟆一点也不过分 哈哈哈哈哈 能不能不每天都舞枪弄棒的，低调不是坏事 全方位？太空呢？！ 看标题能闻出一股屎味！我都成闻屎砖家了 海军实力有多强？不希望看到中美之间的战争，但希望海军在中国统一过程中起到应有的作用。 那还等什么？去收复弯弯啊。难道你还等着我的大玉棒给你含着一辈子算了？ 哈哈哈 那还等什么？去收复弯弯啊。难道你还等着我的大玉棒给你含着一辈子算了？ 蒸制问题，不是军事问题。 越南已经成军占领南海了屎报还在yy就是最大卖国贼 狗奴才混球屎报 用什么吓阻？潜艇么？或者用0条随时能作战的航母，对抗人家10条随时能作战的航母？其实伤伤伤的关键在于——为何而战？把当下幸福生活赐予对岸么？让对岸也海淘奶粉？ 震精了，吓尿了 那还等什么？难道还等着我的大玉棒给你？ 那还等什么？去收复弯弯啊。难道你还等着我的大玉棒给你含着一辈子算了？ 中国好样的。 这报就是一搞笑用的笑料报！ cnmd不战而屈人之兵 美国为台湾而战，你当美国sb吗 ",
        "Reply": 177,
        "Link": "http://comment.war.163.com/news_junshi_bbs/D6L9QN1F000181KN.html"
    },
    "PublishTime": "12/27/201708:20:02",
    "URL": "http://war.163.com/17/1227/08/D6L9QN1F000181KN.html"
}