{
    "Title": "曝法国妖锋将加盟英超新军 49场32球助罗杰斯封神_网易体育",
    "URL": "http://sports.163.com/17/1225/22/D6HMD80P00058781.html",
    "Source": "Netease",
    "Comment": {
        "Total": 137,
        "Reply": 33,
        "Content": "大家好，我是新乡登贝莱 炸弹才管用 妖人，我记得还有… 巴傻买一对镇宅[微笑] 看来想踢好球，得取名叫登贝莱[微笑] 已经有一对布斯克茨和一对苏亚雷斯了吧…… 话说，凯尔特人的连续不败纪录。到底定格在了第几场？ 罗纳尔多的时代已经过去，登贝莱的时代正在开启 到底有几个登贝莱 今年是登贝莱年吗！到处小妖都叫登贝莱…… 放诺坎普大门口？ 米兰还能买嘛？ 妖人，我记得还有… 看来想踢好球，得取名叫登贝莱[微笑] 龙川蹬不来有人要签吗？管饭就可以 没用！登贝莱是姓，是命里自带的。 便宜 真便宜 车子三个阿扎尔都没说什么 应该叫罗纳尔多才行 又不是你出钱你bb啥 伤别好，好了阵法就破了 白菜价啊 话说，凯尔特人的连续不败纪录。到底定格在了第几场？ 罗纳尔多的时代已经过去，登贝莱的时代正在开启 那是姓氏。。 兄弟，名字带马的太牛逼了 巴萨是不是买错了一个登贝莱？ 已经有一对布斯克茨和一对苏亚雷斯了吧…… 感觉这个比巴萨那个状态好而且实惠 69 大家好，我是新乡登贝莱 炸弹才管用 妈的之前n个后腰叫迪亚拉，卧槽[不屑] 又是法国 到底要多少个登贝莱 至少三个登贝莱！ 巴傻买一对镇宅[微笑] 哈哈哈 叫穆勒更好 不便宜 ",
        "Link": "http://comment.sports.163.com/sports2_bbs/D6HMD80P00058781.html"
    },
    "Article": "根据天空体育报道，布莱顿将以1800万镑签下苏超凯尔特人前锋穆萨-登贝莱。该媒体表示，苏超凯尔特人已经接受了布莱顿的报价，双方就1800万镑的转会费达成一致，法国人将前往英超。登贝莱在去年夏天加盟凯尔特人，成为球队锋线尖刀，他在49场比赛中打进了32个进球，并且在欧冠中也有亮眼表现，帮助球队创造了69场苏格兰各项赛事不败纪录。不过，本赛季他曾受伤病困扰，恢复之后，他也快速找到了状态，本赛季至今，他已经打进8球，并且助攻3次。本赛季，在1-7惨败巴黎圣日耳曼的欧冠比赛中，登贝莱打进了自己本赛季的第一个欧冠进球，他是凯尔特人场上罕见的亮点。今夏，切尔西、多特和塞维利亚等队就与登贝莱联系到一起。不久前，也有法媒报道称，曼联和米兰都想要引进这位法国U21国脚。本文来源：肆客足球App责任编辑：马鑫_NS4811",
    "PublishTime": "12/25/201722:42:57",
    "KeyWords": "罗杰斯,英超,欧冠,登贝莱"
}