{
    "URL": "http://news.163.com/17/1231/17/D70JN3L30001899N.html",
    "Article": "（原标题：小伙“中奖”称不要10万奖金，对方回复：不要就起诉你）12月27日，黄石小伙小刘收到一条中奖信息，称他中了某节目组10万元大奖，小刘信不过，回复不要奖金，对方竟称如果小刘不领奖，干扰了活动的正常运行，节目组就要起诉他。小刘因害怕吃官司，竟糊里糊涂给对方账号汇去4000元。小刘今年19岁，家住黄石市西塞山区牧羊湖，是一名大学生。当日15时许，小刘在家收到一条消息，称其在某节目中中奖了，小刘觉得可能性不大，并没有理会。不一会，小刘接到了一个陌生电话，对方自称该节目组的工作人员，对方告诉小刘需要缴纳6000元押金领取奖品，小刘说他不要奖品，对方称小刘干扰了活动的正常进行，节目组会以妨碍工作为由去法院起诉他，要求他赔偿违约金，小刘害怕吃官司，表示愿意领取奖品。之后，对方以手续费，保证金等名目要求小刘汇款6000元，小刘根据对方的指示，将自己的全部存款4000元钱分三次转入对方提供的账号，对方还让他将剩下的2000元钱第二天中午前转过去。转完钱后，小刘越想越觉得不对劲，感觉对方是骗子，于是向黄石市公安局西塞山分局报了警。目前，西塞山警方已经介入调查，案件在进一步调查中。警方在此提醒广大市民，不法分子借热播节目进行诈骗，市民要切记天上不会掉馅饼，以免上当受骗，财产遭受损失。本文来源：荆楚网-楚天都市报作者：张万军责任编辑：李杭_BJS4645",
    "KeyWords": "骗子,诈骗,中奖",
    "Source": "Netease",
    "Comment": {
        "Reply": 281,
        "Content": "来来来，谁他妈来起诉我！我在曾家岩50号等你！ 有个朋友的孩子去新东方学厨师都说是去上大学！ 傻逼 中国教育.......什么硕士研究生都能被骗 来来来，谁他妈来起诉我！我在曾家岩50号等你！ 网易哪有什么记者？网易并没有新闻采访权，所有新闻都是转自各大媒体以及地方媒体（自媒体除外） 再说一遍！请不要把这些神马大专，中专，艺校，技校，高职，职高....的通通都称为大学生好不好！ 大学怎么考上的？ 这个……就是不看网意新闻的结果！[狗][狗][狗] 就这智商也是大学生，傻逼大学毕业的吧！ 这个智商刷新了我对傻逼的认知 [微笑]起诉的罪名是什么？ 小伙子，要经常上网易啊 大学生的智商都被这些拉高了😂 来来来，谁他妈来起诉我！我在曾家岩50号等你！ 来来来，谁他妈来起诉我！我在曾家岩50号等你！ 大学生…[被黑] 恭喜您，成功为您的智商充值4000元，现余额还有－999999元，请尽快缴费，以免欠费给您的生活带来不便 我表哥读大专我阿姨直接说大学 傻子太多，骗子不够用 小刘智商高达250！ 重点是：是一名大学生。 我就奇怪了，这智商怎么会有四千块钱的存款 傻逼 尼玛………智商喂狗了，想当年接到诈骗电话，因上班无聊，硬是和他们聊了四个小时另挣50元话费😂😂😂 哈哈如此愚蠢？那你没经过我同意就要给我发奖品我是不是也该起诉你呢 智商要充值 这还大学生，尼玛的智商为零 你才是大学生！你全家都是大学生！玛的👊 哈哈哈哈！骗子威武！ 智商… 这智商 还有这么蠢的大学生？偶买嘎的 本来第一波攻击以为你是个聪明人，第二波攻击又失足了，这个新闻告诉骗子们“做事不能半途而废，一遇挫折就放弃就无法成功，坚持到底总会迎来新机遇” #爱存不存*银行的易会满在職嗵吃本硕博士仨.犇笔 大学生？现在的大学生怎么蠢的跟猪一样？ 来来来，谁他妈来起诉我！我在曾家岩50号等你！ 野鸡大学吧，这样智商还要什么自行车 假新闻吧，这智商能考上大学？ 去年有人介绍一个叫四川建X的律所给公司派法律顾问，副主任80后是职高毕业的，刚转行当律师，对外却介绍自己是研究生，搞了几次公司觉得法学水平不对劲，动用关系查出老底，冒火找律所算账，律所振振有词“赵律师被医院派去读过护理专业研修班，当然是研究生”。 网易记者也在场？我看都是瞎编的 像这样的白痴是怎么活到19岁的。 这大学生…… 这种骗术现在还有？？？ 有个朋友的孩子去新东方学厨师都说是去上大学！ 多看看网易跟贴少交智商税 我表哥读大专我阿姨直接说大学 中国教育.......什么硕士研究生都能被骗 这个智商也太低了吧… 这事应该是真的，我也碰到过类似的。被芒果台抽中奖励一部苹果，当时怕被骗，结果人家要上法院，不得已汇了款，收到一个苹果，还挺好吃的。 真是SB 就是个呆逼！ 再说一遍！请不要把这些神马大专，中专，艺校，技校，高职，职高....的通通都称为大学生好不好！ 这钱又不是他的，是他爸妈的[喷水] 我看你也看的不多 脑残 这个……就是不看网意新闻的结果！[狗][狗][狗] 智商堪忧啊！ 大学生的智商都被这些拉高了😂 对啊有一年报道某大学一个女研究生坐火车外出被一个小学毕业的女骗子给卖到山里去了[晕] 你这才是智商不够用。这种事跟智商完全没关系。我一个朋友的父亲，院士，从小就是天才型的人，做了一辈子研究，每天家里实验室两点一线。退休不到一个月，就被人骗了一万多块钱。他家人现在都不敢让他一个人出门。<br>智商高的人，通常都是专业人才，一般不大理会也没时间理会社会上乱七八糟的事情。这样的人是最容易骗的。每年得诺贝尔奖的那些科学家，如果生活在中国，有一个算一个，全是上当受骗的主。 中国每天那么多人上当受骗？岂不是说我大中华地大物博？人杰地灵？到处都是天才？ 我有个朋友就这样差点被骗对方一说起诉就慌了。我跟他说你中的奖爱兑不兑谁也管不着你让他告去吧出事我给你担着这才没打钱。还是经历事少禁不住吓唬 信球吧，这孩子白长这么大 大学生…[被黑] 如果大学生都是这种智商，那后面将太可怕了。 重点是：是一名大学生。 我们的光荣传统是谴责受害者 小刘智商高达250！ 250的智商还是被骗了，主要是胆子太小，一吓唬就怂了。 我就奇怪了，这智商怎么会有四千块钱的存款 呵呵 傻逼就这智商还上大学？ 不能怪太单纯，应该怪骗子太可恶，法律太不严。 我发个红包你也拒绝吧 这智商，大学生，唉！ 能不要10万奖品说明智商还是有的，能被骗4000主要还是太胆小，另外还穷，不然被骗的应该是6000 哈哈哈可爱的脑子 哈哈哈哈！骗子威武！ 这大学…生… 现在大学门槛真低。 骗子真厉害 [大笑] 野鸡大学吧，这样智商还要什么自行车 脑子不是人人🈶️ 这是诈骗不成变敲诈吗 傻子太多，骗子不够用。 宇宙的探索是离不开我的话的，只有把围绕地球公转的一切物质包括气体计算在地球体积之内才能找到地球真正的边和角，那是反引力汇聚地，是真正的真空隧道，宇宙高速路，太阳系内的动脉!把围绕太阳公转的一切物质包括气体计算在太阳体积之内才能找到恒星与恒星的边和角，那是恒星与恒星之间的真空高速隧道，找到真空隧道以近光速超光速飞行那不是个事!宇宙飞行器也不能按照飞机的二维结构原理制造，飞机是不能高速自转的，但只有高速自转才能产生真空电磁场，以近光速飞行，未来的宇宙飞行器必须按地球原理制造，八层以上结构，你看地球高速自转着前进，我们人坐在地球上有啥不适感觉吗？ 骗子太多，警察不管 建永这律所奇葩，从副主任到小律师，清一色80后90后，却没一个大学本科的，大学扩招成这样了[喷水] 真逗 还是那句话，再聪明的人也有适合他的骗术，不去打击骗子而去讥讽受害人。我就不相信在座的各位没有被骗过 你的智商也是250，会在伤口撒盐。 这智商还上啥大学？ 这种骗术现在还有？？？ 来来来，谁他妈来起诉我！我在曾家岩50号等你！ 自己啥都没干居然怕别人起诉，这智商该充值了 来来来，谁他妈来起诉我！我在曾家岩50号等你！ 人没说要自行车啊 智商堪忧 呵呵 大胆骗孑，抓起来，罚他十万，关他十年。 小伙子，要经常上网易啊 现在的小孩读书读S了，我们这里的大学生连用钥匙开门都不会 你确定自己读完幼儿园了？ 已经没力气骂了 来来来，谁他妈来起诉我！我在曾家岩50号等你！ 来来来，谁他妈来起诉我！我在曾家岩50号等你！ 中国人被假恶斗灌输的不知道什么是道德，国人的灵魂认知就这么被假恶斗吞噬，分辨善恶明真相，复兴五千年传统文化，抛弃邪恶有未来。 转完钱后，小刘越想越觉得不对劲，感觉对方是骗子，于是向黄石市公安局西塞山分局报了警。 智商是硬伤。 尼玛，现在做个骗子也这么霸道了？ 猪都不如 我,假的所有的中奖都不会让你交保证金的. 大学生在学校学了一脑傻残 就这智商[窃笑] 这智商，怕是吃了屎了 这智商，哎，告别自行车吧 哈哈哈 智商 我爸接到电话说我在部队当逃兵，骗子说要找人摆平得2万块钱不然要上军事法庭审判最少都是10年，我老爸直接一句话搞定:败家儿子好长时间没回家了，我没这样的儿子你们爱咋判咋判!骗子直接就把电话挂了 死骗子 还有这么蠢的大学生？偶买嘎的 这智商也基本告别轮椅了，，，，，终身躺床上吧 本来第一波攻击以为你是个聪明人，第二波攻击又失足了，这个新闻告诉骗子们“做事不能半途而废，一遇挫折就放弃就无法成功，坚持到底总会迎来新机遇” 骗子 大学生？现在的大学生怎么蠢的跟猪一样？ 来来来，谁他妈来起诉我！我在曾家岩50号等你！ 这是把大学生往死里黑吗[羞羞] 野鸡大学吧，这样智商还要什么自行车 现在当个骗子这么容易 电讯诈骗无孔不入，光靠个体提高警惕实在防不胜防。 别把这种蠢猪和别人相提并论 网易记者也在场？我看都是瞎编的 感觉这新闻可信度太低 这智商，再回幼儿园重头来过 丟，大學生跟你有仇啊 网易哪有什么记者？网易并没有新闻采访权，所有新闻都是转自各大媒体以及地方媒体（自媒体除外） 靠，到底谁智商有问题？如果不转4000警察能立案么？ 产业化的产品 我怎么就遇不到这种好事。 跟他上不上大学没关系，主要是他平时不上网易的后果。 傻逼 智障的大学…………生 以前一到年关,骗子在大街小巷上活跃,现在在网上骗了 法盲外加智商低！ 这智商，真够惨烈的～ 比你聪明，打四千，立案!立案才能抓贼!打一千九百九十九元不立案!😄 就这智商也是大学生，傻逼大学毕业的吧！ 老子给的 尼玛………智商喂狗了，想当年接到诈骗电话，因上班无聊，硬是和他们聊了四个小时另挣50元话费😂😂😂 这新闻是编的吧 这种智商存款超过四千才叫奇怪 我，快打钱！ 小刘的智商堪忧呀 想要回钱吗？自杀就有人帮你要了 这明摆着智障嘛，还读什么大学啊，幼儿园重新开始吧 以前有这么多骗子吗？电信骗子，互联网骗子，是最近几年火的 我记得是低于二千案值不立案，上海 你上过学没。学校只教知识，从不教社会的事 因为你读的都是二三本大学 说学生智商的，一看就没上过学的，在学校里都是学习，然后告诉你社会很美好，没人教你社会这么多骗子。我没找过工作时，认为公司都是好工作。广告里都是找工作上赶集，实习时就是在这样上找工作，谁知道这么多骗子公司。 原来是害怕起诉坐牢吃了大亏，骗子都打着法律的旗号招摇了 以前我们对外面的世界有今天这么了解吗？ 大学念到狗身上了 小刘智商高达250！ 赶紧下载网易学习知识。 我就奇怪了，这智商怎么会有四千块钱的存款 够不够标准还是👮‍♀️苏苏说了算 大学生☺☺☺哈哈👍 sssB 说得对，只有经常上网易，才不会被骗！ 哈哈如此愚蠢？那你没经过我同意就要给我发奖品我是不是也该起诉你呢 别读书了以后社会不适合你 读书读傻了，这智商 原来是害怕起诉坐牢吃了大亏，骗子都打着法律的旗号招摇了 你才是大学生！你全家都是大学生！玛的👊 不是东北的，太让人失望了 还有这么蠢的大学生？偶买嘎的 这是要笑死人的节奏啊 智商欠费 不要大奖就起诉你——最有喜感的年末新闻 脑子不够用？？ 不是他太蠢，现在的年轻人没社会经验，应加强这方面教育。 宇宙的探索是离不开我的话的，只有把围绕地球公转的一切物质包括气体计算在地球体积之内才能找到地球真正的边和角，那是反引力汇聚地，是真正的真空隧道，宇宙高速路，太阳系内的动脉!把围绕太阳公转的一切物质包括气体计算在太阳体积之内才能找到恒星与恒星的边和角，那是恒星与恒星之间的真空高速隧道，找到真空隧道以近光速超光速飞行那不是个事!宇宙飞行器也不能按照飞机的二维结构原理制造，飞机是不能高速自转的，但只有高速自转才能产生真空电磁场，以近光速飞行，未来的宇宙飞行器必须按地球原理制造，八层以上结构，你看地球高速自转着前进，我们人坐在地球上有啥不适感觉吗？ 对方坑了你4000，达不到5000的立案标准。小伙子，你应该再故意汇1000过去，够了5000才能立案。 低学历的骗了高学历了 我怎么就遇不到这样的骗子！ 你个傻逼你侮辱250 中了奸计！ 骗子应该没想到这个理由能骗到 要多在网易混！ 西塞山前白鹭飞，原来真有这个地方 多来逛逛网易跟帖，会让你脑洞大开 骗子在此两招共用：一是利诱，该生未上当，二是恐吓，该生未经历过社会磨练，因此害怕了，遂上当成功。但毕竟是有文化的年轻人，及时反应过来报警－－正确的选择。 缺呀 人家说自行车是赵本山的小品里一句话，哎，我现在理解大学生被骗了，见识太少楼上全是 我弟弟信上帝.他认为他的存在就是在帮助上帝拯救人类.每次打完电话他都会说愿上帝保佑你,各种为我祈祷.他很乐意与我谈论信上帝的好处.并全身心投入工作和关爱家人,只因他觉得主耶稣是他学习的榜样--我不认为他们的信仰会造成交流障碍.即使我认真问他:上帝是否存在?而他总会回答:若爱存在,上帝就存在.因为上帝就是创造爱的源头上帝永远住在爱里，上帝爱世界上所有人包括想悔改的罪人想要信耶稣的可以到本地教堂买一本圣经看看每个地方都有教堂的信耶稣此生平安来世得永生有所信仰就会有所敬畏，有所敬畏就会知何事可为与何事不可为，知道了什么事可为什么事不可为，就不会干出背理天意人伦的逆天大错，遵从了天意人伦的法则就会一生安宁幸福这就是大道之法则，也就是爱的法则，神之道！ 起码我读大学时，这么荒唐的事不曾发生 弱智骗子巧遇智障学生，上演了一幕精彩的脑残大戏😄 起诉你个鸡8+ 起诉谁啊，起诉你才对 福建人又出来骗人啦大家注意啦。 这小伙实诚 这么蠢～！ 所以需要大学。像我们这些非人类的就不需学了 大学生 这还好意思报警 智商费好高啊 我擦，这都可以 这样的智商怎么考上大学的！ 野鸡大学，大专不能算大学 果然有自行车🚲 马什么梅？ 要啥⌚️ 6000當充值這方面的智商了。 祝你元旦快乐！必须要乐！不乐的话就起诉你！ 这智商居然还能上大学 我就想知道是啥大学 是不是傻是不是傻 要啥自行车 小编，能不能正常点啊。有这样的吗？ 你上过学没。学校只教知识，从不教社会的事 还有这么蠢的大学生？偶买嘎的 一对奇葩。 人神共愤 骗子最可恶了。 大学生？现在的大学生怎么蠢的跟猪一样？ 求起诉 哈哈，逗逼的孩子，看评论更精彩 你上过学没。学校只教知识，然后就是教你社会很美好。怎么可能教你社会这么多骗子 我读到小学的时候，我都知道这是骗子 就这智商还你妹大学生，没这样骂我们大学生的 我知道是什么大学毕业的？ 野鸡大学吧，这样智商还要什么自行车 要啥手表？还吃冰淇淋呢，怎么不吃脸盘呢？ 文中没提过自行车啊。 智商啊。…… 中国是骗子多傻子也多 小刘之前不要还蛮正常。后来怎么就那么亲信了呢 真感人 这智商的好几亿的都有 这智商上大学？ 这智商，四千也许能看好 唉😔 脑残？ 傻缺 你🐎B的！都是什么心态!不去谴责骗子！却在这理嘲笑被害人！<br>真是骗子满街跑！骗子坐高堂！人人想当骗子发家又致富! 这智商怎么考上大学的。 这个智商刷新了我对傻逼的认知 小编你是在写日记吧 我去，还能这样啊。中奖不要都不行……真是太逗比…… 这就是中国特色教育下的产物 充不进去了，都是水 该管管大学生了再这样被骗下去不行啊！ 这是什么智商？ 🐷都知道先杀驴 恭喜您，成功为您的智商充值4000元，现余额还有－999999元，请尽快缴费，以免欠费给您的生活带来不便 最后到底破案没有？钱追回没有？新闻只字不提！扯淡 编你妈。太假了 哈哈，笑死我了！ 哎，这“大学”白读了！骗子弱智，这“大学生”更是脑残！这种伎俩还能骗到人？ 智商要充值 这还大学生，尼玛的智商为零 猪都不如 报警！🈶️警管吗？报警的事🈶️人管就不会🈶️这事啦！ 天天提醒还搞不清楚啊 这种智商有四千块钱已经很难得了 呵呵 交学费嘛！ 智商不够用别怪骗子了 没这么简单吧？是不是假新闻 这大学生…… 大学生？现在的大学生怎么蠢的跟猪一样？ 这智商，三本吧？ 智商问题 什么年代了，还有这种傻子？你不是老眼昏花啊！ ，这样智商还要什么自行车 简直就是弱智！ 这智商，他怎么可能会有4000块存款的 典型‘故事会’你也当真？ 这是哪所大学培养出这么优秀的学生？ 大学生就是这智商？ 我就奇怪了，这智商怎么会有四千块钱的存款 真sB ",
        "Total": 4819,
        "Link": "http://comment.news.163.com/news2_bbs/D70JN3L30001899N.html"
    },
    "PublishTime": "12/31/201717:44:31",
    "Title": "小伙\"中奖\"称不要10万奖金 对方:不要就起诉你_网易新闻"
}