{
    "Article": "（原标题：2018春运首日火车票明起开抢这些信息要知道）中新网客户端北京1月2日电根据中国铁路总公司编制的“2018年铁路春运购票日历”，2018年春运自2月1日开始，3月12日结束。1月3日，春运首日火车票将正式开始预售。一年一度的春运抢票大幕即将拉开，今年春运，包括积分兑换车票、自主选座、接续换乘、网络订餐等等，一系列铁路便民措施，你需要早知道。图表来自中国铁路总公司官方微博抢票日期要牢记！——预售期为30天，1月17日可抢除夕火车票日前，中国铁路总公司通过其官方微博发布了“2018年铁路春运购票日历”。根据这份日历，2018年春运，网络、电话订票预售期为30天，车站窗口、代售点和自动售票机预售期为28天。按照提前30天的时间安排，明天将网络和电话预售2018年春运第一天(2月1日)的火车票，若到车站窗口、代售点或自动售票机购买，则需等到1月5日才可买到春运首日火车票。由于春节法定假日为除夕到正月初六，近年来，每年除夕前夕以及初六前后都是春运客流高峰，除夕和初六当天的车票往往最为紧俏。按照30天的预售期推算，今年除夕(2月15日)当天的火车票，将在1月17日起开售，正月初六(2月21日)的火车票，将在1月23日起开售。资料图：北京西至石家庄的“复兴号”列车缓缓驶入石家庄火车站。中新社记者翟羽佳摄“攒积分兑换车票”——购买车票可积分兑换指定车票今年春运，对于广大旅客来说，铁路部门日前推出的“攒积分兑换车票”活动需要留意。根据铁路部门的消息，去年12月20日起，铁路部门推出“铁路畅行”常旅客会员服务。会员购买车票将获得相应乘车积分，积分按照其所购车票票价进行累积。如旅客购买100元车票，将可获得100×5=500的积分。积分首次达到10000分以上，即获得积分兑换资格。每100积分相当于1元钱。旅客可用积分兑换铁路部门指定车次的列车车票，使用所兑换车票的乘车人可以是会员本人，也可以是其设定的受让人。据了解，目前，申请铁路常旅客会员的有效证件包括居民身份证、港澳居民来往内地通行证、台湾居民来往大陆通行证、护照等。兑换车票可以办理挂失补、改签(不能办理变更到站)。一般不能办理退票，但遇不可抗力或铁路责任，可办理退票手续，所用积分返回会员账户，并重新计算有效期。积分有效期为12个月。资料图：山西太原，民众正在购买车票。中新社记者张云摄车票信息实时掌握——微信可实时接收购票改签等信息今年春运，对于选择网络购票的旅客来说，用手机抢票将变得更为便利。从去年11月23日起，中国铁路客户服务中心12306网站微信支付功能已经上线运行。持有微信账户的旅客在12306网站及手机客户端购买火车票时，可在支付页面选择“微信支付”按钮进入微信支付页面进行支付。此前，旅客通过12306网站或手机客户端购票，支付渠道有中国工商银行、中国农业银行、中国银行、中国建设银行、招商银行、邮储银行、中国银联、中铁银通卡及支付宝等。移动互联网时代，购买火车票增加微信支付渠道之后，旅客使用手机抢票，无疑将更加方便。除了微信支付，今年春运前夕，从去年12月26日起，12306新增微信通知方式。用户在“铁路12306”小程序或“铁路12306”微信公众号中登陆12306账号，绑定微信号，并关注“铁路12306”公众号后，即可在微信内接收购票、改签、退票等行程通知。12306表示，列车运行调整和手机号码核验仍通过短信发送。资料图：图为动车组乘客在品尝列车提供的餐食。中新社发侯宇摄这些便利要知道！——在线选座、接续换乘、网络订餐除了积分兑换车票、微信接受购票信息等措施，近半年来，铁路部门推出的其他一些服务新举措也或将让你的春运行程变得更为方便。去年10月开始，铁路部门推出动车组列车“自主选座”服务，凡是乘坐C、D、G字头的动车组列车，均可在网上自主选座，坐火车终于有了“在线选座”的便利。同样在去年10月份，和“自主选座”同步上线的还有一项便民服务——接续换乘。通俗地说，旅客通过12306网站或手机客户端购票，当遇到出发地和目的地之间的列车无票或没有直接到达的列车时，旅客可选择“接续换乘”功能，售票系统将向旅客展示途中换乘一次的部分列车余票情况，如果旅客选择购买，可以一次完成两段行程车票的支付。此外，对于“吃货”来说，从去年7月17日开始，铁路部门在上海、天津、南京等全国27个主要高铁客运站，推出动车组列车互联网订餐服务。点点手机，不仅可以选高铁列车上的餐车盒饭，也可以订沿途社会品牌的餐食，并享受送餐上车服务。本文来源：中国新闻网责任编辑：官平_NN4892",
    "Title": "2018年春运首日火车票明起开抢 这些信息要早知道_网易新闻",
    "PublishTime": "01/02/201800:02:00",
    "Source": "Netease",
    "Comment": {
        "Content": "公司上班你告诉我咋提半个月？年终奖还要不要领啊 你们都是有单位的啊，我们民企不行啊 没有春运之日，就是百姓均富之时。 温馨提示，严禁披劳驾驶，解决方法，车内两人以上，备好绳子，床子，到半路没电时，用绳子拉到充电桩，搭好床，充电体息两不误 每年都要抢票，啥时候能跟平时一样就好了。 国家，我想问一下电动车怎么开回家800公里？？？？？ 那几天的票价很坚挺，对，比钢管还坚挺。 不去增加运载能力，而去鼓励疯抢。不为民生着想，反怪屁民不努力 没错、提前半个月回去一点都不堵 大家都这么想，结果都堵在高速上[大哭] 今年买车了终于不用抢票了 “一片难求”问题的解决根本是减少外出务工人口数量，而不是单纯多建铁路多增列车。让人们在家乡就能就业，这就需要国家建设要均衡，不能“一线城市吃饱，二线城市喝好，三线城市吃点残羹冷炙，四线以后自生自灭”。即使花了大价钱让铁路公路的运力满足了春运式的井喷需求，但是一年中绝大多数时间里又会出现运力过剩，大大浪费资源。按照这个思路，还可以一同解决大城市的人口拥挤问题、道路拥堵问题、农村的留守儿童问题和独居老人问题。 回到家发现老家限行了，三分二百块。 票价还是觉得太高了，从治理上来讲，国家太富裕了，在公共事业上能降低票价，不仅利于民生，也能从一方面减少碳排放，票价便宜了大伙都会选择低碳出行，环境就会越来越好！ 不需要提前半月，提前个两三天就可以保证不赌了，请两三天假很多人都能做得到 比你远些，请多开几趟100多块绿皮票，高铁性价比太低，不差那三五个钟头 这几乎是不可能调和的问题，要是有解决春运的运力，平时没拉满就浪费了，如何能平时少运力忙时多运力，只有错锋出行，同时发展本地经济，使人就近就业，不用大老远北上广 开200公里，推600公里 抢，，，犯法的， 拉倒吧，我都是提前6,7天，照样车很多，一旦有个事故就堵了 头一年都说要改善春运问题，但每年还是都要抢票。 漫漫回家路，平平安安回。 一看你就没坐过车。谁说春节，假日省内车票不要抢？ 你买飞机都不好使 动不动就“抢”，啥时候能不用抢啊！？ 赶紧准备抢票吧。 带好干粮，准备在高速公路上过年！[不屑] 这个确实屌我给我爸买的国内来新加坡往返的机票过年期间7500左右你这都赶上出一趟国了不过平时同样的航班也就2000多一点涨了3倍。 省的钱都买X了，听说明年还有出B<br>刷票的一张多加100块 混动无压力[窃笑] 飞回去装比就一次，X可以装比好几年，肯定先用X 激动人心的时刻 又面临春运了 我们单位一般年二十七就放假了，封楼，除了值班的都回家了。 一提车票就心塞，提前让家里七八个人，同事七八个人，外加一堆朋友帮忙抢票。可是还是比不过刷票的。我也是醉了。 你要坐哪条偏门线路？广州至省内其他地级市的汽车票要个毛抢，撑死就是买后几个小时，还是节假日前一天下午和第一日高峰特殊时间段才这样，第二日就已经随便买 春运，呵呵，除了城市的无业游民，有正当职业的谁会那么早回老家？所以春运就是用纳税人的钱为盲流服务，盲流回家最早，回来最晚，整个春运就是围着盲流转。 用X的还用抢火车票？飞回去不是爽歪歪？ 这是一个激动人心的时刻。每年都有人被挤得怀孕，也有的被挤得流产。 好啊飞机票现在6800又能买个X了 哈哈，舅服你， 浣溪沙<br>在外先惊易岁寒，一人灯影互斑斑。声音消息转身看。<br>挂历新红春品味，小屏连闪客相关。摧眉成皱比家山。<br>浣溪沙<br>春色发从新画图，焕然模样倍唏嘘。寻常职事竟生疏。<br>闲话争来车票否，相期会带酒茶无。逃群避答为何如？ 我友情免费支援你一个5号电池，不用谢~ 16号不知道能不能抢到票 人多之祸 今年买车了终于不用抢票了 你们都是有单位的啊，我们民企不行啊 昨天回来塞了4个小时，打算抢张火车票，抢到了就提前把车开回去，省的春运塞车 这种售票方式真的好吗?? 回到家发现老家限行了，三分二百块。 松松！只要时间够就行 每年春运买火车票都痛苦 今年的摩托车大军应该会少很多 为我伟大的祖国点赞！ 没有后视镜折叠的车，销量差。算低档次。 前年1000公里的高速开了35个小时！ 抢得赢刷票的吗，分分秒被秒 不去增加运载能力，而去鼓励疯抢。不为民生着想，反怪屁民不努力 一看你就没坐过车。谁说春节，假日省内车票不要抢？ 去年大年三十一场雨夹雪，多少车在京哈高速上打冰壶。。 那几天的票价很坚挺，对，比钢管还坚挺。 你扯极端有什么意思？有事故什么时候不赌？ 大家都这么想，结果都堵在高速上[大哭] 国家，我想问一下电动车怎么开回家800公里？？？？？ 票价还是觉得太高了，从治理上来讲，国家太富裕了，在公共事业上能降低票价，不仅利于民生，也能从一方面减少碳排放，票价便宜了大伙都会选择低碳出行，环境就会越来越好！ 比你远些，请多开几趟100多块绿皮票，高铁性价比太低，不差那三五个钟头 赶紧准备抢票吧。 我们厂是生产专用汽车的，有感兴趣的嘛 心态不好的出门翻翻老黄历， 开200公里，推600公里 然后就在高速路上过完年 头一年都说要改善春运问题，但每年还是都要抢票。 漫漫回家路，平平安安回。 但愿不要出现一票难求的现象。 起码国家对政治喷子很宽容了 短途汽车票会买不到? 不知道美的有没有春运？ 又想便宜，又想舒服，穷人思维！呵呵 这几乎是不可能调和的问题，要是有解决春运的运力，平时没拉满就浪费了，如何能平时少运力忙时多运力，只有错锋出行，同时发展本地经济，使人就近就业，不用大老远北上广 以前春运火车抢票是可以提前两个月的，现在缩短为一个月了。 1楼的电动车是开的，还是骑的？ 多穿几件羊毛衫，摩擦摩擦 省的钱都买X了，听说明年还有出B<br>刷票的一张多加100块 风光66 混动无压力[窃笑] 抢你妈，能不能换个字？ 我们单位一般年二十七就放假了，封楼，除了值班的都回家了。 带一个增程发电机就可以了，电驴回家无压力。 一提车票就心塞，提前让家里七八个人，同事七八个人，外加一堆朋友帮忙抢票。可是还是比不过刷票的。我也是醉了。 你要坐哪条偏门线路？广州至省内其他地级市的汽车票要个毛抢，撑死就是买后几个小时，还是节假日前一天下午和第一日高峰特殊时间段才这样，第二日就已经随便买 今年终于可以不用回家了 用X的还用抢火车票？飞回去不是爽歪歪？ 今天网上开售年三十春运火车票,春节已经不远了 我们厂是生产火车车厢的，放个人在里面都是没问题的 都不回家，等他们生意落空。 初一会不会堵啊？高速免费 国家不做为，抢车票很好吗 今年买车了终于不用抢票了 打的 加油站有充电桩啊，冲1小时，继续跑 是加装一台燃油机，其实这在物理学原理上就和特斯拉新能源汽车就没啥区别了。<br>区别还在蓄电池的大小，使用时间，可跑公里数和动力，充电时间。 但愿不要堵路上 温馨提示，严禁披劳驾驶，解决方法，车内两人以上，备好绳子，床子，到半路没电时，用绳子拉到充电桩，搭好床，充电体息两不误 国家，我想问一下电动车怎么开回家800公里？？？？？ 用X的还用抢火车票？飞回去不是爽歪歪？ 平时回去，国内出国 看谁的速度快 手一定要快 准备油钱了嘛 一晃又一年 i8的流畅度不行，想买的慎重了，不如我之前的i7，沒試過買最新一代的蘋果，用最新的系統會有這種情況，包機打字都覺得不流暢。 不抢 我终于买了一辆自行车 这么傻逼的问题我来回答你:一辆开八十公里，买十辆就够了。 你说呢？头等舱几乎随时都有票 今年买车了终于不用抢票了 走心了 抢票我认识一人，贼6，秒出 他分期付款 我友情免费支援你一个5号电池，不用谢~ 网络时代真好，对于消费者来说省时、省工又省力。深受消费者欢迎。 又面临春运了 大家都这么想，结果都堵在高速上[大哭] 不开车回家，别人不知道我买车了，走亲戚访友也不方便 该回家过年了 飞机票就不用抢了吗？ 动不动就“抢”，啥时候能不用抢啊！？ 🔫你知道的太多了 抢，，，犯法的， 我也买车了，不用抢了，想什么时候走都成。 你以为用x的都是有钱人[喷水] 你们慢慢抢吧！我哪里都不去！ 还不如直接抽签好了 回个家也真是难呐，年年都要抢票，何时才能不用抢呢！？ 不吃你吃谁？ 春运汽车票今天已经开售,春运第一天的火车票明天开售,要回家的孩纸们不要错过了买票时间 飞回去装比就一次，X可以装比好几年，肯定先用X 还是抢吧，堵路上太难受了 权当高做房子，车子当床位 我们没买车，只能开公司车回家了 一提车票就心塞，提前让家里七八个人，同事七八个人，外加一堆朋友帮忙抢票。可是还是比不过刷票的。我也是醉了。 预售？应该改名叫抢购！ 春运，头疼！ 哈哈哈，有道理，x都用了，还缺两千坐飞机了 先抢票，抢不到再开车回家 哥，你这嘴没开过光吧… 又到春运时刻了 你买飞机都不好使 不走高速了 有困难找警察叔叔！ 16号不知道能不能抢到票 老百姓最基本的衣食住行都得不到保障，好意思问我们幸福吗 人多之祸 没有春运之日，就是百姓均富之时。 每年都要抢票，啥时候能跟平时一样就好了。 国家，我想问一下电动车怎么开回家800公里？？？？？ 求支招我怎么能抢到卧铺？ 这个不可能，中国人根的意识特强。我也一样 准备抢票吧 高速变低速，还要带吃喝纸尿裤什么的… 对，大家都早点回家团聚吧，今年生意都很差，大量厂家都没工作，还不如早点回家看看老人，抱抱小孩。。。 没办法！人太多！发展不均衡！每年都可以回家，实在不行坐绿皮火车！ 提前走，提前回，我都是提前花钱走高速，初五回，别两头都想免费，这样错峰出行，免费一次，挺好的。 一个预售时间都要年年变，铁路总公司真是吃饱啦撑得慌，这是标准的衙门作风。 只提前30天，更不好买票 大家都这么想，结果都堵在高速上[大哭] 坏人大迁移来了 “一片难求”问题的解决根本是减少外出务工人口数量，而不是单纯多建铁路多增列车。让人们在家乡就能就业，这就需要国家建设要均衡，不能“一线城市吃饱，二线城市喝好，三线城市吃点残羹冷炙，四线以后自生自灭”。即使花了大价钱让铁路公路的运力满足了春运式的井喷需求，但是一年中绝大多数时间里又会出现运力过剩，大大浪费资源。按照这个思路，还可以一同解决大城市的人口拥挤问题、道路拥堵问题、农村的留守儿童问题和独居老人问题。 今年可能会好一点了 开车回去能堵的你的怀疑人生 就不能来个高清图吗？ 今年买车了终于不用抢票了 大家加油↖(^ω^)↗ 碰到老人和带小孩的我会换，其他的都滚蛋，做人还是要点底线的 领导说了，问题解决了。 早回去啊，大哥。除夕前就回 头一年都说要改善春运问题，但每年还是都要抢票。 又面临春运了 又到了一年春运时 得盲流者得天下 现在觉得回家过年就是应景的事了……麻痹的匆匆忙忙回匆匆忙忙走 回老家买房，不出来了 赶紧准备抢票吧。 带好干粮，准备在高速公路上过年！[不屑] 还好定的飞机票，比特么高铁便宜一半 哎。。不知道说啥了 唉！车次越来越多，票一年比一年难买！<br><br>喷中留言 不是开售而是开抢呢 抢字用的太形象。。。。。。。。。 祝大家元旦快乐吧 开抢这词用得真好 又老了一岁，不知不觉春运又开始了。在外打工真苦逼。 一提车票就心塞，提前让家里七八个人，同事七八个人，外加一堆朋友帮忙抢票。可是还是比不过刷票的。我也是醉了。 想抢到票？别痴心妄想了，客流量大的路线，老老实实找黄牛，一张加200，妥妥的，去年过年，高铁，三个座都是找黄牛加200。 公享单车吧 话说好久没买火车票了 你每年都买不到回去的票吗？ 春运，呵呵，除了城市的无业游民，有正当职业的谁会那么早回老家？所以春运就是用纳税人的钱为盲流服务，盲流回家最早，回来最晚，整个春运就是围着盲流转。 随便，有钱人 对一个人来说只有一种方式了，既然抢票其他就否定了，也没得选择，我们都是外出打工者。 用X的还用抢火车票？飞回去不是爽歪歪？ 这是一个激动人心的时刻。每年都有人被挤得怀孕，也有的被挤得流产。 又面临春运了 每年一回人造混乱 哈哈，舅服你， 是一票难求，谢谢！ 挤破头 在中国，也许只有“抢”火车票不违法犯罪[狗][狗] 接续换乘,一直没成功过 浣溪沙<br>在外先惊易岁寒，一人灯影互斑斑。声音消息转身看。<br>挂历新红春品味，小屏连闪客相关。摧眉成皱比家山。<br>浣溪沙<br>春色发从新画图，焕然模样倍唏嘘。寻常职事竟生疏。<br>闲话争来车票否，相期会带酒茶无。逃群避答为何如？ 一提车票就心塞，提前让家里七八个人，同事七八个人，外加一堆朋友帮忙抢票。可是还是比不过刷票的。我也是醉了。 科技发展，带来很多方面的进步，真是愈来愈好了！ 小伙伴们有过年回家的，赶紧预定吧 以后要不要分配的啊，他妈的 黄牛提前搞到 富士康北门的艺剪坊（清湖形象店）<br>坑爹五步曲————————————坑爹的理发店<br>第一步，装热情——刚一走到门口，几个人围着你上来，那叫一个热情啊。只要你说了一句“洗剪吹”，全部人都散了……（钱少啊）<br>第二步，套关系——那个理发师（我们暂且叫他SB）会主动问你是哪里的人，但不管你说自己是哪里的人，SB都会说“哦，老乡啊”，然后会编出一个跟你同省的城市（最有可能的就是省府），让你放松警惕，开始下手宰你……<br>第三步，故意下套，让你钻——洗完头发，他会问你：“你头发有点弯，要不要梳直？”刚洗完头发，这么乱，当然要梳直啦。你中了，不是中奖，而是中了他的套套。里面的人马上又“热情”起来，两三个人会迫不及待的拿药水给你涂上，这就是钱啊……<br>第四步，“教导”你——等你发现后，店长（暂且就叫GRD吧）说这是你无知，不懂理发店的潜规则（靠，听起来怎么像圈圈里面的事），然后还教师口气的对你说，这次他“好心”告诉你，下次你就不会上当了（来他那里就是买教训的？），FUCK，强盗还讲起理来了！！！<br>第五，威逼胁迫——几个人“围着”你，然后绞尽脑汁给你“想办法、出主意”，押厂牌啊，押手机啊，“陪”你去取钱啊，真感觉自己处在Hongkong电影里<br>同仁们，希望大家记住富士康北门这个店——艺剪坊（清湖形象店）。现在我们被无数的无良商家残害，毒害、欺诈，我们这些“上帝”再也伤不起了，我们不能严惩他们，但至少可以抵制他们。 无聊的话题，无聊！！ 还有被挤得不孕不育[大笑] 用X的还用抢火车票？飞回去不是爽歪歪？ 这是一个激动人心的时刻。每年都有人被挤得怀孕，也有的被挤得流产。 马克 马克 你以为用X的就很有钱嘛，多半是装B货。 今年买车了终于不用抢票了 又面临春运了 挺不错的 科技发展，带来很多方面的进步，真是愈来愈好了！ 又面临春运了 激动人心的时刻 好，方便 明起春运火车票网上开抢 ",
        "Reply": 186,
        "Link": "http://comment.news.163.com/news2_bbs/D73S9KDV00018AOQ.html",
        "Total": 1868
    },
    "KeyWords": "春运,火车票,旅客,选座",
    "URL": "http://news.163.com/18/0102/00/D73S9KDV00018AOQ.html"
}