{
    "Article": "胡可微博截图网易娱乐12月28日报道12月27日晚，胡可晒出一组安吉的照片，并配文称：“哥哥自制的猪鼻子，像不？”照片中，安吉戴上了自制的猪鼻子，对着镜头笑容灿烂。胡可还伸出一只指头去戳安吉的猪鼻子，可以说非常可爱了。安吉猪鼻子对此网友纷纷表示：“安吉是我见过的最帅的‘猪’！”、“感觉小鱼儿戴上会更像啊。”、“是亲妈没错了。”、“为安吉爆灯！实在太可爱了。”本文来源：网易娱乐责任编辑：李彤_NK4455",
    "Source": "Netease",
    "KeyWords": "胡可,安吉,可爱",
    "Title": " 坑娃胡可再次上线 安吉自制猪鼻子玩得不亦乐乎_网易娱乐",
    "Comment": {
        "Total": 13,
        "Content": "真的跟宋仲基有点像安吉可爱 呵呵 亲子游戏还可以玩的这么美吗 真的跟宋仲基有点像安吉可爱 ",
        "Reply": 3,
        "Link": "http://comment.ent.163.com/ent2_bbs/D6O2A7R800038FO9.html"
    },
    "PublishTime": "12/28/201710:06:28",
    "URL": "http://ent.163.com/17/1228/10/D6O2A7R800038FO9.html"
}