{
    "Comment": {
        "Reply": 33,
        "Total": 414,
        "Link": "http://comment.ent.163.com/ent2_bbs/D6S9VG5900038FO9.html",
        "Content": "2003年～智商 锤子 传奇梅艳芳传奇张国荣 骨头都能敲鼓了你说好不好 不知不觉梅艳芳都已经离开14年了记得当年葬礼的时候好多电视台都专题报道了 时间呐会冲淡一切，一百年后，现在世界上的人能剩下几个？ 逢3年份是香港娱乐圈的悲剧，李小龙，陈百强，黄家驹，罗文，张国荣，梅艳芳都是逢3年份去世的 梅姐这一生真的很苦 当妈的坑女儿没谁了 梅艳芳癌症，张国荣跳楼。 他们两个的关系非常好，同一年去世 时间过的真快，那一年，我还是个不知天高地厚，未尝人情冷暖的莽撞孩子 梅艳芳是12月 真爱 哈哈哈👍 不懂不要装懂[狗] 梅艳芳其实是死后成名，生前没有一部影响力广的电影代表作，歌坛方面在大陆歌曲传唱度也不高，被同期的陈慧娴完爆。只因她有干爹娱乐大佬何冠昌，还有向华强等做后台支持炒作力捧，可惜她本人人气不高 靓靓最有心，不管每次哥哥的还是梅姑的生日她都记得。 是的呢，主流媒体也不多宣传，多好的一个人 无比怀念无比想念 想起她和谭校长这对损友为了慈善事业的各种搞笑表演。现在子宫癌有疫苗了，她在天堂可会安慰(ღ˘⌣˘ღ) 打动了 骨头都能敲鼓了你说好不好 还好还有一帮记得他的朋友 不知不觉梅艳芳都已经离开14年了记得当年葬礼的时候好多电视台都专题报道了 梅姐这一生真的很苦 当妈的坑女儿没谁了 梅艳芳其实是死后成名，生前根本没有一部影响力广的电影代表作品，歌坛方面在大陆歌曲传唱度也不高，被同期的陈慧娴完爆。只因有大佬干爹何冠昌，还有向华强等靠山支撑炒作暗箱操作力捧。可惜作品还是不行 他们两个的关系非常好，同一年去世 今年为什么网易没放梅的头版[大哭] 时间过的真快，那一年，我还是个不知天高地厚，未尝人情冷暖的莽撞孩子 他们是那个年代的代表， 梅艳芳没啥作品 哈哈哈👍 梅艳芳其实是死后成名，生前没有一部影响力广的电影代表作，歌坛方面在大陆歌曲传唱度也不高，被同期的陈慧娴完爆。只因她有干爹娱乐大佬何冠昌，还有向华强等做后台支持炒作力捧，可惜她本人人气不高 2003年～智商 锤子 100年后我们携手拉着马云牵着马化腾领着刘强东揍着奶茶……去和梅艳芳张国荣打麻将……斗地主……可好 传奇梅艳芳传奇张国荣 一楼秀智商来了 时间呐会冲淡一切，一百年后，现在世界上的人能剩下几个？ 谁没过去! 喜欢的男人离开了他 留不下几个 最后还得了恶疾 梅艳芳癌症，张国荣跳楼。 真爱 不懂不要装懂[狗] 金枝玉叶2电影好看歌好听 "
    },
    "Title": "有心人！梅艳芳忌日袁咏仪晒旧照怀念：你好吗_网易娱乐",
    "Article": "网易娱乐12月30日报道30日是梅艳芳的忌日，袁咏仪准时在微博晒出一张梅艳芳的旧照，并配文：“12月30日！你好吗？”2003年12月30日，一代天后梅艳芳病逝。袁咏仪每年都会在微博准时发文怀念。网友们纷纷称赞袁咏仪：“有心人，一如既往”、“靓靓真的有心了”、“原来你也这么好，那她一定也很好”、“怀念梅姐”、“有你守护，会很好！”本文来源：网易娱乐责任编辑：宋玉鑫_NK6612",
    "URL": "http://ent.163.com/17/1230/01/D6S9VG5900038FO9.html",
    "Source": "Netease",
    "KeyWords": "梅艳芳,袁咏仪",
    "PublishTime": "12/30/201701:37:23"
}