{
    "Source": "Netease",
    "KeyWords": "狗证,治安,限养区,狂犬疫苗",
    "URL": "http://news.163.com/17/1225/01/D6FD6CQ300018AOP.html",
    "PublishTime": "12/25/201701:23:05",
    "Comment": {
        "Content": "碰到恶霸了 医生说了，如果咬人的狗有狂犬病，打了疫苗也不一定有用，做个记录是有必要的 1、应该对无证养狗进行处理。2、不按法规养狗伤人，涉嫌故意伤害。3、在前两条成立的情况下，如果只报销医药费，显然对被狗咬者不公，应该考虑补偿，包括但不仅限于对得狂犬病的精神担忧…… 狂犬病死人有多少呢？警察很少有作为的，对狗主人不处理，还不如对酒驾严。 医生说了，如果咬人的狗有狂犬病，打了疫苗也不一定有用，做个记录是有必要的 咬人的狗就人道处理了 那些放任狗到处便溺的狗主人，都是被狗弄出来的杂物。 坚决反对养大狗，特别是大狼狗！我见过好多老人小孩被吓倒。那狗主人却人仗狗势得瑟得不得了！ 不是警察不作为，是法律不作为。法律装糊涂，是最大的祸害。各地都有养犬条例，那还不如擦屁股纸。大家说句公平话，对不对。 需要科普一下，狂犬病是获得性的，不是自发性的，家养的狗如果不是被携带狂犬病毒的狗咬过是不会得狂犬病的。狗如果得了狂犬病，十天之内必然病发死亡，如果十天之内狗没事，被咬的人肯定没事。<br>狗是人类的朋友，不反对养狗，但还是要拴好的，尤其是大型犬。虽然家养的大型犬一般比较温顺，但并不能自控，撞人一下也会受伤。另外，烈性犬不能家养。 扯皮啊，警察不作为 警察也怕咬 话说狗主人也没有逃避责任啊！！！！没有什么好扯的，键盘侠们最多就是狗主人没有绑好自己的狗！反正政府又没有禁止养狗，特别是农村的，土狗都是满街走的！ 如果感染狂犬疫苗死了就让她全家陪葬麻痹的这些狗杂种 医生说了，如果咬人的狗有狂犬病，打了疫苗也不一定有用，做个记录是有必要的 这地方不错，还能养两只。我这只准养一只。。 狂犬病死人有多少呢？警察很少有作为的，对狗主人不处理，还不如对酒驾严。 1、应该对无证养狗进行处理。2、不按法规养狗伤人，涉嫌故意伤害。3、在前两条成立的情况下，如果只报销医药费，显然对被狗咬者不公，应该考虑补偿，包括但不仅限于对得狂犬病的精神担忧…… 科普：如果咬人的狗携带狂犬病毒，即使患者在24小时内打了疫苗（不管是国产还是进口），未必就是100%管用，也就是说，打了疫苗存在十年潜伏期也是正常的。以为赔钱就完事了？ 坚决反对养大狗，特别是大狼狗！我见过好多老人小孩被吓倒。那狗主人却人仗狗势得瑟得不得了！ 警察去干什么？法律没规定，执什么法？用私刑？ 既然各地都有养犬条例，那就是有法可依，既然有法可依，警察还不管，这不就是不作为么？ 扯皮啊，警察不作为 警察也怕咬 有的中年女人就喜欢养大狗，自己还没狗力气大，不知道图啥 法律没规定，警察处理什么？用私刑？ 碰到恶霸了 狗主人表示情绪稳定 不打一定没用 那些放任狗到处便溺的狗主人，都是被狗弄出来的杂物。 医生说了，如果咬人的狗有狂犬病，打了疫苗也不一定有用，做个记录是有必要的 咬人的狗就人道处理了 不打一定没用，换你你打不打？ 养狗这事，主人不负责，国家不监管，就知道收钱。 不是警察不作为，是法律不作为。法律装糊涂，是最大的祸害。各地都有养犬条例，那还不如擦屁股纸。大家说句公平话，对不对。 当然是无利不起早啊，仔细想想 需要科普一下，狂犬病是获得性的，不是自发性的，家养的狗如果不是被携带狂犬病毒的狗咬过是不会得狂犬病的。狗如果得了狂犬病，十天之内必然病发死亡，如果十天之内狗没事，被咬的人肯定没事。<br>狗是人类的朋友，不反对养狗，但还是要拴好的，尤其是大型犬。虽然家养的大型犬一般比较温顺，但并不能自控，撞人一下也会受伤。另外，烈性犬不能家养。 ",
        "Total": 282,
        "Link": "http://comment.news.163.com/news2_bbs/D6FD6CQ300018AOP.html",
        "Reply": 25
    },
    "Article": "（原标题：去村里办事被狗咬伤）华商报讯席先生怎么都没有想到，自己会被狗给咬伤了。12月22日上午10时25分，53岁的席先生去雁塔区闵旗寨村办事，在村子一处路中间，一只白色的狗突然蹿了上来，在他右腿小腿部位猛咬一口，之后迅速跑回附近一间民房里。席先生感觉到了疼痛，将裤子卷起查看，被狗咬的部位有一个黄豆大小的牙印，虽然没有出血，但慢慢开始疼痛了。他找到那间民房，里面的房客称房东不在，但门口有电话。席先生打过去，对方说她在上班，让家人来处理。十分钟后，一名五十多岁的男子过来问席先生情况，他看了伤口对席先生说：“没事！有啥事你找我，我家就在这，但这狗是我女儿养的。”这回答让席先生哭笑不得，“最起码得把狗拴住么？”男子又说，你实在不行就去看病，看完你把发票拿来给你报。席先生拨打110报警后，雁塔分局昆明路派出所民警过来，询问后，让双方在自行处理的单子上签了字。在接受民警询问的时候，狗主人称，伤人的狗没有狗证。随后，村委会治安办几个人赶到现场，席先生的单位也来了人，将他往医院送，直到下午，他才打上狂犬疫苗。当晚，席先生的伤口不仅疼痛，还有点肿，23日早上，他在家继续用水冲洗，直到昨日，还是觉得疼，他担心这狗会再伤人。《西安市限制养犬条例》规定，西安市实行划区域限制养犬，三环路以内区域及三环路以外的城镇居民居住区等区域为重点限养区。闵旗寨村属于三环外，为一般限养区。条例规定，一般限养区内每户养犬不得超过两只。一般限养区内，个人饲养烈性犬、大型犬的，必须实行拴养或者圈养。昨日，该村治安办一宋姓主任接受华商报记者采访称，伤人的狗没有办狗证，刚生过小狗崽。事发后，已经要求狗主人用铁链将狗锁上了，席先生注射狂犬疫苗的花费，他们会协调让狗主人承担。本文来源：华商网-华商报作者：卿荣波责任编辑：李天奕_NN7528",
    "Title": "男子被狗咬伤 狗主人:你去看病把发票拿来给你报_网易新闻"
}