{
    "PublishTime": "12/30/201707:24:32",
    "Source": "Netease",
    "Comment": {
        "Content": "腿真白 迪丽热巴在这样的女星算是最少见的一位，性格不错，不炒作，敬业低调，演技又好，看不出一点行为上的喷点都没有 这马脸够长 是的！不过颜值倒是没热巴这么好，稍差点吧！凑合着用还行！ 这姑娘不错 她还不炒作啊？跑男里炒CP，完了但凡有合作的男星必定炒绯闻。 中国人迪丽热巴比美国籍韩国娘们刘茜美子第一岛链人。<br><br>还是中国人身材好~~宽平的肩膀瘦脸...长腿..<br><br>刘茜美子则相反。 热巴太可爱了[色色] 据说在新疆，热巴这种颜值的妹子，包夜只要600，是真的吗 百度搜下朱明虬，看下会有什么搜索推荐[大笑] 穿这样太冷了，注意保暖 都说有孜然味，我想尝尝跟烤串的区别大不大？ 最近暴光度比杨幂还高，不过对她不感冒。 迪吧太抠了网易续费这点小钱都不舍得花 尿素脸 热巴怎么会冻 二楼死黑粪张嘴说屁话。 没发现这女的出现的新闻底下很多水军捧场吗？那是人干dei为了捧她，舍得花钱啊 热门跟贴 热巴真美 并不觉得她好看啊 光打成这样，还是不觉得好看 她到底哪好看？ 不是刚从乌鲁木齐回来感觉好看的没那么多 看过的说说咱们自己拍的《解忧杂货店》咋样？值不值得去看看？ 美美哒！[色色][色色] 牛奶要保温海鲜要冷藏没毛病 恶心 腿真白 迪丽热巴在这样的女星算是最少见的一位，性格不错，不炒作，敬业低调，演技又好，看不出一点行为上的喷点都没有 等老子统治全世界后宫佳丽10亿美女一天做多能日多少算算 这马脸够长 是的！不过颜值倒是没热巴这么好，稍差点吧！凑合着用还行！ 人家热巴！热死啦 我希望成为那个抱枕 结婚结婚早点让你男朋友高伟光他迎娶进门吧，早日步入婚姻殿堂呗！迪丽热巴哈哈 百度搜下朱明虬，看下会有什么搜索推荐[大笑] 光打成这样，还是不觉得好看 二楼死黑粪张嘴说屁话。 没发现这女的出现的新闻底下很多水军捧场吗？那是人干dei为了捧她，舍得花钱啊 热门跟贴 这样的新闻少说 她还不炒作啊？跑男里炒CP，完了但凡有合作的男星必定炒绯闻。 最近暴光度比杨幂还高，不过对她不感冒。 我喜欢比他好看多了 一炮解千愁 美美哒！[色色][色色] 那个和张翰分手的叫……古娜力扎？吾册那……迪丽热巴……那妈，记弗牢…… 热巴怎么会冻 不要整天上头条秀自己，生米煮成熟饭接受事实有本事儿赶紧让你男朋友高伟光他迎娶进门啊，回家生小孩儿去哇！迪丽热巴哈哈 白白的 小迪怎么都美的感觉 三楼脑残粉死全家 鲍鱼吗？ 感觉吧长得越来越像fbb 这姑娘不错 你们做梦吧，豆奶会做贱汗的生意？ 中国人迪丽热巴比美国籍韩国娘们刘茜美子第一岛链人。<br><br>还是中国人身材好~~宽平的肩膀瘦脸...长腿..<br><br>刘茜美子则相反。 五官好大 热巴太可爱了[色色] 据说在新疆，热巴这种颜值的妹子，包夜只要600，是真的吗 她到底哪好看？ 穿这样太冷了，注意保暖 都说有孜然味，我想尝尝跟烤串的区别大不大？ 尿素脸 新疆人真有味道！ 热巴真美 并不觉得她好看啊 不是刚从乌鲁木齐回来感觉好看的没那么多 看过的说说咱们自己拍的《解忧杂货店》咋样？值不值得去看看？ 牛奶要保温海鲜要冷藏没毛病 是处女 恶心 好粗 迪吧太抠了网易续费这点小钱都不舍得花 ",
        "Link": "http://comment.ent.163.com/ent2_bbs/PHOTJNPL000300AJ.html",
        "Total": 504,
        "Reply": 46
    },
    "Article": "迪丽热巴上捂下冻秀发光玉腿近日，迪丽热巴空降深圳为新片宣传，身着绿色毛衣搭配黑色皮裙的她大秀发光玉腿，不时撩动长发女人味十足。迪丽热巴落座后用抱枕盖在腿上，成功get防走光神器！",
    "URL": "http://ent.163.com/photoview/00AJ0003/646965.html",
    "Title": "迪丽热巴上捂下冻秀发光玉腿_网易娱乐",
    "KeyWords": "迪丽热巴,"
}