{
    "Title": "美女研究生与男友吵架 为宣泄她竟去商场做这种事_网易新闻",
    "URL": "http://news.163.com/17/1226/20/D6K07QDQ0001899N.html",
    "KeyWords": "研究生,盗窃,美女,商场",
    "PublishTime": "12/26/201720:13:14",
    "Article": "（原标题：美女研究生月入过万，和男友冷战后竟去商场做了这种事）研究生毕业的小李（化名）在杭州一家世界500强企业工作，月收入妥妥过万，27岁的她年纪轻轻长得也好看，这几年一直算顺风顺水，更是家里的骄傲。所以，当家人在杭州四季青派出所里看到她时，真的是崩溃了，忍不住痛哭流涕，实在不敢相信小李做出的事情。小李到底做了什么事让家人难以置信民警说，这姑娘自称由于工作压力大，再加上与男朋友吵了一架，选择靠偷偷偷来宣泄——12月23日一下午连偷了三家店。12月23日晚18时许，四季青派出所接到万象城一家服装店的报警，店员称店内一件价值1600元的裤子被盗了。接到报警后民警迅速展开调查，通过调取监控，一名年轻的红衣女子进入了民警的视野。监控视频显示，当天下午两点多，这家服装店展示柜台前，一个身着红衣的姑娘，朝前背着一个大大的双肩包。她拿起一条裤子，迅速卷了卷，四处观望后，马上拉开背包拉链，把裤子装了进去，走了。这个人就是小李。▲监控视频拍下小李卷裤子的场景一口气偷了三家店连苹果专卖店也不放过民警一调查才发现，小李不是只偷了这家店，同一个下午，她在万象城的另一家服装店，还顺走了一件价值980元左右的蕾丝上衣。当天下午附近的一家苹果店也被小李“光顾”——价值1288元的一部耳机不翼而飞。四季青的民警们当天凌晨就确定了小李的位置，并开始蹲守。12月24日一早，在一小区门口，民警将小李抓获，被盗的三件物品也被找到。▲被盗的苹果耳机，价值1288元▲被盗的裤子，价值1600元左右▲被盗的蕾丝上衣，价值980元左右一审查民警都很意外红衣姑娘小李真的是网友嘴里的“三高”人士——她高学历：研究生毕业；她高收入：现为杭州某世界500强企业旗下的员工，月工资妥妥上万。还是高颜值，长得白白净净，颜值也高。这样一个高学历、高收入的姑娘，根本不差钱，为啥偏偏要偷？小李交代，之所以这么做是最近工作压力太大了，情感上又和男朋友吵架，内心苦闷，就想到靠偷这个方式来排解、宣泄情绪。12月23日下午，在逛街的小李先在苹果店里偷了一副耳机。然后又来到了万象城内的两家衣服店，偷了一条裤子一件蕾丝上衣。她说：“当时没有人发现，也没有店员追上来，我有了莫名的兴奋感。”而除了被偷裤子的这家店报警之外，苹果店和另一家服装店直到民警找上门才知道自己店里少了东西。“这小姑娘事后很后悔很后悔，家里人来派出所也是哭成一团，根本不相信。”民警说，由于三件被盗物品价值已经超过三千元，目前小李已被刑事拘留，接下来她要在看守所里过一段日子了。本文来源：半岛晨报责任编辑：李杭_BJS4645",
    "Comment": {
        "Content": "我也最烦这种标题了 这裤子16我都不要 这种裤子1600元，呵呵 这是病，得治 理由好奇葩，，偷就是偷 哎😣 這種我才不偷要偷就偷原味的 当年我偷了一辆价值150的单车被关了1年。 应该是跨国药企业的医药代表吧，男友怀疑她和医生客户陪睡呢。阿里是不会招什么硕士，还美女的。 这裤子1600？？？有点贵 偷得那套蕾丝内衣，感觉很。。。 这就是性欲得不到充分释放的具体表现，其实跟她的男友狠狠的打上一泡，把笔水一股脑儿的喷个精光，就没事儿了 “杭州某世界500强企业”让人浮想联翩，这不就是马大忽悠的公司吗！ 变态反应 衣服裤子二件60元 这两家服装店的衣服标价太不靠谱了，看起来就是几十块衣服的质感跟版型嘛 东西真贵 没有什么是二楼一炮解决不了的如果有再来一炮即可，如有郁闷的姑娘请联系二楼 看到这种标题就反感 标起题能不能不要这么哗众取宠，特么直接说内容不行吗？ 书也白念了 也还好啊.最起码有男友 杭州500强企业很多啊，不过27岁（研究生毕业两年左右）就过万的，就不太多了，海康，网易，阿里，还有谁补充一下，至于哇哈哈跟万向，吉利，苏泊尔之类生产企业，入职两年过万月薪的有点纠结 偷习惯了，几天不偷手就痒 学历无问题，人品有问题。 最讨厌这种标题 这种裤子1600元，呵呵 山寨亚马逊的网络商场，不懂为毛在天朝就成了高科技了……………… 呵呵 哈哈哈哈 高学历前程毁了，白瞎了学历了。 最后一件就是情趣内衣好不啦~ 傻逼，偷这个没追求，去偷人比这刺激多了 应该是跨国药企业的医药代表吧，男友怀疑她和医生客户陪睡呢。阿里是不会招什么硕士，还美女的。 现在都情趣内衣外穿了 直接说内容，没有好奇心你就不看了！都是套路[不屑][不屑][不屑] 这就是性欲得不到充分释放的具体表现，其实跟她的男友狠狠的打上一泡，把笔水一股脑儿的喷个精光，就没事儿了 变态反应 我以为去捏方便面呢😞😞😞 这条裤子要1600！！！ 标起题能不能不要这么哗众取宠，特么直接说内容不行吗？ 工作也是跟高管偷来的 书也白念了 杭州500强企业很多啊，不过27岁（研究生毕业两年左右）就过万的，就不太多了，海康，网易，阿里，还有谁补充一下，至于哇哈哈跟万向，吉利，苏泊尔之类生产企业，入职两年过万月薪的有点纠结 妹子看样子不错啊，不要偷，来找哥，哥给你买 。。 我也最烦这种标题了 这裤子16我都不要 也有点道理 一楼有大胆的想法吗？ 哎😣 這種我才不偷要偷就偷原味的 当年我偷了一辆价值150的单车被关了1年。 赌气,觉得你不给他面子.还不成熟 我以为是捏方便面呢！ 偷得那套蕾丝内衣，感觉很。。。 “杭州某世界500强企业”让人浮想联翩，这不就是马大忽悠的公司吗！ 这裤子要一千多 在吗后的炒作之下，一块破抹布都能卖到上千元！ 衣服裤子二件60元 一顿狠草有什么解决不了的？ 不是有点贵简直就是抢钱，这破料子一般品牌最多也就一百块，阿迪耐克广告打得狠也就敢卖个四百。现在的服装吊牌价打一折老板依然至少能赚一倍的利润 这两家服装店的衣服标价太不靠谱了，看起来就是几十块衣服的质感跟版型嘛 东西真贵 没有什么是二楼一炮解决不了的如果有再来一炮即可，如有郁闷的姑娘请联系二楼 看到这种标题就反感 小上衣好看! 这裤子1600？？？有点贵 那样写不时髦。 学历无问题，人品有问题。 蕾丝好性感 也还好啊.最起码有男友 [惊讶][惊讶][惊讶] 这是病，得治 偷的理直气壮<br>跟那些观园一样 理由好奇葩，，偷就是偷 偷习惯了，几天不偷手就痒 ",
        "Total": 616,
        "Link": "http://comment.news.163.com/news2_bbs/D6K07QDQ0001899N.html",
        "Reply": 52
    },
    "Source": "Netease"
}