{
    "Article": "（原标题：人民日报官方微博：东北振兴，实在经不起营商口碑的滑坡了）【#你好，明天#】黑龙江就“毛振华反映亚布力管委会侵权”展开调查。真相尚待明辨，但有些共识早已明确：无诚信不法治就没有合作。东北振兴，已是过坎爬坡，实在经不起营商口碑的滑坡了。营商环境比金子更珍贵，保护合法权益，破除“开门招商，关门打狗”，“投资不过山海关”的论调，才能不攻自破。本文来源：人民网-人民日报责任编辑：邵小波_NN2479",
    "PublishTime": "01/03/201809:41:00",
    "URL": "http://news.163.com/18/0103/10/D77GI0ID000187VE.html",
    "Source": "Netease",
    "Comment": {
        "Content": "东北的富豪少吗？盘根错节的吸血集团，没朱总的狠劲东北发展不起来，把东北发展起来必须狠对利益集团，说人头滚滚不为过，但政治前途就没了，上头有坚定支持，个人不计得失放弃前途，难啊 昆明的东北人太多了。<br>接触到的东北的生意人非常不实在。 已经是深渊了，没滑坡 公民没有渠道上告，司法形同虚设，早晚会玩完！ 现在这帮都是其他省过来的还不是一样黑 没用的 云南，四川，西藏的还行，只是四川凉山那一块确实属于扶不起的阿斗，在甘孜阿坝两个州的扶贫进展比凉山好五倍。就像以前四川甘孜的牛背山，当地民众自发经营的，当地人不管藏族汉族都有共识，不欺客宰客。牛背山很多人都是定越野车往返上下，还有很多徒步的，结果到了山顶发现下山走不动了，有人給3倍价格给越野车想下山，但是当地越野车都不会把定车的客人丢了去拉他们。顶多是给那些人说，送完定车客人第二趟上来拉也不给你涨价。这种事情遇到过很多次了。节假日山上的棚子爆满，基本上不涨价，直到去年搞开发。 要论营销口碑的滑坡有多难翻身，你们可以跟荷兰的朋友交流一下。 请东北各地领导用心来诚招对东北还有感情的企业家！要营商必先安商，没有投资哪来的振兴。。。 谁稀罕你外地人投资，我们有烧烤和喊麦 不彻底重置清换了处级以上的官员不整治机构不可能实现振兴，对比一下山西，自从彻底清理异选才后就气象完全不同，没有这样的胆魄，振兴东北只能是空谈和囗号，， 人民日报概论精准，开门招商，关门打狗 这样的大环境，还是等死差不多 大保健还是有机会的 讲真某些城市的招人反感很正常，任何吸血城市都招人反感！中国人只不过是没权罢了 快跑吧 跟贴被火星网友带走啦~ 我就告诉你不仅仅是当官的原因，即使换一批没问题的官员还是一样会变，因为东北人已经形成了有事找人送礼的思维惯性 东北何来营商环境一说？随便去开个厂，都能给你皮扒完。<br>不信自己看看当年沈阳宝马项目初期，被当地坑成什么样子了。 东北要振兴得把如今在位实职正科以上的全部就地免职从其他省调人过去只有这样才有希望！ 东北那地方太混帐 重工业烧烤，轻工业喊麦，服务业遍布全国各地！厉害不？威武不？ [微笑][微笑][微笑]看来要大力发展烧烤喊麦了啊…… 开门招商，关门打狗 东北官风很差劲怪不得别人 既然人民日报都发声了，那中央肯定就要有动作了，毕竟人民日报是中央的传声筒[微笑][微笑][微笑]。 东北啊！东北别怪我们爱你 招商引资，关门打狗。厉害👍🏻 二楼东北人 二楼还暴露了自己家人就是服务业从业者 雪乡的雪再白也掩盖不掉纯黑的人心！ 投资不过山海关是真理，不是什么论调，更不存在所谓的不攻自破。 跟贴被火星网友带走啦~ 这位中国苹果7的就是喊麦大省，出口成脏。 一个朋友的老公在黑龙江投资最后从县长办公室跳下去了，这样的环境别说投资了保命要紧。 在身边多了许多东北口音的人，昨天菜市场买卖的东北口音的人还在说刚来还会想想老家，现在都不想回去，全家人都出来了。 1L说的不现实，科级待遇省与省不一样，又不是很大的官职，你愿意为这点工资离家上千里来上任？ 你的意思全身換血就脱胎換骨了？ 东北是三个省，不要因为一件事儿就捆绑消费三个省，这种地狱黑手法很low！ 重新洗牌吧，连普通科员都跟皇帝一样 是什么原因让一个区域全国人都讨厌？除了那个城市，也就这块区域了 我也是沈阳的难道沈阳好吗？更黑 那就把毛抓起来，，。 没你妈做大保健威武 还要靠快手[窃笑] 其他省份的税收到底有多少填了东北肉食者的胃口呢？ 跟贴被火星网友带走啦~ 黑不黑东北群众最有发言权！ 要论营销口碑的滑坡有多难翻身，你们可以跟荷兰的朋友交流一下。 辽宁管管吧上下全是贪 现在这帮都是其他省过来的还不是一样黑 还有一批有级别的企事业单位呢，这些都抓了，城就空了…… 有事找人送礼没事送礼联络感情 [窃笑][窃笑][窃笑] 一个省的我不批评你，但相信你不否认，黑龙江人比我们省野蛮的多，北京坑蒙拐骗的我们省的、沈大的好像没有吧 掌握审批权的就没有不贪污的 是不要那么多部门吧 当地消防环保一起检查罚款罚款。哈哈企业跑完吧 68%的国企在东三省。其他省都过去也填不满坑。 东北的雪是白的，东北人的心是黑的 你是狗杂产的烂仔子 这样的大环境，还是等死差不多 东北是三个省，不要因为一件事儿就捆绑消费三个省，这种地狱黑手法很low！ 贪懒秉性不除，吃相怎能改变。 你愿意认贼作父你认去，区分黑吉辽不对吗？你看华北、华东、西南等大区哪个不是分得清清楚楚的？东北被集体黑就被你这种老倒子搞的。 是滴.自生自灭算啦.别再去祸害别人啦 也不光东北，很多地方都一样，经济越不行就越厉害，成恶性循环了！ 跟屁虫！ 跟贴被火星网友带走啦~ 东北也曾记辉煌过，经济总量排到过亚洲第一 投资不过.... 开门招商，关门打狗，这可是你们自己说的 东北何来营商环境一说？随便去开个厂，都能给你皮扒完。<br>不信自己看看当年沈阳宝马项目初期，被当地坑成什么样子了。 还是随他去吧…… 座山雕的后代。 [微笑][微笑][微笑]看来要大力发展烧烤喊麦了啊…… 开门招商，关门打狗 嘿嘿，当官谁不想捞点政绩捞点钱，只能说东北人太实在，你不能往死理干啊。猪养大了才有肉 北京的黑中介，黑导游，黑介绍工作的，以前中关村卖电脑手机的，只要有东北人涉足的地方，就没好的，我一朋友那时在中关村那边租个小店卖手机，他是本分经验，几个东北的店子就结成同盟光整其他店，还在顾客面前说坏话，还在工商面前诬陷别人，实在干不下去，后来回武汉了，也干老本行就好了了，好几年前的事情了，现在中关村手机电脑不就是东北人宰客给弄废了。 要不要砍一批东北老百姓最有发言权！ 投资不过山海关是真理，不是什么论调，更不存在所谓的不攻自破。 一帮嘴炮呗。 这才是有远见的手段，以后你就明白了！ 快手，振兴东北的强心剂！ 亮的一妓:发展房地产！ 东北人实在？你是来搞笑的吗 应该是大连 简单，把东北官员优秀的，和南方对掉，一把手，和执法系统更新，抓几个典型，开一个示范区域，重要规则，政策，办事流程网络化，接受网友监督，适当给予示范区一定权利，不受当地政府机构影响，搞个几年让他们看看怎么样才对他们是好的 你也是人？你是个狗杂！ 这样去了也不行，得全部免职 是哈尔滨，别用东北 其实全国都是一座冰山，东北浮出水面而已 现金为王啊 辽宁不黑吗？我们吉林就忒黑！ 没啊，我们去福建，地是免费的，水电前面几年都是免费的，给开公交车。 一个朋友的老公在黑龙江投资最后从县长办公室跳下去了，这样的环境别说投资了保命要紧。 本山的农村电视剧不错 杀鸡取卵的政策，注定长久不了。 纪委不是又大虎有拍赢的? 要不要砍一批 你都能代表全国人了莫非是人大代表 沈阳好哪儿去吗？ 你的意思全身換血就脱胎換骨了？ 来投资就扒一层皮，同城的两个区还互相挖墙脚，基建规划混乱，以前来过的投资商都望而却步。 有点自知之明好不好，荷兰人在你们面前都只能排第二。 好不了多少，你看李嘉诚，曹德旺都跑了，外汇也严管了，自己的钱都不能多带，王健林也被整了，东北只是更极端一些! 支持！！！！ 东北官员需要大换血 你嫌你爹妈穷给你丢人。你可以去日本。 我也是沈阳的难道沈阳好吗？更黑 官方都说了，开门招商关门打狗 东北要振兴得把如今在位实职正科以上的全部就地免职从其他省调人过去只有这样才有希望！ 东北独立吧，让他们自生自灭 我在想那里的当官的看不得别人富裕，看见有钱人就想卡点油，所以不管谁去治理最终结果都不会好 昆明的东北人太多了。<br>接触到的东北的生意人非常不实在。 黑龙江的政府，呵呵。 公民没有渠道上告，司法形同虚设，早晚会玩完！ 没用的 云南，四川，西藏的还行，只是四川凉山那一块确实属于扶不起的阿斗，在甘孜阿坝两个州的扶贫进展比凉山好五倍。就像以前四川甘孜的牛背山，当地民众自发经营的，当地人不管藏族汉族都有共识，不欺客宰客。牛背山很多人都是定越野车往返上下，还有很多徒步的，结果到了山顶发现下山走不动了，有人給3倍价格给越野车想下山，但是当地越野车都不会把定车的客人丢了去拉他们。顶多是给那些人说，送完定车客人第二趟上来拉也不给你涨价。这种事情遇到过很多次了。节假日山上的棚子爆满，基本上不涨价，直到去年搞开发。 二楼东北人 大宝剑 人民日报概论精准，开门招商，关门打狗 东北? 跟贴被火星网友带走啦~ 这标题读起来怎么这么别扭？！想语言生动也得有那个水平啊！ 没有好的机制，没有有效的监督，一楼真是天真 资道不？ 大保健还是有机会的 东北官场，从根上烂了 让你老婆赶紧过来啊 学校的也要坏，保护下一代 跟贴被火星网友带走啦~ 上面的干部能不能把那边的干部都换了呢？一次换干净，这个国家不缺想当官的人。 是什么原因让一个区域全国人都讨厌？除了那个城市，也就这块区域了 重工业烧烤，轻工业喊麦，服务业遍布全国各地！厉害不？威武不？ 说谁是狗呢？ [微笑][微笑][微笑]看来要大力发展烧烤喊麦了啊…… 中国加油！ 既然人民日报都发声了，那中央肯定就要有动作了，毕竟人民日报是中央的传声筒[微笑][微笑][微笑]。 东北啊！东北别怪我们爱你 洒盐引羊，关门煲汤。 招商引资，关门打狗。厉害👍🏻 谁说的人家快手产生多大GDP 立帖为证，绝对不可能。你知道改革开放这四十年多少zf势力，红二势力盘踞东北，你又知道东北的腐败为什么不敢碰？ 你井底之蛙就知道这两样啊 我觉得东北要振兴，拿卡要风气改掉才有可能 雪乡的雪再白也掩盖不掉纯黑的人心！ 不止政府，学校的都要换 你的意思全身換血就脱胎換骨了？ 那块儿？ 在身边多了许多东北口音的人，昨天菜市场买卖的东北口音的人还在说刚来还会想想老家，现在都不想回去，全家人都出来了。 科级相当于镇长和县里面的局长级别 不彻底重置清换了处级以上的官员不整治机构不可能实现振兴，对比一下山西，自从彻底清理异选才后就气象完全不同，没有这样的胆魄，振兴东北只能是空谈和囗号，， 比如别让李家城跑了 没你妈做大保健威武 我在东北待了几个月，有这点体会。环境确实不好，人好像也差点。不知道原因是啥？ 老铁，6666 那是東人人沒去那做生意 东北加油！ 就你们穷庆臭山沟子也可以嘲笑别人了！ 精辟！哈哈 现在搞地域攻击的都是一群SB+脑残，真不知道哪里来的优越感。东北是有他不好的地方，但是也不是一无是处。哪里都有好有坏，比如你们威海，大多数都是好人，但是不是还出了一个你这样的SB地域狗吗？ 希望全国各地的洞杯B滚回洞杯去建设家乡，别出来祸害人[喷水][喷水][喷水] 冬被大渣子满世界流窜 开门招商，关门打狗。 一条道道上的，换谁都一样。不换脑筋不换骨架治不好的。 开门招商，闭门打狗？没到那一步吧，人家只是要你先进带后进共同进步，少数人跑太快也不好吧。 那就把毛抓起来，，。 1L说的不现实，科级待遇省与省不一样，又不是很大的官职，你愿意为这点工资离家上千里来上任？ 那就把提意见的人处理掉。 东北要振兴得把如今在位实职正科以上的全部就地免职从其他省调人过去只有这样才有希望！ 中西部是拯救不了的那里是少民的地盘 东北的富豪少吗？盘根错节的吸血集团，没朱总的狠劲东北发展不起来，把东北发展起来必须狠对利益集团，说人头滚滚不为过，但政治前途就没了，上头有坚定支持，个人不计得失放弃前途，难啊 都去海南了，怎么发展 跟贴被火星网友带走啦~ 东北官风很差劲怪不得别人 青岛的东北人多的很，有些是闯关东的后代，有些不是，但是口碑一样的差，实话 请东北各地领导用心来诚招对东北还有感情的企业家！要营商必先安商，没有投资哪来的振兴。。。 东北振兴靠快手和Pgone 老铁双击666，没毛病老铁 跟贴被火星网友带走啦~ 已经是深渊了，没滑坡 大东北好地方 说的很好 讲真某些城市的招人反感很正常，任何吸血城市都招人反感！中国人只不过是没权罢了 轻工业喊麦重工业烧烤 快跑吧 跟贴被火星网友带走啦~ 跟贴被火星网友带走啦~ 老妹脾气越来越大了，都不叫床了 东北人还是挺可以的。只是可能大环境背景不好。 东北那地方太混帐 东北要振兴得把如今在位实职正科以上的全部就地免职从其他省调人过去只有这样才有希望！ 重新洗牌吧，连普通科员都跟皇帝一样 [微笑][微笑][微笑]看来要大力发展烧烤喊麦了啊…… 东北要振兴得把如今在位实职正科以上的全部就地免职从其他省调人过去只有这样才有希望！ 还要靠快手[窃笑] 其他省份的税收到底有多少填了东北肉食者的胃口呢？ 谁稀罕你外地人投资，我们有烧烤和喊麦 ",
        "Reply": 144,
        "Total": 2859,
        "Link": "http://comment.news.163.com/news2_bbs/D77GI0ID000187VE.html"
    },
    "Title": "人民日报官微:东北振兴 经不起营商口碑的滑坡了_网易新闻",
    "KeyWords": "东北振兴,滑坡,人民日报,法治"
}