{
    "URL": "http://sports.163.com/17/1228/14/D6OGM68800058781.html",
    "Comment": {
        "Reply": 73,
        "Content": "说风凉话的都撒泡尿照照自己，我是觉得教授很厉害了！因为亨利喜欢上了娜娜！ 温格应该是英超最早玩传控足球的主教练，记得当时西甲喜欢看巴萨、德甲喜欢看多特蒙德、英超就喜欢看阿森纳，因为这三队在各自联赛中都是传控技术最好、观赏性最强的。 为啥穆鸟不拿冠军就要被喷 他永远都是老四 祝福温格 阿森纳也有钱，储备资金多的是，肯不肯花是关键 之前是建酋长球场拖了后腿，现在是缺乏球队竞争力吸引不了大牌球星，连青年球员都对你没兴趣来，又不肯花大钱，说实话要是温格退了阿森纳看着有继续往下堕落的趋势。 花钱多也很难拿到那么多冠军的。怎么花也不够曼城这9年来的投入多 我也是、中立球迷英超一般首选阿森纳。其实英超球迷都应该感恩、是温格开创了英超细腻的风格。20几年前英超都是长传冲吊[喷水][喷水][喷水] 作为枪迷感谢教授前十年创造的辉煌也为他后十年的碌碌无为感到可惜希望他早日放过破厂让破厂重焕新生居伊鲁的伟绩估计后无来者了太牛掰了 记得法甲那个老教练居伊鲁吗执教欧塞尔44年从22岁就开始把欧塞尔从地区球队带到法甲拿了次法甲冠军法国教练的耐心简直惊人而且他培养了包括坎通纳、布兰克、迪奥梅德、波利、西塞、卡波、梅克斯、布姆松牛逼吧 主要是俱乐部没有钱给他花 因为<br>1.穆鸟以往钱花的多，这个没得说<br>2.之前拿过两次欧冠以及其他荣誉，自然球迷对他的要求也是很高的<br>3.穆鸟的激进评论以及功利的打法容易拉仇恨，所以很多人就盼着穆鸟失败。<br>不吹不黑，理性讨论 花钱是温格能说了算的吗？他也无奈 21年3冠…… 不是他不舍得，是第一股东克伦克不舍得，第二股东乌斯马诺夫其实想成为大股东，花钱买人，可惜第一股东不卖。 是因为🐦从不懂得尊重和感恩 阿森纳要是有钱，早就开了温格了。 那个赛季，枪手创造了49场不败的神话， 老板不花钱，谁来都没用 真正的球迷就是这种理性的评论，不是开口就带脏字的那种伪球迷 哎，教授的里程碑大家是里程碑，祝福吧，希望能赢！ 温格表示还要再战4年！ 这是一家成功的公司。教授年终奖金应该很丰厚 温黑希望温格走换个教练换个活法。温蜜也希望温格走去大巴黎换个玩法。那究竟是谁希望温格留在阿森纳呢，一定是阿森纳财迷。 鸟不受待见，第一是因为打发猥琐还大嘴巴，花钱反而不是啥问题了。 老爵爷的老板有钱没办法 决定了，冬窗挖教授！ 温格水平其实还行。就是舍不得花钱，阿森纳要是有曼城曼联这样的投入成绩肯定也不会差 看看利物浦，一个后卫花7500万英镑。 瓜秃快了 没钱的时候，你要自己想法子活下去……看的心酸呀，克伦克赶紧滚蛋吧，看看教授会不会花钱😂 作为一个职业经理人能在一个公司掌舵21年不下课并让公司持续挣钱并处在行业前端已经很难得了虽然温格的巅峰也就那几年家有一老如有一宝吧阿森纳球迷不必太介意温格什么时候走看看曼联失去了佛格森请了一个天才一个世界杯亚军教练一个鸟再花了多少钱目前成绩也比阿森纳多不了几分 祝贺教授这次别里程悲了啊 联赛不败拿冠军都够吹一辈子了，历史上有几个教练可以？ 绝对的，他是一个合格的管理者，老板的好员工 四爷威武 不看冠军数量温格无愧二十年第一人 可以除了没有欧冠奖杯长期带领阿森纳处在积分榜上游也算是英超传奇教头了 温老四水平还行，就是没啥大的追求，小富即安。当年弗爵爷为什么延迟一年退休，就是想再拿个欧冠冠军 温格应该是英超最早玩传控足球的主教练，记得当时西甲喜欢看巴萨、德甲喜欢看多特蒙德、英超就喜欢看阿森纳，因为这三队在各自联赛中都是传控技术最好、观赏性最强的。 为啥穆鸟不拿冠军就要被喷 祝福温格 和马竞比比啊！马竞投入比娜娜少太多～ 凭心而论,至少很多有天赋的球员来到阿森纳后延续了自己的状态,不像某类球队被外界喻为“球星黑洞”……这里温格的所做的工作不能被埋没 我也是、中立球迷英超一般首选阿森纳。其实英超球迷都应该感恩、是温格开创了英超细腻的风格。20几年前英超都是长传冲吊[喷水][喷水][喷水] 马竞强也就前几年，阿森纳10多年了。 记得法甲那个老教练居伊鲁吗执教欧塞尔44年从22岁就开始把欧塞尔从地区球队带到法甲拿了次法甲冠军法国教练的耐心简直惊人而且他培养了包括坎通纳、布兰克、迪奥梅德、波利、西塞、卡波、梅克斯、布姆松牛逼吧 因为<br>1.穆鸟以往钱花的多，这个没得说<br>2.之前拿过两次欧冠以及其他荣誉，自然球迷对他的要求也是很高的<br>3.穆鸟的激进评论以及功利的打法容易拉仇恨，所以很多人就盼着穆鸟失败。<br>不吹不黑，理性讨论 九几年的时候，中央电视台专门做过一期关于欧赛尔的节目。 要不温格来大巴黎试试 21年3冠…… 不是他不舍得，是第一股东克伦克不舍得，第二股东乌斯马诺夫其实想成为大股东，花钱买人，可惜第一股东不卖。 可以除了没有欧冠奖杯长期带领阿森纳处在积分榜上游也算是英超传奇教头了 没钱的时候，你要自己想法子活下去……看的心酸呀，克伦克赶紧滚蛋吧，看看教授会不会花钱😂 阿森纳要是有钱，早就开了温格了。 上个赛季之前人家年年有欧冠踢，投入不大成绩不错，这就够了，看看温格的总投入，你就明白温格有多了不起了 真正的球迷就是这种理性的评论，不是开口就带脏字的那种伪球迷 真不知道这个教练，不过真心牛 祝贺教授这次别里程悲了啊 楼上说出了真相 花钱是温格能说了算的吗？他也无奈 决定了，冬窗挖教授！ 温格水平其实还行。就是舍不得花钱，阿森纳要是有曼城曼联这样的投入成绩肯定也不会差 几年前还行，这个年纪去国家队吧 瓜秃快了 温老四水平还行，就是没啥大的追求，小富即安。当年弗爵爷为什么延迟一年退休，就是想再拿个欧冠冠军 越老越顽固一个教练居然是董事会成员分红没少他那一份吧 联赛不败拿冠军都够吹一辈子了，历史上有几个教练可以？ 四爷v5.... 哎，教授的里程碑大家是里程碑，祝福吧，希望能赢！ 好好好，知道了，厉害，传奇教练，fm之父，快滚！ 作为枪迷感谢教授前十年创造的辉煌也为他后十年的碌碌无为感到可惜希望他早日放过破厂让破厂重焕新生居伊鲁的伟绩估计后无来者了太牛掰了 之前是建酋长球场拖了后腿，现在是缺乏球队竞争力吸引不了大牌球星，连青年球员都对你没兴趣来，又不肯花大钱，说实话要是温格退了阿森纳看着有继续往下堕落的趋势。 其他英超球队也希望温格继续留任十年 其实最适合的工作是会计 主要是俱乐部没有钱给他花 就阿森纳那个投入温格还能保持年年前四（除了去年）算不错了。 枪手丰碑 人家拿欧冠 温黑希望温格走换个教练换个活法。温蜜也希望温格走去大巴黎换个玩法。那究竟是谁希望温格留在阿森纳呢，一定是阿森纳财迷。 是因为🐦从不懂得尊重和感恩 还有经常卖队长换钱 那个赛季，枪手创造了49场不败的神话， 爵爷才是曼联最后的传奇 垃圾废物阿森纳温格垃圾废物 这是一家成功的公司。教授年终奖金应该很丰厚 老爵爷的老板有钱没办法 不看冠军数量温格无愧二十年第一人 是因为鸟输了还要进人家更衣室，输不起 看看利物浦，一个后卫花7500万英镑。 还有保温杯 绝对的，他是一个合格的管理者，老板的好员工 给爵爷提鞋都不配，垃圾玩意 没个欧冠说不过去啊。 老板不花钱，谁来都没用 不吹不黑这场危险教授纪念日灾难居多[羞羞] 说风凉话的都撒泡尿照照自己，我是觉得教授很厉害了！因为亨利喜欢上了娜娜！ 记得法甲那个老教练居伊鲁吗执教欧塞尔44年从22岁就开始把欧塞尔从地区球队带到法甲拿了次法甲冠军法国教练的耐心简直惊人而且他培养了包括坎通纳、布兰克、迪奥梅德、波利、西塞、卡波、梅克斯、布姆松牛逼吧 请来高洪波比温方不败成绩差了化粪池蝶泳，温方不败执教能力被高洪波完爆。 他永远都是老四 温格表示还要再战4年！ 👍 等温格退休了阿森纳估计会直接崩盘 没有欧冠 還有一堆保温杯不算的嗎 英足总害怕一个法国人在英格兰取得更大的成就。 21年3冠…… 作为一个职业经理人能在一个公司掌舵21年不下课并让公司持续挣钱并处在行业前端已经很难得了虽然温格的巅峰也就那几年家有一老如有一宝吧阿森纳球迷不必太介意温格什么时候走看看曼联失去了佛格森请了一个天才一个世界杯亚军教练一个鸟再花了多少钱目前成绩也比阿森纳多不了几分 不知道今年会不会有保温杯了，也不知道老爷子需不需要保温杯了…… 看到西塞就想到郑智 四爷威武 嗯，差了点，起码应该是4冠！ ",
        "Total": 865,
        "Link": "http://comment.sports.163.com/sports2_bbs/D6OGM68800058781.html"
    },
    "Title": "21年810场!温格将追平弗爵纪录 3冠+不败书写传奇_网易体育",
    "Source": "Netease",
    "KeyWords": "温格,英超,阿森纳,弗格森",
    "PublishTime": "12/28/201714:17:40",
    "Article": "网易体育12月28日报道：芳华流逝，斗转星移，温格还在阿森纳，他犹如一个丰碑，在枪手主教练的位置上一干就是21年。明天凌晨，阿森纳将客场挑战水晶宫，这是温格在英超执教的第810场比赛，他将追平弗格森的纪录，赶超也是指日可待。谈到这段历程，温格是感慨万千。时光回到遥远的1996年。当年的10月12日，温格带领阿森纳踢了他在英超的第一场比赛，枪手2-0击败了布莱克本。21年后，温格还在枪手待着。他遇到过辉煌，也遇到过质疑，可他坚持了下来。有人说，陪伴是最长情的告白，那温格对阿森纳绝对是天地可鉴的爱。“如果在我当年带队踢完第一场英超比赛后，你跟我说我会在英超执教810场，我肯定会说你疯了。我还记得那场比赛的情形，那时我只有33或者34岁。我当时想我肯定不会干到60岁。”温格表示：“在阿森纳执教，每一场比赛都是俄罗斯转盘。你不知道你什么时候会吃到子弹。真的，这真是太难以置信了。”注：俄罗斯转盘是非常残忍的游戏，在左轮手枪的六个弹槽中放入一颗或多颗子弹，任意旋转转轮之后，关上转轮。游戏的参加者轮流把手枪对着自己的头，扣动板机；中枪的当然是自动退出，怯场的也为输，坚持到最后的就是胜者。温格表示：“你总是对未来的生活不敢想太多。过去的这些年，很多事情都变了，但是比赛的气氛一直都是如此，我们一直在努力去赢得一些东西。执教英超810场比赛意味着很多，忠诚、奉献、刻苦工作。”在阿森纳的21年，温格已经习惯了苦日子。穆里尼奥昨日称曼联要像曼城一样买人，可他这两年已经花了近3亿镑买人。温格希望穆里尼奥懂得满足，他表示：“我这21年都是这么过来的。没钱的时候，你要自己想法子活下去。”他是一个什么事都要操心的大家长，他永远与阿森纳站在一起，对抗富有的切尔西、曼联和曼城。过程很累，但温格从来没有抱怨。回望已经执教的809场比赛，温格的战绩为467胜197平145负，总积分为1598分。而弗格森执教810场英超的战绩则是528胜168平114负，总积分为1752分。显然，温格的执教成绩与弗格森有着明显的差距。而在联赛冠军的数量上，温格更是完败，弗格森有13个冠军，温格只有3个，教授上一次在英超夺冠还是2004年的事情，已经过去了13年，但那个赛季，枪手创造了49场不败的神话，这个纪录至今仍未有其他英超球队能望其项背。本文来源：网易体育作者：风过乡责任编辑：马鑫_NS4811"
}