{
    "URL": "http://news.163.com/17/1228/14/D6OH89M00001875P.html",
    "Comment": {
        "Reply": 63,
        "Content": "看是女孩就这样了是小伙子试试上次有个新闻男子在高铁上厕所也是等不急乘务员小男生出来给他一顿暴揍 民族混杂 好嚣张噢 这男的肯定是婊娼屙出来的，它爸是谁它那老母狗都不知道。 打女人算什么 打女人不对。快递服务水平待提高 丢男人的脸 很多时候中国的法律让人看不懂，像这样的应该算是故意伤害，应该判刑，也不是道个歉，或者关两天就了事的。 畜生一样。 小伙子，猥琐发育，别浪！ 你妈又被东北人奸了？ 仇不过夜！ 东北口音 打人者己触犯了法律并己构成了伤害，这种人类的垃圾决不能轻饶！ 你母亲口我 那种人挺可怜的 就垃圾，北京常有蹲守在地铁口周围的黑摩的，那天看有个姑娘就问了一下，说到某地多少钱，不过就一站地的距离，黑摩的要价30，姑娘没吱声就走，结果黑摩的在后面暴跳如雷，高声谩骂，全是问候人家祖宗句句不离生殖器的脏话。有时候有的人看着可怜，本质上已经是恶意满满毫无人性的垃圾了。 故意伤害竟然还没抓人？ 有些人不知道什么思维逻辑，就喜欢和那些底层的服务性行业较真，街边买个包子恨不得人家给他用镶金边的碗跪着端过来，稍微一个怠慢就破口大骂，这部分人其实本身也属于混不出去的那一类，唯一能给他人生带来优越感的就是来自于对底层服务人员的欺负 不太清楚什么事。但咸蛋种出的百姓，个个都是毒种。 有能耐的人是不欺负基层民众的.感觉挺好其实是不屑和无视. 现在的人咋这么焦躁不安 这城市确实蛮神奇的。外地警察抓小偷，本地警察抓警察。简直法外之地。 不太清楚什么事。但些疍种出的百姓，个个都是毒种。 这就是故意伤害。 要是殴打我家人或女朋友，老子用十字固拧断他的狗腿！ 素质太低。 小伙子，猥琐发育，别浪！ 小伙子，猥琐发育，别浪！ 稳住，我们在局子里等复活啊 掏鸟窝，判重刑，<br>杀了人，不偿命，<br>轻罪重判重罪轻，<br>重犯常有精神病。 浮躁的社会，浮躁的百态人生。之前去寄包裹，因为双11的缘故，有客人丢了包裹。电话里很大声的怼工作人员，我就在一旁站了十几分钟，抽空买了瓶绿茶，抽了两根烟，那妹子才空下来帮我填单的。出了出生与死亡外，真心没有什么事情是需要这般急躁的了。 爱打女人 打女人，没有出息耶[暴怒][暴怒][暴怒] 西北汉子 千万别动手，遇到稍微有点门路的，就能轻伤，嘿嘿，进去吧！~ 对打人者必须严惩简直就是个人渣！ 发生在西安，你懂了吧？ 打女人，真能耐！ 从小看着他爹打他娘长大滴！！！ 你妈又被东北人奸了？ 小爱，来一起玩真实的扮家家酒 这社会就是一个服务圈，有时我服务着你，你要服务着别人，而别人也要服务着我。不一样的价格受不一样的服务，难道你住着20块钱的旅社要求别人给你五星级酒店的接待？ 这男的肯定是婊娼屙出来的，它爸是谁它那老母狗都不知道。 打女人算什么 打女人不对。快递服务水平待提高 前夜 我为有这样的乡党。而感到惭愧 浮躁的社会，浮躁的百态人生。之前去寄包裹，因为双11的缘故，有客人丢了包裹。电话里很大声的怼工作人员，我就在一旁站了十几分钟，抽空买了瓶绿茶，抽了两根烟，那妹子才空下来帮我填单的。出了出生与死亡外，真心没有什么事情是需要这般急躁的了。 民族混杂 小伙子，猥琐发育，别浪！ 东北口音 打人者己触犯了法律并己构成了伤害，这种人类的垃圾决不能轻饶！ 你母亲口我 那种人挺可怜的 就垃圾，北京常有蹲守在地铁口周围的黑摩的，那天看有个姑娘就问了一下，说到某地多少钱，不过就一站地的距离，黑摩的要价30，姑娘没吱声就走，结果黑摩的在后面暴跳如雷，高声谩骂，全是问候人家祖宗句句不离生殖器的脏话。有时候有的人看着可怜，本质上已经是恶意满满毫无人性的垃圾了。 好嚣张噢 不太清楚什么事。但些疍种出的百姓，个个都是毒种。 这种人渣，该吊起来鞭打！ 素质太低。 这么简单的案件还在调查什么？即使有怠慢也只是服务态度不好也不是打人的理由。 有能耐的人是不欺负基层民众的.感觉挺好其实是不屑和无视. 稳住，我们在局子里等复活啊 掏鸟窝，判重刑，<br>杀了人，不偿命，<br>轻罪重判重罪轻，<br>重犯常有精神病。 小伙子，猥琐发育，别浪 这城市确实蛮神奇的。外地警察抓小偷，本地警察抓警察。简直法外之地。 发生在西安，你懂了吧？ 打女人，真能耐！ 从小看着他爹打他娘长大滴！！！ 仇不过夜！ 看是女孩就这样了是小伙子试试上次有个新闻男子在高铁上厕所也是等不急乘务员小男生出来给他一顿暴揍 故意伤害竟然还没抓人？ 这两脚1万多出去了何必呢你可以啐他啊 丢男人的脸 有些人不知道什么思维逻辑，就喜欢和那些底层的服务性行业较真，街边买个包子恨不得人家给他用镶金边的碗跪着端过来，稍微一个怠慢就破口大骂，这部分人其实本身也属于混不出去的那一类，唯一能给他人生带来优越感的就是来自于对底层服务人员的欺负 小伙子，猥琐发育，别浪！ 这。。。 底层互害，唉。 畜生一样。 不太清楚什么事。但咸蛋种出的百姓，个个都是毒种。 现在的人咋这么焦躁不安 警察呢？！ 阿武乱冒充金刚钻 很多时候中国的法律让人看不懂，像这样的应该算是故意伤害，应该判刑，也不是道个歉，或者关两天就了事的。 小伙子，猥琐发育，别浪！ 要是殴打我家人或女朋友，老子用十字固拧断他的狗腿！ 小伙子，猥琐发育，别浪！ 打女人，没有出息耶[暴怒][暴怒][暴怒] 西北汉子 千万别动手，遇到稍微有点门路的，就能轻伤，嘿嘿，进去吧！~ 小伙子，猥琐发育，别浪！ 黑西北人？阿拉上海姆没敌种宁！ 爱打女人 可能对方服务态度确实不咋样，但是也不用这么打人吧…… 今天可以打别的女人，明天他老婆也会被他打 快递里面可能是他刚买的女朋友，所以火气这么大 对打人者必须严惩简直就是个人渣！ 最少拘五天，二缺 这就是故意伤害。 死人渣！关半个月，看你还横！ 丢人。 这么点小事就打女人，里面装的难道是你女朋友这么迫不及待？ 对打人者立即采取行动，不管是谁，绝不手软。 ",
        "Total": 968,
        "Link": "http://comment.news.163.com/news_shehui7_bbs/D6OH89M00001875P.html"
    },
    "Title": " 男子取快递嫌被怠慢 连踹女店员胸口致倒地_网易新闻",
    "Source": "Netease",
    "KeyWords": "快递,女店员,打人",
    "PublishTime": "12/28/201714:27:33",
    "Article": "（原标题：取快递嫌被怠慢男子连踹女店员胸口将其踹倒）#endText.video-infoa{text-decoration:none;color:#000;}#endText.video-infoa:hover{color:#d34747;}#endText.video-listli{overflow:hidden;float:left;list-style:none;width:132px;height:118px;position:relative;margin:8px3px0px0px;}#entText.video-lista,#endText.video-lista:visited{text-decoration:none;color:#fff;}#endText.video-list.overlay{text-align:left;padding:0px6px;background-color:#313131;font-size:12px;width:120px;position:absolute;bottom:0px;left:0px;height:26px;line-height:26px;overflow:hidden;color:#fff;}#endText.video-list.on{border-bottom:8pxsolid#c4282b;}#endText.video-list.play{width:20px;height:20px;background:url(http://img1.cache.netease.com/video/img14/zhuzhan/play.png);position:absolute;right:12px;top:62px;opacity:0.7;color:#fff;filter:alpha(opacity=70);_background:none;_filter:progid:DXImageTransform.Microsoft.AlphaImageLoader(src=\"http://img1.cache.netease.com/video/img14/zhuzhan/play.png\");}#endText.video-lista:hover.play{opacity:1;filter:alpha(opacity=100);_filter:progid:DXImageTransform.Microsoft.AlphaImageLoader(src=\"http://img1.cache.netease.com/video/img14/zhuzhan/play.png\");}if(/(iPhone|iPad|iPod|Android|NETEASEBOBO|blackberry|bbd+)/ig.test(navigator.userAgent)||/safari|chrome|firefox/i.test(navigator.userAgent)&&navigator.plugins&&!navigator.plugins[\"ShockwaveFlash\"]){varstr1='<videocontrols=\"controls\"preload=\"auto\"width=\"100%\"poster=\"http://vimg3.ws.126.net/image/snapshot/2017/12/M/5/VA5QL8AM5.jpg\"style=\"max-height:100%\">';varstr2='<sourcetype=\"video/mp4\"src=\"http://flv.bn.netease.com/videolib3/1712/28/RuBTE9986/SD/RuBTE9986-mobile.mp4\">您的浏览器暂时无法播放此视频.</video>';document.getElementById(\"FPlayer1404863609673\").parentNode.innerHTML=str1+str2;}取快递嫌被怠慢男子连踹女店员胸口将其踹倒（来源：original）window.NTES&&function(d){varf=function(c){varb=c.getAttribute(\"flashvars\"),a=c.getAttribute(\"repovideourl\").replace(\".flv\",\"-mobile.mp4\");h=d(c.parentNode.parentNode.parentNode),g='<embedsrc=\"http://v.163.com/swf/video/NetEaseFlvPlayerV3.swf\"flashvars=\"'+b+'\"allowfullscreen=\"true\"allowscriptaccess=\"always\"quality=\"high\"wmode=\"opaque\"width=\"100%\"height=\"100%\"type=\"application/x-shockwave-flash\"/>';if(/(iPhone|iPad|iPod|Android|NETEASEBOBO|blackberry|bbd+)/ig.test(navigator.userAgent)){g='<videocontrols=\"controls\"preload=\"auto\"width=\"100%\"height=\"100%\"><sourcetype=\"video/mp4\"src=\"'+a+'\">您的浏览器暂时无法播放此视频.</video>';}h.$(\".video\")[0].innerHTML=g;},e=function(b){vara=d(b.parentNode.parentNode.parentNode);a.$(\"li\").removeCss(\"on\"),b.addCss(\"on\"),a.$(\".video-title\")[0].innerHTML=\"string\"==typeofb.textContent?b.textContent:b.innerText,a.$(\".video-title\")[0].setAttribute(\"href\",b.getAttribute(\"url\")),a.$(\".video-from\")[0].innerHTML=\"（来源：\"+b.getAttribute(\"source\")+\"）\",f(b);};window.continuePlay=function(){vara,b=d(d(\".video-list.on\")[0].nextSibling);3==b.nodeType&&(b=d(b.nextSibling));if(b&&d(\".video-innerinput\")[0].checked){e(b);}},function(){vara={init:function(){if(d(\".video-listli\")[0]){d(d(\".video-listli\")[0]).addCss(\"on\"),this.eventBind();}},eventBind:function(){d(\".video-listli\").addEvent(\"click\",function(b){e(d(this)),b.preventDefault();});}};a.init();}();}(NTES);12月24号，一名男子在快递服务点取快递时，由于和店员在沟通过程中发生了摩擦，大发雷霆，居然动起手来将女店员踹倒在地。当时一位男子来取快递，由于没有收到提货码，在查询快递的过程中，和店员发生了冲突。男子认为女店员怠慢了他，没有积极地帮他找快递。在此过程中，男子认为店员的服务态度有问题，情绪出现严重波动。接下来，意想不到的一幕发生了。从店内的监控视频中可以看到，这名男子前后一共踹了女店员两脚，最后一脚直接将她踹倒在地。当时，女店员就出现了胸闷气短等症状，于是第一时间拨打了120。女店员右心房梗阻，在急诊室观察了三天，而当事人到现在也没有出面，也没有表示过歉意。记者在西安市高新医院见到了被打了女店员小杨，此时她的身体还很是虚弱，面部也比较憔悴，医院的诊断结果上显示窦性心律完全性右束支传导阻滞。随后，记者也联系到了事发当时同样在场的打人男子家属，不过还没等记者说完，对方便急匆匆的挂断电话。事发后，西安公安局高新分局创汇路派出所已经介入调查，案件还在进一步审理之中。本文来源：看看新闻Knews责任编辑：程钢_NN7377"
}