{
    "Title": "日本探讨为\"出云舰\"引进F-35B战机 欲变身真正航母_网易新闻",
    "URL": "http://news.163.com/17/1225/15/D6GSQ4T80001899N.html",
    "Source": "Netease",
    "Comment": {
        "Total": 4686,
        "Reply": 338,
        "Content": "美国允许三菱电机、播磨重工等日企制造F35与发动机和雷达相关的二十四个核心零部件，日企参与制造的零部件的成本占整架飞机的四成。如果美国放开对战机技术，那日本自己生产也完全可能。 亲，现在是一体占，就中日来说是海空占， 这个地方日杂真多，直升机航母起降F35？呵呵 你给退的货？ 嗯嗯，拿着键盘的比雷达还厉害呢。 你不是军盲？J20带腹鳍、带鸭翼、三代发动机、无机炮。隐身性有多牛B？用什么干F-35？缺点在别人身上就是垃圾不行。在自己身上就是没影响。能不吹牛B吗？ 当初的某某不是也说成是游乐园吗？ 对日本的邪恶企图中国绝不能掉以轻心！ 军事评论，我就服战略忽悠局的张将军 大陆不会又怕了吧。 哪边最后是瞎子你知道了？自大狂。 洛克希德跟体制内的工厂根本不是一个级别的。两台贱20够一个f35打的吗？ 搞笑，现代战争比的是国家高科技，轻重工业实力，像这种靠购买的军队够打几天的？单机能力再强又如何？就这几架飞机作战贯穿整个战争？以为玩企鹅的天天打飞机啊？真有毛病。 海鹞喷出的尾焰温度比F35还要高，在美英两国的航母和两栖舰使用这么多年没有过任何问题，信砖家的话就大错特错了。 对对对，随便参战的。打仗不要钱啊？ 明明生在中国，却不能客观看待问题，言必随腚，腚必向日。这样的人要真不是中国人也就算了。可是偏偏生活在他们最看不起的国家。而且这个国家也不在乎这帮人是不是看得起，而且一直在稳步前进。说真的，你们心里不难受么？ 所以说，骂人SB往往自己就是SB，你考虑过战斗机维修空间不？你看看航母，美国两栖舰多高，你去从看看出云级多高？从来没说F35B不能用。是说没有完全解决。在改装加厚甲板之后还得定期喷涂那高温涂层，但还是没法完全抵消高温对甲板影响，现在海军陆战队都快愁死了好不。更别提出云级建造是就是普通甲板。更不可能F35什么鬼了。先把整艘舰艇大改吧。<br>说到底，你还是反驳不了我，别胡搅蛮缠了，没用的，你得逞不了的，只能自己骗自己玩。不过你的素质实在堪忧。 日本人不像你这个煞笔这么傻，完全没脑袋。你还不是人，知道吗？蠢吊 没想到日本也有ＳＢ。Ｆ３５Ｂ带病服役，福特号带病服役。<br>VMFA-211“复仇者”中队所属的F-35B持续在埃塞克斯号两攻舰上强化训练<br>Ｆ３５Ｂ才４．３３米。<br>EH-101重型直升机６。65米<br>太矮？ 美国驻日本占领军像日本的女人们问候新年好，感谢这一年来日本女性的殷勤伺候，感谢日本男人们辛苦的看门端尿壶，送纸巾！更是感谢这些年生下的儿子们这么孝心，你们虽然身在中国，但是我们想着你们！在新的一年里，我驻日本占领军会再接再厉，也希望日本女人能多喊几句亚麻跌……————大不列颠.美跌.驻日韩占领军 亚洲第一个隐形战机服役国家。 既然这么牛逼为啥钓鱼岛还没回来啊？吵吵好几年啦 不是愤愤说F35b有致命缺陷么，怕啥啊 几个月前阿三来中国，中国都瞎了看不到。 他们还说福特航母，反正美国所有的新军事装备都有缺陷 买瓦良格，还说是娱乐项目，承诺不用于军事呢。 你母亲腥苦了 美日差钱吗？告诉你，提供目标，超视距发蛋，蛋发完了赶紧回去装蛋再继续发蛋!局部占你压根就见不到太君!太君只是木有某大国的长距二踢脚!开占笫一波电磁压制，二踢脚吊用木得地! 程序不对。小鬼子必先报仇，先打趴下北极熊，夺取北方四岛、库页岛，然后再打你。 f35b垂直起降，没看过视频?至于甲板耐不耐高温，你怎么知道日本有没有数据造假 你个ＳＢ东西。知道吗EH-101重型直升机吗。快看看出云上有没有。<br>加厚甲板要加一米多也只有你这ＳＢ想得出来。出云级机库内部照网上都有。<br>出云级下甲板机库长125米，宽21米，高7.2米<br>因为相较内部升降机舷外升降机对舰载机的尺寸宽容度较大，尺寸为15米×12米。 F35是尾炎直喷不说，重要的是F35的F135还是世界后涡温最高的发动机。别说日本出云级这种机舱太矮，升降机在中部等问题了。就光甲板问题，美国自己海军陆战队的两栖登陆舰的甲板耐高温问题到现在也没有完全解决。更别提日本这个原本设计就没考虑了。更何况出云级格纳库太矮，升降机中置怎么放飞机？<br>当然，这些问题不是4楼所需要的，他所需要的只是通过手段有点赞，在热评前面能让大家看到。事实其实并不重要，对不4楼。 骂人SB往往自己就是SB，你考虑过战斗机维修空间不？你看看航母，美国两栖舰多高，你去从看看出云级多高？从来没说F35B不能用。是说没有完全解决。在改装加厚甲板之后还得定期喷涂那高温涂层，但还是没法完全抵消高温对甲板影响，现在海军陆战队都快愁死了好不。更别提出云级建造是就是普通甲板。更不可能F35什么鬼了。先把整艘舰艇大改吧。 无论是美国的，日本，还是俄国的航母一直都是面临着战机尾喷的问题，早在1954年就已经解决了！尾喷抵触最长时间的是苏式战机，因为苏式航母没有发射轨道，航母的战机跑道是60度的角度起飞，再加上战机起飞时，尾喷也是40度角直喷甲板，并且，苏俄式的航母的钢铁质量远比美国，德国，日本的差一个档次！都能承受得起高温直喷甲板！美国，日本的为何不能？ 这些人说的话你就当驴放屁，他们的子女家人都早就姨民了，到时候还没打人家就溜了，去全家团聚了，谁还管你洪水滔天？它们现在这样就是粉饰太萍，挣一份报酬，供养大羊逼岸的家人罢了。 需要参战么，把发现的目标放到数据链上所有盟友共享，这意味着什么吗? 小日本搞这种偷鸡摸狗的事真龌龊，要学我们的还没搞出有用的真东西就先造声势吹上天！ 就这几架?你真是无知!知道数据链共享么?一开占所有盟友都是侦察机， F35现在的造价维护已经很低了好吧，美军除了国民警卫队，各军种都已经在列装F35ABC，真正维护造价高的是F22，但如果真发生大规模国与国的冲突，想想二战时美国的生产力，一点不需要担心，美国军售不是只军售武器装备，附带的地勤飞机维护工程师培训都是一起的，你当别国傻啊，只买装备，不买服务，你买家电还要三包呢 你吃的葡萄还未熟透吧，看把你给酸的。 那个专业的网友说的没错，日本的直升机航母，是不能当战斗机航母的。要想当战斗机航母，它必须把直升机航母的内部以及甲板全部改装以及更换。这么大改，日本还不如在造一艘合适。 你真会出鬼主意 杜大校，李大校，张将军不是说F35有致命缺陷太重飞不起来上不了军舰吗？你们是忽悠领导还是忽悠屁民？你们也叫军事专家 这个确实是第一个真正意义上的隐形战机，我不明白有些人为啥将一个外表是兰博基尼装了个比亚迪的发动机的汽车硬说是超跑。 亚洲政治军事经济文化第一强国 笑死我了，继续吹，F35那个机动性，你说个锤子。5代机相互都发现不了对方，最有可能的战斗就是狗斗，就F35那个机动性，狗斗就是个垃圾。 预计，2018年中期，F-35A战机将正式加入日本空中自卫队，成为第三个装备第四代隐身战机的亚洲国家（前两个是中国和以色列）。——看了这句话我忍不住哈哈大笑 打鸡血专用 你想得美。如果换作你，三天没吃饭，忽然给你送来一大盆红烧肉，和一碟小凉菜，（小凉菜是邻居家抢的你家的），你会先吃掉小凉菜还是先吃一碗红烧肉？日倭要想打败北极🐻，抢回四岛，必须先壮大，那就是吃下嘴边上的大肥肉，再夺回四岛，然后才可以叫板美果，报原子🥚的仇。他们不傻，你才是自欺欺人。 小日本就搞这种偷鸡摸狗的事，当初建的就是航母，偏要说成是停直升机的，看看世界没啥大的反应，就又把最先进的战斗机整到航母上去了，就跟不承认发动侵略战争一样的，真的很龌龊。 人家加拿大，澳大利亚，意大利，都退货了。日本本来就没想要，这破飞机还不够垃圾的？ 海底你是出不去的，空占第一波电磁占，全是瞎子，怎么打? 对你的白痴智商你爸妈就掉以轻心了！ 来来来，说说哪里前进了?哪个企业不是进口外国生产设备为他们代加工的组装货?强拆计生暂住证借读费高价油毒食品吹牛比等等这些倒是地球上的唯一 这个破玩意没用，夺回北方四岛，需要核武器。 被我说中了，上次我留言说日本佬很可能会在这船上停F35，有懂专业的网友说甲板不行耐不了高温，中国有了航母日本佬坐不住了！ 比起这些，日本的潜艇威胁更大吧，中国不管是潜艇还是反潜能力跟日本比差远了，单拼海战感觉要全灭 笑死我了，军盲。F35是多用途战机，不是空优机，被J20秒杀的货。F22才是第一。而且F35B是大量牺牲作战半径为代价的产品，比F35A差远了。 葡萄真酸啊 日本的苍龙级比大陆先进太多了，日本还有p3c反潜机，大陆潜艇根本不一直一提。 这意味着你明知道敌方位置，却发现手里只有这几架飞机根本不够拼的。你知道35大量列装要多少钱吗？现代战争说到底拼的是经济。连保养都需要别人来做还打仗？吓吓南北棒子还差不多。 你怎么不说J20是八代机？原来叫五代机就可以了？先天性心脏病，加上腹鳍，加上裸露的排气口，加上鸭翼，隐身性能有多好？ 铁熔点是1500，2000度不化，那已经不是钢了。你蛾要有这么强的钢材就不会拿钛合金造潜艇了。你个傻狗 F-35独特的高热特征需要加固飞行甲板，减缓高温喷气引起的压力增大，同时还需要修改飞行甲板涂层，降低因排气喷口的高压导致的涂层腐蚀。另外，还需要安装新的稳压器和整流器。<br>这是同一条新闻里面的，您这样做其实挺无耻的……这可比您说话没教养还夸张 起降问题不大问题是不到2万吨的航母能带几架飞机航母的意义不是带飞机出去狗斗而是给敌人战术性打击日本如果真想上舰给从他美爹哪里接手二手航母 当然本来就有涂层了。只是当时的涂层已经不能承受罢了。其实这个问题在MV22已经遇到了，只不过当时的解决方法是用可移动放热布。现在到了F35这个手段也无法保证甲板的安全了。就算是现在F35基本都是短距起飞，垂直起飞的视频很少。这也是因为哪怕换了涂层也没法改变F35总体损害更大的事实。而关于你说的融化或者烤焦。后者AV8时代就时不时会有这样的问题，不管是英国还是美国，特别垂直起飞的时候。但你说的融化你想的太夸张了。但如果你说现在的出云级的话，也不是没可能。 钢铁要1500度才能融化，现在民用的耐高温涂料也能做到壹千多度。家里的铁锅烧红了的确会变形，但是厚度足够的话，就不会，因为金属是晶体，导热速度也很快。很大的甲板上面烧一烧，只会加速表面氧化，涂了耐温涂料之后，就没这个问题了。 好像还真不是你说的那样。今年的美国第一也是历史第一保释金 现在航母表面都铺有耐高温材料！你说的问题根本不存在！而且耐高温材料也很便宜~ 黄蜂号什么时候返厂过。你这日畜快找找降落时F35B哪一次有尾焰。 AV8b人家都用了多少年了，起降个F35b还成问题了？军盲都能笑死人。 另外，你就直说伊丽莎白在甲板上划一道长长的起降跑道就是吃饱了撑得慌，伊丽莎白把升降机放在侧舷也是吃饱了撑，伊丽莎白造那么宽的甲板是因为没日本懂造船。你要想清楚，跟半吊子出云级不同，伊丽莎白在设计时就是为了搭载F35b,全方位适配F35B的。 吉利美人豹[不屑] 这个确实是第一个真正意义上的隐形战机，我不明白有些人为啥将一个外表是兰博基尼装了个比亚迪的发动机的汽车硬说是超跑。 日本造假太多，没人信 当然本来就有涂层了。只是当时的涂层已经不能承受罢了。其实这个问题在MV22已经遇到了，只不过当时的解决方法是用可移动放热布。现在到了F35这个手段也无法保证甲板的安全了。就算是现在F35基本都是短距起飞，垂直起飞的视频很少。这也是因为哪怕换了涂层也没法改变F35总体损害更大的事实。而关于你说的融化或者烤焦。后者AV8时代就时不时会有这样的问题，不管是英国还是美国，特别垂直起飞的时候。但你说的融化你想的太夸张了。但如果你说现在的出云级的话，也不是没可能。 不够，最起码需要7.6米。别SB什么的了只会显得你的素质很低。谢谢 一看你就是奉命回帖，要么你太老，要么你太年小，孤陋寡闻。首先我没说这些人位高权重，他们这种智库人员也并非权贵，你却说他们位高权重，暴露了你的认知匮乏，其次大部分有点财力和能力的体痣内人员，特别是在精丞工作的，都是子女姨民，这点你不知道？你的辩驳很无知可笑，令人鄙视，最后一句，暴露了你是5⃣️脚。 美国海军官员说，对“黄蜂”级两栖舰的修改主要是“为了抵消F-35联合攻击战斗机因排气而增加的应力。啪啪啪。 011年10月两架f35b于一周内在黄蜂号两栖攻击舰上多次进行垂直起降试验，烧了几块甲板啊？ 快查查你手机是不是假的，里面有很多日本假零件。 请你再去看一下，别当睁眼瞎。黄蜂级舷宽32米，黄蜂级的飞行甲板由HY-100高张力钢板建造，长249.6m，宽42.67m。 不是愤愤说F35b有致命缺陷么，怕啥啊 我们学的日本的,你没搞清,倭猪是最能乱吹的 wm的智商笑死人 你母亲腥苦了 虽然你愿意多问是一个好事，但你的说话真是没教养。阵风维修高度比F35B/C高度低。戴高乐航母有分机库维修区，那里高7.6米，这种设计类似以前的美国航母。<br>温度高是事实而已。美国自己关于F35的报告经常提到的。只是新服役的两栖舰都需要返厂改装，可见影响之大。 呵呵阿根廷哪里打肿了阿根廷前期用法国的反舰导弹打的英国人多惨后来还不是英国人压迫法国人不准再出口给阿根廷阿根廷自身导弹都造不出根本和英国人不是一个等级的你拿来当例子区区一艘2万吨的航母带的飞机够一艘驱逐舰的导弹打吗 呵呵 这话应该对你说，SB玩意 它蛾爹烧了好几架雅克141，哈哈哈。 你醒醒吧！升降机位置耽误垂直起降的飞机吗？黄蜂级的飞行甲板宽32米，喷口温度不过千度。 美国海军官员说，对“黄蜂”级两栖舰的修改主要是“为了抵消F-35联合攻击战斗机因排气而增加的应力。<br>高温不见熔化，烤焦哈哈哈。只有涂层腐蚀啪啪啪。说明甲板本来就有防高温的涂层。 你怎么不说J20是八代机？原来叫五代机就可以了？先天性心脏病，加上腹鳍，加上裸露的排气口，加上鸭翼，隐身性能有多好？ 小日本搞这种偷鸡摸狗的事真龌龊，要学我们的还没搞出有用的真东西就先造声势吹上天！ 智障日畜。船比飞机大很多，大到可以无视。飞机是按公斤减重的。 一看你说这话就外行了，真要如你所说他们那么位高权重，那么真正安全的反倒是国内，没哪里能比把子女放国内更好了。中国已不是以前了，经济什么的早上去了 一架无人机就够吊打你驱逐舰的<br>无敌号航空母舰带12架鹞式。<br>鹞式出动2376架次，以无一损失的纪录击落阿根廷包括法制“幻影”在内各型战斗机21架，“海鹞”只因地面炮火和事故损失了6架，创下了空战史上的空前纪录。阿根廷空军飞行员无不恐惧地把“海鹞”战斗机称为“空中黑色魔鬼”。 它是智障日畜。就连阵风都比Ｆ３５要高。而戴高乐机库只有６．１米高都用的好好的。<br>现在又扯什么温度。<br>15年5月19日，美国海军陆战队所属四架F-35B战机降落在位于大西洋上的LHD-1黄蜂号两栖攻击舰上。<br>人家８０年下水那时还没Ｆ３５Ｂ了都没事，到它狗嘴里变不行了。 搞笑，现代战争比的是国家高科技，轻重工业实力，像这种靠购买的军队够打几天的？单机能力再强又如何？就这几架飞机作战贯穿整个战争？以为玩企鹅的天天打飞机啊？真有毛病。 就这几架?你真是无知!知道数据链共享么?一开占所有盟友都是侦察机， 床销傻掉了吧。F35温度是2000K，K是开氏度懂吗床销犬。<br>铁熔点是1500，2000度不化，那已经不是钢了。<br>你蛾爹要有这么强的钢材就不会拿钛合金造潜艇了。你个傻狗 小日本杂种，你好啊？尼玛与给你点赞的傻B们亲妈，拍av还没有下班呢？ 你个智障。就连阵风都比Ｆ３５要高。而戴高乐机库只有６．１米高都用的好好的。现在又扯什么温度。人家８０年代黄蜂号都受得了高温。到你狗嘴里变不行了。 太搞笑了<br>航母换个甲板，不是什么难事吧 醒醒了，你去看一下黄蜂级的升降机在哪里，加贺的升降机在哪里？去查一下数据黄蜂级的吨位和加贺的吨位，黄蜂级的飞行甲板宽度43米，加贺的38米，再说了，F35的尾喷口温度2000多度，能耐2000多度高温的甲板钢只有美国和当年苏联能造，英法德中现在的俄罗斯和日本统统都造不出，焊不了！ 那就别BB，人家爱装备多少就多少，别象祥林嫂那样天天嚷嚷个没完 强国人真奇葩<br>天天嚷嚷35多少多少致命缺陷<br>即然这种人傻钱多的主才会买的破烂<br>那你们能不能别天天抗议<br>看到敌人花巨资买破烂，你们不该高兴吗？ 打鸡血专用 说话要有素质，要不你父母会伤心的。13年美国海军作战部长乔纳森格林纳特在新加坡举办的2013亚洲国际海事防务展上首次发布的改装计划与设计的。具体你可以去查一下，多学习一下增加知识储备。 杜大校，李大校，张将军不是说F35有致命缺陷太重飞不起来上不了军舰吗？你们是忽悠领导还是忽悠屁民？你们也叫军事专家 心理战有两种，其一特色并非骗敌而是对本国民众的。 这还真不好说，就凭日本的科技力量，一个月内造出原子弹，洲际导弹不在话下。常规军事力量在一个月内完全可以碾压中国一切力量。有个日本将军说过，现在的中国与日本力量相比，比民国时期更悬殊，日军完全可以在八个小时之内，全歼中国海空军。 错。船不像飞机，油库水库的设置不是分布式而是集中式的。不具备配平作用。就跟集装箱货轮的货物配平是极为重要一样。船载的油料淡水资源等比起货物重量也是九牛一毛了。所以特别货运船只或者载有重物的船只货物装载前的配平是非常重要的。<br>最后还是提醒你一句，别动不动智障的。丢你们中国人的脸而已。 f35b垂直起降，没看过视频?至于甲板耐不耐高温，你怎么知道日本有没有数据造假 它是智障日畜。就连阵风都比Ｆ３５要高。而戴高乐机库只有６．１米高都用的好好的。现在又扯什么温度。人家８０年代黄蜂号都受得了高温。到它狗嘴里变不行了。 你是智障？卖给日本是美国自用？这里说中日你跟我说美国自产。 你质疑隐身性能之前能不能先看看J20和F35的隐身指标？ 加油👍 说话要有素养，这是做人的标准。那您应该知道船很大程度是跟飞机一样的。 但问题是长时间最高可到1700度……F35的F135温度实在太高了。 2011年10月两架f35b于一周内在黄蜂号两栖攻击舰上多次进行垂直起降试验，烧了几块甲板啊？ 美国海军官员说，对“黄蜂”级两栖舰的修改主要是“为了抵消F-35联合攻击战斗机因排气而增加的应力。F-35的排气模式和飞行特性要求对舰上易受攻击的系统进行保护、重新放置或者移除，避免在舰载机飞行和作战时，舰上的天线、救生筏、生命防护栏、安全网和JP-5燃油站受到损害。”啪啪啪。 小日本就搞这种偷鸡摸狗的事，当初建的就是航母，偏要说成是停直升机的，看看世界没啥大的反应，就又把最先进的战斗机整到航母上去了，就跟不承认发动侵略战争一样的，真的很龌龊。 人家加拿大，澳大利亚，意大利，都退货了。日本本来就没想要，这破飞机还不够垃圾的？ 人家现在不就购买了吗？你想怎么样？美日韩三军司令部你不懂吗？日美安保条约不知道？F16当时卖给日本后，又升级了多少个型号？F35已经可以流水线生产了，你以为美方来不及提供给日方交货吗？军盲真是虽然无脑，但是有张嘴就可以说 哟哟哟，厉害了！ F-35独特的高热特征需要加固飞行甲板，减缓高温喷气引起的压力增大，同时还需要修改飞行甲板涂层，降低因排气喷口的高压导致的涂层腐蚀。另外，还需要安装新的稳压器和整流器。<br>这是同一条新闻里面的，您这样做其实挺无耻的……这可比您说话没教养还夸张 被我说中了，上次我留言说日本佬很可能会在这船上停F35，有懂专业的网友说甲板不行耐不了高温，中国有了航母日本佬坐不住了！ 上35B，抛开甲板不说，升降机要不要挪？机库要不要重新改？操作间要不要扩大？好，一二三都弄了，隔水仓也得改，这还不如造一条新的。还有，倭寇能拿的到全权限的航母作战系统？ 错，35B排出的气体温度仍然超过摄氏920度，足以让抗热的混凝土碎成雪片状，也足够让沥青结晶，更可以让钢铁融化。最新服役的美国级两栖登陆舰首舰也不过是在15年才完成所谓的新型热障涂层的加装。然而这个涂层是需要长期甲板铺设的。这次上船坞是对整个甲板的加厚工作。你想想12年下水的新舰，也有预想装备F35B但还是温度实在太高。 是啊,高兴啊!解决了这个技术我们自己也可以造航母了. 那个专业的网友说的没错，日本的直升机航母，是不能当战斗机航母的。要想当战斗机航母，它必须把直升机航母的内部以及甲板全部改装以及更换。这么大改，日本还不如在造一艘合适。 你个ＳＢ吧。４．３３的Ｆ３５Ｂ在多少高。７。１米不够？ 出云级不知道，美国黄蜂级开启制海模式可装载20架AV8b外带几架反潜直升机，出云级和黄蜂级的尺寸差不多，估计十几架F35b能带上，而且，出云级现在有两艘了。 F35B靠的是升力风扇，发动机不用加力就能降落。这么降落视频没见过有尾焰。 美国海军官员说，对“黄蜂”级两栖舰的修改主要是“为了抵消F-35联合攻击战斗机因排气而增加的应力。啪啪啪。 楼上既无知又无脑更喜欢跳出来胡言乱语乱喷一通。一战后的德国是树立个人绝对权威，现在的日本是吗？ 亚洲第一个隐形战机服役国家。 f35b垂直起降还能隐形吗？机动性如何？载弹量如何？估计连传统的战斗机都不如，军事不是随便翻两本书就行了。 不是刚送去了2500亿刀吗？你知道可以列装多少F35? 你个智障床销犬吧。女王号没拦阻索。连STOVL什么都知道还有脸跑出来床销你母亲。 有钱分 说那些国家退货的拿证据，不然就是造谣 对日本的邪恶企图中国绝不能掉以轻心！ 嗯，没接触过，毕竟种地的。 你知道个屁，出云这样的日本有六艘。 垃圾，不如J20+辽宁号。。。。。。在哪领钱？ 七言诗阳春凌霄岩张耘华春光诗社阳春日报凌霄溶洞天下雄.内生乾坤风云涌;恰似飞龙腾气象，万层钟乳滴神功！嫦娥出浴水底月，银川叠盏落九重;更留底河载仙客，世间壮景尽所容！广东省阳春市凌霄岩风景区由玉溪三洞、玉溪二洞和凌霄岩组成，游览完领略溶洞之天下雄（山之天下雄为泰山）！<br><br><br>七言诗南岭国家森林公园夏日游张耘华2017年仲夏于韶关南岭氧吧天下凉，心旷神怡时间长；天外瀑布九重落，宛如九龙下岭央；旁林绿荫接青天，潭吟轻涛风静赏；美景迷人君再来，风调雨顺国运昌！南岭国家森林公园位于广东省韶关市乳源县境内，韶关市南岭国家森林公园一日游！ 我一直认为允许日本弄核武半年之内必定造出，甚至更快！ 你母亲怎么被城管收拾了。 搞笑，现代战争比的是国家高科技，轻重工业实力，像这种靠购买的军队够打几天的？单机能力再强又如何？就这几架飞机作战贯穿整个战争？以为玩企鹅的天天打飞机啊？真有毛病。 海鹞喷出的尾焰温度比F35还要高，在美英两国的航母和两栖舰使用这么多年没有过任何问题，信砖家的话就大错特错了。 日本走向强军之路完全是被大国逼的！ 你给退的货？ 问题是...电子作战飞机中国比日本多。其次是能发射中距弹的飞机比日本多....你说美国咱不说，光说日本那不很扯淡吗 这飞机真帅啊 亚洲第一个隐形战机服役国家。 不是愤愤说F35b有致命缺陷么，怕啥啊 南京的你还是日本种呢怎这样傻逼 你接触过轻重工业吗？你一个种地的别老谈工业。知道发达国家和发展中国家却在于工业。 不好意思比亚迪发动机是博格华纳提供的原产于美国，比喻不恰当。 既然这样，应该坚决支持日本航母上F35B:不用动手，自己就把甲板烧穿了。 S13,每次都垂直起降?能飞多远.你们这些养猪网的杂比. 你真以为垂直起降战斗机是像直升机那样垂直起飞垂直降落，那英国还往伊丽莎白上装滑跃平台和拦阻索干毛？嫌钱多没地方花啊？ f35b垂直起降，没看过视频?至于甲板耐不耐高温，你怎么知道日本有没有数据造假 是吗，买F35送反导了。 哈哈 你真会出鬼主意 （多做好事，必有好报）美攻朝中收台战略对冲平衡（加快发展繁重工作替代性智能机器，不用延迟退休）公司上市后业绩异常下降，依法赔偿遏制骗钱（当务之急大小限减持和再融资要挂钩分红或回购，违则重罚，促进长期良好经营，缓解套现压力）尽快开征股指期货的印花税，才能降低杠杆及高频风险，限制其乱影响股市（基金只有盈利才收管理费，真正为投资者服务）连续2天涨跌停就限仓交易，共同受益，利国利民！ 美日差钱吗？告诉你，提供目标，超视距发蛋，蛋发完了赶紧回去装蛋再继续发蛋!局部占你压根就见不到太君!太君只是木有某大国的长距二踢脚!开占笫一波电磁压制，二踢脚吊用木得地! 谁强谁弱看政治体制就能看出来了，甲午海战已经给出了一个明确的答复。中国是一个真正的民主、自由、平等的国家所以中国必胜。 被我说中了，上次我留言说日本佬很可能会在这船上停F35，有懂专业的网友说甲板不行耐不了高温，中国有了航母日本佬坐不住了！ 有舰岛,没舰岛的是轻型航母,就是战列舰上面加铺个飞行甲板,很简易. 就这几架?你真是无知!知道数据链共享么?一开占所有盟友都是侦察机， 一战后的德国是树立个人绝对权威，不懂不要装懂 没事儿，我们这边儿饺子多，撞也把出云送海底 日本航母比那个翘头的航母强多了 给你说个现实问题吧，很多家庭都不配备灭火器，因为很多家庭都认为我家不会起火！ 你吃的葡萄还未熟透吧，看把你给酸的。 那个专业的网友说的没错，日本的直升机航母，是不能当战斗机航母的。要想当战斗机航母，它必须把直升机航母的内部以及甲板全部改装以及更换。这么大改，日本还不如在造一艘合适。 他们说的话你也信？ 反正舰上都是用的不锈钢，甲板用个耐热不锈钢也贵不了多少钱。 有梦想是好的，但是不要拿自己的无知当作资本 杜大校，李大校，张将军不是说F35有致命缺陷太重飞不起来上不了军舰吗？你们是忽悠领导还是忽悠屁民？你们也叫军事专家 这个确实是第一个真正意义上的隐形战机，我不明白有些人为啥将一个外表是兰博基尼装了个比亚迪的发动机的汽车硬说是超跑。 亚洲政治军事经济文化第一强国 日本不错，环境好，准备去旅游呢！ 苍龙先进多少得看日本有多少底气了，P3C是否厉害关机看有没有制空权它能否飞起来，大陆潜艇不值一提，不知道说的哪方面了，好生霸气。。。 一战后的德国是树立个人绝对权口威，不懂不要装懂 F-35再牛也是别人的，放在乱世就是别人收拾你的武器。J20再差也是中国的，J20真的干不过F35吗？不吹不贬别鸡冻。<br>现在日本还能拿十十舰队啥的对标中国，好比90年代的台海，对比两岸的飞机还有的比，现在还有人比湾湾和大陆军力吗？日本也是，十年后再也没有人对比中日军力。 不足一百架,那时候的航母与战列舰同吨位,甚至还小些.自然装不了多少 因为你所在的国度，生活着一个徒有其表的民族 对你的白痴智商你爸妈就掉以轻心了！ 正想说这个，不是天天说F-35致命缺陷么？ 这个破玩意没用，夺回北方四岛，需要核武器。 对对对。毕竟中方军备你们键盘侠比国防部还清楚。 日本人亡你之心不死，天天草拟吗呢 乖乖，高级地图炮来了，666 3楼这狗戳脑残垃圾假爱国狗 说实话现在得日本和一战后得德国太像了!你们自己对比嘛,一战后德国藏军入民,坦克工厂变身拖拉机场,日本吧军用工厂全部变为民用,三菱特么以前是造飞机得,其他都是.一战后得德国裁军,保留精干,排站变士兵,连长变班长,到战时瞬间扩军几层干部完整,日本不能又军队但是人家自卫队得套路一样一样得!然后就是一战后德国各种方法来摄取土地,日本这不一样么钓鱼岛就是实例.反正各种轨迹和一战后得德国一模一样 日本的苍龙级比大陆先进太多了，日本还有p3c反潜机，大陆潜艇根本不一直一提。 鬼子要去干毛子那总算做了件好事 七言诗阳春凌霄岩张耘华春光诗社阳春日报凌霄溶洞天下雄.内生乾坤风云涌;恰似飞龙腾气象，万层钟乳滴神功！嫦娥出浴水底月，银川叠盏落九重;更留底河载仙客，世间壮景尽所容！广东省阳春市凌霄岩风景区由玉溪三洞、玉溪二洞和凌霄岩组成，游览完领略溶洞之天下雄（山之天下雄为泰山）！<br><br><br>七言诗南岭国家森林公园夏日游张耘华2017年仲夏于韶关南岭氧吧天下凉，心旷神怡时间长；天外瀑布九重落，宛如九龙下岭央；旁林绿荫接青天，潭吟轻涛风静赏；美景迷人君再来，风调雨顺国运昌！南岭国家森林公园位于广东省韶关市乳源县境内，韶关市南岭国家森林公园一日游！ 钢表面加个涂层就行了。 二战出云在中国作恶很多，希望现在的出云能被中国干沉 美国允许三菱电机、播磨重工等日企制造F35与发动机和雷达相关的二十四个核心零部件，日企参与制造的零部件的成本占整架飞机的四成。如果美国放开对战机技术，那日本自己生产也完全可能。 学流氓那套呗，人家早防着你和平崛起了，一百多个美军基地杵着，看你怎么演下去 现在变成辽宁号，这就足够了！ 你给退的货？ 你不是军盲？J20带腹鳍、带鸭翼、三代发动机、无机炮。隐身性有多牛B？用什么干F-35？缺点在别人身上就是垃圾不行。在自己身上就是没影响。能不吹牛B吗？ 日本人的阴谋！亡我之心不死啊！赶紧建设和发展吧！ 当初的某某不是也说成是游乐园吗？ 对日本的邪恶企图中国绝不能掉以轻心！ 壮士只为保家死<br>烈士只为开疆亡<br>意气用事护家犬<br>家犬陈仓另投主 打倒日本军国主义！ 山寨美国的。 日本商讨买个飞机，看把你美的 这个确实是第一个真正意义上的隐形战机，我不明白有些人为啥将一个外表是兰博基尼装了个比亚迪的发动机的汽车硬说是超跑。 都在买尖端武器为自己国曾实力 明明生在中国，却不能客观看待问题，言必随腚，腚必向日。这样的人要真不是中国人也就算了。可是偏偏生活在他们最看不起的国家。而且这个国家也不在乎这帮人是不是看得起，而且一直在稳步前进。说真的，你们心里不难受么？ 日外交部发言人：有你中国什么事？ mig25海湾战争中利用高速性骗过美国预警系统干死一架f18~ 简单点，军用电容在哪里 隐形战机相互发现不了,超视距真得可能不现实,很可能双方都没见面,或者见面了狗斗得概率也不高,多半是尽快脱离战斗,不过有一句说一句F35确实不是空优战机,论单挑肯定不是J20得对手,不过综合实力真不好说,预警机地面防空这些要都结合来看得,如今造就过了单挑得年代了 那我们应当热烈欢迎啊，让歼20练练手呀 又拿鸡国头疼医头脚疼医脚的思维来考虑问题了，当初设计就是为35准备的! 亚洲第一个隐形战机服役国家。 不是愤愤说F35b有致命缺陷么，怕啥啊 他们还说福特航母，反正美国所有的新军事装备都有缺陷 买瓦良格，还说是娱乐项目，承诺不用于军事呢。 这意味着你明知道敌方位置，却发现手里只有这几架飞机根本不够拼的。你知道35大量列装要多少钱吗？现代战争说到底拼的是经济。连保养都需要别人来做还打仗？吓吓南北棒子还差不多。 美日差钱吗？告诉你，提供目标，超视距发蛋，蛋发完了赶紧回去装蛋再继续发蛋!局部占你压根就见不到太君!太君只是木有某大国的长距二踢脚!开占笫一波电磁压制，二踢脚吊用木得地! 日本军力世界前三 出云见日有一番<br>战败又兴团结坚<br>千年东西容一身<br>黄龙惭愧自汗颜 你知道为什么歼20是那个造型吗？就是因为隐身性能不行，才和俄罗斯一样追求机动了，F35追求的不是单机性能，追求的是集团作战大数据共享，F22才是单机空优战机，通过F22与F35的配合，可以做出多目标早发现，多目标早攻击，歼20真是五代机吗？呵呵 好支威有希，维护世界和平就靠你了！ 啊！这样啊！ 什么是意淫？ 当初设计就不是为了F35设计的。要不中置起降机干什么？ 天价回收二手...... 你怎么不说J20是八代机？原来叫五代机就可以了？先天性心脏病，加上腹鳍，加上裸露的排气口，加上鸭翼，隐身性能有多好？ 这智商，有没有一点进步你自己心里没一点B数码 战斗机首先需要的是动力，机体强度、雷达功率、飞行速度和高度才有保障。<br>苏系战机总喜欢讲机动性，靠机体设计获得机动性不及玩推力来的快而且有保障。二战零战就是例子，美国佬就不和小日本比机动，加大点发动机，把装甲整厚，把飞机强度加强，多带点弹药。飞得又高又快，俯冲做极限动作不散架，零战20MM机炮都打不动。<br>肥电在神机F135发动机加持下各项不输J20，哪怕J20是空优战机，因为F135推重比大于10，推力猛。<br>传说远古大神太行峨眉只报最大推力不报重量正常工况本身只能当它耍流氓。 莘片哪里来? 兰博基尼加速真没比亚迪快~整整意义的隐形战机？笑死了~10波系的隐形战机哈哈哈哈~ F35现在的造价维护已经很低了好吧，美军除了国民警卫队，各军种都已经在列装F35ABC，真正维护造价高的是F22，美国军售不是只军售武器装备，附带的地勤飞机维护工程师培训包括后续电子设备升级维护都是一起的，你当别国傻啊，只买装备，不买服务，你买家电还要三包呢，如果觉得产量少，你是看不起洛克希德·马丁公司的生产线喽 就这几架?你真是无知!知道数据链共享么?一开占所有盟友都是侦察机， 日本军力宇宙第一 现在变成了辽宁号，这就足够了！ 在网易里，一说到f22就放视频，一说到J20就放动画片，当我们是小孩子[疑问][疑问][疑问] 那个专业的网友说的没错，日本的直升机航母，是不能当战斗机航母的。要想当战斗机航母，它必须把直升机航母的内部以及甲板全部改装以及更换。这么大改，日本还不如在造一艘合适。 问题是...电子作战飞机中国比日本多。其次是能发射中距弹的飞机比日本多....你说美国咱不说，光说日本那不很扯淡吗 打倒日本军国主义！ 杜大校，李大校，张将军不是说F35有致命缺陷太重飞不起来上不了军舰吗？你们是忽悠领导还是忽悠屁民？你们也叫军事专家 自己不想走和平之路？还是给人逼得！ 中国就导弹多，还要核弹，日本鬼子悠着点，小心不知道怎么死的。 不是有运费险的么？ 笑死了~日本那材料学还吹？连个1000mpa的特钢都没法服役~ 跟贴被火星网友带走啦~ 小日本就搞这种偷鸡摸狗的事，当初建的就是航母，偏要说成是停直升机的，看看世界没啥大的反应，就又把最先进的战斗机整到航母上去了，就跟不承认发动侵略战争一样的，真的很龌龊。 人家加拿大，澳大利亚，意大利，都退货了。日本本来就没想要，这破飞机还不够垃圾的？ 打倒日本帝国主义！ 仿佛战略忽悠局的将军们在点兵点将了，666～厉害了！ “肯定”二字从何而来？就凭他叫5代机？任何数据都没有，你的自信是从哪里来的？J20能否干过沉默鹰都是大大的疑问！你以为把机头拍成菱形，把导弹挂架放进肚子里就是隐身了？鸭翼怎么办？腹鳍怎么办？裸露的喷口怎么办？还有先天性心脏病！ 来来来，说说哪里前进了?哪个企业不是进口外国生产设备为他们代加工的组装货?强拆计生暂住证借读费高价油毒食品吹牛比等等这些倒是地球上的唯一 你吃的葡萄还未熟透吧，看把你给酸的。 被我说中了，上次我留言说日本佬很可能会在这船上停F35，有懂专业的网友说甲板不行耐不了高温，中国有了航母日本佬坐不住了！ 问题是，连外表都不是兰博基尼，只是前保险杠，翼子板是！巨大的腹鳍，鸭翼，裸露的发动机喷口！！ 打倒日本军国主义！ 山洞里的傻狗吧，连傻大木自已都摸不准了，还在吹。米格２５都埋沙里不敢用。 日本必成最大赢家！中必输！ 系统哪里来？ F35都有能垂直起飞的感情还上不了军舰哈哈 你个智障玩意，1000mpa的特钢用在哪里，NS80就够抽你狗脸了。<br>福特号也不过用到794MPa的特钢。 三楼，说你无知你还不服气!新闻联播看多了吧!慈禧敢对八国宣占是因为确实有能力，大清亚洲第一君力，世界第三经济!全是德式铁甲舰和武气装备，所以它才牛气冲天!是谁告诉你大清是因国弱被打的? 说实话现在得日本和一战后得德国太像了!你们自己对比嘛,一战后德国藏军入民,坦克工厂变身拖拉机场,日本吧军用工厂全部变为民用,三菱特么以前是造飞机得,其他都是.一战后得德国裁军,保留精干,排站变士兵,连长变班长,到战时瞬间扩军几层干部完整,日本不能又军队但是人家自卫队得套路一样一样得!然后就是一战后德国各种方法来摄取土地,日本这不一样么钓鱼岛就是实例.反正各种轨迹和一战后得德国一模一样 搞笑，现代战争比的是国家高科技，轻重工业实力，像这种靠购买的军队够打几天的？单机能力再强又如何？就这几架飞机作战贯穿整个战争？以为玩企鹅的天天打飞机啊？真有毛病。 打倒日本军国主义！ 我不管你们怎么忽悠，这东西在现代日本人手里总比在大胖子手里强！ 美国允许三菱电机、播磨重工等日企制造F35与发动机和雷达相关的二十四个核心零部件，日企参与制造的零部件的成本占整架飞机的四成。如果美国放开对战机技术，那日本自己生产也完全可能。 笑死我了，继续吹，F35那个机动性，你说个锤子。5代机相互都发现不了对方，最有可能的战斗就是狗斗，就F35那个机动性，狗斗就是个垃圾。 你给退的货？ F35确实缺陷较多，某种意义上来说完全是为亚太打造的。。。。。。不管啥问题吧，好歹是五代，就算各种故障，实力毋庸置疑，中国在防御方面技术比较在行，譬如新的太赫兹雷达就是用来对付F35，F22之流的。 那么一个直升机航母能载多少F35B？全程垂直起降，这航程。。。。算了不说了 日本造直升机航母仅仅是用来载直升机吗...？一开始我就觉得最终会用来载固定翼飞机，也为将来造真正的航母打基础...各方面的基础，特别是看看某些国家的反应...想一想一个直升机航母有什么意义... 还探个鸟，英国人动脑想透过的事照做就是了，真是日傻 这个确实是第一个真正意义上的隐形战机，我不明白有些人为啥将一个外表是兰博基尼装了个比亚迪的发动机的汽车硬说是超跑。 当初的某某不是也说成是游乐园吗？ 军事评论，我就服战略忽悠局的张将军 ，F-35A战机将正式加入日本空中自卫队，成为第三个装备第四代隐身战机的亚洲国家（前两个是中国和以色列）。——说的好！ 中日必有一战，不早做准备必将被动挨打，就像百年多前的甲午战争和抗日战争一样被打的四分五裂……！！！ 那些都是纸老虎，有什么可怕地！ 人家自己退的，从最初的订购数量狂砍一半或一大半 甲午战争腐败的清政府被打得满地找牙还赔他妈那么多钱钱，现在强多了有航母了不怕他们了 核武器谁敢用？还是以常规战为主 中日必有一战，不早做准备必将被动挨打，就像百年多前的甲午战争和抗日战争一样被打的四分五裂……！！！ 军盲，F35一个多用途战机和J20空优机比空战？真S13 so,准备拉回船厂花两年时间改吗 日本人不像你这个煞笔这么傻，完全没脑袋。你还不是人，知道吗？蠢吊 屁大点事！ 开出港口就回不去的“出事舰”！ 这个破玩意没用，夺回北方四岛，需要核武器。 不够，做为一个合格的喷逼，我早就说过了，一架F16即可吊打一个J20中队，0:20无悬念，真的，劳资不骗人 打。 亚洲第一个隐形战机服役国家。 本子做得到。本子的“心神”就试飞了几十次，5吨推力的小发动机的黑烟赶得上米格29了。不过你以后没这个眼福了，因为心神试飞工作已经“完成”了，将被直接拆掉了，博物馆里你都找不到它了。 不是愤愤说F35b有致命缺陷么，怕啥啊 用扫帚疙瘩缴了鬼子的王八盒子也是一种战术，首先你自己就得相信扫帚疙瘩比王八盒子火力猛 除了你俩，谁怕了。 求你们了，快点打吧！整天bb，分不清谁厉害 军备竞赛没啥起不起头的，就和市场竞争一样，或者说和适者生存一样是自然法则。谁都不想把自己的安全建立在别人的善良上。 程序不对。小鬼子必先报仇，先打趴下北极熊，夺取北方四岛、库页岛，然后再打你。 求你们了，快点打吧！整天bb，分不清谁厉害 你想得美。如果换作你，三天没吃饭，忽然给你送来一大盆红烧肉，和一碟小凉菜，（小凉菜是邻居家抢的你家的），你会先吃掉小凉菜还是先吃一碗红烧肉？日倭要想打败北极🐻，抢回四岛，必须先壮大，那就是吃下嘴边上的大肥肉，再夺回四岛，然后才可以叫板美果，报原子🥚的仇。他们不傻，你才是自欺欺人。 留着出海捞海鲜，打台球的 正常点吧F35叫肥电就是因为集成度高你在弄成垂直起降.0 中日必有一战，不早做准备必将被动挨打，就像百年多前的甲午战争和抗日战争一样被打的四分五裂……！！！ 小日本搞这种偷鸡摸狗的事真龌龊，要学我们的还没搞出有用的真东西就先造声势吹上天！ 看了下很多人评论，呵呵，国内的人不急，国外汉奸和狗腿子们先急。喷你们继续喷。 哥们上网能翻墙吗？我感觉我一个能上谷歌的应该比一个只能上百度的知道的多。 洛克希德跟体制内的工厂根本不是一个级别的。两台贱20够一个f35打的吗？ 据美国《防务新闻》5月5日报道,F35首个海外生产线在意大利正式开工<br>当地时间12月3日,意大利空军在其西北部城市卡梅里正式接收首架F-35战斗机 必有一战，这个没错 那个专业的网友说的没错，日本的直升机航母，是不能当战斗机航母的。要想当战斗机航母，它必须把直升机航母的内部以及甲板全部改装以及更换。这么大改，日本还不如在造一艘合适。 你真会出鬼主意 杜大校，李大校，张将军不是说F35有致命缺陷太重飞不起来上不了军舰吗？你们是忽悠领导还是忽悠屁民？你们也叫军事专家 中日必有一战，不早做准备必将被动挨打，就像百年多前的甲午战争和抗日战争一样被打的四分五裂……！！！ 本来就是航母好吗。。 你日爹刚说探讨，在你嘴里就服役了。。J20早已服役的我国难道被你算到美洲去了？？？ 嘴炮先上，然后在跑，，，到时这群白痴猪，不知往哪里跑？ 既然这么牛逼为啥钓鱼岛还没回来啊？吵吵好几年啦 预计，2018年中期，F-35A战机将正式加入日本空中自卫队，成为第三个装备第四代隐身战机的亚洲国家（前两个是中国和以色列）。——看了这句话我忍不住哈哈大笑 这些土包子有几个有文化的，五六十年代有几个读书的?他们能选上去的都是真材实料的人材!造的时侯就是为35准备的! 保时泰说自己也成为第二大豪车品牌。 小日本就搞这种偷鸡摸狗的事，当初建的就是航母，偏要说成是停直升机的，看看世界没啥大的反应，就又把最先进的战斗机整到航母上去了，就跟不承认发动侵略战争一样的，真的很龌龊。 这个jj的优势不是超巡，是信息战节点、小型预警机 战争结果毫无悬念 过圣诞节啦!天上有大声音呼唤牧羊人，主诞生啦，在那马槽里!天上有光柱引导牧羊人至马槽! 被我说中了，上次我留言说日本佬很可能会在这船上停F35，有懂专业的网友说甲板不行耐不了高温，中国有了航母日本佬坐不住了！ 我的头像怎么样？ 买瓦良格，还说是娱乐项目，承诺不用于军事呢。 精确 这是儿子和爹之间的事，别人管不着。 尖31自带发动机浓烟隐身模式。美国佬做的到吗？ 美国的飞机，日本没本事自己生产，比中国水平差。 美畜 一帮日杂和军盲。F35是多用途战机，不是空优机，被J20秒杀的货。F22才是第一。而且F35B是大量牺牲作战半径为代价的产品，比F35A差远了。 之前说我们支持有改装可能的，爱国喷子去那了？你们不是说我们舔日白痴。。。。 大陆不会又怕了吧。 你是卖肾狗？ 皇军敢快武装起来，珍珠港等你偷袭！钢八连跟你中军压阵，！ 且不说能赢不能赢，就目前的发展水平，鬼子除非疯了，跟我们打！现代战争，离的这么近，轻松攻击日本本土哦！别说什么拦截，把鬼子、棒子、菲加起来，我们的东风快递饱和攻击，绝对管够！当然，我们的沿海城市也会岌岌可危，杀敌一千，自损八百的买卖，不是急眼了，谁干？ 亚洲第一个隐形战机服役国家。 泱泱大中国与日本这样的小国再战，只能是打常规战中国的核武在日本这个无核小国面前只是摆设，强大的美日同盟关系在哪里为日本撑出一把巨大无比威慑力的核保护伞，因此日本世界尖端的F35战机上出云号准航母再配阿帕奇中国海空军最好不要迎战学萨达姆否则再现第二次甲午海战结局，以印军占中国领土为榜样打死不应战，保我国政权稳定社会稳定！ 军国主义复活了？！！！ 打倒日本军国主义！ 万邦来朝 网易很多人说日本造的直升机航母没有改装的可能。说我们让F35上舰都是白痴舔日的sb，事实胜于雄辩他们才是一堆傻逼。 假如出云号造几十艘上百艘的话会如何？这种轻型航母制造起来的速度相比较大排量的航母来说想必时间缩短很多了 已阅 🇯🇵时刻都想挣脱枷锁，填巢当心 怪你屁事 笑死我了，军盲。F35是多用途战机，不是空优机，被J20秒杀的货。F22才是第一。而且F35B是大量牺牲作战半径为代价的产品，比F35A差远了。 这几个哥们间干的越欢，美国看着越开心。 老子真的烦这些边走路边抽烟的人，你说你在咖啡馆餐厅抽烟大不了老子闻到了不进来吃东西就行了，尼玛的比走路抽烟老子跟在后面闻一路的二手烟草尼玛的。真几把没素质！不要说老子也抽烟矫情装高尚什么的，尼玛的比就算抽烟的人也不愿意闻二手烟啊，起码老子没在公共区域祸害你们啊，越戒烟越觉得这些比该死！ ",
        "Link": "http://comment.news.163.com/news2_bbs/D6GSQ4T80001899N.html"
    },
    "Article": "（原标题：日本探讨为“出云舰”引进F-35B战机，欲变身为真正航母）F-35B视觉中国资料图据日本共同社12月25日消息，24日对日本政府相关人士采访获悉，防卫省把将把海上自卫队直升机航母（日本称直升机护卫舰）的拓展运用纳入视野，开始全面探讨引进能短距离起飞的F-35B战机。目前出现了把已决定引进的航空自卫队42架F-35A部分变更为B型的方案以及另外追加购买的方案，还考虑把相关内容写入明年后半年将修改的《防卫计划大纲》。搭载F-35B战机的战舰即使是日本所称的直升机护卫舰，在军事上也将被定位为“航母”。由于《日本和平宪法》的限制，日本不能拥有搭载固定翼战机的攻击性航母等进攻性武器，因此，未来日本政府内部意见是否能够统一将是重要问题。此外，中国等亚洲各国预计也会强烈反对。共同社称，引进目的在于应对中国日益活跃的海洋活动，目前设想的是在跑道较短的南西诸岛运用，将来考虑改造或是新建直升机航母。F-35B是洛·马公司为美国海军陆战队研制的垂直短距起降战斗机，配备了适应垂直短剧起降的动力系统，是F-35战斗机家族的中的一员。该机可装备于两栖攻击舰和轻型航母，增强轻型直通甲板战舰的攻击能力。共同社称，F-35B可短距离起飞，并能像“鱼鹰”倾转旋翼机一样垂直着陆，并且还拥有不易被雷达捕捉的高端隐身性能性能。日防卫省认为，通过引进F-35B，除了可以部署在冲绳的宫古、石垣、与那国岛外，空自战机还能使用南大东岛和北大东岛的各机场执行警戒监视任务，活动范围将扩大。但实际使用哪个机场，预计将与当地进行磋商。共同社报道称，日本防卫省未来计划把直升机航母“出云”号、“加贺”号等舰首改造成易于战机起飞的滑跃甲板，甲板涂上耐热涂料。除了通过增设或完善航空燃料储存罐和弹药库、改进管制功能等，将其打造成能够搭载F-35B战机的真正意义上的航母。除了这一构想，还有方案提出新建两栖攻击舰，也具备搭载F-35B战机的能力。根据日本媒体此前报道，日本航空自卫队引进42架F-35A战斗机，其中4架由原厂商美国洛·马公司生产，已经实现交付。剩余38架在日本国内进行组装。2016年8月24日，日本航空自卫队首架F-35A隐形战斗机在洛·马公司的沃斯堡工厂成功首飞。今年6月13日，日本首架自行组装的F-35A战机在名古屋小牧航空基地成功首飞。预计，2018年中期，F-35A战机将正式加入日本空中自卫队，成为第三个装备第四代隐身战机的亚洲国家（前两个是中国和以色列）。为了进一步增强F-35A的作战能力，日本还计划引进射程超过300千米的JSM防区外空地导弹。日本《读卖新闻》此前援引内部消息报道称，日本政府计划给F-35A战机装备空地导弹，射程可达300公里。有分析指出，此举将使日本具备攻击敌方基地的能力。据公开资料显示，“出云”号标准排水量为1.95万吨，满载排水量2.7万吨。它采取类似航母的前后完整贯通式甲板，全长248米，最大宽度为38米。最多可携带14架直升机，同时起降5架直升机。今年3月22日，“出云”级直升机航母的二号舰“加贺”号开始服役。本文来源：澎湃新闻作者：南博一责任编辑：李杭_BJS4645",
    "PublishTime": "12/25/201715:15:37",
    "KeyWords": "日本,战斗机,防卫省,航母"
}