{
    "Comment": {
        "Total": 8,
        "Reply": 4,
        "Link": "http://comment.ent.163.com/ent2_bbs/D77FV7VL00038FO9.html",
        "Content": "到底是何什么！ 女的手摸的这位置～～大庭广众之下也真够撩拨啊～ 女的手摸的这位置～～大庭广众之下也真够撩拨啊～ 到底是何什么！ 中间的字读什么？ 女人的手放的位置[窃笑] "
    },
    "Title": "何猷启与长腿新欢热吻 大方秀恩爱却尴尬写错字_网易娱乐",
    "KeyWords": "何猷启,秀恩爱,新欢,热吻",
    "Article": "何猷启与女伴网易娱乐1月3日报道据香港媒体报道，赌王何鸿燊三房儿子何猷启，在去年5月跟以色列美女模特女友Angelika分手后，最近有传他与内地美女相恋，但何猷启刚开始对新恋情有保留，说大家只是朋友关系。直到圣诞节，何猷启才在社交网站上传与女友十指紧扣照片大方认爱。在元旦夜，何猷启继续秀恩爱。照片中，何猷启的女友穿着超短裤秀出美腿，并献吻男友何猷启，表现十分恩爱甜蜜。他兴奋写道：“Happy2018！Wishevryonefullofloveandpeace！”不知道何猷启是否因为太兴奋导致写错字，他把“everyone”写为“evryone”。四房的弟弟何猷君也留言：“Wahhhh！”本文来源：网易娱乐责任编辑：陈少杰_b6952",
    "URL": "http://ent.163.com/18/0103/09/D77FV7VL00038FO9.html",
    "PublishTime": "01/03/201809:53:45",
    "Source": "Netease"
}