{
    "URL": "http://ent.163.com/17/1227/10/D6LFLJ9S00038FO9.html",
    "Comment": {
        "Total": 288,
        "Reply": 23,
        "Link": "http://comment.ent.163.com/ent2_bbs/D6LFLJ9S00038FO9.html",
        "Content": "林心如好喜欢开这个啪，那个啪！以前应该没少被猛男啪过。 别吹捧了行吗？40岁大妈了还好意思说如少女 林婊钱也挣够了，人家回台湾去了。 喜欢孩子 如果可以贾静雯，林心如一起玩，真的是太幸福了。<br>都是来自宝岛的小公主啊！！！！ 祝福吧 呵呵，少女，别侮辱这个词 咘咘 林心如比我漂亮太多啦好不 那些骂脏话的人，骂别人自已也伤身。你们也积点口德吧，把你们各自的曰子过好，给自己多留一些正能量的东西。 祝福 婊子 祝福 少报导一个诸如此类的才是正道…… 不正常啊居然没人来骂林婊 支持林心如！！ 小心心 林心如好喜欢开这个啪，那个啪！以前应该没少被猛男啪过。 别吹捧了行吗？40岁大妈了还好意思说如少女 陶晶莹好漂亮啊 如果可以贾静雯，林心如一起玩，真的是太幸福了。<br>都是来自宝岛的小公主啊！！！！ 喜欢孩子 呵呵，少女，别侮辱这个词 和骂马婊子比她算好的了 林心如比我漂亮太多啦好不 那些骂脏话的人，骂别人自已也伤身。你们也积点口德吧，把你们各自的曰子过好，给自己多留一些正能量的东西。 咘咘 婊子 少报导一个诸如此类的才是正道…… 林婊钱也挣够了，人家回台湾去了。 小编已经90多岁了，所以70岁以下的女人对小编来说都算是‘少女’！ 祝福吧 支持林心如！！ 祝福 祝福 很多时候，我们都在，寻找可以倾诉的人。有些话；憋在心里会崩溃，需要出口；有些事；扛在肩上是压力，需要分担。 不正常啊居然没人来骂林婊 你去看下洪小玲的演出经历吧,她虽然是林心如工作室的艺人,但她的工作还是自己以及其经纪人在做主 小心心 "
    },
    "Article": "贾静雯和咘咘陶晶莹李李仁夫妇网易娱乐12月27日报道据台湾媒体报道，艺人霍建华于26日迎接38岁生日，爱妻林心如前晚为他举办生日趴，并邀请好友陶晶莹夫妇、贾静雯夫妇一起庆祝。夫妻俩低调庆生，还被派对主持人称赞态度很亲切。女主持人晒出和众女神的合照，林心如淡妆入镜，甜笑宛若少女；贾静雯身穿黑色薄纱，头戴麋鹿发箍，咘咘眼睛又大又圆超可爱，许多明星夫妻齐聚一堂非常热闹。她面对众多娱乐圈A咖直呼紧张，但获得陶晶莹相助炒热气氛，李李仁也一起唱了很多首歌，更被寿星霍建华称赞肯定，直呼整晚好幸福，不过事后已经将该照片和发文删除。霍建华转战内地戏剧圈多年，稳坐一线男神宝座，和林心如从10年好友升级恋人，并于2016年携手共度一生。他日前受访时畅谈10年暗恋心情，坦言早有好看但不敢捅破，‘如果我不能照顾她的话，这个我不敢的。’他直到公开认爱当天，终于带着心爱的女人手牵手吃火锅，现在结婚育有一个女儿，只要工作有空档便全心陪伴家人，夫妻恩爱令人称羡。本文来源：网易娱乐责任编辑：李彤_NK4455",
    "KeyWords": "林心如,贾静雯,霍建华",
    "Source": "Netease",
    "Title": "林心如为霍建华举办38岁生日趴 贾静雯到场_网易娱乐",
    "PublishTime": "12/27/201710:02:09"
}