{
    "URL": "http://sports.163.com/17/1228/13/D6OF0QDA00058781.html",
    "Comment": {
        "Reply": 23,
        "Content": "就没见过巴黎球迷身边热刺曼城的都看到过好几个了 法国那么有钱居然足球那么落后，法国人男人就不能Man一点？！ 内马尔呆来了不可估量的关注，毕竟他是梅罗之后的第三人 中东石油资本下一个目标就锁定西汉姆联吧 今夏操作太过惊艳，肆亿妄为！ 血虐皇马之后，不知多少黄🐶要叛变了…… 傻逼，国足惹你了？ 太有钱，买人跟喝汤一样 傻逼 慢慢来嘛，大巴黎又不是一天建成的<br>雄起，大巴黎<br>大巴黎，雄起 大巴黎就应该踢英超来或者踢西甲，又不远，伦敦飞巴黎也就不到1小时，这么有钱，包机啊，现在英超俱乐部踢比赛还是大巴去客场。 有钱就可以为所欲为卡塔尔王室注资哪怕是纽卡水晶宫这样的球队也一样是这个结果 傻逼 法国那么有钱居然足球那么落后，法国人男人就不能Man一点？！ 内马尔呆来了不可估量的关注，毕竟他是梅罗之后的第三人 中东石油资本下一个目标就锁定西汉姆联吧 今夏操作太过惊艳，肆亿妄为！ 傻逼，国足惹你了？ 太有钱，买人跟喝汤一样 法国的国脚来自于🇩🇿🇨🇮🇬🇭🇳🇬🇨🇲🇸🇳这些国家，黑人居多，居然能拿到世界冠军。证明了法国本土的白人踢球水平不行！！！ 国足惹你了？ 就没见过巴黎球迷身边热刺曼城的都看到过好几个了 血虐？！这种逼话也敢说，小心输掉底裤 法国的国脚来自于🇩🇿🇨🇮🇬🇭🇳🇬🇨🇲🇸🇳这些国家，黑人居多，居然能拿到世界冠军。证明了法国本土的白人踢球水平不行！！！ 法国的国脚来自于🇩🇿🇨🇮🇬🇭🇳🇬🇨🇲🇸🇳这些国家，黑人居多，居然能拿到世界冠军。证明了法国本土的白人踢球水平不行！！！ 世界冠军时，主力大多还是白人吧（包括木司令白人） 资本的魅力呀，有资本就可以买人，踢的好看自然吸粉 慢慢来嘛，大巴黎又不是一天建成的<br>雄起，大巴黎<br>大巴黎，雄起 支持内少！ 我巴萨都打脸3:0了打得黄🐶躲起来了，4亿妄为还不血虐到你们某些🐶投诚？ 所以，请给一个巴黎卖小马去黄马的理由 血虐皇马之后，不知多少黄🐶要叛变了…… ",
        "Total": 153,
        "Link": "http://comment.sports.163.com/sports2_bbs/D6OF0QDA00058781.html"
    },
    "Title": "巴黎6年吸粉从50万到5000万 球衣销量爆炸式增长_网易体育",
    "Source": "Netease",
    "KeyWords": "内马尔,巴黎圣日耳曼,巴黎",
    "PublishTime": "12/28/201713:48:31",
    "Article": "在夏季转会期，巴黎圣日耳曼无疑是花钱最多的俱乐部，但是现在看来，他们花的钱物有所值。内马尔和姆巴佩的转会使得大巴黎吸引了全球各地的媒体和球迷，他们的社会媒体追随量由2011年的50万上升到现在的5千万。他们二人的加盟仿佛是大巴黎新一代银河战舰成型的最后一步。此外，俱乐部网站浏览量和商品销售量都有了爆炸式的增长，以内马尔球衣销量为例，巴黎圣日耳曼官方宣布内马尔加盟当天，内马尔的球衣就被卖出11000件。一个月后，内马尔的球衣卖出了120000件！俱乐部接待人数也比去年同期增加75%。在搜索引擎上，大巴黎是世界上被搜索最多的俱乐部之一，俨然已成为法国足球的象征。在英国，足球是文化中的一部分，而大巴黎是第三被英国人关注的外国俱乐部，仅落后于巴萨和皇马。在多哈更明显，球队赞助商将球员们展示到城市各个角落。这一切在一年前是不可想象的。很明显，新银河战舰巴黎圣日耳曼正在扬帆起航。本文来源：肆客足球APP责任编辑：姚成浩_NS4810"
}