{
    "URL": "http://war.163.com/17/1228/10/D6O43R7S000181KT.html",
    "Article": "（原标题：简氏报告预测2018年全球防务开支大幅增长美国独占4成）参考消息网12月28日报道据以色列《耶路撒冷邮报》网站12月19日报道称，近期发布的简氏防务预算报告预测，全球防务支出在2018年将再度上升，达到1.67万亿美元，创下冷战后的最高纪录。简氏报告由从事信息分析与销售的IHS马基特公司发布。报道称，据简氏报告称，全球防务支出将连续第5年增长，刷新2010年创下的冷战结束后最高纪录1.63万亿美元。2018年全球防务支出将增长3.3%，是10年来的最快增长速度。这一增长主要受到美国2008年以来最大增幅的推动。“防务支出上升反映出世界各地经济状况改善，同时也是对若干关键地区局势持续动荡做出的反应。”IHS马基特公司的首席分析师费内拉·麦格蒂说。“不过，各国的防务支出相对于国内生产总值（GDP）而言，比过去10年的任何时候都要低。”过去10年里，全球防务开销与GDP之比已从2.7%降至2.2%。报道称，美国国防部的预算占全球防务开销总额的40%，因此美国军费的变化影响着世界总趋势。自2001年“9·11”事件以来，美国已在防务上面花了近10万亿美元。图为美国海军航母战斗群IHS马基特公司的高级分析师盖伊·伊斯门表示，“特朗普总统和他的政府谋求大幅增加军费”，以便“解决自动减赤造成的战备和训练方面的问题”。他说：“对特定领域的资金投入也会增加，比如反导、造船、导弹和弹药、太空系统和C4ISR（指挥、控制、通信、计算机、情报、监视和侦察——译者注）系统。”在中东，防务支出曾在2016年有所削减，但今年开始再度上升。该地区的最大防务支出国是沙特阿拉伯，它继前一年减支之后在2017年提高了防务预算。以色列的防务支出从2016年的142亿美元增加到2017年的150亿美元，这2年在全球防务支出额排名中均位列第17。伊朗从137亿美元增加到163亿美元，从第18上升到第15。沙特今年的支出为509亿美元，远超这2个国家。9个北约成员国的2018年防务开销与GDP之比将达到基准点2%。西欧的支出在2009年至2015年间有所减少，但此后缓慢上升。麦格蒂说，西欧国家增加防务支出，在很大程度上是为了稳定政府收支，也是因为觉得在北约东部边界受到俄罗斯的威胁。他还指出，德国组阁谈判和英国脱欧谈判也会对这两国的军费开支产生影响。东欧是2018年军费增长最快的地区，好几个东欧国家想把防务支出增加到GDP的2%。“2014年俄罗斯干预乌克兰局势之后，东欧开始增加军费”，麦格蒂说。亚太地区军费在过去10年里强劲增长，今年则减缓至2010年以来的最慢水平，原因是中国和印度的增幅减小和东南亚国家削减支出。简氏年度防务预算报告跟踪全世界105个防务预算最高国家的数据，这些国家的预算总额占据了全球防务开销的99%。（编译/何金娥）本文来源：参考消息网责任编辑：姚文广_NN1682",
    "Source": "Netease",
    "PublishTime": "12/28/201710:37:56",
    "KeyWords": "美国,防务,俄罗斯,以色列",
    "Comment": {
        "Content": "喷子们已经堕落成靠意淫战胜了，如果你说什么就灵验的话，那么你早就发财了。还是照顾好你自己吧。 为你妈点赞 中俄两国空军在武汉会战战场上空浴血奋战时，美国正日夜兼程用巨轮将资源极端缺乏的日本最急需的钢铁、铝材、油料、橡胶和精密机床等军事战略物资往日本各港口运过去。<br>宋美龄1941年：“中国抗战3年来得自苏联之物资援助，实较自英美方面获得之总和多至数倍之多”。<br>孙科1944年：“外援方面，自1937年七七以后，直至1941年6月苏德战争以前，整整四年间，我们作战所需物资，大都独赖苏联的援助，苏联同时更在革命精神和人类道义上寄予我们以无限的同情和鼓舞。”单单从1931年918事变到1932年底，美国就向日本供应了1.81亿美元的军火。<br>“胡佛总统以同情的态度看待他们在1931年入侵满州……他宣称：‘日本方面也有些道理。我们与它的友谊是由来已久，根深蒂固的。我们应该友好地考虑日本的处境。’……杜邦家族在那一年和日本签订了有利可图的协定……从三井化学联合企业来的日本经理人员同杜邦公司的经理人员在威尔明顿会晤，并交付了90多万美元，以换取杜邦公司氨炸药的配方，这是一种生产较廉价的军火的制作法。国务院不顾史汀生公开说的漂亮话，私下对杜邦公司的这笔买卖表示完全赞同”〔美〕齐尔格《杜邦在尼龙幕后》<br>“维持日本战争机器运转的一半以上的原料，特别是铁、钢和石油，都是从美国获得的”（〔美〕林克、卡顿《美国史》）<br>日本在20世纪30年代末90％的国内石油需求来自于进口，而其中85％来自于当时最主要的石油出口国——美国。七七事变后的一年内，美国运往日本的军事战略物资竟占日本全部销耗的92%。1937年11月初在布鲁塞尔的华盛顿条约缔约国会议上，参会的中国代表团要求会议作出对日本制裁的决议，因为极度缺乏资源的日本，约四分之三的一般原料，几乎所有的重要战略原料，都来自于美英法等大国及其殖民地，一旦对日本制裁，将直接掐断日本战争机器和社会经济的运转，结果中国的提议根本未得到这些大国的支持，换来的不过是美国不痛不痒的”道义禁运“而已。 美国周边一共有几个国家？一个墨西哥一个加拿大，人家加拿大是发达国家，墨西哥也不穷吧？二战后从东南亚到东北亚再到西欧，和美国合作的都发达了吧？反观你们选苏联阵营的国家呢？你们坚持呀！怎么搞特色了呢！特色是什么需要我解释吗？ 世界的希望啊。 怎么会有你这种sb 简氏就没有说增速最快的国家？不过大家都知道。 世界警察当然开销大，干花钱还没工资。。。 4楼逗逼，北美洲就三国家，美国、加拿大、墨西哥，如果不是美国立法不再接受其它国家和地区加入美国的话，墨西哥早就解体纷纷加入美国了。另外好好查查墨西哥人均GDP和人均收入，看看你有墨西哥多么？至于南美相对落后，那都是他们自己造成的，西方放弃殖民主义之后，南美各国纷纷独立，但是那些领导人上台之后，又纷纷变成独裁者，实行所谓左的主义，结果越发展，越落后，例如委内瑞拉，那么多的石油出口，如今老百姓穷的叮当烂响，再例如古巴，世界著名旅游胜地，雪茄、咖啡大国，自从跟了毛子，现在混的人均月收入才20多美金，这里面还有许多是靠美国和加拿大游客去古巴旅游的的贡献！ 一直很奇怪简氏报告是哪个国家的归统计局管吗 新年快乐祝您新年行大运，死QJ 跟贴被火星网友带走啦~ 仙法旗子一模一样的大儿子利比里亚跟米二百年了还在地下十八层幸福地玩泥巴 怕你妈那逼 最难能可贵的是老妹即使是实力早已能够独霸全球独统世界轻取天下却依然义无反顾的奉行着秉承正义主持公道普世济人救苦救难童叟无欺扶弱助小上善若水嫉恶如仇...金背山姆为黑暗之处送去了阳光为野蛮之处送去了文明为愚昧之处送去了智慧为荒芜之处送去了繁荣为凄寒之处送去了温暖为闭塞之处送去了通透为干涸之处送去了甘霖为炼狱之处送去了希望...这样的国家理所当然的应该受到芸芸众生的啧啧赞叹注目钦佩恭首敬仰心悦诚服甘拜匣镧五体投地... 奇怪的是，美利坚周边就没有一个富裕的国家（曾经火烧白宫的大英帝国加拿大自治领除外），全都是穷掉底的破烂地方，也不知道美国佬的“正义”都到哪儿去了。难道这就是传说中的“灯下黑”？还是被美利坚的阳光给烤干了，呵呵。 俄罗斯揍的张家口种 应该说我朝的罪犯都往那边移民，最终目的地是美帝 二战，美国实力最强，贡献最大，二战结速后，为什么美国的版图，没有扩大一寸哪？？你不觉得奇怪吗？<br><br>美国搞十来艘重型航母，全球到处跑的，军费每年就烧5、6千亿美元，但是美国的版图却没有扩大一寸，你不觉得奇怪吗？<br><br>鹅裸死军队一出手，那可就是要攻城略地开疆扩土的。。美国军队一出手，就是死一堆人，花一堆钱，最后一寸土地也没有捞到，你不觉得奇怪吗？<br><br>是谁在维护世界和平？？你装傻可以，全世界可不傻。。200多个小国弱国，最不怕的就是美国的航母靠岸。最怕的就是鹅裸死的军靴落地。<br><br>墨西哥人，心里那个恨啊，你美国为什么不在殖民时代，把墨西哥全拿走？？现在剩下的墨西哥人公投入美，美国也不要，真是气死墨西哥人了。你敢到墨西哥瞎比比，美国侵略吞并墨西哥领土试试？？小心墨西哥人揍死你。<br><br>波多黎各人痛苦啊，公投入美，美也不要，夏威夷人真是幸福死了，波多黎各人眼馋夏威夷人啊。。太平洋诸多岛国，都是排队的要公投入美啊。<br><br>美国驻军可都是请来的，波兰望眼欲穿了大半个世纪，这才终于热泪盈眶的请来美军啊。。你敢到波兰瞎比比美国驻军试试？？小心波兰人揍死你。<br><br>没有美国驻军，就没有工业发达，经济繁荣的南韩。。南越人那个恨啊，那个眼馋啊，你美国为什么就从南越撤军了哪？<br><br>美国驻军一旦撤离韩国，南韩必将重蹈，美丽富饶的南越，被野蛮灭国的厄运。<br><br>98年印尼爆发的，针对华人的大屠杀，惨!惨!!惨!!!惨！！！！<br>全世界都在打嘴炮，唯一派出军舰，武装干涉印尼内政的就是美国。<br>星条旗迎风飘扬，自由的旗帜永不落！！！面对美军武装营救，印尼华人热泪盈眶。<br><br><br>二战后，这个世界如果没有了美利坚。<br>和平，繁荣，发展，都将沦为泡影。<br>和平，繁荣，发展，就是美国向全世界提供的免费产品。<br>谁敢威胁和平，繁荣，发展，美国就敢弄死它。<br>什么苏联，傻大木，卡炸飞，塌俐班，爸傻儿，等等，都不在话下。<br><br>星条旗迎风飘扬，自由的旗帜永不落！！！ 文盲多读书，美利坚才几个邻国？ 他妈的占的还是少，老子再捐点！ 对啊。因为大部分需要维和的地方都是美国先打乱的。 头一次听说狗可以去美国，还是最恶心的孽畜狗，美国人不傻，让狗去和人争食？孽畜做梦吧！ 美国驻日本占领军像日本的女人们问候新年好，感谢这一年来日本女性的殷勤伺候，感谢日本男人们辛苦的看门端尿壶，送纸巾！更是感谢这些年生下的儿子们这么孝心，你们虽然身在中国，但是我们想着你们！在新的一年里，我驻日本占领军会再接再厉，也希望日本女人能多喊几句亚麻跌……————大不列颠.美跌.驻日韩占领军 全球最失败国家里十有九个是你亲野畜爸的跟班~ 做空美元吧。大幅减税加上防务开支上涨，美国财政赤字扩大是免不了的，现在必须贬值美元从其它国家剪一轮羊毛了，中国和日本是首当其冲。 美国占4成？它到底怕什么？ 嗯那个央视的女主持人连死都死在了美国的家里 事实上并没有什么国家是靠美利坚发展起来的。日本、德国二战前就是孔武有力的国家，跟美国拼上一场也没耽误什么。倒是屁颠屁颠紧跟美利坚的大英帝国被肢解了，老殖民地和传统盟友菲律宾、利比里亚穷得掉底，美国后院拉美地区毒品泛滥、混乱不堪，并没有因为它们距离美国很近，就得到什么好处。归根结底，任何国家都得靠自己，没那个本事，谁都帮不了你。 这个时候他只说总量，从不说占比？这些你都知道的啦 为了世界和平，美国大力增加军费开支，美国的军火商们不遗余力的在全球大卖军火，真拼啊 美国现联合国交的会费占全部的22%交的维和费占全部的28%贡献最大 房价翻番 亚太有人想出头，他就把重点移过来了。 没事，我关注您有几年了，每天我在心里祝福您，然后给阎王爷上香，每年都祝福您，您忘了我是谁了吧 为你妈点赞 中俄两国空军在武汉会战战场上空浴血奋战时，美国正日夜兼程用巨轮将资源极端缺乏的日本最急需的钢铁、铝材、油料、橡胶和精密机床等军事战略物资往日本各港口运过去。<br>宋美龄1941年：“中国抗战3年来得自苏联之物资援助，实较自英美方面获得之总和多至数倍之多”。<br>孙科1944年：“外援方面，自1937年七七以后，直至1941年6月苏德战争以前，整整四年间，我们作战所需物资，大都独赖苏联的援助，苏联同时更在革命精神和人类道义上寄予我们以无限的同情和鼓舞。”单单从1931年918事变到1932年底，美国就向日本供应了1.81亿美元的军火。<br>“胡佛总统以同情的态度看待他们在1931年入侵满州……他宣称：‘日本方面也有些道理。我们与它的友谊是由来已久，根深蒂固的。我们应该友好地考虑日本的处境。’……杜邦家族在那一年和日本签订了有利可图的协定……从三井化学联合企业来的日本经理人员同杜邦公司的经理人员在威尔明顿会晤，并交付了90多万美元，以换取杜邦公司氨炸药的配方，这是一种生产较廉价的军火的制作法。国务院不顾史汀生公开说的漂亮话，私下对杜邦公司的这笔买卖表示完全赞同”〔美〕齐尔格《杜邦在尼龙幕后》<br>“维持日本战争机器运转的一半以上的原料，特别是铁、钢和石油，都是从美国获得的”（〔美〕林克、卡顿《美国史》）<br>日本在20世纪30年代末90％的国内石油需求来自于进口，而其中85％来自于当时最主要的石油出口国——美国。七七事变后的一年内，美国运往日本的军事战略物资竟占日本全部销耗的92%。1937年11月初在布鲁塞尔的华盛顿条约缔约国会议上，参会的中国代表团要求会议作出对日本制裁的决议，因为极度缺乏资源的日本，约四分之三的一般原料，几乎所有的重要战略原料，都来自于美英法等大国及其殖民地，一旦对日本制裁，将直接掐断日本战争机器和社会经济的运转，结果中国的提议根本未得到这些大国的支持，换来的不过是美国不痛不痒的”道义禁运“而已。 全球最失败国家里十有九个是你亲野畜爸的跟班~ 美国现联合国交的会费占全部的22%交的维和费占全部的28%贡献最大 新年快乐祝您新年行大运，死QJ 4楼逗逼，北美洲就三国家，美国、加拿大、墨西哥，如果不是美国立法不再接受其它国家和地区加入美国的话，墨西哥早就解体纷纷加入美国了。另外好好查查墨西哥人均GDP和人均收入，看看你有墨西哥多么？至于南美相对落后，那都是他们自己造成的，西方放弃殖民主义之后，南美各国纷纷独立，但是那些领导人上台之后，又纷纷变成独裁者，实行所谓左的主义，结果越发展，越落后，例如委内瑞拉，那么多的石油出口，如今老百姓穷的叮当烂响，再例如古巴，世界著名旅游胜地，雪茄、咖啡大国，自从跟了毛子，现在混的人均月收入才20多美金，这里面还有许多是靠美国和加拿大游客去古巴旅游的的贡献！ 一直很奇怪简氏报告是哪个国家的归统计局管吗 基本与往年持平。 三楼是专业的几秒钟就有8个顶 做空美元吧。大幅减税加上防务开支上涨，美国财政赤字扩大是免不了的，现在必须贬值美元从其它国家剪一轮羊毛了，中国和日本是首当其冲。 美国这是要开战的预算 仙法旗子一模一样的大儿子利比里亚跟米二百年了还在地下十八层幸福地玩泥巴 最难能可贵的是老妹即使是实力早已能够独霸全球独统世界轻取天下却依然义无反顾的奉行着秉承正义主持公道普世济人救苦救难童叟无欺扶弱助小上善若水嫉恶如仇...金背山姆为黑暗之处送去了阳光为野蛮之处送去了文明为愚昧之处送去了智慧为荒芜之处送去了繁荣为凄寒之处送去了温暖为闭塞之处送去了通透为干涸之处送去了甘霖为炼狱之处送去了希望...这样的国家理所当然的应该受到芸芸众生的啧啧赞叹注目钦佩恭首敬仰心悦诚服甘拜匣镧五体投地... 怕你妈那逼 俄罗斯揍的张家口种 应该说我朝的罪犯都往那边移民，最终目的地是美帝 二战，美国实力最强，贡献最大，二战结速后，为什么美国的版图，没有扩大一寸哪？？你不觉得奇怪吗？<br><br>美国搞十来艘重型航母，全球到处跑的，军费每年就烧5、6千亿美元，但是美国的版图却没有扩大一寸，你不觉得奇怪吗？<br><br>鹅裸死军队一出手，那可就是要攻城略地开疆扩土的。。美国军队一出手，就是死一堆人，花一堆钱，最后一寸土地也没有捞到，你不觉得奇怪吗？<br><br>是谁在维护世界和平？？你装傻可以，全世界可不傻。。200多个小国弱国，最不怕的就是美国的航母靠岸。最怕的就是鹅裸死的军靴落地。<br><br>墨西哥人，心里那个恨啊，你美国为什么不在殖民时代，把墨西哥全拿走？？现在剩下的墨西哥人公投入美，美国也不要，真是气死墨西哥人了。你敢到墨西哥瞎比比，美国侵略吞并墨西哥领土试试？？小心墨西哥人揍死你。<br><br>波多黎各人痛苦啊，公投入美，美也不要，夏威夷人真是幸福死了，波多黎各人眼馋夏威夷人啊。。太平洋诸多岛国，都是排队的要公投入美啊。<br><br>美国驻军可都是请来的，波兰望眼欲穿了大半个世纪，这才终于热泪盈眶的请来美军啊。。你敢到波兰瞎比比美国驻军试试？？小心波兰人揍死你。<br><br>没有美国驻军，就没有工业发达，经济繁荣的南韩。。南越人那个恨啊，那个眼馋啊，你美国为什么就从南越撤军了哪？<br><br>美国驻军一旦撤离韩国，南韩必将重蹈，美丽富饶的南越，被野蛮灭国的厄运。<br><br>98年印尼爆发的，针对华人的大屠杀，惨!惨!!惨!!!惨！！！！<br>全世界都在打嘴炮，唯一派出军舰，武装干涉印尼内政的就是美国。<br>星条旗迎风飘扬，自由的旗帜永不落！！！面对美军武装营救，印尼华人热泪盈眶。<br><br><br>二战后，这个世界如果没有了美利坚。<br>和平，繁荣，发展，都将沦为泡影。<br>和平，繁荣，发展，就是美国向全世界提供的免费产品。<br>谁敢威胁和平，繁荣，发展，美国就敢弄死它。<br>什么苏联，傻大木，卡炸飞，塌俐班，爸傻儿，等等，都不在话下。<br><br>星条旗迎风飘扬，自由的旗帜永不落！！！ 簡氏雖然算是比較權威但不是真理。他自己就是統計局，網羅世界各地資訊在統計一下就可寫預測了。 近几年的平均水平大概在30%几. 对啊。因为大部分需要维和的地方都是美国先打乱的。 事实上并没有什么国家是靠美利坚发展起来的。日本、德国二战前就是孔武有力的国家，跟美国拼上一场也没耽误什么。倒是屁颠屁颠紧跟美利坚的大英帝国被肢解了，老殖民地和传统盟友菲律宾、利比里亚穷得掉底，美国后院拉美地区毒品泛滥、混乱不堪，并没有因为它们距离美国很近，就得到什么好处。归根结底，任何国家都得靠自己，没那个本事，谁都帮不了你。 孝经曰：“天子有诤臣七人，虽无道，不失其天下。” 为了世界和平，美国大力增加军费开支，美国的军火商们不遗余力的在全球大卖军火，真拼啊 一个国家占全世界的4成，厉害！ 亚太有人想出头，他就把重点移过来了。 俄杂莫慌。 大战前 美国周边一共有几个国家？一个墨西哥一个加拿大，人家加拿大是发达国家，墨西哥也不穷吧？二战后从东南亚到东北亚再到西欧，和美国合作的都发达了吧？反观你们选苏联阵营的国家呢？你们坚持呀！怎么搞特色了呢！特色是什么需要我解释吗？ 世界的希望啊。 怎么会有你这种sb 简氏就没有说增速最快的国家？不过大家都知道。 世界警察当然开销大，干花钱还没工资。。。 正义美军，主持正义🇺🇸 美队要炸!有可能北美年冠. N年后，伊拉克小文青间突然流行津津乐道伊军的神勇，什么虎贲之师啦，抗恐名将、抗恐虎将、抗恐猛将啦，什么伊拉克抗恐第一恐怖军啦，令IS胆寒军啦，每战必捷军啦，然后提克里特大捷啦，摩苏尔大捷啦……反正是虽然一直败退，但却全是大捷……然后平时根本不练兵不习武，只喜欢泡妞跳舞喝咖啡，在兵营外忙着赶场子会名媛没事了就骑头大马做横刀立马状，在兵营内不是拿着千把年前的兵书吟诵称奇，就是挥毫泼墨写各种字体的“精忠报国”装裱好挂的到处都是、战前不认认真真备战，火力不知如何配置，兵种不知如何协同，进攻与撤离的交替波次如何安排，却把精力都放在如何写一篇惊天地泣鬼神青史留名的“与家书”“与妻书”的帅哥，穿上酷爆的全套美式装备，戴上黑超，站在美式突击车上，手扶美式机抢，望上远方眼露杀气做奋勇杀敌状，精心拍下的赠佳人照片令粉丝们夜不成寐，“军神！军神！”地叫整晚，然后有人问既然这么牛掰，为什么一触即溃，丢盔弃甲，望风而逃只会对着步话机哀求：“看在谠国的面子上，救兄弟一把！！”？回答说，呃呃呃，都是因为库尔德武装背后捅我刀子……把库尔德人气得直叫唤：“槽！！我的主力一直在IS占领区跟他玩命，老子要是背后捅你刀子的话，敢情你是一直拿背对着沦陷区的啊你！！ 跟贴被火星网友带走啦~ 这位客观说了，小小鸡蛋有那么大的威力？鸡蛋是小，占便宜的心可无限大啊！不然怎么会有那么多把保健品当饭吃的老年人呢！最可恨的就是那些口口声声嚷着张爸爸、李妈妈的热心肠的销售人员，内部什么样我真不是很清楚，不然您请教请教一楼，人家是行家。 奇怪的是，美利坚周边就没有一个富裕的国家（曾经火烧白宫的大英帝国加拿大自治领除外），全都是穷掉底的破烂地方，也不知道美国佬的“正义”都到哪儿去了。难道这就是传说中的“灯下黑”？还是被美利坚的阳光给烤干了，呵呵。 小小鸡蛋有那么大的威力？ 美国绝大多数把控着联合国,在联合国获得的政治利益也是最大的 他妈的占的还是少，老子再捐点！ 全球地震,全球各地都有地震,不是全球一下所有地方都地震. 美国:抱歉，有钱真的可以为所欲为！ 头一次听说狗可以去美国，还是最恶心的孽畜狗，美国人不傻，让狗去和人争食？孽畜做梦吧！ 美国驻日本占领军像日本的女人们问候新年好，感谢这一年来日本女性的殷勤伺候，感谢日本男人们辛苦的看门端尿壶，送纸巾！更是感谢这些年生下的儿子们这么孝心，你们虽然身在中国，但是我们想着你们！在新的一年里，我驻日本占领军会再接再厉，也希望日本女人能多喊几句亚麻跌……————大不列颠.美跌.驻日韩占领军 正是一帮一心脱离美国的黑奴建立的利比里亚，造成了今天的后果。 俄杂莫慌。 美国占4成？它到底怕什么？ 嗯那个央视的女主持人连死都死在了美国的家里 中国人占世界20%GDP15% 没事，我关注您有几年了，每天我在心里祝福您，然后给阎王爷上香，每年都祝福您，您忘了我是谁了吧 欠费也算进去了呀，美狗果然是世界上最恶心的孽畜。 房价翻番 这个时候他只说总量，从不说占比？这些你都知道的啦 ",
        "Total": 988,
        "Link": "http://comment.war.163.com/news_junshi_bbs/D6O43R7S000181KT.html",
        "Reply": 58
    },
    "Title": "简氏预测2018年全球防务开支大幅增长 美国占4成_网易军事"
}