{
    "URL": "http://news.163.com/17/1228/14/D6OH5VFU000187V9.html",
    "Article": "（原标题：社交媒体账号遭美封杀车臣领导人：美国的小伎俩）【环球网综合报道】车臣领导人卡德罗夫继遭美财政部下令制裁之后，社交媒体账号也被封杀。据俄罗斯卫星通讯社月28日消息，卡德罗夫的社交媒体Instagram账号@kadyrov95已于上周六(23日)停止显示，其脸书主页也已失效。报道称，俄罗斯联邦电信、信息技术和大众传媒监督局周二(26日)表示，已向脸书公司致信咨询，要求他们解释卡德罗夫账号被封的原因。当地时间12月27日，卡德罗夫在推特上宣泄对此事的不满。卡德罗夫称，脸书公司因他在“美国封禁名单”之内，因此删除了他的账号。他“很冷静地”看待美国的这种小伎俩，但仍有一个问题想要咨询脸书和美国财政部，“你们吹捧的民主和公民知情权在哪里？亦或说，400万用户的意见不过尔尔？”本文来源：环球时报-环球网。更多精彩，请登录环球网http://www.huanqiu.com责任编辑：范姜国一_NN9138",
    "Source": "Netease",
    "PublishTime": "12/28/201714:18:00",
    "KeyWords": "美国,车臣,社交",
    "Comment": {
        "Content": "骂你爹了呗 推特脸书是啥玩意啊，哈哈 车奸认贼作父 在哪里都有相对自由 为啥封你 骂你爹了呗 车奸认贼作父 在哪里都有相对自由 为啥封你 推特脸书是啥玩意啊，哈哈 车臣支持俄罗斯？ 文明社会，从理性发贴开始 ",
        "Total": 83,
        "Link": "http://comment.news.163.com/news2_bbs/D6OH5VFU000187V9.html",
        "Reply": 7
    },
    "Title": "车臣领导人社交媒体账号被封杀：美国的小伎俩_网易新闻"
}