{
    "Article": "（原标题：国家邮政局印发国家邮政局网站12月29日消息，为贯彻落实国务院《社会信用体系建设规划纲要（2014-2020年）》《关于建立完善守信联合激励和失信联合惩戒制度加快推进社会诚信建设的指导意见》和《关于促进快递业发展的若干意见》精神,实施《国家邮政局关于加强快递业信用体系建设的若干意见》，加强快递业信用体系建设，促进快递业健康发展，日前，国家邮政局正式印发《快递业信用管理暂行办法》（以下简称《办法》）。《办法》共六章五十二条，对快递业信用信息的采集、评定、应用和监督管理等进行了规定，明确提出快递业信用管理以经营快递业务的企业为主要对象，建立唯一电子化信用档案进行信用评定和管理。对以加盟方式经营快递业务的，在信用建设方面实行统一管理，强化落实企业总部在信用管理方面的主体责任。《办法》规定，快递业信用信息是指经营快递业务的企业从事快递业务经营过程中形成的信息，以及邮政管理部门在依法履行职责过程中产生的能够反映企业信用状况的信息，主要包括基本信息、许可管理信息、快递服务质量信息、寄递安全信息、社会责任信息、获得表彰或奖励等其他反映企业信用状况的信息，采集的途径包括邮政管理部门收集录入、企业申报录入、共享其他部门信息等。依据《办法》规定，邮政管理部门将按照行业共治的原则，牵头设立快递业信用评定委员会，开展辖区内快递业信用评定工作。委员会主要职责包括负责编制年度评定方案，确定评价指标并赋予相应分值，明确守信企业、失信企业和信用异常企业的确定标准，并根据评定方案对经营快递业务的企业的信用情况考核打分，得出评定结果。《办法》对信用信息的披露和应用作出了详细规定。信用信息通过公开、共享和查询等方式披露。公民、法人和其他组织可以查询公开的经营快递业务的企业的信用信息。被列入年度守信名单的企业，邮政管理部门可以在行业评优评先、争取政府政策支持等方面优先予以考虑和安排。被列入年度失信名单或者信用异常名单的企业，取消企业及其法定代表人（负责人）在邮政管理系统的评优评先资格。对列入信用异常名单的企业，邮政管理部门应当将其作为监督检查的重点对象，可以约谈其法定代表人（负责人），提出告诫督促其整改。对列入快递业失信名单的企业，邮政管理部门可以采取系列惩戒措施，包括提高对其随机抽查的频次和比例、取消企业及有关人员在邮政管理系统的评优评先资格、对有关人员参与新设快递企业进行重点审查、与其他部门实施信息共享和联合惩戒以及由行业协会对列入失信名单的会员企业实行警告、行业内通报批评、公开谴责、不予接纳、劝退等惩戒措施。此外，《办法》对信用建设的监督管理、信用信息的异议和审查、信用修复、诚信文化建设和部门协同工作机制进行了规定。下一步，国家邮政局将做好《办法》宣传贯彻落实工作，细化工作方案，尽快完善快递业信用管理工作机制，发挥信用对快递市场的正面导向作用，促进快递业健康发展。本文来源：国家邮政局网站责任编辑：白鑫_NT4464",
    "PublishTime": "12/30/201711:55:35",
    "URL": "http://tech.163.com/17/1230/11/D6TDBF9L00097U7R.html",
    "Comment": {
        "Content": "这是本质问题。 必须劝退啊 还能添一条政绩 严格管理是好事 邮政小包能劝退不？奥对那是你们自己的 好，公私合营，市场全给国家邮政，其他退出 “天天快递”就是失信于民的管理轰乱单位 又多了一个吃拿卡要的证书而已 大声告诉我，谁失信最多啊？ 多养一群dogs 失信是对公，不是对老百姓，洗洗睡吧 又要形成一条新的生态链 百世快递能赶紧倒么 劝退不退咋办？ 退或不退那得看股东成分 垃圾圆通还不劝退？ 基本给邮政定的…… “天天快递”就是失信于民的管理轰乱单位 乐视劝退不？ [喷水][喷水][喷水][喷水][喷水] 试过EMS，从广州到汕头，一个月才到 百世快递能赶紧倒么 哦。 路过 风声大雨点小，不管用 大声告诉我，谁失信最多啊？ 还能添一条政绩 支持一下 申报“广东省守合同重信用企业”，享受50余项优惠政策的扶持。V：als20080808欧阳小姐 [微笑] 邮政小包能劝退不？奥对那是你们自己的 这是本质问题。 挺好的 我10号在德亚买的东西，17号到广州海关放行了，中国邮政却迟迟不给我派送，投诉11183没鸟用，明天要投诉中国邮政了，哪个死了爹娘的内部员工拿了我的快递 山东到北京一公斤六元要疯 友录通讯录 天天快递就是垃圾，速度倒闭 …… 说的是你们，说我了吗 劝退不退咋办？ 新款短款 👾 申报“广东省守合同重信用企业”，享受50余项优惠政策的扶持。V：als20080808欧阳小姐 每个行业也好都要好好的对待他，不然就会有失败的下场！ 那就是留一手喽[大笑] 好，公私合营，市场全给国家邮政，其他退出 该企业已被列入全国失信,可以注销该企业了.建议企业注销后,再更换法人代表,另注册一个新的企业,然后诚信经营吧 先劝退圆通，圆通是我用过最垃圾的快递公司 现在的快递行业真的是太乱 申通死一家什么时候倒闭？ 即是运动员又是裁判 哈哈 退或不退那得看股东成分 申报“广东省守合同重信用企业”，由广东省工商局颁发牌匾，享受50余项优惠政策的扶持。V：als20080808欧阳小姐 ems这种垃圾企业怎么不劝退。对了。是自家的。所以有些业务必须ems做。高级！ 那不可能。 EMS邮政小包 申报“广东省守合同重信用企业”，享受50余项优惠政策的扶持。V：als20080808欧阳小姐 送礼多的另算 又多了一个吃拿卡要的证书而已 广东90%以上的高新企业，都是“广东省守合同重信用企业”。申报联系V：als20080808欧阳小姐 看后台硬不硬<br>就两个结果，要么劝要么退 多养一群dogs 能把中国邮政给劝退吗？ 天天快递垃圾 说着容易，做着难。 执行得到位。 劝退，直接开除 必须劝退啊 劝退苏宁快递，谢谢 劝？又不是强制！ 失信是对公，不是对老百姓，洗洗睡吧 也是应时代的要求产生了他们，电商的兴起，催生了快递业，快递业也助力了电商业。每个新行业产生都会催生一些附属行业的兴起。 具体看执行~ 严格管理是好事 ",
        "Link": "http://comment.tech.163.com/tech_bbs/D6TDBF9L00097U7R.html",
        "Total": 213,
        "Reply": 62
    },
    "Source": "Netease",
    "Title": "快递业信用管理暂行办法发布：失信企业或被劝退_网易科技",
    "KeyWords": "快递业信用管理暂行办法,快递,邮政,管理"
}