{
    "Source": "Netease",
    "PublishTime": "12/26/201709:17:00",
    "KeyWords": "突尼斯,阿联酋,航空,政府",
    "Title": "阿联酋禁止突尼斯女性登机 突政府采取反击措施_网易新闻",
    "Comment": {
        "Link": "http://comment.news.163.com/news2_bbs/D6IRB7DE00018AOQ.html",
        "Total": 36,
        "Content": "帽子族的女人没有地位，某朝的女性就是地位太高了 我想换族我要换成帽子族劳资看以后谁敢欺负我 自卑的家伙 帽子族的女人没有地位，某朝的女性就是地位太高了 把白毛图图了。 突政府采取反击措施 我想换族我要换成帽子族劳资看以后谁敢欺负我 自卑的家伙 ",
        "Reply": 5
    },
    "Article": "（原标题：阿联酋禁止突尼斯女性登机突政府采取反击措施）中新网12月26日电据香港《文汇报》26日报道，阿联酋日前突然在毫无预警及理由下，禁止来自突尼斯的女性前往或经当地转机，此举引起突尼斯政府和民众不满，突尼斯政府展开反击，宣布禁止阿联酋航空的航班进入突尼斯领空，并暂停该公司来往突尼斯的航线。突尼斯交通部声明说，只有当阿联酋航空确保能够“提供符合国际规定和标准的服务”时，才会重新开放领空。自22日起，多名突尼斯女性准备前往迪拜时，被阿联酋航空拒绝登机，要求她们接受额外签证审查。阿联酋其后声称这属“临时安全措施”，但拒绝解释原因。突尼斯总统府发言人表示，阿联酋政府接获情报指持有突尼斯护照的女子或企图发动恐袭，突尼斯理解阿联酋的忧虑，但不能接受突尼斯妇女遭受这种对待。本文来源：中国新闻网责任编辑：姬雪莹_NN6784",
    "URL": "http://news.163.com/17/1226/09/D6IRB7DE00018AOQ.html"
}