{
    "Article": "网易体育12月30日报道：古有“不食嗟来之食”，今有“红军球迷傲骨拒死敌援助”。根据英媒体《利物浦回声报》的消息，一位利物浦球迷不幸被确诊为癌症晚期，《太阳报》想为他募集资金。面对《太阳报》的好意，这位红军死忠毅然拒绝，他表示宁可再接受化疗，也不和《太阳报》同流合污。先简单说一下利物浦和《太阳报》之间的故事。1989年的希尔斯堡惨案发生后，《太阳报》在毫无根据的情况下做出错误的报道，他们称利物浦球迷蓄意攻击那些在抢救伤者的人，将事故的责任推到利物浦球迷身上。此后多年，外界都认为利物浦球迷是足球流氓。2016年，英国政府还利物浦球迷清白，96名遇难者得以沉冤得雪，法庭认定他们是被非法杀害，而不是意外身亡。事情已经过去这么多年，利物浦球迷一直不原谅《太阳报》。2012年，《太阳报》曾在头条刊文向利物浦道歉，但利物浦球迷并不买账。今年九月份，41岁的利物浦球迷马特-亨德森（MattHenderson）被查出患上癌症，且已经是晚期，癌细胞扩散到了他的淋巴和肾脏。11月份，亨德森接受了《利物浦回声报》的采访，他表示希望募集到20万镑的资金，这样他就可以出国求医。亨德森的事情被曝光后，《太阳报》给他发出了消息。《太阳报》希望亨德森能提供一张他和儿子的合影，他们将为他募集资金。亨德森是一名利物浦的死忠。在他的字典里，《太阳报》等同于恶魔。所以，亨德森第一时间就拒绝了《太阳报》的帮助。随后，亨德森在自己的推特上解释自己的决定：“我是一个忠诚且自豪的利物浦球迷，我已经持有利物浦季票长达25年。我绝对不会让这个垃圾小报来报道我的故事，也不会让他们得到我儿子的照片。我宁愿再接受化疗，也不愿和他们扯上关系。#JFT96#YNWA#help4matt。”#JFT96是JusticeForThe96（96名遇难者的正义）的缩写，#YNWA则是youwillneverwalkalone（你永不独行）的缩写，#help4matt则是helpformatt（帮助马特）的缩写。亨德森拒绝《太阳报》的行为被曝光后，很多红军球迷为他点赞。“好样的，马特。希望你早日战胜病魔。你要像希尔斯堡惨案受害者的家属一样，勇敢的战斗下去。”、“我们支持你，你永不独行。”、“你的话让我很感动，你是真正的巨星，马特。”目前，亨德森正在利物浦的一家医院接受第三轮化疗（一共是6轮）。对于红军球迷的夸赞，他表示：“这是一个诚实而又忠诚的利物浦球迷应该做的。我们已经收到了6.9万镑的善款，这让我很震惊。我没有想到会收到这么多的支持，这真的太棒了，给了我继续与病魔战斗的动力。”人这一生，有的事情也许真的比生命更重要。本文来源：网易体育作者：风过乡责任编辑：郑鑫桐_BJS5086",
    "PublishTime": "12/30/201722:34:26",
    "URL": "http://sports.163.com/17/1230/22/D6UHT7LG00058781.html",
    "Comment": {
        "Content": "是16年.一个是报纸道歉一个是官方换清白了 妈的，英国佬也要去国外看病吗 应该是2006 这才是死忠球迷啊 YNWA 豪门的基础 人有免费医疗 诠释了死忠的涵义，YNWA 大写的男人！你永不独行！<br>这才是真正的有态度！ 这特么到底什么时候的事情2016给的清白然后2012年道歉这逻辑是不是不对？！ 太阳报12年报纸名义道歉，16年法院还清白，2个主体不一样 免费医疗要排队，等到你死了才轮到你。在英国看过几次病，印象深刻。 12年是太阳报道歉，16年算是英国政府道歉了。 妈的，英国佬也要去国外看病吗 应该是2006 这才是死忠球迷啊 是16年.一个是报纸道歉一个是官方换清白了 确实是感冒了去医院要预约到你预约的那个时间感冒早好了 YNWA 红魔球迷给你赞。祝安好！ 豪门的基础 希望俱乐部能够帮助他让球员捐点小钱我觉得足够让他接受最好的治疗了。 有账号吗？我捐50磅 诠释了死忠的涵义，YNWA 人有免费医疗 zzzzzzzz 大写的男人！你永不独行！<br>这才是真正的有态度！ 这特么到底什么时候的事情2016给的清白然后2012年道歉这逻辑是不是不对？！ 太阳报12年报纸名义道歉，16年法院还清白，2个主体不一样 免费医疗要排队，等到你死了才轮到你。在英国看过几次病，印象深刻。 一楼是一看烧脑的影片就一直问旁边的人，这个什么意思，那个是谁的那种人[微笑] 作为利物浦的球迷应该感到悲伤利物浦俱乐部包括那些大牌明星都没有一个愿意帮助你 豪门的脊梁👍 ",
        "Link": "http://comment.sports.163.com/sports2_bbs/D6UHT7LG00058781.html",
        "Total": 366,
        "Reply": 21
    },
    "Source": "Netease",
    "Title": "致敬!患癌利物浦死忠拒太阳报援助 尊严比命重要_网易体育",
    "KeyWords": "利物浦,亨德森,马特,红军"
}