{
    "Source": "Netease",
    "PublishTime": "12/25/201707:38:44",
    "KeyWords": "名哨,英超,纽卡斯尔,克拉滕伯格",
    "Title": "42岁前英超名哨出轨50岁大妈 发肉麻短信:好想XX你_网易体育",
    "Comment": {
        "Link": "http://comment.sports.163.com/sports2_bbs/D6G2LHPK00058781.html",
        "Total": 12005,
        "Content": "从你的字里行间，我感觉出了你的迫不及待 熟妇败火玩起来放的开 衣服一扒，上面软塌塌，下面干巴巴，肉都皱一起，屌都不得起 在成都75万能买到什么样的房子对了千万不要有傻逼给我算汇率 75万别说成都、就是南昌都要到银三角和湾里区、山沟里。郊区都100万左右 楼上就是我口中的智障 75w欧元就是万恶资本主义国家最豪华的房子……我哭了一宿 还没我回龙观的房子贵😓 12楼拿汇率说事的傻逼你的名字真是适合你 老司机才能驾驭熟妇型的 你就是傻逼、人家都是拿汇率说的傻逼、人家挣英镑花英镑、人家工作普通工作2000到3000英镑、我们工作2000到3000人民币、人家挣200到300你就可以拿汇率说、傻逼、知道吗？ XX是什么意思？鄙视媒体刻意隐瞒新闻内容 999美元一个IPX，国内要8000多，什么意思？难道不该也卖999人民币一个IPX么？这里面有多少税，难道有7000多块税钱？？？所以说苹果公司歧视华人，但是还有果粉愿意买单 你也懂人家普通工作2000-3000英镑，别人普通工人买个苹果x就是半个月工资，我们普通2000-3000买苹果x就是3个月工资以上。如果说买个x是件小目标，别人半个月就能实现，我们3个月。哪个幸福？ 卧槽，看来是真瞎呀，也不怕磨破皮😂 纽卡斯尔和中国成都差不多。75万镑在成都可以买相当不错的房子了。 换成人民比也比国内好多便宜 克拉滕伯格在纽卡斯尔的房子价值75万英镑，是当地最豪华的房子之一——感觉外国人住的好寒酸，在国内2级城市，千万住宅都算不上豪宅，可见资本主义社会不咋地啊 人家赚英镑花英镑，赚美元花美元。你的意思中国清洁工2000多点工资，国外的清洁工也得换算汇率变220英镑和300美元月收入？ 傻逼二楼，不懂去百度，你这种智障我都懒得骂 据知情人士透露称，每次见面，他都恨不得撕掉安德莉娅身上所有的衣服。另外，他在和女方短信交流的时候，还有个癖好，要求对方给他发露骨的照片。他的短信内容也相当的肉麻：“我好想XX你。”、“待会见面的时候，你最好穿一条很短的裙子，长筒袜。对了，你不要穿内裤哦。”……<br>。。。我想问下这个知情人士是谁。 75万镑在当地也就普通人十几年工资吧，哪里赶得上天朝居民楼啊 8楼就是五楼口中的傻逼。哈哈哈 人家说房子你说苹果，你智商有问题。 这女的绝对可以，虽然岁数大了点，看得出年轻时是副好衣架[色色][色色][色色] 五十不是坐地吸土么 你的表述不准确。我2011年在纽卡斯尔待了一年，相比于伦敦、曼城、伯明翰的房价，纽卡斯尔房价算很低了，纽卡斯尔是老工业中心，后来衰落，这些年正在转型。你用资本主义国家相对二线或者三线城市的房价来对比国内一线城市，这就不太合理了。 精准 楼上这货智商感人。 人家75万镑到了喷子嘴里活活变成了75万人民币。嗯。你穷你有理。苹果在美国卖999美金。在中国就应该999亏本卖才合理 XX其实是本文重点，这么重要的信息隐瞒了，于新闻真实性不符啊，因此造成此文立即变得索然无味，败笔！！！ 总有人换算成人民币，这个手段欺骗国人好多年了，现在还有人信？ 还不错50岁 也可能是朝阳群众 我也喜欢熟妇！ 三十如狼，四十如虎，五十正在浪尖上，六十就是浪打浪 很久没骂人了，不过深圳这条狗，真是刷新了我的三观，你这种货色也配有言论自由？ 哈哈，啪啪啪啪 明显五十的比四十二的还带劲！ 75万人民币呢？ 也就七百万，北京四环可以秒杀了吧，是不是，北京的易友？ 重口味啊冬天了老牛也吃老草了 万恶的资本主义 RMB7个亿呢！ 我感觉这女的挺有味道，不比少妇差多少 应该是扶贫吧 大概就是我们这里权威人士，有关专家之类的货色吧😂😂😂 老司机，请多指教 他觉得这个女人比他妻子更有味道 好好的内容被糟蹋了，这要驰哥写才有意境 27楼福泉知道不。75万买个200毛坯刚好，18线 有种 这也行 不是都喜欢年龄小的吗 XX就是休息的意思 马勒戈壁的剧本不是应该说这家伙跟50岁的娘们怎么搞事吗你们这样盖楼剧情不对啊 你好啊大黄的忠实太监！ 万恶的资本主义啊 是75英镑，不过也就是750万人民币，哈哈，在上海能买个小两房吗？ 你苹果在美国的税跟你大天朝有法比？再说你拿手机比岂不是弱智？你为什么不拿f22比呢？美国2亿，中国12亿？人家卖你。希望你有智商能看懂这句话。赚什么花什么，人家赚的是美元花的就是美元。你赚的是人民币花的也是人民币 本来就是啊你才知道啊蠢货 房子也是用基本的原材料做成的，基本的原材料国际上的购买价格相同。另外，英国是发达的资本主义国家，人家的收入就是算了汇率的高，人家的清洁工收入就是一万多，要是不算汇率都是3000块，人家还叫发达国家？？？ 每次看到这种事情，老哥的头就涨的像拳头 一看你就是个小年轻，啥也不懂！年轻固然有年轻的好，但真床上还是老的妙，你不懂 哈哈哈 75w欧元就是万恶资本主义国家最豪华的房子……我哭了一宿 XX大人你的OO 傻子 可以 我也想 我看石更了 XX是什么意思？鄙视媒体刻意隐瞒新闻内容 75万镑在当地也就普通人十几年工资吧，哪里赶得上天朝居民楼啊 吉格斯，鲁尼，贝克汉姆，温格，特里……现在裁判也出轨？ 不动产和可移动资产一起比，哈哈这怎么学的？ 你在成都赚人民币。苹果999美金。是不是因为你赚人民币就应该999人民币卖给你？智障 天亮了想一起起床 克拉滕伯格在纽卡斯尔的房子价值75万英镑，是当地最豪华的房子之一——感觉外国人住的好寒酸，在国内2级城市，千万住宅都算不上豪宅，可见资本主义社会不咋地啊 这个大妈有味道啊[微笑] 这个女的从外形看也就40多岁，洋人里面算是保养的很不错了 标准熟妇，性感女人👩， 房子最大构成成本是地皮，原材料几乎可以忽略，除非豪宅和顶级物业，贵出来的也是人工费用和附加值。清洁工10000怎么还那么多乞讨的和贫民窟。 是时候亮出你的75元了 我也想上这位女同志，不知道她愿意不愿意。 我也想干 纽卡斯尔又不是什么有钱的地方，让你花700万我可以在济南买一个不错的房子。 还是星爷口头禅：让我弄！让我弄！让我弄！ 口味不错哦……[色色][色色][色色] 太阳报.... 别以人民币来衡量英国的房价 “谢谢”的意思！真是服了，这都不知道 盲哨，呵呵，12-13赛季雷丁VS我军时跑去给第四裁判要黄牌时笑晕在平板前 哈哈😄，倒数第一(wow一切为了联盟)6天来一次网易，还我曼巴，我去，不要逼脸，360帮你杀杀强奸毒。 啊不要断章取义，纽卡斯尔最豪华的，你在你湖南长沙75万豪华别墅估计也是妥妥的 有房才有大把人搞啊😱 另外，他在和女方短信交流的时候，还有个癖好，要求对方给他发露骨的照片。他的短信内容也相当的肉麻：“我好想XX你。”、“待会见面的时候，你最好穿一条很短的裙子，长筒袜。对了，你不要穿内裤哦。”…… 麻痹，你是不是硬了？ 這有什麼了這也算一篇文章。 重口味啊冬天了老牛也吃老草了 瞎子裁判干什么都瞎。 应该是扶贫吧 谁说英国清洁工月工资才3000磅的 XX是英文吗？用英文代替是否涉嫌违法？ 75万镑在当地也就普通人十几年工资吧，哪里赶得上天朝居民楼啊 精准扶贫[微笑] 也许是和谐掉了呢？ 我也不喜欢. 75万镑去年在誉峰买没得问题，今年也就只能买龙湖了 明显五十的比四十二的还带劲！ 一年50万找比自己大八岁的女的五十了！一定是真爱不然就是老壳有病。 75w欧元就是万恶资本主义国家最豪华的房子……我哭了一宿 看什么关系呗 这是社会扶贫网的APP啊 这手机屏幕太爆裂了渣男也不给这大姐买个好点的手机 补课 坐地吸土 小偷逛超市？ 老熟女有味道啊，就像是一个熟透了的大黄桃，一口下去汁水满嘴，果肉就像肥肉一样入口即化，爽啊 最豪华！别的不说，济南最豪华的房子最低也要千万以上！每平方4万！不算装修！一欧元都不到8元RMB！75*8=600万，600万买最豪华的？你去农村吧~~~~ XX是什么意思？鄙视媒体刻意隐瞒新闻内容 其实从数字上看的话英国人每个阶级的工资和中国是一样的，但是英国平均全国房价才22万英镑，都是带花园的小洋房。 撸啊撸 换成人民比也比国内好多便宜 我们这有钱人只找年轻漂亮的证明别人约的不是炮是情调 偷不如偷不到 克拉滕伯格在纽卡斯尔的房子价值75万英镑，是当地最豪华的房子之一——感觉外国人住的好寒酸，在国内2级城市，千万住宅都算不上豪宅，可见资本主义社会不咋地啊 直接音译即可 看了你的评论，劳资兴奋的去超市买了两个大黄桃，真的刺激，水贼多 他妈的还是热翔的球迷 好令人怀念的名字 保养的不错…… 这女的不错 也就差八岁而已…… 慰问比较贴切 别想了，这年龄肯定松得像棉裤腰了，你忙活半天她问你：进来没？ 古语云：妻不如妾，妾不如偷。 用捅的？ 这女的绝对可以，虽然岁数大了点，看得出年轻时是副好衣架[色色][色色][色色] 我也想😄 [喷水][喷水] 长筒袜？老外也有丝袜癖？ 水深火热 应该是学习吧 哦哦 这50岁大妈风韵犹存！ “克拉滕伯格在纽卡斯尔的房子价值75万英镑，是当地最豪华的房子之一。”这才是全文重点吧。 老司机，请多指教 我觉的是入挡申请 裁判体力比球员还好 你不说陈驰我都忘记他的精彩作品了 识货的还是多 我感觉还是中国好，每天都很刺激。 ❌❌就是⭕⭕的意思 克拉滕伯格出了名的眼瞎！ 这大妈长得真的挺美的 RMB7个亿呢！ 应该是扶贫吧 此处必有弛哥粉丝。 讲真，这个50岁大妈我也有想法 好好的内容被糟蹋了，这要驰哥写才有意境 应该是扶贫吧 别顾左右而言他了，就特么你扯苹果，智商喜人。 XX是什么意思？解释一下 关键是以他的收入一年半就能买一套！ 很多傻逼就是这么单纯的认为10英镑的东西应该10人民币给他 就服你！哈哈 也可能是学佛了，开光 不要动不动就骂人，你个煞笔 说实话这女的很漂亮啊，能看出年轻时的样子绝对美 xx到底是什么 真会玩，我们不一样，不一样！ 75w欧元就是万恶资本主义国家最豪华的房子……我哭了一宿 我也经常发啊，怎么不报道 呵呵玩么 男人有钱就变坏，女人变坏就有钱。 阿弥陀佛 好想XX你 75万英镑就是最豪华的房子了，果然邪路😂 重口味啊冬天了老牛也吃老草了 XX是什么意思？鄙视媒体刻意隐瞒新闻内容 热刺球衣 周星驰。现在不演了专写剧本。 打倒资本主义，，打倒美帝！！ 这女的确实比他老婆强，是我我也一样 克拉滕伯格在纽卡斯尔的房子价值75万英镑，是当地最豪华的房子之一——感觉外国人住的好寒酸，在国内2级城市，千万住宅都算不上豪宅，可见资本主义社会不咋地啊 衣服一扒，上面软塌塌，下面干巴巴，肉都皱一起，屌都不得起 驰哥是新浪的吧？印象里好几年没消息了，写体育新闻的确是淫才 666666 75万镑在当地也就普通人十几年工资吧，哪里赶得上天朝居民楼啊 中国国内物价高，你怪苹果公司干啥？人家美国卖999美元，中国也卖999美元（+17%增值税和11%的进口关税）有问题？ 不是撸多了，是笔误，但是量级上有区别吗？ 这女的绝对可以，虽然岁数大了点，看得出年轻时是副好衣架[色色][色色][色色] 中国人确实叼 傻逼自己嘴巴臭就别怪别人骂 也有700万左右人民币吧， 英镑比欧元值钱 不可描述是什么意思，哪位给解释一下 没办法冬天只能吃老草没有嫩草可吃。😁😂😜 还不错50岁 应该是温暖 他只是单纯的认为10人民币可以买10英镑的东西 最怕你们想歪了！ 爱好相同，就是他比老资有💰 这形象在中国走一圈十五岁的都能玩到。偏去玩五十岁的 这个，还要看物价水平…… 他觉得这个女人比他妻子更有味道 驰哥是谁？ 对，为什么算汇率？人家工资3000美元一月，IPX999美元。我们工资3000人民币一月，IPX要8000多，难道都是税？苹果公司这种垃圾 你是不是撸多了，文中明明写的英镑 看不出50的样子，还好裁判而已，如果是前锋那就悬了[大笑][大笑][大笑][大笑] 活好是关键 英会玩… 比他老婆更有吸引力 好好的内容被糟蹋了，这要驰哥写才有意境 现在叫输出 这女的不错三观正 唉，这么老了也好会玩 有意思吗？ 8楼这种货一般都是热爱自己国家热爱×××的好居民 不谈年龄，长的比原配好看，虽然老了点。 瞎说我觉得是服务吧XX是两个字跟我脑补的一个字的对不上 我32的都不嫌这女人老，看着想搞 别看人家俩人发的信息，你觉得恶心的不得了，人家却觉得甜蜜 傻逼，懒的不解释了， 正常男人，为什么不可以。 难道不是“开发” 不是辅导？ 输出的意思 XX是什么意思？鄙视媒体刻意隐瞒新闻内容 克拉滕伯格在纽卡斯尔的房子价值75万英镑，是当地最豪华的房子之一——感觉外国人住的好寒酸，在国内2级城市，千万住宅都算不上豪宅，可见资本主义社会不咋地啊 好好的内容被糟蹋了，这要驰哥写才有意境 精准吗？ metoo. 哈哈哈哈哈哈哈哈，香囊暗解，罗带轻分，那一声低吟最是销魂 这要是换作中国的某些女性，早就嗷嗷的扑将上去了！[不屑][大笑] 75万镑在当地也就普通人十几年工资吧，哪里赶得上天朝居民楼啊 克拉滕伯格在纽卡斯尔的房子价值75万英镑，是当地最豪华的房子之一。<br><br>唉，真是日了狗了！ 口味够重的 陈驰棺材板已经按不住了 保养的挺好的，白人女性好多三十岁比这位50岁还显老 42岁的去泡50岁的，重口味呀！ 有老年人摔倒都不扶，舅扶你 参考马荣的又想艾草了 不是帮助？？？ 我好像XX你...<br>为什么我打xx出来的是“修行”，哦，我懂了 科斯切尔尼的亲哥 舒服~可以接受 XX不就是谢谢么 释永信大师正在宾馆跟女信徒修行 该打码的时候又不打码了。 如果50岁长这样，我也愿意和她做不可描述的事情 应该是帮助。 驰哥升职了，不干这活儿啦 胡扯，8楼智障 垃圾废物曼联穆鸟的垃圾废物，曼联狗🐶🐶🐶🐶 这哥们儿跟我发信息用的语句差不多啊！ 这煞笔智商感人，哈哈哈 如果同意了，这家伙以后不能吹热刺的比赛了。。 真的勇士总是敢于想啥说啥!给你点赞!加油! 应该是扶贫吧 唉。<br>弄身不弄钱。挺好的。<br>哪像猪国。啥也要，弄出人命... 我最喜欢熟女 我好想XX你。”、“待会见面的时候，你最好穿一条很短的裙子，长筒袜。对了，你不要穿内裤哦。”…… 肯定是按了字母大写键罢。一时之疏忽或成就一世美谈？＞＞比如英文说与谁修行：I`llcultivatewithyou/cultivateourself,译成中文变成了我与你修行（或我们修行吧） 你拿中国一线城市的房价和外国一个县城比？ XX应该填上，冬日。 那也应该是省略了两个字精准扶贫吧！ 不错的女人 学习的意思 败火啊 一群傻逼人家赚钱多关你毛事呢？是不是苹果应该999人民币给你才是合乎你的收入？网易的喷子不是一般多。人家工资高买75万镑轻松。你工资低是你的事。一群loser巴不得倒贴卖给你就开心了。 住在纽卡斯尔，居然是热刺的球迷！[窃笑] 搞花头这种事还能再稀松平常一点不？ 可是明显老婆更好看。。。 值得一撸 稀松平常一点怎么行，起码得两点。 75w欧元就是万恶资本主义国家最豪华的房子……我哭了一宿 虽然不认识驰哥，但是我真的很怀念美羊羊和另外一个同事啊。 很明显，XX就是叉叉啊，象形文字。 研究一下夜光哨子 妙不可言、神乎其神、无以言表、难以言喻、无言以对、瞠目结舌、面面相觑、目瞪口呆、一言难尽、此情可待成追忆，只是当时已惘然。。。。 不可描述之事是什么事 XX是什么意思？鄙视媒体刻意隐瞒新闻内容 这个女的确实有味道，半老徐娘，如狼似虎，😄 居然还真有傻逼算汇率，服了 英国狐狸，你懂的！ 都反反复复讲了不能拿国外的三线和国内一线来比，你这样干脆和香港岛内比得了，英镑1：9。700多万就一个厕所。 为什么是两个XX,不是一个么？那么头一个X是形容词咯，——大、强、狠？ 75万镑在当地也就普通人十几年工资吧，哪里赶得上天朝居民楼啊 丰乳肥臀的感觉就是不一样 都很诱惑难以取舍 又一个倒在女人腿下的家伙，女人就玩不厌吗？ 选择性地无视了纽卡斯尔这种县城级别的城市名，而且人家明明是英镑，到你嘴里就变成了欧元。 是探险 这女的绝对可以，虽然岁数大了点，看得出年轻时是副好衣架[色色][色色][色色] 应该是扶贫吧 我好像XX你...<br>为什么我打xx出来的是“修行”，哦，我懂了 义务疏通下水道！他们家下水道经常堵！ 克拉滕伯格在纽卡斯尔的房子价值75万英镑，是当地最豪华的房子之一——感觉外国人住的好寒酸，在国内2级城市，千万住宅都算不上豪宅，可见资本主义社会不咋地啊 真心不错 你知道这个，好，是什么概念么？难道仅仅是房子豪华，就好吗？ 你是处男哦。 有味道 xx 舔死？ 上海内环75万磅小两室不一定买的到 我居然看硬了. 能吸土 外表斯文，内心狂野 熟女败火 不要看汇率，看实际购买力，还有其他国实际认同率，我指的是去第三国直接就能用 75万奂镑换成人民币也不到700万吧，拿来深圳只能买一套很普通的商品房，地段还不怎么好。 我感觉这女的挺有味道，不比少妇差多少 骚男人 你永远叫不醒装睡的人这些人明白怎么一回事还要苍白无力的洗地 重口味啊冬天了老牛也吃老草了 拔X无情 算就算吧，还特么到处秀智商。出口成脏。 好好的内容被糟蹋了，这要驰哥写才有意境 ",
        "Reply": 642
    },
    "Article": "网易体育12月25日报道：今日是西方传统的圣诞节，各家都沉浸在喜庆的气氛中。但对于前英超名哨克拉滕伯格而言，他的这个圣诞节是苦涩的，因为他婚内出轨的丑闻被媒体给曝光了。根据著名花边小报《太阳报》的消息，42岁的克拉滕伯格背着自己的妻子和一个50岁的女性好上了，二人已发生不可描述之事。球场上，克拉滕伯格是包公的象征，铁面无私，坚决果断。球场下，他却换了一个模样，他沾花惹草，勾搭女性，而且保密工作做的不好，现在被媒体曝光了，真是够惨。这位前英超名哨目前在沙特执法，他在那里的薪水不低，每年可以拿到50万镑的收入。有了钱，他的花花肠子就开始活跃了。克拉滕伯格知情人透露，克拉滕伯格是在今年二月份和这位名叫安德莉娅的女子好上的。事情的经过是这样的：安德莉娅在纽卡斯尔找到了一份工作，于是她准备在当地租一个房子。巧合的是，她租到了克拉滕伯格的房子。二人彼此看对了眼，就这样，一部名为“房东与房客的情事”的大戏上演了。克拉滕伯格非常的狡猾，他告诉安德莉娅自己是单身，而后者竟然相信了。安德莉娅已经离婚多年，她认为克拉滕伯格也已经离婚，但事实是这位前英超名哨有一个42岁的老婆。安德莉娅在不知情的情况下和克拉滕伯格好上了，而且二人的关系发展很快。知情人透露，克拉滕伯格是一个外表斯文但内心狂野的家伙。每次见面，他都恨不得撕掉安德莉娅身上所有的衣服。另外，他在和女方短信交流的时候，还有个癖好，要求对方给他发露骨的照片。他的短信内容也相当的肉麻：“我好想XX你。”、“待会见面的时候，你最好穿一条很短的裙子，长筒袜。对了，你不要穿内裤哦。”……克拉滕伯格出轨对象安德莉娅克拉滕伯格在和妻子外出旅行的时候，也不忘偷偷和安德莉娅调情。他发短信给安德莉娅：“给我来一张你只穿内衣的照片，我要释放一下压力。”上个月，安德莉娅忽然发现了克拉滕伯格的真相。在翻看克拉滕伯格INS的时候，她发现了克拉滕伯格和妻子的合照。这时候，安德莉娅恍然大悟。她立刻停止了和克拉滕伯格的关系，并将这件事情告诉给了朋友，她要向外界揭露克拉滕伯格是一个披着羊皮的狼。安德莉娅比克拉滕伯格年长8岁安德莉娅怒斥克拉滕伯格：早该告诉我你结婚了“她气炸了，她立刻和克拉滕伯格解除了关系，并发短信骂了他一通。”安德莉娅的好友表示：“真的，她完全不知道克拉滕伯格没有离婚，她不是那种女人。如果知道他没有离婚，她肯定不会去干涉人家的生活。”克拉滕伯格与妻子克拉滕伯格在纽卡斯尔的房子价值75万英镑，是当地最豪华的房子之一。这个圣诞节，他心情糟糕，目前还不知道他的老婆是否会提出离婚。本文来源：网易体育作者：风过乡责任编辑：冯昊天_NSJS2656",
    "URL": "http://sports.163.com/17/1225/07/D6G2LHPK00058781.html"
}