{
    "Title": "现代版\"西门庆\"!男子与婶婶私通 合谋毒死叔父_网易新闻",
    "PublishTime": "01/01/201809:48:00",
    "URL": "http://news.163.com/18/0101/10/D72CJLGG000187VE.html",
    "Source": "Netease",
    "KeyWords": "公安局,违法犯罪,潜逃,刑事案件,谋害,家庭伦理",
    "Comment": {
        "Reply": 363,
        "Content": "吹个鸡毛！人家主动报案投案！你还恬不知耻说自己办案能力多强！是不是有点跑偏了 来了个写黄书的 随着时代的变迁，日新月异，科学技术的不断革新，警方的侦查手段也在不停的升级进步，作为当年的命案积案，尽管民警有调动，侦查民警换了一茬又一茬，但追踪破案的信念始终不变，对杨某松的追捕工作始终不动摇、不放弃、不气馁、不松劲。 遗憾现在现实社会中不允许“武松”的存在～！ 错！一楼是说把他舅娘解决了.... 婶婶？有木有搞错[喷水] 15年才抓到，好意思表功，可能是瞎猫碰上死耗子吧！ 大郎，来喝药了… 终于碰到一个逃犯是务工的了………… 严厉打击违法犯罪行为 谢绝 王婆卖瓜，要理解的，七点是神仙大佬们的场子，小鬼小吏的场子只能在平面媒体。 我同事老婆，也勾引过我。我意志不够坚定，她后来怀孕非要生下来。那段时间我生不如死。后来好说歹说她做了人流。但她说和我好以后，快二年没和她丈夫同房。整天憋着要毒死他老公。天天网上查毒药。我深思熟虑以后决定和她分手，悬崖勒马。代价也是巨大。现在我见女人都绕道 和当代潘金莲，马蓉绝配啊…… 解决是啥意思? 解决以后再谢绝吗？你丫这叫提上裤子不认帐！！！ 我打工那会，我住我哥家，我哥晚上上班，我嫂子经常穿一件透明的白衬衫在沙发上看电视，搞得我不好意思，只好躲在卧室看书！<br>有一天晚上下大雨，又打雷，我哥不在家，我嫂子半夜钻我被窝里紧紧的抱着我说害怕，我用手一模，她身上除了一件衬衫，下面什么都没穿，吓得赶紧和她拉开距离……<br>直到半夜我才迷迷糊糊睡着，梦里我嫂子抱着我，又舔又摸，还骑在我身上……<br>那一晚睡得特别香，第二天起床时我内裤不知道去哪了，我就问嫂子有没有看见，她说帮我脱了洗了…… 江阴市周庄镇？昆山周庄好吧 不要以为你不说自己是女人我就猜不出来 狗屁文章，没什功劳，全篇赞歌。勾搭经过不详细，差评 这个社会婊子真多 孤陋寡闻，应该多出去走走看看，江阴真还有周庄镇哦，只允许昆山叫这个名字？ 泄决 是一对狗男女 一楼，你这是梦交，只是一种淫念，还有，你没被你哥打死已经很幸运了。 一楼说的是拒绝吧 没成富翁差评 一楼这段子我十年前就看过，结局是她和嫂子是姑嫂关系，是个女的！ 害的警察叔叔白跑了一趟~~ 以前我十几岁的时候吧，和我舅娘一起上山砍柴，我舅娘也向我表白，不过我解绝了。还好没有发展下去。 真有这样的好事？傻逼！ 放屁！把公安神话的字句，比案件还多！ 再这样发新闻，迟早会成为下一个知音故事会 一件半年后才被“告发成”的谋杀案...经过那么多领导十五年来坚持不懈的英勇奋战终于破案...!小李，锦旗、证书、奖金...走起！ 武松这个杀人狂，多次滥杀无辜，只比李逵好一点点。放在现在，他不吃枪子，世上可以废除死刑。只打一弹夹的子弹，绝对是便宜他了。 办案民警立即向副县长、公安局局长石绍峰、党委副书记、政委何绪林及碗米坡分局副局长尹宏斌报告。石绍峰指示，迅速组建以追逃专班为主，从刑侦大队、毛沟派出所抽调精干力量的抓捕组，～～～～大家会看这一段吗？我怎么没有耐心读了。 马屁文章 切👎，变相为警察唱赞歌 竟然没火化？ 什么叫解绝？ 好一个解绝，中国文字博大精深啊😂 西门庆的辈分这么低？ 全篇都是歌颂局领导名字！不特么拍马屁写不出来吗？ 遗憾现在现实社会中不允许“武松”的存在～！ 新编井察故事会 是一对狗男女 又是一个傻逼 来吧板凳我都搬好了 差评都没有成为富翁 后悔没再来一次？ 人渣啊 破案值得称赞，警察同志辛苦了，但特么为什么说得这么苦B，十多年得累摊多少警察同志，新闻稿特么不能写得正常一点吗？想我中华大地也曾亩产上万斤粮食。 头号SB. 真牛逼，都让你知道了 放开二胎后辈分越来越乱 我见过一个百人斩，全部有记录，百人之后丫自己都没耐心记录了。 我在七零年上学时就听说武大郎是大个县官，这视频可信！ 拔吊无情 不明觉厉 智商感人 不是人耶[晕][晕][晕] 武大和金莲死后来到阎王驾前。武大诉金莲不守妇道，金莲指武大不能人道，吵闹半日，阎王不能决。遂判二人及武二投胎后世，寻明理之人裁决。投胎后，武大又诱娶金莲为妻，金莲再赠武大一顶绿帽，闹到有司，举国哗然，竟令奥运失色，墨子无光。武二因前世杀女手段过于残忍，遂舍弃铁布衫功，疯魔棍术，醉八仙拳，改学法律，欲至杀女无血之化境。岂料折腾一年竟无法杀掉金莲，只好先寻西门庆的晦气。呜呼，英雄坟前无人祭，戏子丑事天下知，思之岂不痛哉。欲知后事如何，且待法院分解。 经过长期连续不断的基础排查等工作，办案民警们辗转广东、福建、江苏无锡等多地，“我们对每一条可疑线索都不放过，对每一次可能的机会都不忽视，无论多么艰难，也要把杨某松揪出来！”办案民警们加班加点对线索逐一进行梳理，甄别、筛选。在每一个忙到累瘫的夜晚，大家只能如此相互打气，起身洗把脸，清醒后再次打起精神，继续投入到研判工作中去 切👎，变相为警察唱赞歌 这侄子的脑袋也是智商太够用 重庆奇葩多 解开裤子搞完以后再断绝来往 艹姑姑是什么感觉？ 这男的是煞笔么？呵呵 统统杀么？ 犯罪的两个煞笔 [cp]大家出行坐车注意啦！在这里我提醒大家不要在车站附近超市买东西，以免受骗损失财物<br>我要让这两个骗子干的缺德事人尽皆知<br>#沈阳爆料#大家当心啦！沈阳火车站东广场天桥中医院北侧平价超市（他家是两个男的）收钱的是二十多岁，另一个是四十左右岁，这两个人长期用鬼点钞这种下三滥的手段骗顾客的钱，常用的手段就是缺一角，他们长期干这种缺德丧尽天良的事所以非常狡猾奸诈，如果发现自己上当受骗就立刻报警！不要给他们逃脱的机会。看见就转发身边的人[/cp] 这个不差辈儿？ 中哥，我鄙视你！ 西门庆混成这样子，也是够悲催 以前我十几岁的时候吧，和我舅娘一起上山砍柴，我舅娘也向我表白，不过我解绝了。还好没有发展下去。 我身边一个同事就和他舅妈是情人关系…… 大刑伺候 解决以后再谢绝吗？你丫这叫提上裤子不认帐！！！ 那帮孙子从来都是鸟正事不放在心上的 听着像是呆滞城那档子事 一个娶妻不当，害了弟兄们两个家庭，害了一个家族 对杨某松的追捕工作始终不动摇、不放弃、不气馁、不松劲。十五年还有脸报道 头一次见你这么认真的配合吹牛逼的人 解决是啥意思? 宣传不错 武松这个杀人狂，多次滥杀无辜，只比李逵好一点点。放在现在，他不吃枪子，世上可以废除死刑。只打一弹夹的子弹，绝对是便宜他了。 肯定又犯事被捕或者被人举报了!新闻又忽悠群众，还当民智未开[窃笑][窃笑] 后悔还没脱裤子就索然无味了 一件半年后才被“告发成”的谋杀案...经过那么多领导十五年来坚持不懈的英勇奋战终于破案...!小李，锦旗、证书、奖金...走起！ 这事情，奇葩了 竟然没火化？ 故事不错女优准备准备开拍 如果武大郎在当今肯定定性是自杀...谁如告发基本会被定性造谣...拘留！ 绰号：大傻比 放屁！把公安神话的字句，比案件还多！ 再这样发新闻，迟早会成为下一个知音故事会 随着时代的变迁，日新月异，科学技术的不断革新，警方的侦查手段也在不停的升级进步，作为当年的命案积案，尽管民警有调动，侦查民警换了一茬又一茬，但追踪破案的信念始终不变，对杨某松的追捕工作始终不动摇、不放弃、不气馁、不松劲。 呵呵呵 有故事的西门庆 等我有时间去写本小说，各位多多支持啊 浸猪笼！ 就那智商也能成富翁？ 和当代潘金莲，马蓉绝配啊…… 马屁文章 拒绝都写的这么勉强，不知道你舅娘在不在，不在的话我要举报你 直接neng死埋了？ 一语双关：一边撸一边说不用了[窃笑] 不是红通差评 婶婶？有木有搞错[喷水] 煞笔星星，你妈在我身上晃动呢。 人家潘金莲是小说虚构的你是真敢做 就是解决了呗 我同事老婆，也勾引过我。我意志不够坚定，她后来怀孕非要生下来。那段时间我生不如死。后来好说歹说她做了人流。但她说和我好以后，快二年没和她丈夫同房。整天憋着要毒死他老公。天天网上查毒药。我深思熟虑以后决定和她分手，悬崖勒马。代价也是巨大。现在我见女人都绕道 拔吊无情 大郎，来喝药了… 孙字辈 B祸 来了个写黄书的 没成富翁差评 日本 终于碰到一个逃犯是务工的了………… 严厉打击违法犯罪行为 王婆卖瓜，要理解的，七点是神仙大佬们的场子，小鬼小吏的场子只能在平面媒体。 以前我十几岁的时候吧，和我舅娘一起上山砍柴，我舅娘也向我表白，不过我解绝了。还好没有发展下去。 应该就是舒服了 奸情 解决以后再谢绝吗？你丫这叫提上裤子不认帐！！！ 我打工那会，我住我哥家，我哥晚上上班，我嫂子经常穿一件透明的白衬衫在沙发上看电视，搞得我不好意思，只好躲在卧室看书！<br>有一天晚上下大雨，又打雷，我哥不在家，我嫂子半夜钻我被窝里紧紧的抱着我说害怕，我用手一模，她身上除了一件衬衫，下面什么都没穿，吓得赶紧和她拉开距离……<br>直到半夜我才迷迷糊糊睡着，梦里我嫂子抱着我，又舔又摸，还骑在我身上……<br>那一晚睡得特别香，第二天起床时我内裤不知道去哪了，我就问嫂子有没有看见，她说帮我脱了洗了…… 应该是谢绝 尼玛，三个月后还能检测血液，早就已经一堆白骨了，哪来的血液？编故事也要动动脑子啊，现在小编这碗饭这么好吃，老子都想改行了 狗屁文章，没什功劳，全篇赞歌。勾搭经过不详细，差评 贫穷限制了我的想象力[被黑] …… 文笔不错 江阴市周庄镇？昆山周庄好吧 害的警察叔叔白跑了一趟~~ 诱导犯罪 希望人都健康，不要互相杀人 解决是啥意思? 这都没发达，看来我还是认认真真打工吧 孤陋寡闻，应该多出去走走看看，江阴真还有周庄镇哦，只允许昆山叫这个名字？ 确实是令人发指 西门庆的辈分这么低？ 还是找个机器人老婆吧，小命要紧。 拔了不认 有钱的不一定是西门庆 施耐庵害人啊 马蓉笑而不语 吹个鸡毛！人家主动报案投案！你还恬不知耻说自己办案能力多强！是不是有点跑偏了 事了拂衣去的意思[微笑] [微笑][微笑] 15年才抓到，好意思表功，可能是瞎猫碰上死耗子吧！ [狗]天天向我推荐逃犯是几个意思 不给钱那叫强奸😴 你个畜生 解决了就好 还是宝强命大！ 解决？？ 可能是直接把舅娘干掉了解决了，然后和舅一起了 東山流氓，我們客家人很傳統的哈 1楼一家都这样乱的 刚解完衣服就射了，所以拒绝了。 深藏功与名 给你解决了 这个真是人才 那就是先解了舅娘的衣服，之后舅娘再想要的时候就拒绝了，简称解绝，👍高 睡了别人老婆，你从此不能安稳入睡了 别侮辱西门庆，西门庆还没和他婶婶通奸！ 办案民警立即向副县长、公安局局长石绍峰、党委副书记、政委何绪林及碗米坡分局副局长尹宏斌报告。石绍峰指示，迅速组建以追逃专班为主，从刑侦大队、毛沟派出所抽调精干力量的抓捕组，～～～～大家会看这一段吗？我怎么没有耐心读了。 西门庆会是这智商？扯蛋。 什么叫解绝？ 公安局威武 这记者这么写要被开除的。不是写小说。 就是 图呢？ 没成富翁差评 扶你 大朗该吃药了 终于碰到一个逃犯是务工的了………… 索然无味不认账 应该是谢绝了，四川人的普通话，可以原谅。 以前我十几岁的时候吧，和我舅娘一起上山砍柴，我舅娘也向我表白，不过我解绝了。还好没有发展下去。 同学会，好机会，别人老婆，不睡白不睡。 拔鸟无情 舅服你 先把舅妈就地解决，解决完后谢绝。 [鄙视][鄙视][鄙视][鄙视] 我日，这男的是吃屎长大的[大哭] 狗血的初中同学聚会，切，破鞋会。原莆田三中（新县）的陈礼f和陈赛h这对狗男女，借同学聚会、在其他校友起哄怂恿下勾搭成奸。陈礼f道德败坏，公开宣淫陈赛h时，又与另校友XX萍姘居，还骗取陈赛h家财。陈礼f这没人性的来自山沟里的畜牲比某些都市痞子更加肮脏邪恶… 武大郎是西门庆的叔叔吗?傻编 张柏芝？ 啦咯啦咯看几个个 后台小便删了我的自由评论贴，[石化][石化][石化] 解决是啥意思? 张某芝？听到这个名字就像日 死者为大，这古人都死了这么多年还恶搞。 谢绝，解决，可以可以 请别辱没了西门庆！ 解决以后再谢绝吗？你丫这叫提上裤子不认帐！！！ 早泄 解决好，解决妙，解决的呱呱叫。 黄嘛？不觉得啊～ 一辈子就三万多天，且行且珍惜吧 通过对尸体的检验发现，杨某的血液内含有大量的灭鼠类药物成分！都下葬了很久了，尸体还有血液？ 就是阉了的意思 卧槽，哪儿跟哪儿啊。扯犊子。 王宝强开心的笑了 十几岁一天弄几次没问题 分享你刚编的故事 脱裤就系一顿狂捅！ 一个毒死，另两个枪毙无期，圆满收官。好。 现在这社会呀，就是太乱。 现实版的西门庆与潘金莲。 这个侄子也是傻逼，这一举报，自己也被抓了， 俩人就这点智商，还偷晴[微笑] 1楼是以一个女童的身份写的 江阴市周庄镇？ 再这样发新闻，迟早会成为下一个知音故事会 ⏬⏬⏬ 就是刚手淫好，正处于无欲无求和正义凌然的阶段。 破案基本靠举报 是， 😂😂😂 来了个写黄书的 禁忌關係の風韻叔嫂淫亂.torrent点赞后可⬇ 就是，没有了新闻该有的严谨认真 谁的裤裆裂开都能看到你 厉害了 [微笑][微笑] 看看你的跟帖也就了解你的人品了。 小说吗？放91 分享你刚编的股市。 以前我十几岁的时候吧，和我舅娘一起上山砍柴，我舅娘也向我表白，不过我解绝了。还好没有发展下去。 解决以后再谢绝吗？你丫这叫提上裤子不认帐！！！ 我打工那会，我住我哥家，我哥晚上上班，我嫂子经常穿一件透明的白衬衫在沙发上看电视，搞得我不好意思，只好躲在卧室看书！<br>有一天晚上下大雨，又打雷，我哥不在家，我嫂子半夜钻我被窝里紧紧的抱着我说害怕，我用手一模，她身上除了一件衬衫，下面什么都没穿，吓得赶紧和她拉开距离……<br>直到半夜我才迷迷糊糊睡着，梦里我嫂子抱着我，又舔又摸，还骑在我身上……<br>那一晚睡得特别香，第二天起床时我内裤不知道去哪了，我就问嫂子有没有看见，她说帮我脱了洗了…… ？？ 破案是你們的職責，不用半篇文章來說吧，還要搞個15年才抓到 先啪啪完在説喽！[大笑] 大郎，喝了这一碗药吧[窃笑] 妈的，刺激 这样的事情屡见不鲜。 他可以不承认，没有证据 解决是啥意思? 真有这样的好事？傻逼！ 中间那么长一段说多辛苦多辛苦抓人好辛苦哦 对有些无耻的狗东西就得用83严打广杀的好办法坚决铲除！ comeon！<br>乃亮大哥，有些话不能多说。<br>你家的饺子味道真不错！<br>你的头发有点绿。<br>你的眼神有点忧郁。<br>你的人生就像言情剧。<br>哦，爸爸去哪儿了。<br>哦，嫂子去哪儿了。<br>嫂子和兄弟一起去哪儿了。<br>她挽着我的手。<br>她搂着我的头。<br>她把白白的饺子塞到我的口。<br>她在我的身下尽情的嘶吼。<br>one！two！three！four！<br>two！two！three！four！<br>three！two！three！four！<br>onceagainoh～yeah～<br>和我一起说唱！<br>嘿，乃亮！<br>不仅你的奶亮，你的头也亮！<br>嫂嫂说去做头发，我的小名就叫头发！<br>你天天喊我弟弟，嫂嫂也喊我弟弟，我还有个弟弟！<br>嫂嫂玩着你的弟弟，还玩着我的弟弟！<br>就问你刺不刺激！yeah！ 有具体时间地点人物经过，一看就是新闻不是故事 就地解决 你舅娘多大？ 干涸了的也是血， 狗男女真歹毒 比西门庆恶毒西门庆跟武二可没什么关系 小三上位 写了这么多领导？ 表彰字数达到新闻的一半 着智商堪忧啊！ 呢的案通常系游水撞叉烧咁破 说实话，不是买不起豪车，之前准备买奥迪，价钱都算好了，家人也同意了，后来路过雅迪电动车店，被雅迪外表的气质所吸引，当时我就买了，而且是全款！骑了两年，我觉得和奥迪不分上下，就是有点冷 [鄙视][鄙视][鄙视] 最毒妇人心，枪毙！ 一楼的意思是，自己用刀将自己子孙根解决了，绝了他舅娘的幻想 打飞机了 没打炮 呵呵 说实话，不是买不起豪车，之前准备买奥迪，价钱都算好了，家人不同意，说不如买雅阁实用。后来路过电动车店，发现它既有奥迪的奢华，又有雅阁的实用。我和家人一致同意买它了一一雅迪！当时我就买了，而且是全款！骑了两年，我觉得和奥迪雅阁不分上下，就是有点冷… 伟人是神话，没有地位不允许评价 肺结核分分钟治好吧？ 哪有污蔑啊事实如此😁 一楼还算有良心，没有指使舅娘毒死你舅父！ 哪跟哪呀？还现代版西门庆？挨得上边儿吗? 意思是他十几岁跟上山砍柴时，他舅娘把他变成了男人，从那以后，他把目标瞄向了他舅娘以外的女人，让他舅舅直今都还蒙在鼓里。 故事会都不敢这么写 解决完后再谢绝 我靠。。。 不止，九族 我是你舅娘…… 跟贴被火星网友带走啦~ [微笑][微笑][微笑][微笑][微笑] 真垃圾，别的逃犯都成富翁了，就他还打工 万恶淫为首。可恶，可耻。 你是人妖吧还是有精神病。 谢绝 解决了就是解决的意思。咔嚓 以前我十几岁的时候吧，和我舅娘一起上山砍柴，我舅娘也向我表白，不过我解绝了。还好没有发展下去。 中哥主要是那时候还硬不起来 解决以后再谢绝吗？你丫这叫提上裤子不认帐！！！ 跟贴被火星网友带走啦~ 要小心豺狼…这个没有道德底线的社会 泄决 尽管民警有调动，侦查民警换了一茬又一茬，但追踪破案的信念始终不变，对杨某松的追捕工作始终不动摇、不放弃、不气馁、不松劲 他完全可以推翻婶子供词！说婶子请他帮忙买老鼠药，他没多想就帮忙了，结果他婶子帮他叔叔给毒死了！ 他家小强都得跟着枪毙半个月…… 李小璐的事才曝光就出这一则新闻，有玄机啊！ 谢绝 先解决后拒绝[大笑] 解决是啥意思? 你们说的什么我听不懂😂 哗众取宠的傻逼狗罢了，你回复他干嘛？ 这个傻逼，得了便宜还作，真他妈的人渣 解决了就是办了呗 ",
        "Total": 4762,
        "Link": "http://comment.news.163.com/news2_bbs/D72CJLGG000187VE.html"
    },
    "Article": "（原标题：湖南男子与婶婶存不正当关系合谋毒害叔父，潜逃十五年后落网）在小说《水浒传》里，潘金莲和西门庆，借武大郎养伤的机会用毒杀武大郎。由家开药铺的西门庆提供砒霜，潘金莲掺入汤药中给武大郎服下，王婆帮忙收拾善后，武大郎就在三人通力合作下就这么一命呜呼……都说电视剧是源于生活，却又高于生活的，但是，保靖县公安局近日终使一起发生在15年前的投毒案尘埃落定，论狗血程度，真的是电视剧都不敢这么写!题记2002年，保靖县毛沟镇一患有肺结核病的男子杨某突然死亡。半年后，经杨某侄子杨某松举报，杨某正是由其妻张某芝毒死。2003年，张某芝被保靖县公安局抓获，并如实供述自己下毒毒害丈夫的事实。令人意想不到的是，该案另一名犯罪嫌疑人，正是前来派出所举报张某芝的杨某松。2017年12月28日，随着杨某松的落网，这起投毒杀人案最终得以圆满收官，同时也为该局正在如火如荼开展的“冬春攻势”专项行动再添新战果。丈夫死亡，竟是死者妻子下毒谋害张某芝是重庆市秀山县峨溶乡人，1991年嫁到保靖县毛沟镇毛烟村，丈夫杨某是个老实巴交的农民。多年来，虽然日子清贫，但两人相敬如宾，倒也和睦，1994年，他们的儿子出生，一家三口，其乐融融。时间转眼来到2002年。这一年，厄运降临，杨某被医院查出患上了肺结核。丈夫的突然病倒，让这个清贫的家更是雪上加霜。张某芝一边扛起家里所有的家务，一边照顾着病床上的丈夫和年幼的孩子，田地里的农活大多也落在了张某芝的身上。当年12月9日，杨某突然口吐白沫，手脚抽筋。未过多久，杨某在家中死亡。对杨某的死亡，悲痛万分的家人和村民们并没有怀疑什么，只是以为杨某真的是病重身亡。那时农村还没有实行火葬，杨某的遗体按风俗入土为安。料理完后事，张某芝被娘家人接回了秀山县。2003年，张某芝改嫁，与同乡村民贺某生活在一起。同年3月，杨某的侄子杨某松来到保靖县公安局毛沟派出所报案，称杨某的死是因为张某芝下毒谋害。令人发指，原是妻子与侄子合谋杀夫接到报警后，保靖县公安局立即组织警力，赶赴现场开展现场勘查。通过对尸体的检验发现，杨某的血液内含有大量的灭鼠类药物成分，导致其死亡的原因并非肺结核，而是中毒产生的多器官衰竭不治而亡。事不宜迟，该局刑侦大队立即启程，赶赴秀山县，将犯罪嫌疑人张某芝抓捕归案。面对突如其来的保靖公安民警，这个大字不识的农村妇女早已没了主意，只得配合公安机关，如实供述了自己下毒谋害丈夫的犯罪事实。同时，张某芝还交代，自己正是受杨某松的指示，才做出如此大逆不道之事。杨某松，不正是举报张某芝的报案人吗？他还是死者杨某的同宗侄子，他有可能正如张某芝所说，是同案犯，还是张某芝随口胡说？办案民警带着疑问再去找杨某松了解情况时，却是人去楼空，消失在茫茫人海之中。通过调查走访，办案民警获悉，几年来，杨某松和张某芝两人私下一直保持着不正当的男女关系，直到杨某患病倒床不起，杨某松便多次找到张某芝，怂恿张某芝用药闹（毒）死杨某，并表示，只要杨某去世，张某芝就可以搬来和自己一起生活。经不起杨某松的多次撺掇，同时也带着对“新生活”的无限向往，张某芝拿着杨某松提供的毒药，最终将毒手伸向了自己最亲近的人。然而事情的发展并不如愿，张某芝的娘家人极力反对两人在一起，并接回了张某芝，重新为其挑选婚姻。杨某松得知后，越想越气愤，便来到派出所，告发了张某芝下毒谋害丈夫的犯罪行为，后害怕张某芝将自己供述出来，便匆匆忙忙收拾行李，离开了保靖，从此杳无音讯。2006年，杨某松被保靖县公安局列为网上在逃人员。行踪暴露，嫌疑人漂白身份藏匿他乡不知不觉中，一晃十五年，杨某松如同人间蒸发，始终没有他的消息。随着时代的变迁，日新月异，科学技术的不断革新，警方的侦查手段也在不停的升级进步，作为当年的命案积案，尽管民警有调动，侦查民警换了一茬又一茬，但追踪破案的信念始终不变，对杨某松的追捕工作始终不动摇、不放弃、不气馁、不松劲。2017年4月，按照湖南省公安厅和湘西州公安局的统一安排部署，保靖县公安局党委高度重视，正式启动追逃专项行动，成立了追逃专班，将侦破命案积案和抓捕命案逃犯作为重点工作来抓。针对此案，副县长、公安局局长石绍峰多次前往办案一线，督导案件办理情况；政委何绪林牵头上案，多次组织案情研判和分析，对追逃工作给予大力支持与指导；分管刑侦的碗米坡分局副局长尹宏斌靠前侦查，与追逃民警一起摸排、研判，全力开展调查。经过长期连续不断的基础排查等工作，办案民警们辗转广东、福建、江苏无锡等多地，“我们对每一条可疑线索都不放过，对每一次可能的机会都不忽视，无论多么艰难，也要把杨某松揪出来！”办案民警们加班加点对线索逐一进行梳理，甄别、筛选。在每一个忙到累瘫的夜晚，大家只能如此相互打气，起身洗把脸，清醒后再次打起精神，继续投入到研判工作中去。有付出，总会有回报。11月，办案民警发现杨某松盗用了花垣籍男子金某的身份信息，现在很有可能就藏匿在江苏省江阴市。千里追迹，逃亡十五年终被捕办案民警立即向副县长、公安局局长石绍峰、党委副书记、政委何绪林及碗米坡分局副局长尹宏斌报告。石绍峰指示，迅速组建以追逃专班为主，从刑侦大队、毛沟派出所抽调精干力量的抓捕组，制定详细抓捕方案，尽快赴江阴实施抓捕。12月，抓捕组来到江阴市周庄镇，在当地公安机关的大力协助下，来到“金某”所在的工厂里开展调查，却并未发现“金某”的相关信息。难道民警所掌握的线索有误？抓捕组民警心有不甘。在工厂负责人的积极配合下，民警发现，该厂里还有一名从湖南保靖来的务工人员。查看身份信息，此人正是来自毛沟镇毛烟村，而且还是此次追逃目标杨某松的亲弟弟杨某某！这个“杨某某”会不会就是杨某松？民警们再一次振奋起来。为慎重起见，民警并没有打草惊蛇。经过锲而不舍地追查工作，民警终于确认了，“杨某某”正是民警们苦苦追寻多年的杨某松！12月28日中午，民警当机立断，立刻对杨某松实施抓捕。十五年的逃亡生活，杨某松早已疲惫不堪，面对眼前来自千里外的家乡民警，听着久违的家乡话，反而使之长长的舒了口气。莫伸手，伸手必被抓。目前，杨某松因涉嫌故意杀人被保靖警方依法刑事拘留，案件正在进一步审理中。本文来源：保靖县公安局责任编辑：张宪超_NN9310"
}