{
    "Article": "（原标题：两名女子街头互撕，男子加入混战）#endText.video-infoa{text-decoration:none;color:#000;}#endText.video-infoa:hover{color:#d34747;}#endText.video-listli{overflow:hidden;float:left;list-style:none;width:132px;height:118px;position:relative;margin:8px3px0px0px;}#entText.video-lista,#endText.video-lista:visited{text-decoration:none;color:#fff;}#endText.video-list.overlay{text-align:left;padding:0px6px;background-color:#313131;font-size:12px;width:120px;position:absolute;bottom:0px;left:0px;height:26px;line-height:26px;overflow:hidden;color:#fff;}#endText.video-list.on{border-bottom:8pxsolid#c4282b;}#endText.video-list.play{width:20px;height:20px;background:url(http://img1.cache.netease.com/video/img14/zhuzhan/play.png);position:absolute;right:12px;top:62px;opacity:0.7;color:#fff;filter:alpha(opacity=70);_background:none;_filter:progid:DXImageTransform.Microsoft.AlphaImageLoader(src=\"http://img1.cache.netease.com/video/img14/zhuzhan/play.png\");}#endText.video-lista:hover.play{opacity:1;filter:alpha(opacity=100);_filter:progid:DXImageTransform.Microsoft.AlphaImageLoader(src=\"http://img1.cache.netease.com/video/img14/zhuzhan/play.png\");}if(/(iPhone|iPad|iPod|Android|NETEASEBOBO|blackberry|bb\\d+)/ig.test(navigator.userAgent)||/safari|chrome|firefox/i.test(navigator.userAgent)&&navigator.plugins&&!navigator.plugins[\"ShockwaveFlash\"]){varstr1='<videocontrols=\"controls\"preload=\"auto\"width=\"100%\"poster=\"http://vimg3.ws.126.net/image/snapshot/2018/1/8/F/VU673TP8F.jpg\"style=\"max-height:100%\">';varstr2='<sourcetype=\"video/mp4\"src=\"http://flv.bn.netease.com/videolib3/1801/02/Mgfbw8038/SD/Mgfbw8038-mobile.mp4\">您的浏览器暂时无法播放此视频.</video>';document.getElementById(\"FPlayer1404863609673\").parentNode.innerHTML=str1+str2;}2女1男街头撕扯互殴，口中脏话乱飙（来源：original）window.NTES&&function(d){varf=function(c){varb=c.getAttribute(\"flashvars\"),a=c.getAttribute(\"repovideourl\").replace(\".flv\",\"-mobile.mp4\");h=d(c.parentNode.parentNode.parentNode),g='<embedsrc=\"http://v.163.com/swf/video/NetEaseFlvPlayerV3.swf\"flashvars=\"'+b+'\"allowfullscreen=\"true\"allowscriptaccess=\"always\"quality=\"high\"wmode=\"opaque\"width=\"100%\"height=\"100%\"type=\"application/x-shockwave-flash\"/>';if(/(iPhone|iPad|iPod|Android|NETEASEBOBO|blackberry|bb\\d+)/ig.test(navigator.userAgent)){g='<videocontrols=\"controls\"preload=\"auto\"width=\"100%\"height=\"100%\"><sourcetype=\"video/mp4\"src=\"'+a+'\">您的浏览器暂时无法播放此视频.</video>';}h.$(\".video\")[0].innerHTML=g;},e=function(b){vara=d(b.parentNode.parentNode.parentNode);a.$(\"li\").removeCss(\"on\"),b.addCss(\"on\"),a.$(\".video-title\")[0].innerHTML=\"string\"==typeofb.textContent?b.textContent:b.innerText,a.$(\".video-title\")[0].setAttribute(\"href\",b.getAttribute(\"url\")),a.$(\".video-from\")[0].innerHTML=\"（来源：\"+b.getAttribute(\"source\")+\"）\",f(b);};window.continuePlay=function(){vara,b=d(d(\".video-list.on\")[0].nextSibling);3==b.nodeType&&(b=d(b.nextSibling));if(b&&d(\".video-innerinput\")[0].checked){e(b);}},function(){vara={init:function(){if(d(\".video-listli\")[0]){d(d(\".video-listli\")[0]).addCss(\"on\"),this.eventBind();}},eventBind:function(){d(\".video-listli\").addEvent(\"click\",function(b){e(d(this)),b.preventDefault();});}};a.init();}();}(NTES);近日，江苏连云港，2名女子街头边揪头发边厮打，脏话连篇，接着1名男子也加入混战，不停击打其中一个女子。据目击者描述，当事人疑似发生口角，已报警处理。本文来源：梨视频责任编辑：王征_NN7526",
    "Title": "江苏两名女子街头互殴脏话连篇 一名男子加入混战_网易新闻",
    "PublishTime": "01/02/201810:46:13",
    "Source": "Netease",
    "Comment": {
        "Content": "湖南这个是特大的这个没有哪个可以比服不服哈哈 女人毕竟要生小孩，还承担大部分的家务和教育小孩的事情，怎么下得去手的！ 看那霾，哎 说的不错，上次不是一群男人叫喊要暴打那些虐童的女老师吗，真给男人们丢脸。 个把月前，商场里一汉子看见自己有身孕的老婆被傻逼服务员围着大声叫骂还准备动手，一个箭步冲过去跳起来就是一飞脚踹在其中一个服务员身上然后倒地，拽着长头发一路拖着打。 再黑也没湖南那个牛吧？[不屑][不屑] 泼妇就欠收拾 女人才说这话，其它时间会说男女平等 没啊，哪有雾霾？？雾霾是什么？？难道是我这个小破地方的人孤陋寡闻？？😂😂😂 听口音是乡下口音 东北女的都做小姐了，很团结 江苏省自己也玩南北地域的。 南方人 分鸡毛南方人北方人。<br>广东人看岭南往北的都是北方人,黑龙江看别地方都是南方人...... 人贩子大多中年妇女 楼上的说的对啊，大内斗省的事咱们管啥？让他们狗咬狗去吧！ 赣榆这边的民风挺好的淳朴，没素质的只是个别， 江苏省内的事关你卵事？赶紧去直播吧老铁要不吃了这顿没下顿啊 注明一下，刚波老，不是所谓的南方人，在我们眼里，他们是北方人 回归中华道义传承，除灭西方邪恶的鸦片文化，中华文明完全自信刻不容缓！敬天爱人，天下一家，与人为善，以和为贵，良知道义，弃恶从善……开启心灵互联网、信仰大一统的正能量时代！ 个人素质问题 说女的不该打的货夜未眠太绝对了，有的女的不但该打，还得枪毙呢，分什么样的人，分她干了什么样的事，但多数情况下不能打 赣榆的 苏北领头羊 男的动手就不应该了。 北方猪，没毛病 本来我“脏”[不屑] 傻逼看什么事了谁规定男人不能打女人有的女人就该打 一楼，没有碰到女权癌儿子，或者说经事太少 苏北东为了情人打老婆啦 按南方傻逼的观点，这必须是东北人，要不就是东北移民到南方的人，最差也得是东北人的孙子。 赣榆的，呵呵，没素质 还是我大东北团结，有锅一块背 赣榆人 开始你们的表演，释放大招——地域黑化术！［真不知道这些地域黑都是什么想法？都是中国人，遍地都有好人，不能因为一个人坏而否定一个地区吧！］ 好男不跟女斗，这男的是渣！ 女人的战争要让女人自己解决，老爷们该干的事就是劝，很多上当的事就是女人开战男人不要脸的参加进来，搞到鸡毛蒜皮的屁事以人进医院或者人进班房来结束！！就这件事来说，要是被打的女人是我女人，没道理我会好好的教育，打也得我来打，你特么一个老爷们动手打我女人？？资要你不搞死我，我就搞死你！！ 苏北人也挺高调的而且很多人喜欢黑社会如果把东北老铁和苏北人放一块啧啧。。。 我跟大家讲个笑话：江南人文明（仅仅限江苏） 墩尚养泥鳅的[被黑] 常逼也加把劲苏锡常现在都叫苏锡了 苏北的，呵呵 男的作假！<br>演给老婆看的！<br>暗地里在保护小三！ 女人都打的男人，早晚死于非命的，人渣！ 听口音应该是东北的，打人者的动作那么凶猛迅速一看也是东北的 “狗咬狗”，老铁说得很贴切啊！ 不动刀不好看！ 肯定是东北的[大笑] 好好刷盘子，刷春运民工站票 我们都不看的直播，你们看的津津有味。智商啊！南方人 湖南这个是特大的这个没有哪个可以比服不服哈哈 看那霾，哎 连运港属于北方 那是！江苏最好的城市！ 再黑也没湖南那个牛吧？[不屑][不屑] 你真二逼！傻逼挨打不分男女！ 浙江的傻逼，你妈没原地爆炸也挺意外的。 人贩子逮到了也要恭敬有加？ 肯定东北的 这也能扯到地域 男的不是个东西。 哎呦，不是东北口音啊，是不是很意外啊[窃笑] 不是男女平等嗎 南方人 最看不上地域人、特别山东人、东北人往上数一代百分之五十祖籍山东、真是就这人品、不知道说什么好、天天在网上地域的一定是个渣 人贩子大多中年妇女 苏北人 楼上的说的对啊，大内斗省的事咱们管啥？让他们狗咬狗去吧！ 没毛病双击666 江苏省内的事关你卵事？赶紧去直播吧老铁要不吃了这顿没下顿啊 别出来搞地域攻击行吗，没素质，替你不齿 别这么说，都是东北的，毕竟中国100个人里99个都是东北的！而且是东北十省 北方人的名声都是被你们这些人搞臭了 苏北人也挺高调的而且很多人喜欢黑社会如果把东北老铁和苏北人放一块啧啧。。。 连云港啊…… 哈哈哈哈哈 没啊，哪有雾霾？？雾霾是什么？？难道是我这个小破地方的人孤陋寡闻？？😂😂😂 比如八达岭 哈哈哈是啊男的还得跳起来打那个女的🙈 注明一下，刚波老，不是所谓的南方人，在我们眼里，他们是北方人 女人的战争要让女人自己解决，老爷们该干的事就是劝，很多上当的事就是女人开战男人不要脸的参加进来，搞到鸡毛蒜皮的屁事以人进医院或者人进班房来结束！！就这件事来说，要是被打的女人没道理， 苏北领头羊 俺滴驾照就是从连云港考出来的，A2。真得挺松的，不严 笑死我了，男人要么你别上手，上手能否别纠缠，给个痛快？和个娘们 傻逼看什么事了谁规定男人不能打女人有的女人就该打 苏北东为了情人打老婆啦 按南方傻逼的观点，这必须是东北人，要不就是东北移民到南方的人，最差也得是东北人的孙子。 该打也轮不到男的打 那女的骂的啥? 是战地黄狗他姐吗? 好男不跟女斗，这男的是渣！ 女人的战争要让女人自己解决，老爷们该干的事就是劝，很多上当的事就是女人开战男人不要脸的参加进来，搞到鸡毛蒜皮的屁事以人进医院或者人进班房来结束！！就这件事来说，要是被打的女人是我女人，没道理我会好好的教育，打也得我来打，你特么一个老爷们动手打我女人？？资要你不搞死我，我就搞死你！！ 男的不是东西，只能劝，这才是老爷们该做的事！！ 常州佬好气啊， 你这狗崽子就知道bb 连云港啊…… 我跟大家讲个笑话：江南人文明（仅仅限江苏） 侉子 太霸气了这俩 男的作假！<br>演给老婆看的！<br>暗地里在保护小三！ 女人都打的男人，早晚死于非命的，人渣！ 东北人打老婆 只要是女人，谁特么在你嘴里都是神？ 3P 一定受东北人遗传 “狗咬狗”，老铁说得很贴切啊！ 这也算条新闻？小编钱真好赚 6666 赣榆的，呵呵，没素质 地域黑的都什么心态，支？ 老乡好 还就有爱管闲事的人 我们这还说苏锡常的，苏锡是小羊苏锡吗？有佩奇不 新闻越短，事态越严重 逼养你薅我头是吧，逼养你薅我头是吧！你个杂种。 厉害了 老几位，又开始内斗了 听口音是乡下口音 南方人 赣榆垃圾 例如欺负孕妇那个商场服务员 赣榆这边的民风挺好的淳朴，没素质的只是个别， 江苏省内的事关你卵事？赶紧去直播吧老铁要不吃了这顿没下顿啊 常逼也加把劲苏锡常现在都叫苏锡了 现在的人一言不合就动手 一楼你老婆被人打时你就站在一边看是吧 。。。 男女平等嘛！ 刁民 两个不要老脸的 两嘴毛的事报道他做甚？ 注明一下，刚波老，不是所谓的南方人，在我们眼里，他们是北方人 这男的是猴子吧 除了脏话就不会讲话，除了做阴险毒辣恶心的坏事就不会做別的事。 俩女的打架，男的最好就是拉架，别上手了 四楼刚播宗桑全家给色个 北方猪，没毛病 赣榆小侉子😄 傻逼看什么事了谁规定男人不能打女人有的女人就该打 他抓你头发，你踢他鸡鸡 威武。 有男人么！？我只看见三个女人在撕逼啊... 复读机？？？？ 你个没素质傻逼，女人之间有纠纷，老公只能劝解拉开，动手打对方？你他妈算是个男人？畜生都不如！ 你也就在江苏这么大的地方混了，是不是就分得清江苏里的南北啊，加上浙江就不知道自己那个苏南到底是南是北了 呵呵，江苏人就是这么疯狗 赣榆的[惊讶] 墩尚养泥鳅的[被黑] 苏北的，呵呵 这男的咋想的 拉块妈妈发火啦 女人都打的男人，早晚死于非命的，人渣！ 听口音应该是东北的，打人者的动作那么凶猛迅速一看也是东北的 跟贴被火星网友带走啦~ 自己女人欺负了就要上来帮忙打是个男人 这是在锻炼三寸不烂之舌吗 看标题就觉得是我们连云港的。听半天没听清楚像赣榆口音，有点意外。本地很多三四十岁的女人一点小事张嘴就骂，似乎老天是老大她就是老二。 赣榆街头， 两个女人打架，半斤八两，一个男的上去帮忙就说不过去了 事态严重 打死一个少一个 也不算打吧，算是劝架 女人毕竟要生小孩，还承担大部分的家务和教育小孩的事情，怎么下得去手的！ 江苏人厉害 听口音怎么像宿迁的 评论碉堡了 个把月前，商场里一汉子看见自己有身孕的老婆被傻逼服务员围着大声叫骂还准备动手，一个箭步冲过去跳起来就是一飞脚踹在其中一个服务员身上然后倒地，拽着长头发一路拖着打。 港北老都是你祖宗 徐州 男的白痴，你应该啦着对方让你小情人上去打，不然一会警察来了就你🉐事了 现在知道地域黑了？你们黑人家河南安徽的时候可是来劲儿的很呢 泼妇就欠收拾 你个比昂的，豪我头是吧 宇宙的探索是离不开我的话的，只有把围绕地球公转的一切物质包括气体计算在地球体积之内才能找到地球真正的边和角，那是反引力汇聚地，是真正的真空隧道，宇宙高速路，太阳系内的动脉!把围绕太阳公转的一切物质包括气体计算在太阳体积之内才能找到恒星与恒星的边和角，那是恒星与恒星之间的真空高速隧道，找到真空隧道以近光速超光速飞行那不是个事!宇宙飞行器也不能按照飞机的二维结构原理制造，飞机是不能高速自转的，但只有高速自转才能产生真空电磁场，以近光速飞行，未来的宇宙飞行器必须按地球原理制造，八层以上结构，你看地球高速自转着前进，我们人坐在地球上有啥不适感觉吗？ 说的不错，上次不是一群男人叫喊要暴打那些虐童的女老师吗，真给男人们丢脸。 赣榆人 南方人 中华名族伟大复兴，你为何要大一统？ 我在连云港车站听到的最常见的一句话就是：敢鱼的有没有，敢鱼的 为什么要地域攻击呢。一帮闲的要死的的人才这么无聊呢 好好刷盘子，刷春运民工站票 江苏省内的事关你卵事？赶紧去直播吧老铁要不吃了这顿没下顿啊 注明一下，刚波老，不是所谓的南方人，在我们眼里，他们是北方人 。。 地域🐶死全家…… 回归中华道义传承，除灭西方邪恶的鸦片文化，中华文明完全自信刻不容缓！敬天爱人，天下一家，与人为善，以和为贵，良知道义，弃恶从善……开启心灵互联网、信仰大一统的正能量时代！ 还有363天就要跨年了，回想起上次跨年仿佛就在昨天，在这里我提前祝大家，2019年快乐！ 俺们大赣榆的女汉子 北猪南狗盖括楼上省内吃饲料的 现在人都很暴躁，主要是生活压力大，社会体系有关系 扒他衣服。 这也能成新闻？ 非常好能动手尽量别吵吵 赣榆的 我…我是…一个小喷子，我…我是第一次喷人，你们注意了，我…我要开始了，你们…你们都是小傻瓜！ 男的动手就不应该了。 傻逼，女人都打的男人，迟早死于非命的，人渣！ 傻逼看什么事了谁规定男人不能打女人有的女人就该打 江苏这里，两三个人打个架说句脏话都要上新闻[不屑]，小编真是没事做了！ 什么情况 一男两女三战斗 发射地域攻击狗 你也知道你们徐州是苏北领头羊啊 女人打架，你老爷们掺和什么 常逼也加把劲苏锡常现在都叫苏锡了 苏北的，呵呵 苏北领头羊 女人都打的男人，早晚死于非命的，人渣！ 我已经感觉到某些傻逼会地狱 二楼，whatthefuck?还有这么多点赞的？打女人能证明自己很能打吗？ 不动刀不好看！ 肯定是东北的[大笑] 这也叫新闻 混战 男的不说拉架嘛也不要插手啊 打女人的男人都是懦夫！ 真的很厉害 这是大实话 苏北东也知道苏北有争议所以不找当地的刻意找个省会的小人物不管后来赚多少钱骨子里依然是自卑的 打女人的男人都是懦夫！ 秒杀宇宙！ 女人才说这话，其它时间会说男女平等 不一定是赣榆的，有可能是东海的。 儿子写日记:夜深了，妈妈在打麻将，爸爸在上网……<br>爸爸检查时，很不满意地说:日记源于生活，但要高于生活！<br>孩子马上修改为:夜深了，妈妈在赌钱，爸爸在网恋……<br>爸爸更不满了，愤怒地说:看看中央电视台、官方报纸是怎样写的。一定要提倡正能量，以正面宣传为主！”<br>孩子再修改为:夜深了，妈妈在研究经济，爸爸在研究互联网+生活……<br>爸爸看后说，这还差不多，但深度不够，有待进一步提高！以后你长大了成了硕士研究生，你就知道应该这么写了：“妈妈在研究信息不对称状态下的动态博弈，爸爸在研究人工智能与情感供给侧的新兴组合。‘’<br>爸爸接着说，要是你打算成为博士，得这样写：‘’妈妈在研究复杂群体中多因素干扰及信息不对称状态下的新型囚徒困境博弈；爸爸研究的是：大数据视角下的六度空间理论在情感供给侧匹配中的创新与实践。”<br><br>两点感悟:<br>一、文化真的很可怕！<br>二、包装真的很重要！<br>以前常说“没文化真可怕”，现在才知道“有文化更可怕”~~谨以此片献给有文化的人。 一群sb 还有没被地域的省份吗 打吧！骂人最无用的 注意素质 开始你们的表演，释放大招——地域黑化术！［真不知道这些地域黑都是什么想法？都是中国人，遍地都有好人，不能因为一个人坏而否定一个地区吧！］ 男人不应该加入吧……女人之间让她们混战 不看好 这男人不地道 女人都打的男人，早晚死于非命的，人渣！ 写么，就在俺家楼下，三个女的还要干jc。 没有了，本来就是各有长短。完美的没办法找。 哈哈，地域一时爽，全家乱坟岗！ 三省交界的地方 就这点素质，还整天炫耀优越感[不屑] 还整天说别人，自己也是那样 山东老侉能听懂[大笑] 多大事啊，为什么有话不能说呢！ 本来我“脏”[不屑] 说话注意方式 这种男人会有人废了他的 这男的真的太丢人了，丢尽了我江苏人的脸 怎么可以打小姐姐 这种场合控制自己很难 让女的自己打，男人插什么手 互殴？ 没听懂，谁给翻译一下 好男不跟女斗，这男的是渣！ 这话里有话啊，来说出你的故事 这个是要债吗？ 有啥事不能双飞解决啊！ 苏北，安徽。。。我的天。 男的出手也就罢了，但是光蹦高干什么呢，不出手则已，既然出手能不能爷们点，打的那么娘 南京人就这样无脑 呵呵 花果山下的朱孔儒，借我的一千五什么时候还？ 苏北东为了情人打老婆啦 很强悍 有时候吧，好男不跟女斗是建立在都讲理的前提下的，女的装逼时候不把自己当女的，吃亏了知道自己是女的了。也是很尴尬 尊重女性是应该的，有些女人确实欠抽 这就对了！能动手的别废话！ 素质真低 互脱啊 滴滴司机？ 逼养的你薅我头是不？😄 请安徽那个小学副班长修理他们去 小三吧？ 赣榆人 管他屌事 个人素质问题 ",
        "Reply": 220,
        "Link": "http://comment.news.163.com/news2_bbs/D750IJIU0001899N.html",
        "Total": 2019
    },
    "KeyWords": "街头,目击者,连云港,江苏",
    "URL": "http://news.163.com/18/0102/10/D750IJIU0001899N.html"
}