{
    "URL": "http://sports.163.com/17/1231/09/D6VM982C00058781.html",
    "Article": "网易体育12月31日报道：在今天凌晨进行的第21轮英超联赛中，曼联主场0-0平南安普顿。遭遇联赛三连平之后，曼联在积分榜上已经被切尔西超越，跌至英超第三位。本场比赛曼联能够力保球门不失，门将德赫亚又立下大功。全场比赛曼联控球率为55%，全队射门达到15次，但只有3次射正。反观客队南安普顿，全场射门8次但同样有3次射正，而且这3次射正都很有威胁，幸好曼联门将德赫亚将险情全部化解。第7分钟，塔迪奇直塞穿透曼联防线，鲍法尔反越位成功后在右路底线附近倒三角传中，禁区内无人防守的普劳斯抽射，德赫亚倒地用左手将球扑出。第19分钟，普劳斯主罚禁区外左侧任意球，他选择直接射球门近角，但准备充分的德赫亚侧扑把球挡出。第50分钟，塔迪奇把球分到右路，普劳斯传中，沙恩-朗突然从身后插上抢在马蒂奇之前射门，德赫亚用右脚挡出了这脚极有威胁的近距离攻门，这是一次世界级的扑救。可以说如果不是德赫亚的神勇表现，曼联的球门恐怕要被南安普顿攻破。虽然曼联没能取胜，但德赫亚的发挥依然得到了大家的肯定。本赛季曼联在21轮英超打进43球，比榜首的曼城少了18球。但曼联的英超丢球数为16球，只比曼城多4球，可以说德赫亚是曼联取得不错排名的大功臣。赛后《曼彻斯特晚报》给德赫亚打出了8分的全场最高分，而英格兰名宿莱因克尔也称赞了德赫亚的完美表现，并称“他用双脚成功扑救的次数比很多门将用双手做的更多。”本文来源：网易体育作者：夫然后责任编辑：朱楷正_NS4807",
    "KeyWords": "曼联,德赫亚,南安普顿",
    "Source": "Netease",
    "Comment": {
        "Reply": 138,
        "Content": "不把穆里尼奥换掉！曼联永无出头之日！ 为什么这么多人讨厌巴萨、梅西，还不是你们巴狗梅毒害得 其实南安普顿本想着摆大巴，无奈墓鸟还是先下手为强，上来先摆好龟阵大巴，总不能两边都摆起大巴让足球停在中圈不动吧？所以南安普顿只能攻出来了 如果不是德赫亚，保守点和娜娜争第六 不会吧，毕竟有神奇鸟大巴呢 鸟大湿的比赛没意思，还不如新曼联球迷洗地看的过瘾😂 我草！易友的评论真笑死我了！ 鸟粪脑回路奇特这瞬间话题转移给巴萨 🚌驾驶员 老曼联球迷都不喜欢新曼联球迷，但没听说过老曼联球迷讨厌巴萨的。新曼联球迷么，估计看谁都讨厌，两年后连看曼联都讨厌，逢曼联就咬。 找安胖吧！ 南安普顿跟曼城踢摆个大巴最后才被绝杀，跟曼联踢连大巴都不摆了，这是不当曼联强队看待吗？你这是对曼联的不尊重！！！ 安：mmp,为什么总是这傻逼搞砸了让老子来接盘？ 曼联现在是4个教练4个战术的人员，冗员过多！再换换谁？曼联需要的继续深化改革，另外曼联好像没降级吧，搞得比降级区压力还大！个人觉得失去伊布、卢卡库之后，下一场曼联必胜，前场速度要一倍！ 要是没有德赫亚曼联现在会不会徘徊在降级区 什么新球迷啊，鸟屎就鸟屎，还用客气吗 违约金可不少还是先带着吧毕竟好教练都名花有主勒虽然踢的难看但是比去年强 穆带着你的鸟迷走吧 我不是巴萨球迷，但我觉得巴萨踢的真不错 其实曼联球迷也不用沮丧，虽然踢得烂，联赛第二也丢了，但是德赫亚的扑救数还是英超第二啊！<br>其他五队都是倒数呢？你看穆帅的防守多好[大笑][大笑] 换了老穆，曼联会更烂 南安普顿脸皮不够厚啊！ 看来只有卢卡库的助攻才能攻破德赫亚的大门！ 如果第五那就尴尬了，今年没有欧联杯 曼联:有种你攻过来！南安普顿:有种你攻过来!<br>吵了90分钟，平局结束 这么下去我怕德赫亚要伤啊！每场都那么拼命，看看人家曼城门将站着就可以，因为对手没什么射门，利物浦门将也是只需要站着就可以，反正也挡不住球进，就鸭子苦逼！打什么队都要神勇发挥 二楼我TMD墙都不服，就服你 还真的是事实，南安打曼城时就一标准大巴队，踢曼联马上变技术流了 穆鸟的工资应该分德赫亚至少一半。 没人讨厌巴萨，只有穆养犬会咬巴萨，而鸟粪是人人喊打！ 英超有两个球队讨厌巴萨，一个是切尔西，天天喊惨案，虽然第一回合被无视了；另一个是娜四，觉得禁区外手球不应该给红牌。红军和曼联，我真没听说讨厌巴萨。不过自从木鸟去了曼联，巴萨就是全英公敌了，这其中的奥秘，只有木鸟粉丝知道 人家愿意来吗曼联能给阿根廷人培养年轻人时间么还有阿根廷人问曼联凯恩和埃里克森能不能打包带来 说实话，看鸟比赛没有喷鸟粪有意思哈哈 差不多到抓内鬼的阶段了。 换个米尼奥莱绝对在降级区还跟纽卡斯尔死磕呢 木鸟波尔图靠着黑哨挤掉曼联，在切尔西靠着阿布把能买的都买走，还被老爷子打跑，到国米第一个赛季就被曼联淘汰，第二个赛季下课边缘爆发，国米实力本就不差，反正只要某人带队，球员立马变成垃圾。对方球队立马都是超级球星，这能力也是没谁了 威武！ 是不是该捉捉鬼了？ 某支吓死人不偿命的豪门，连续几年门将当选队内最佳 曼联把门将换利物浦门将米尼奥莱，英超10名开外。 作为曼联球迷虽然对鸟很不满意不过看看成绩确实比莫天才和厨师还是稍微好点 去年第六，比那两位都差，今年才一半，以现在趋势来看，不好说 南:你敢来吗？<br>曼:你过来啊！<br>南:你来啊！<br>曼:你来！<br>终场哨响。0比0。<br>鸟婊:狗比玩意，和我摆大巴。 如果是一直下游球队摆大巴无可厚非，曼联这阵容摆大巴真的是教练无能啊，浪费了球队的阵容和球员的才华 搞不明白曼联之前为什么不选热刺的主教练，鸟是进攻毫无章法啊！ 对于曼联这样豪门不夺冠就是失败！为什么那么多人讨厌穆鸟还不是你们这帮鸟粪害的！ 降级区应该不会，换个普通一点的估计在前六以外 现在的曼联，还有几年之前的皇马，都是欧洲最佳门将俱乐部 搭理那帮喷子干嘛。曼联很多年都玩欧联杯的，居然还有不少黑子“吹”曼联不夺冠就是失败丢人……<br>穆里尼奥养活了不少人啊 不把穆里尼奥换掉！曼联永无出头之日！ 哈哈垃圾废物曼联穆鸟🐦🐦都是垃圾废物 之前莫耶斯啊兄弟 讓曼奇尼來玩三年，又是一個宇宙隊班底 我不知道该怎么形容这支曼联……精气神没有，像样的短传配合没有，面对弱旅还摆大巴，有些喷子说的也没错，三大MVP，居然玩成现在这样……全场最高分德赫亚，而对面并不是什么前六的球队，是南安普顿！重建期不要求每场场面好看，最起码也差不多吧，这几场踢的战术就是XJBT？卢卡库，马蒂奇这样用得累死，再好的状态也经不起这么折腾，第一次，对穆里尼奥产生怀疑……真的，不是因为隔壁强势，而是因为除了A计划，几乎看不到任何备选B计划……别到头来，前四不保，穆里尼奥，加油吧，曼联，加油吧…… 谁是普老师？ 没有他,也会排第二,肯定比阿森纳强. 其实南安普顿本想着摆大巴，无奈墓鸟还是先下手为强，上来先摆好龟阵大巴，总不能两边都摆起大巴让足球停在中圈不动吧？所以南安普顿只能攻出来了 老爵爷会不会出山？ 曾经的前场美如画，后场德赫亚变成了前场烂如渣，可后场依然德赫亚 大巴对大巴，平起平坐。 不会吧，毕竟有神奇鸟大巴呢 鸟大湿的比赛没意思，还不如新曼联球迷洗地看的过瘾😂 鸟粪脑回路奇特这瞬间话题转移给巴萨 你老女良那个黑B，都快溃烂了，还美如画？ 梅比 找安胖吧！ 南安普顿跟曼城踢摆个大巴最后才被绝杀，跟曼联踢连大巴都不摆了，这是不当曼联强队看待吗？你这是对曼联的不尊重！！！ 安：mmp,为什么总是这傻逼搞砸了让老子来接盘？ 曼联吸引力不行，很多球员都不愿意来，没有号召力的豪门迟早堕落 结果差点把几亿豪华大巴掀翻 搞不明白曼联之前为什么不选热刺的主教练，鸟是进攻毫无章法啊！ 它还能咬谁呢？赛季初可是咬变前六，孔蒂，教授，克洛普，哪个鸟屎不咬？现在踢得太烂，不敢咬太多，就直接咬巴萨了 要是没有德赫亚曼联现在会不会徘徊在降级区 老鸟，是不是看破红尘，每到一队就签高新，混3年，然后逼着球队解约。。休息还能赚钱。。。。。。卧槽，可别是真的。 德黑鸭：你们他妈的不会进攻了吗？后面有老子在，你们全上啊！怕个毛！ 兄弟我也是啊，真有猿粪[窃笑] 我是鸟迷，今年开局的时候真心不错，可惜鸟叔感觉失去了锐气，越来越让人失望了。12月前曼联的比赛场场不落，12月开始一场都没看了 当所有人都摸透你还不寻求改变失败是必然的 虽说江河日下，但侧面上也在证明鸟的实力，不夺冠就是失败，谁不夺冠都没他压力大。。 其实曼联球迷也不用沮丧，虽然踢得烂，联赛第二也丢了，但是德赫亚的扑救数还是英超第二啊！<br>其他五队都是倒数呢？你看穆帅的防守多好[大笑][大笑] 换了老穆，曼联会更烂 对南安普顿踢成这样算不错了，没看见对伯恩茅斯也是踢成这样啊？还赢球了！！！还在主场！！！MVP不照样妥妥的德赫亚？一支豪门球队坐镇主场迎战升班马，全场MVP居然是主队门将！！！ 这个赛季才是真真正正的前场美如画，后场德赫亚 鸟粪说了，就喜欢看大巴。最后猜拳定胜负。 鸟呀鸟，哎 有多少人和我一样冲着评论看洗地来的 哈哈。。就扶你 看来普老师要被红军抢走了 进攻完全不行 主要是对强队从来不该进攻，老是那一套玩法，前锋当后卫使用，技术性球员被玩废了。这年头球员都是九零后，你把他们当七零后对待，谁买你的帐？<br>木鸟脑子生锈了。看来真的不行了。<br>曼联这个赛季，就是这样被玩废的。曼联死在过于保守上。 大巴都被射穿了你也不看看德赫亚一场比赛的精彩扑救都能做成集锦了。。 曼联现在是4个教练4个战术的人员，冗员过多！再换换谁？曼联需要的继续深化改革，另外曼联好像没降级吧，搞得比降级区压力还大！个人觉得失去伊布、卢卡库之后，下一场曼联必胜，前场速度要一倍！ 说实话，看鸟比赛没有喷鸟粪有意思哈哈 差不多到抓内鬼的阶段了。 换个米尼奥莱绝对在降级区还跟纽卡斯尔死磕呢 正所谓，弱队出门将……我这个曼联球迷都对此坚信不疑了！莫耶斯，范秃，木鸟……估计再换1-2个教练也还是这样！ 说实话，看鸟比赛没有喷鸟粪有意思哈哈 某支吓死人不偿命的豪门，连续几年门将当选队内最佳 前场要你爹妈来才算美如画？ 那是犯罪😂😂😂 原来曼联前场是你爸妈，难怪这么烂 这哥们好啊，这几年为热刺培养了不少牛人，比赛也好看 曼联把门将换利物浦门将米尼奥莱，英超10名开外。 哈哈哈，必须的，曼联对所有对都很尊重[窃笑] 作为曼联球迷虽然对鸟很不满意不过看看成绩确实比莫天才和厨师还是稍微好点 范厨师走时排名第五，跟第四的曼城积分相同，去年魔力鸟率领曼联的第一年战绩其实不如范厨师的最后一年 曼联的新闻我直接看评论😂😂 如果是一直下游球队摆大巴无可厚非，曼联这阵容摆大巴真的是教练无能啊，浪费了球队的阵容和球员的才华 越踢越像保级队！可能连保级队都不如 二楼真说得好有道理 打杯赛最好有这种变态级的门将。希望曼联欧冠有好成绩吧。 现在的曼联，还有几年之前的皇马，都是欧洲最佳门将俱乐部 曼联现在人脚如果都是摆大巴必定被曼联偷鸡最后绝杀，很多球队是这样。所以打现在丑陋曼联必须全攻，而曼城对攻死得更快只能求大巴拼一分 [微笑] 穆鸟是功利型的教练，目前的逆境不看好他会强势反弹。认真保住前四还有可能再干一年，不然绝对下课。 不把穆里尼奥换掉！曼联永无出头之日！ 摆大巴最重要的一环，守门员 鸭子要是想走，真心不怪你 我不知道该怎么形容这支曼联……精气神没有，像样的短传配合没有，面对弱旅还摆大巴，有些喷子说的也没错，三大MVP，居然玩成现在这样……全场最高分德赫亚，而对面并不是什么前六的球队，是南安普顿！重建期不要求每场场面好看，最起码也差不多吧，这几场踢的战术就是XJBT？卢卡库，马蒂奇这样用得累死，再好的状态也经不起这么折腾，第一次，对穆里尼奥产生怀疑……真的，不是因为隔壁强势，而是因为除了A计划，几乎看不到任何备选B计划……别到头来，前四不保，穆里尼奥，加油吧，曼联，加油吧…… 作为曼联球迷虽然对鸟很不满意不过看看成绩确实比莫天才和厨师还是稍微好点 其实南安普顿本想着摆大巴，无奈墓鸟还是先下手为强，上来先摆好龟阵大巴，总不能两边都摆起大巴让足球停在中圈不动吧？所以南安普顿只能攻出来了 如果不是德赫亚，保守点和娜娜争第六 我草！易友的评论真笑死我了！ 穆带着你的鸟迷走吧 不会吧，毕竟有神奇鸟大巴呢 鸟大湿的比赛没意思，还不如新曼联球迷洗地看的过瘾😂 南安普顿脸皮不够厚啊！ 第一球球员可能挡住视线可能难度大点，第二球不是什么高难度吧?第三球就站在中间没动吧? 老曼联球迷都不喜欢新曼联球迷，但没听说过老曼联球迷讨厌巴萨的。新曼联球迷么，估计看谁都讨厌，两年后连看曼联都讨厌，逢曼联就咬。 説的沒德赫亞好像就沒門將一樣，德赫亞不是曼聯一部分嗎 南安普顿跟曼城踢摆个大巴最后才被绝杀，跟曼联踢连大巴都不摆了，这是不当曼联强队看待吗？你这是对曼联的不尊重！！！ 英超有两个球队讨厌巴萨，一个是切尔西，天天喊惨案，虽然第一回合被无视了；另一个是娜四，觉得禁区外手球不应该给红牌。红军和曼联，我真没听说讨厌巴萨。不过自从木鸟去了曼联，巴萨就是全英公敌了，这其中的奥秘，只有木鸟粉丝知道 哈哈哈，老哥稳 巴狗傻逼 要是没有德赫亚曼联现在会不会徘徊在降级区 什么新球迷啊，鸟屎就鸟屎，还用客气吗 哪里不尊重了，我这是其人之道还施彼身 违约金可不少还是先带着吧毕竟好教练都名花有主勒虽然踢的难看但是比去年强 曼联:有种你攻过来！南安普顿:有种你攻过来!<br>吵了90分钟，平局结束 我不是巴萨球迷，但我觉得巴萨踢的真不错 换了老穆，曼联会更烂 母鸟尽力了，平局不怪他 笑出声 自古弱队出门将 巴萨是百年豪门气质高贵像什么斯坦福桥惨案逆转大巴黎干爹队G14闹独立套球衣皮看穿哈大嘴布教授倒贴法暴力鸟倒脚队怂恿罢训叛徒内马尔不默哀踩人头拉影球场喷水红点套餐三场五点得点最多被点最少红牌最少对手红牌最多围裁判打滚高素质球迷反力学翻转普拉蒂尼草皮绊倒点球角球没开点球没听见哨红牌门将吹哨咬人假摔点球羞辱门将队友受伤对手停攻抢球打反击客场更衣室成猪窝等都是子虚乌有百度都查不到梅西是真正的球王阳光励志正能量像什么拖鞋发布会四十秒红牌激素助长上帝之手藏门将身后等开球肘击门牙散步不防守领袖气质高薪报答俱乐部踢看台球迷窜广告牌杀机偷税子罪父偿开基金会骗善款一己之力进决赛青梅冰清安东内拉怒退国家队推裁判骂娘等等更是子虚乌有听说都没听说过萨迷梅吹们是一个高素质有教养的群体从来不人身攻击污言秽语晒父母口器官讽地域比手机不同意见会据理反驳用铁的事实证明自己的理念身为皇马C罗的球迷真的羡慕嫉妒好气好气小编您看这样说行吗求您不要派火星网友带走我的帖子了我发不出去的帖子都能出一本书了 锋无力是问题。还有中场的创造能力不够 这么下去我怕德赫亚要伤啊！每场都那么拼命，看看人家曼城门将站着就可以，因为对手没什么射门，利物浦门将也是只需要站着就可以，反正也挡不住球进，就鸭子苦逼！打什么队都要神勇发挥 二楼我TMD墙都不服，就服你 应该分2/3。 还真的是事实，南安打曼城时就一标准大巴队，踢曼联马上变技术流了 穆鸟的工资应该分德赫亚至少一半。 曼联现在是4个教练4个战术的人员，冗员过多！再换换谁？曼联需要的继续深化改革，另外曼联好像没降级吧，搞得比降级区压力还大！个人觉得失去伊布、卢卡库之后，下一场曼联必胜，前场速度要一倍！ 不要摆大巴了。 南安普顿和鸟授受的教育不同 对呀，这样一点都不好看。 木鸟波尔图靠着黑哨挤掉曼联，在切尔西靠着阿布把能买的都买走，还被老爷子打跑，到国米第一个赛季就被曼联淘汰，第二个赛季下课边缘爆发，国米实力本就不差，反正只要某人带队，球员立马变成垃圾。对方球队立马都是超级球星，这能力也是没谁了 德赫亚真强啊，在我看来是第一门将 木鸟是需要个组织进攻天才毕竟是防守型教练要不他队里有德科斯内德厄祖四个后卫加2铁腰在后场摆大巴剩下的事交给前面的德罗巴米利托罗本埃托奥 是不是该捉捉鬼了？ 前6都排不上 弱队出好门 天天摆大巴 应该和去年差不多，在六点 起码在利物浦后面 弱队出门将 👍 这样下去，我真担心德赫亚去皇马[大哭] 67左右 好吧，继续努力吧。 降级区应该不会，换个普通一点的估计在前六以外 哎，又回到了前场烂如渣，后场德赫亚的状态。 我觉得挺有意思的。 南安普顿跟曼城踢摆个大巴最后才被绝杀，跟曼联踢连大巴都不摆了，这是不当曼联强队看待吗？你这是对曼联的不尊重！！！ 鸭子太稳 这哥们儿真是大神 要是德赫亚像曼城上赛季得摄政王……画面不敢想象啊 前六水平，之前对阵热刺利物浦阿森纳不是德赫亚超常发挥，肯定掉几分。战术落后，更衣室没领导，各自拉帮结派，下半程崩盘在所难免。鲁尼走了伊布重伤，卡里克没领导气质，剩下的刺头可不少。 现在的曼联配不上德赫亚啊，哎 降级区不可能，应该在欧联区左右 要是没有德赫亚曼联现在会不会徘徊在降级区 🚌驾驶员 威武！ 看来只有卢卡库的助攻才能攻破德赫亚的大门！ 曼联先摆的大巴，南安普敦怎么摆？拿着球不传吗 ",
        "Total": 3361,
        "Link": "http://comment.sports.163.com/sports2_bbs/D6VM982C00058781.html"
    },
    "PublishTime": "12/31/201709:10:08",
    "Title": "穆氏大巴后面还有辆火车!曼联没了他现在排第几?_网易体育"
}