{
    "Title": "NASA拟发送无人机探索土卫六表面 寻找生命迹象_网易科技",
    "URL": "http://tech.163.com/17/1227/08/D6L98LR400097U81.html",
    "KeyWords": "土卫六,无人机,nasa,外星生命",
    "PublishTime": "12/27/201708:10:14",
    "Article": "（原标题：NASAIsConsideringSendinga\"Dragonfly\"DronetoanAlienWorld）网易科技讯12月27日消息，据Futurism报道，由于拥有浩瀚的海洋、充满甲烷的河流和湖泊，土星卫星——土卫六（Titan）是我们寻找外星生命的主要候选者。虽然在“卡西尼”号(Cassini)土星探测器的帮助下，我们对土星这颗最大卫星的了解已经大大增加，但土卫六上是否存在原始生命形式的问题仍然是个谜。美国宇航局(NASA)最近选定土卫六作为“NewFrontiers”任务进一步探索的目标，这意味着他们也想要更多答案。美国宇航局从12种最可行的探测器中做出选择，最终确定“蜻蜓”(Dragonfly)无人机为其下一个价值10亿美元任务的两个入围者之一。“蜻蜓”无人机就像它的名字那样，可以在土卫六的不同表面部分飞行，以研究其景观和可居住性。另一个竞争者是67P/Churyumov-Gerasimenko，它的着陆器将会在彗星原子核中抓取样本，并将其带回地球进行进一步研究。由核燃料钚驱动的“蜻蜓”无人机可以对土卫六表面进行测量，从一个地点飞到另一个地点，每次飞行可飞过几十到数百公里。来自约翰·霍普金斯大学应用物理实验室的“蜻蜓”无人机首席研究员伊莉莎白·图特尔（ElizabethTurtle）表示：“土卫六是个迷人的海洋世界。它是太阳系中唯一一个拥有稠密大气层、天气、云层、雨水和液体湖泊与海洋的行星卫星，虽然这些液体是乙烷和甲烷。土卫六上有很多令人惊叹的科学和发现。”在美国宇航局2017年12月20日的举行的电话会议上，图特尔认为“蜻蜓”无人机将在2034年登陆。许多科学家将土卫六的表面条件与早期地球上可能存在的条件进行了比较。事实上，美国宇航局甚至表示：“从很多方面来看，土星这颗最大的卫星是我们迄今发现的最类似地球的星球之一。”因此，即使生命在土卫六上从未被发现，它也可能是探索地球上生命起源的理想之地。（小小）本文来源：网易科技报道责任编辑：王凤枝_NT2541",
    "Comment": {
        "Content": "不是说铁基生命，硅基生命，熔岩生命没有道理，而是铁基，硅基，熔岩不会形成几百万种稳定的分子。生命这种复杂的机器必然由几百万种微小零件构成。就像你只用沙子是做不出飞机的，铁基，硅基形成的分子种类太少，而碳基形成了几百万种我们所说的有机分子，所以分子种类够了可以形成生命。 整个宇宙都在元素周期表里面，没有例外。少看一点仙侠和玄幻，有助于提升智力水平。 那个温度不可能有液态水，只有液化天然气，不过幸好没有氧气，否则直接烧成一个大火球。 作为一个大国人，想说两个字：讨厌！！！ 未来能够给银河系带来危险的，就是人类自己。 最近看了三体，总感觉这种行为会带来危险 你认为的就是你认为的？宇宙何其大，用一个星球的思想去解释概述整个大宇宙的生命形式，用“必然”是不是太狭隘了 美人希 土卫六，据说表面有液态水。他说莫非就是这个啊。 2034年.......我真嫉妒那时的年轻人 宇宙直径900亿光年的说法，我一直觉得不靠谱。<br>既然说宇宙诞生137亿年，那么宇宙的直径就是137亿年膨胀的结果。光速如果真是宇宙中不可能被超越的速度，那么宇宙膨胀的初始速度也不会超过光速，且随着大爆炸的结束膨胀速度趋于缓慢。综上，宇宙最多从中心点膨胀了137亿光年，加上最边缘的第一束光（也许）向宇宙外行进的距离，这就是宇宙中心点到边缘的最大直径吧？<br>举个例子，从原点出发的一辆汽车，以光速前进，一年后，车头在哪里？车灯发出的光子到哪里？ 骗经费…… 人类的希望美利坚！从不质疑！ 你说的是在地球这个环境下，其他星球谁知道，就像氢在地球上是气体，在木星核心就是金属 作为一个大国人，想说两个字：讨厌！！！ 最近看了三体，总感觉这种行为会带来危险 GREAT 不是说铁基生命，硅基生命，熔岩生命没有道理，而是铁基，硅基，熔岩不会形成几百万种稳定的分子。生命这种复杂的机器必然由几百万种微小零件构成。就像你只用沙子是做不出飞机的，铁基，硅基形成的分子种类太少，而碳基形成了几百万种我们所说的有机分子，所以分子种类够了可以形成生命。 整个宇宙都在元素周期表里面，没有例外。少看一点仙侠和玄幻，有助于提升智力水平。 那个温度不可能有液态水，只有液化天然气，不过幸好没有氧气，否则直接烧成一个大火球。 有一种论点是太阳和木星里都可能存在生命我们所认为的生命只不过是类地生命而已而在宇宙中可能存在着各种形式的生命 很多年前，有人说铁在水里会沉，后来有了钢铁制作的船。<br>后来，又不信钢铁能上天…… 未来能够给银河系带来危险的，就是人类自己。 星球差距的真实性？<br>在近玩帝国时代2,发现运气好,资源多,没有发生战乱很容易升级到帝国时代,运气差的手背的,有的只升级到城堡时代,有的连封建时代没升到就亡国了<br>回望现实世界<br>300年前欧洲文艺复兴进入工业社会,唯物主义诞生,探索宇宙开始启蒙。而中国还停留在农业社会,处于迷信时代,说明文明.科技差距是存在的<br>在把望远镜朝向太空<br>天上有2000亿个星系.银河系活了80亿年，太阳和地球才出生是事实<br>依据上面几点,由此推测<br>由于运气,资源多或少,战乱,发展快慢等原因,星系文明等级差1亿年是很正常的(而人类整个历史只有1万年),也就是说地球刚打开潘多拉魔盒或脑洞大开时,别星系的人早已发展成究极状态<br><br>科普：<br>宇宙有多大<br>直径900亿光年，以光速前行，需900亿年才能到头<br><br>物质有多小<br>假设把一颗1立方毫米铁粒的三维图像放大到太阳那么大,肉眼看到的原子核也只有1立方毫米大<br>如果有足够压力,整个地球的物质多能塞进一个原子里<br><br>物质的神奇<br>以身体为例.细胞构成身体不同的系统,如动力系统,感官系统<br>而电脑,传感器,人工智能,则是依靠电流来实现<br><br>物质属性神奇应用<br>震动(声音)<br>电磁（发电机→电流→电灯→电报→电脑→数控→人工智能→智能社会）<br>粒子相互作用力(分子聚分→TNT炸弹，核子聚分→核弹，电子移动→电流)<br>相互作用力构建了宇宙万物，否则众分子聚不成一个细胞，也聚不成一个星球<br><br>科技带来了什么<br>800年前,蒙古凭着马与弓箭的发明征服整个欧亚大陆,10万军队屠了90%中国人<br>300年前,欧洲凭着船与枪的发明,称霸了地球，原住民几乎见不到<br>现在宇宙处于生命大爆发时代<br>今天，机枪,核弹,生化武器毁地球分秒的事<br>今天工业革命,自动化革命,生产力是以前的10000倍不是梦想<br>人工智能杀人制造灵敏样样优，而人类就是个渣<br><br>历史明智<br>太阳系很大，宇宙很大，利益体很多。斗不是出路，利益合理分配，共存共赢，共甘共苦。各兄弟，各家庭，各部落，各种族，各国家，各星球，各星球群，各星系，各星系群，各集团，各阶级,才会和谐昌盛，才不会被宇宙淘汰，在400万亿亿星球中才有一席之地<br><br>内斗耗光资源，耗光时间，而在宇宙很遥远且完全陌生的星系，正在联盟成更大更强的组织<br><br>提升全人类意识，需你我共同努力(因婴孩‘白纸’时时在出生) 土卫六，据说表面有液态水。他说莫非就是这个啊。 你认为的就是你认为的？宇宙何其大，用一个星球的思想去解释概述整个大宇宙的生命形式，用“必然”是不是太狭隘了 美人希 从数学的角度看，生命需要复杂度! ",
        "Total": 67,
        "Link": "http://comment.tech.163.com/tech_bbs/D6L98LR400097U81.html",
        "Reply": 19
    },
    "Source": "Netease"
}