{
    "Source": "Netease",
    "KeyWords": "钓鱼,触电,赔偿,高压线",
    "URL": "http://news.163.com/17/1225/02/D6FGN4FT0001875P.html",
    "PublishTime": "12/25/201702:25:01",
    "Comment": {
        "Content": "鱼竿厂瑟瑟发抖 花样作死有点多啊 一帮喷子又高潮了 “危险行业经营管理者要承担无过错责任”是在保护更多的人？本来大家都懂的常识，非得为防止几个脑残作死而增设安全配置，你以为配置不要成本？你以为那些成本只是由那些脑残买单？守规矩的永远都是大多数人好吧，而这些大多数人一直在分摊着脑残们催生的成本。这也是在维护大家的利益？ 死哪讹哪系列出新版了，继续更新 老公，忘了韩红吧，有我在你身边你还不知足... 我们的录橡机非常小，很隐蔽，用来欣赏她人洗浴，绝对安全，请翻查朋友圏：5铃久55久医7 同意4楼，明明是保护更多人的规则，这么多人喷，等他们家里的小孩哪天放风筝调皮挂到高压线就不会再喷了。法律把安全责任加给危险行业的管理者实际上是在维护更广大的人的权益。<br>类似的案子很多的，比如电梯，都知道电梯内不能跳跃，但每年都有很多小孩或者喝醉酒的在电梯内跳跃，出了事情电梯管理者一样有责任的。 欢迎收看死哪讹哪大型电视连续剧之高压电钓鱼! 我师傅当年在堡坎上屙尿，尿淋\b到高压电，坠落身亡，没讹 中国是法制社会[大笑][大笑][大笑] 医院死的要告医院吗？猪 人家法律上早就有排除性规定，能证明受害者是故意的，则危险行业经营者不承担责任。<br>你们就是一群法盲别在这丢人现眼了。<br>8楼说的那个不具体，不好判断。但法院肯定是认定为工伤了，因为他是在上下班的路上。你要有证据证明他下班去打麻将了，法院也不可能认定他是工伤 滚韩杂 一句话，现在世风日下不要脸好处多。 这样的事发生的频次多了，血的教训！ 成都的那個哈麻批趕快去跳府南河，估計能訛個250塊錢。 隔断时间就会出现这样的新闻，就是赔偿的数额不一样[窃笑] 那个四川傻逼，你去铁轨上躺着，看看死了赔不赔 在马路上以后告路政，飞机解体告空管，公海上告谁呢？ 高压线设计的这么低连个鱼竿都高不过，电死人敢说没责任？如果说没责任信不信电网公司敢把高压线设计成两米高？掉污水井里市政没责任信不信以后就拿个纸片盖到井上？明明是保护每个人的顾虑一帮傻x喷呀喷的！这些喷的谁家里人出事了不会去起诉那个单位？ 那个四川的它全家人都意外死，它能讹好多钱！ 自作孽不可活 按你这样子，给自杀者或者作死者提供一条达成心愿还能揽财的新思路。 等我差不多要死的时候我一定要找个地方讹 法律科普，你应该说下是那部法律哪个条款。易友可以去查证 完美，必须为这个壮士捍卫死哪讹哪的光荣传统点个赞[窃笑] 讹得到就讹，讹不到再说，反正又不用负法律责任，万一讹成功了呢！ 那么警示牌子要设置多少，几十公里的线是不是需要每米设一个警示牌? 高压线就应该围起来，设置警示标志！如果是自己家人没了，这些喷子还能这么说，你们真够理性！ 法院依法判决，很公平，这也喷？ 哎，能说什么？死了人的想搞点钱！前面法院又这么判过，就这样了！ 最关键的是这个牌子设不设立根本跟脑残是否作死无关，一块提示牌根本无法阻挡脑残作死的路，只能为脑残作死后讹多少钱的一个证据 难道不应该算到鱼的责任要是没有鱼他就不回去钓鱼也可以算到河的责任，哈哈也可以算到卖鱼竿的商店身上 我爸以前开塑料厂厂一个工人晚上打牌回家路上被车撞断了腿判我家赔了10w我tm觉得好冤啊 我弱我有理，我穷我有理 死哪讹哪系列 因为是弱势群体，闯红灯的行人被正常行驶的汽车撞了就应该得到赔偿；<br>因为是弱势群体，动物园下车被老虎咬了就应该得到赔偿；<br>因为是弱势群体，在医院里死了就应该得到赔偿；<br>因为是弱势群体，不顾警示标志下湖游泳淹死了就应该得到赔偿；<br>因为是弱势群体，在工厂宿舍里因为被男朋友甩了跳楼死亡就应该得到赔偿；<br>......<br>...... 把小命都钓去了 第一，正常人不会拿自杀去赚钱，要是想以这样死法赚钱还不如骗保来的实在和快捷。但是问题是正常人谁会?<br>第二，人命都没有了，危险行业管理者只是出钱而已。如果不加强他们的管理责任，说句简单的，以后我要是搬个高物走在路上都提心吊胆。 那它可发财了，再把它妈喂老虎，能讹好几百万呐😄 1楼和3楼两个法盲，连民法上危险行业经营管理者要承担无过错责任的法律规定都不懂！ 不懂别瞎喷，鱼竿＋线要是50米，是不是高压线就得设计到50米以上？ 你说的没用，就算围起来他要是进去，和现在的判决是一样的，供电部门还是要承担监管不利的责任，他想死谁也拦不住。 这个倒不是，电力公司活该罚款，设置警示标志是法规要求的，放美国如果没警示标志被电死，甭管死者有多作死，哪怕是自己爬到电线上电死，也是电力公司全责 说的对呀！我如果得了绝症，就租辆车去老虎园逛逛，反正是死，不如给家人留点钱。 告海王波塞冬 不用再爬出去可看外国的：0.gg/SyWzm打的开 龙王无误 真他妈能讹 什么叫无过错赔偿责任？如果一直这样儿，那这个国家要法律有什么用？只会增长恶人的嚣张气焰！ 哦呜挖 公海过不去，如果到了，怎么到的就告去的路 老雌，你实在是太…… 公海龙王 老公，忘了韩红吧，有我在你身边你还不知足... 我们的录橡机非常小，很隐蔽，用来欣赏她人洗浴，绝对安全，请翻查朋友圏：5铃久55久医7 不去 搞笑了 这年头只要敢做，什么地方都能赚大钱，野生动物园里下车，高压线下钓鱼，路上碰瓷 鱼竿厂瑟瑟发抖 看哪国的船最接近 死哪讹哪系列出新版了，继续更新 跟贴被火星网友带走啦~ 企业要规范 死那讹那 看到了 在马路上以后告路政，飞机解体告空管，公海上告谁呢？ 我觉得养鱼的有责任 死哪讹哪 告地球！！ 一帮喷子又高潮了 供电局够钱，不赔款会有民愤 看到了 这个判决结果再一次充分说明我国“人死为大”的传统观念，加上电力公司有钱，明显是照顾死者家属的意思。 高压线就应该围起来，设置警示标志！如果是自己家人没了，这些喷子还能这么说，你们真够理性！ 无过错责任？妈的哪国法律有次规定！车停在停车场熊孩子玩轮滑碰车上了，车主承担无过错责任！气的吐血了！ 告海警，为什么没有发现我们 就因为有你们这帮傻逼，社会底层生命才如草皆，怪不得到处是豆付渣工程，本文中受害者，全部责任吗？人家只是在哪钓鱼。 告世界 如果没水🐟怎么活，水也有责任啊 难道不应该算到鱼的责任要是没有鱼他就不回去钓鱼也可以算到河的责任，哈哈也可以算到卖鱼竿的商店身上 No作No带 现在假设，我给你围。见过火车沿线的围栏吗？城市高压线的数量比火车道怕是要高出个几十上百倍吧，请问你还要交通吗？而且，一个4.8米的高压线，怎么就不安全了，这不比围栏有用的多？你永远都无法阻止一个刻意作死的人 这判决笑话了，那么误判死刑的岂不是要赔偿50多万？然而呢？事实就是，谁有钱谁赔，有权的就不赔，或者少赔，简直就是一笑话。 真可以 人不要脸天下无敌！ 在医院门口死的，要告路政，交警，医院 中国法治意识你懂的 还警示牌，就这些人，有人看着这都不管用，该钓还得钓 好的 鱼竿为什么要导电？鱼竿厂老板瑟瑟发抖 公海告联合国 联合国 联合国 棒子？ 应该追究野草的责任。 看哪个方向的海了，参考哪吒闹海里的敖广，其他几个都是他兄弟 对黄某的死亡承担无过错赔偿责任。 必须联合国呀 讹得到就讹，讹不到再说，反正又不用负法律责任，万一讹成功了呢！ 联合国 死哪讹哪花样翻新层出不穷 朋友去钓鱼的也要赔不是[疲惫]喝酒死了做桌上的都有赔偿 能想到的全告 告联合国，而且在南京法院起诉。 傻鸟！ 惹毛了就告玉皇大帝 真流弊，还有新的讹人方法没 在马路上以后告路政，飞机解体告空管，公海上告谁呢？ 钓鱼钓多了，被鱼钓走了 告龙王爷 该死的鱼 真心是死哪讹哪！ 告联合国 宁夏中卫，大家都懂 告海王波塞顿 又是一个经典的捣糨糊判决！以后法院叫甩屎院比较合适 怎么这样啊 虽然供电公司给予了賠偿，但垂钓老者却因自己的重大过错，永远的离开了人世，广大的垂钓者一定要记住这一教训，这种事情永远都不要再发生！ 告联合国啊 法院的判决让人啼笑皆非！ 高压线就应该围起来，设置警示标志！如果是自己家人没了，这些喷子还能这么说，你们真够理性！ 多了呢，要看原因，比如造船厂，船级社，注册国船务，船东，船长，保险等等。 告造船厂 觉得鱼竿厂也应该负连带责任 千万注意高压线下不可钓鱼 和得一手好稀泥 也就是说，以后凡是想自杀的，那根钓鱼竿到高压电线下装作钓鱼，然后用鱼线触电自杀，都可获得几十万赔偿。 讹成功了，买房子的钱有了 躺着中枪！ 死哪讹哪系列 从不怨自己脑残该死 所有的评论都很精彩！为网友们点赞！难得意见这么统一 天降横祸。 应张贴相关危险謷示牌。 告船厂呀！你不生产船我怎么海？ 离谁近就告谁[窃笑] 联合国啊 海事局 你说的没用，就算围起来他要是进去，和现在的判决是一样的，供电部门还是要承担监管不利的责任，他想死谁也拦不住。 你说的惨与恶是你自己情感上的主观感受！法律不以此来裁定并受其干扰！我是法律工作者，请大家务必记住我多年总结的以下几点经验：法律示可违是你的权利，法律示不可为是你的禁锢，法律无示是法律的漏洞你可为可不为！上了法庭别说你干了活着没干什么，也不要表现的你很惨或很嚣张，这些都没有什么卵用！关键的关键是“你在法庭上能证明什么”！<br>从来不说脏话的，都被你们这帮法盲给逼的！操 无过错赔偿，无错也得赔中国法律无敌！ 不管谁的责任，人没了赔偿多少钱有什么用。 死哪讹哪系列出新版了，继续更新 我也不知道是什么限制了我的想象力，这家属太有才了 告联合国秘书长 无过错都要赔37万！真好。以后记得，找一些病入膏肓的人，和对方家属商量好，约定金额……下面的事情不用明说了吧！ 自己不注意怪谁 告龙王 我怎么觉得自己随时成为被告呢，活着提心吊胆 如果你是请教问题，那我可以告诉你是国标电力安全工作规程中规定的。原话自己查，别跟啃老族一样只会伸手问人要。另外，有不懂的问题好好问，别阴阳怪气的。 法院判决有偏，如果是被电伤害的人都起诉电力公司，那大家都没电用了。开车出车祸，难道你还要去追究汽车生产厂家吗？[疑问] 先告联合国，其它国家举证，不举证具有连带责任。请参考楼下被花盆砸死，整楼赔偿。 这条河是谁管理的？ 法院是傻逼！ 告上帝 糊涂僧判断明白案！ 呵呵🤭鱼是有很大责任的～ 这跟出车祸应该是一样的。 记得读书时候，同学爸爸也是钓鱼碰高压线触电身亡，哎！ 支持，快赔吧，谁让它从今年电费越来越贵了 在马路上以后告路政，飞机解体告空管，公海上告谁呢？ 河长也有责任，告！ 应该告那条鱼 告联合国 那个四川傻逼，你去铁轨上躺着，看看死了赔不赔 4楼，在查询你说的那个国标之前，我还是想问你一下，你在二楼说的可是“法规”呀？难道在你心目中，“国标”等同于或属于“法规”吗？ 飞机解体难道你还自认倒霉？ 一帮喷子又高潮了 完美，必须为这个壮士捍卫死哪讹哪的光荣传统点个赞[窃笑] 应该告挖河塘的 是他背景厚吧，不然你去死看看，人家鸟都不鸟🐦你 我真的是服了这些人。 呵呵哒 🐠儿笑了。 告联合国 死哪讹哪 下雨天走滑倒了也要告路政，路上没有放警示牌下雨天小心路滑 死哪儿讹哪儿<br>这特么法律是怎么了？<br>每次都能颠覆普通人的认知 你在公害上飘呢？你是怎么到公海的？又在公海做什么，讹人，只有你想不到没有你做不到的！！ 死哪讹哪系列 我觉得楼上除了我们这个四川老乡你们才都是傻逼！整天脑子相的都是讹钱，讹你MMP! 傻逼，勒索少了，应该把国家电网，钢铁厂，油漆厂，螺栓厂，钓鱼竿长，钓鱼线厂一起告了，可以索赔760万元的! 防不胜防 告联合国 ？？？？ 告联合国！ 这个倒不是，电力公司活该罚款，设置警示标志是法规要求的，放美国如果没警示标志被电死，甭管死者有多作死，哪怕是自己爬到电线上电死，也是电力公司全责 我们去钓鱼，用手杆，离高压线30米，用海杆，离高压线(直线距离)/00米，。嗳，你如果吃饭被噎死了，还可以告农业部，告他为什么不提示:要慢慢吃 为了钱脸都不要了好一个无过错赔偿责任 联合国 鱼竿厂瑟瑟发抖 看看怎么判 当然是告轮船公司了，谁让轮船公司把人送到公海的呢，要不然人就不会死[惊讶] 很多钓竿都在包装说明提醒防止触电等等.尤其是碳纤钓竿.不会玩钓还能怪供电厂？ 我这里也有类似情况高压电下太底人家扛着鱼杆还触电，弟一个人触到了倒下几分钟后起来还不知道怎么为事，弟二个触到才知道触电才去告供电局才得到补偿 东海龙王打了个冷颤 地球的责任你特么造那么多水干嘛 告地球，告全世界 老公，忘了韩红吧，有我在你身边你还不知足... 这水务局是不是也得赔啊？要是早把这条河封闭起来就没人钓鱼了吗？这鱼也得赔钱啊，这水里要是没有鱼不就没事了吗？还有卖鱼竿的，知道碳纤维鱼竿导电也不在杆上印个说明；还有鱼竿厂家，鱼竿不绝缘怎么减少人身伤害？还有碳纤维发明人，知道这玩意儿做成鱼竿会电死人吗？电力公司也是，弄那么高压干啥？就得赔，都得赔，必须陪~<br>操 死哪讹哪 我讲个笑话，中国发质。 看到了 江河管理局瑟瑟发抖 跟贴被火星网友带走啦~ 听闻早已关门跑路 一群书呆子法官毁灭中国人 10千V高度4.5米？ 在马路上以后告路政，飞机解体告空管，公海上告谁呢？ 告船厂 看到了 高压线有绝缘一样电死人 因为这种死法太舒服了，死了还能赚钱，赚国家的钱，想想都美 人类的希望 地球的责任你特么造那么多水干嘛 告地球 告联合国海洋署~ 河塘瑟瑟发抖 跳楼的讹盖楼的吗？知道会摔死人还盖那么高。 还是裸线？ 高压线就应该围起来，设置警示标志！如果是自己家人没了，这些喷子还能这么说，你们真够理性！ 法律上称呼非正常死亡人口为“受害者”，这个你得知晓！法律是目前最公平公正的，至少比网易回复区要公平公正！支持法律遵守法律是对自己也是别人负责！主观意识的抱怨没有任何意义，只能让人陷入无穷无尽的怨念！失去美好的心情，让世界变得暗淡无华！ 走在路上卡死了，可以告交通和公路局！下雨不进屋淋死了，可以告国家气象局！<br>卫生间洗澡淹死了，可以告自来水公司！总之在中国只要发生意外死亡，你就可以告，都有无过错责任！ 对的，就因为是弱势群体。中国就是这样。或许情理上都说不过去，但是他们是弱势群体，他们抵抗风险的能力要比别人低很多，走投无路的情况下可能会做出更多危害社会的情况。所以要对弱势群体关照。 联合国 不作会死吗 坐谁的船去的就告谁。自己的船就告保险公司。遇到这种事，只能说倒霉。 卧槽，供电局无过错责任承担60%，重大过错责任的死者承担40%，哪位法律界人士来解释下 鱼塘的用地也是瑟瑟发抖 这都能赖上？ 这个社会没理可讲，水库都发抖了 我艹，还有这种操作，碰瓷新方法又添加了一个 如何解决 跟贴被火星网友带走啦~ 🧚🏾‍♀️ 你说的没用，就算围起来他要是进去，和现在的判决是一样的，供电部门还是要承担监管不利的责任，他想死谁也拦不住。 的确吓得不轻。 😄 鱼竿厂瑟瑟发抖 豬也在想這個問題 新闻没有评论好看。 对电力公司没有吧高压线围起来没有给每个人配一个安全员。。。。。 我家狗抓鱼淹死了，我准备告水利局……有没有把握赢？着急，在线等…… 现在人为了讹钱都不要脸了，只会推卸责任 一家子不要逼脸 高压线不足5米确实低了。现在很少有低于15米的 鱼都吓死了 都说无责了还要担60%，那不就是扯蛋么 只要你不是死在家在哪儿都可以讹钱 可以告，反正现在是一个乱七八糟社会，你不称火打劫。更等何时。 告龙王 难怪被电死！有这样不要脸的家人真是奇葩！下次被雷劈死就告雷公去吧！ 抛钩——沾水——甩钩——高压电——哔哩哔哩 死哪讹哪系列出新版了，继续更新 很有可能是拍抖音，快手，YY视频系列的 死哪讹哪，名不虚传！如果咱是法官，直接爻回，让他自食苦果！ 刚才放了个屁，不知道会不会有人来索赔，吓死我了 猪也是这么算的，哈哈 河政哪去le 一分都不能赔 在马路上以后告路政，飞机解体告空管，公海上告谁呢？ 这是有法律依据的，正当维护自己的权利，不是讹 不要脸 以后想自杀的，买一根鱼竿，找个高压线的河边，这样死还能给家留点钱，也算没白死一回。 联合国 鱼饵厂家晕倒在厕所里！ 责任者：钓鱼人，养鱼人，鱼塘所有人，鱼塘承包人，鱼杆售卖人，鱼杆厂家，鱼线厂家，鱼漂厂家，鱼钩厂家，等等！ 别的国家法律是为了保护守法者的利益，我们的是为了保护违法者的利益。 完美，必须为这个壮士捍卫死哪讹哪的光荣传统点个赞[窃笑] 电力公司存在严重安全隐患，赔钱了事算便宜了。有这样的安全隐患检查部门是怎么给盖章通过的？ 告公海！连着所有国家！ 猪！该死！ 有几个人看完整编新闻内容的，在这里瞎喷。受害人钓鱼附近没有任何明显高压线警示牌的标志，供电局难道不需要承担部分责任？如果行人路上那些高压电路设施，没有警示标语提示，谁知道是高压设施。警示标志虽不能阻止一些脑残行为，但至少也能提醒正常人防范，降低出现伤亡的概率吧，总比没有任何提示强。 哈哈哈哈哈哈哈哈哈哈坐等判决，如果真的被判决，新一轮讹人新法又来了 靠，就是这些法官的糊涂判决，造成现在社会公共道德水准的大幅跌落。这个法官应该开除！ 死在哪就讹哪 鱼：快溜…赔不起……… 无过错赔偿？我能爆粗口么。没有过错我为什么还要赔偿？中国法律真的博大精深 哈哈，好搞笑。 难道不应该算到鱼的责任要是没有鱼他就不回去钓鱼也可以算到河的责任，哈哈也可以算到卖鱼竿的商店身上 安全意识淡薄。 家属索赔的有点少！！！ 风光66 风光66 没有安全警示标，这个是钱。 还有他穿的衣服，服装厂。。。衣服没有起到隔电效果 我要状告水里的鱼 高速超速撞死的是不是也能索赔了你高速公路上为什么没有让车子不能超过一定速度的装置、、、 水利局没有安全措施防止你家狗淹死。所以要赔偿 脑子有问题，电线下面钓鱼不早死么？你见过野外有220V一下的电线么？再说警告标志不可能每隔一米一个吧，中国这么大，难道电线下面摆满警告标示？ ",
        "Total": 102013,
        "Link": "http://comment.news.163.com/news_shehui7_bbs/D6FGN4FT0001875P.html",
        "Reply": 6666
    },
    "Article": "（原标题：男子钓鱼触电身亡家属向供电公司索赔63万元）广西新闻网-南国今报柳江讯男子黄某在河边钓鱼，没想到却发生了悲剧：因为钓鱼时身处高压线下，不慎触电身亡。黄某家属将柳江供电公司起诉至柳州市柳江区人民法院，请求法院判决供电公司赔偿各项损失63万余元。近日，柳江区法院对该案作出一审判决。5月7日，黄某与朋友韦某等人前往柳江区进德镇一条小河边钓鱼，在钓鱼过程中黄某被高压线电击倒地，韦某等人紧急拨打急救电话将黄某送往医院抢救，黄某经抢救无效死亡。黄某家属认为，事故发生地的高压线路属于柳江供电公司经营管理，事故发生时，该地点附近没有设置任何安全警示标志，通往河边的小路边草木茂盛，严重遮挡行人观察高压线的视线。因此，柳江供电公司作为事故地点高压线路的经营者，应当承担侵权责任。供电公司则认为，黄某是否因触碰高压线路触电身亡存疑，仅有医院的死亡证明，未经公安或有关鉴定机构鉴定，不足以证明其是触碰高压电身亡。且该地点高压电线高为4.85米，符合有关规定中关于10KV高压输电线路通过交通困难地区应高于4.5米的相关规定。事故发生地点已经悬挂有警示性标志，且柳江供电公司只是电力运营企业并非电力管理部门，没有设立安全警示牌的义务。同时，黄某作为完全行为能力人，明知高压线下钓鱼存在重大安全风险，手持3米多长的鱼竿在架空电力线路保护区内钓鱼，其行为本身违反了《广西电力设施保护办法》相关规定，存在重大过错，造成损害后果应由黄某自己承担。柳江区法院经审理后认为，医院出具的出诊记录单和死亡证明书及证人证言，均证明黄某因触电电击伤休克死亡，柳江供电公司对黄某死因有异议，却未能提交相关证据。在本案中，黄某死亡属高压电致害，根据《侵权责任法》的规定，从事高空、高压、地下挖掘活动或使用高速轨道运输工具造成他人损害的，经营者应当承担侵权责任，柳江供电公司作为涉案高压电输电线路的经营者，应对黄某的死亡承担无过错赔偿责任。而黄某作为完全民事行为能力的成年人，明知高压电具有相当危险性，仍到高压电下垂钓，鱼竿触及高压电线，造成自身身亡，其行为属重大过错，对自身的死亡负有责任，故可适当减轻柳江供电公司的赔偿责任。柳江区法院综合全案情况，一审判决柳江供电公司承担60%的赔偿责任，向黄某家属赔偿各项损失共计37万余元。本文来源：广西新闻网-南国今报责任编辑：李天奕_NN7528",
    "Title": "男子高压线下钓鱼触电身亡 家属向供电厂索赔63万_网易新闻"
}