{
    "Article": "震惊！吴亦凡在外国街头摊煎饼果子表情亮了网曝一组吴亦凡参加了一个外国美食节目的录制视频。视频中，吴亦凡在摊煎饼果子，然而鸡蛋竟然从面饼上滑走了！凡凡的表情也是很可爱了，眉毛起飞。",
    "PublishTime": "01/03/201811:24:11",
    "URL": "http://ent.163.com/photoview/00AJ0003/647136.html",
    "Source": "Netease",
    "Comment": {
        "Content": "加拿大炮王终于滚出中国了，希望以后别来了 颜值开始走下坡了 有些明星确实太那个了拜拜 加拿大宋小宝 沃尼玛以为宋小宝，点进来看才知道吴亦凡！ 没有绯闻的明星不叫明星 原来明星就只能跟贪官、侏儒比一比 沃尼玛以为宋小宝，点进来看才知道吴亦凡！ 丑死了 好丑，削腮骨、垫下巴，腮骨削过了点 加拿大宋小宝 原来明星就只能跟贪官、侏儒比一比 加拿大炮王终于滚出中国了，希望以后别来了 加拿大泰迪真是多才多艺，果然不是浪得虚名~~~在下杭州小钢炮有礼 有些明星确实太那个了拜拜 没有绯闻的明星不叫明星 吗了隔壁，明显吃屎都是香的，顺便好久没骂了，李易峰你吗个大傻逼 加拿大炮王 颜值开始走下坡了 ",
        "Reply": 12,
        "Total": 1002,
        "Link": "http://comment.ent.163.com/ent2_bbs/PHOTJNV0000300AJ.html"
    },
    "Title": "震惊！吴亦凡在外国街头摊煎饼果子表情亮了_网易娱乐",
    "KeyWords": "吴亦凡,"
}