{
    "Source": "Netease",
    "KeyWords": "沙特,王子,萨勒曼,黎巴嫩",
    "Title": "央视详解2017沙特权力格局变动 揭\"地表最强\"王子_网易新闻",
    "PublishTime": "12/25/201711:29:38",
    "URL": "http://news.163.com/17/1225/11/D6GFSB2J0001875O.html",
    "Article": "（原标题：“地表最强80后”的大计划）岁末年终，央视新闻新媒体推出特别策划《我眼中的2017》——以央视驻外记者的个人视角观察2017年国际局势的变化、感知世界发展的脉动。本期，央视驻沙特记者李超为您详解2017年沙特权力格局的变动。本文相当有看头。△沙特王储穆罕默德·本·萨勒曼维基百科显示他出生在1985年8月，一些西方媒体甚至猜测他可能比这更年轻，之所以刻意把年龄说得偏大，是希望显得更加老成。刚步入而立之年的他，是沙特历史上最年轻的王储，掌握国家经济和军事大权，更被美国《时代》周刊网络票选为2017年度人物，被网友称为“地表最强80后”，他就是“小王子”——穆罕默德·本·萨勒曼，西方外交官们更惯常称呼他为“MrEverything”。年少得志“小王子”万人之上与沙特王室很多成员自幼在西方留学不同，穆罕默德王子在国内沙特国王大学念的法律，毕业后进入了商界。彼时，穆罕默德在几千名沙特王子中，并无特别之处。2009年，穆罕默德步入政坛，担任父亲萨勒曼亲王的政治顾问。2015年1月，79岁的萨勒曼亲王继位成为沙特国王，随后任命小儿子穆罕默德为国防大臣。这个时候，外界才开始把目光投向这位年轻的王子。几个月后，萨勒曼国王废黜了自己同父异母之弟——穆格林亲王的王储职务，立侄子纳伊夫王子为王储，同时任命儿子穆罕默德成为副王储。2017年6月21日，穆罕默德被扶正成为王储，沙特正式进入了父子“二人转”时代。△左至右：王储穆罕默德、国王萨勒曼、前王储纳伊夫2017年初沙特街头随处可见“三巨头”海报，现在已是“二人转”两年时间，穆罕默德以“火箭速度”升为“王储”，打破了“兄终弟及”的继承传统，这在沙特历史上十分罕见。笔者从2015年4月初开始在沙特利雅得驻站，初来乍到，就知道了“穆罕默德”这个名字，当时根本没有意识到，今后近三年，特别是2017年整年的工作内容，将与这位和我一样是80后的年轻人紧紧关联。新储上任国内外“火烧正旺”穆罕默德王子，在登上高位之前并没有在地方任职的经验，引来了外界对其经验欠缺的质疑。但这丝毫没有影响他实践自己的政治主张，特别是父亲萨勒曼的信任和放权，似乎也推动“小王子”释放着自己的能量。第一把火：国防外交担任防长伊始，穆罕默德便将代号为“果断风暴”的军事行动吹向也门，战火燃烧至今至仍无收兵之意。2017年3月，穆罕默德访美，成功劝说特朗普将其出国访问的首站放在沙特；5月特朗普访问沙特期间与美国签订的千亿军火巨单的，也正是穆罕默德主导的国防部；6月，沙特等国以卡塔尔干涉他国内政和支持恐怖主义为由与其断交，海湾阿拉伯国家合作委员会遭遇自成立以来最大的一场危机；11月，伊斯兰反恐军事联盟首次防长会议在沙特首都利雅得召开。一连串如此重大的决策，想必也只有萨勒曼父子才能拍板。△穆罕默德和特朗普第二把火：经济改革外交上风风火火，“小王子”在内部改革上更是雷厉风行。在经济领域，穆罕默德矢志改变沙特依赖石油收入的局面。2016年他提出“2020国家转型”和“2030愿景”改革计划，今年更推出更多具体倡议——既有在沙特西北部兴建新城以吸引外资，发展高科技产业和服务业等非石油产业的宏伟蓝图，又有为促进国内旅游和文化产业发展而建设“娱乐城市”和“红海工程”的庞大计划。据不完全统计投资总值超过15000亿美元。与此同时，沙特密集表态，并与其他产油国，特别是俄罗斯积极磋商，联手实行石油冻产和减产计划，以持续提振油价，为王储提出的世界最大石油公司——沙特阿美石油2018年上市计划做好铺垫。第三把火：社会改革社会生活领域，王储的改革大刀阔斧，受到民众的欢迎：首次允许公立学校女生开展体育活动；首次允许女性驾车；允许女性进入沙特三个大型体育场，与男性一起观看比赛；允许向有意愿且资质合格的企业发放开设影院许可证，第一批电影院预计在明年3月开放。△2017沙特国庆，女性首次进入体育场10月，穆罕默德在正式场合表示，将让沙特回归“温和的伊斯兰国家”。他是这么说的，目前为止也是这么做的。他在试图转变沙特极端封闭保守的形象，塑造一个“温和开放”的沙特。11月4日利雅得吸引世界目光沙特当地的周末是周五和周六两天。2017年11月4日本该是平淡无奇的周六，但世界媒体的目光却在当天都投向了沙特。更确切地说，是首都利雅得。如果有人撰写沙特当代史的话，对“11月4日”一定会有浓墨重彩的描绘：1、中午时分，到访利雅得的黎巴嫩总理哈里里突然宣布辞职，指责伊朗干涉黎巴嫩等地区国家事务，并称自己生命安全受到威胁。最终，在法国斡旋下，哈里里回到黎巴嫩并收回辞呈；2、晚上九时，利雅得哈立德国王国际机场方向传来爆炸声，沙特防空部队随后宣布，导弹被反导系统成功拦截，机场航班正常起降，运行未受影响。沙特为首的多国联军随即对胡塞武装军事据点展开报复性空袭行动；△沙特边境炮击胡塞武装军事据点3、午夜时分，沙特国家通讯社发布消息，萨勒曼国王颁布国王令成立以穆罕默德王储为主席的最高反腐委员会，并以涉嫌贪腐和洗钱为由，拘捕了11名沙特王子以及数十名高官，其中包括“中东首富”瓦利德王子、沙特国民卫队大臣以及前国王阿卜杜拉之子子米特阿布王子。不少被捕的人至今仍被关押中。△阿拉伯的富人们，其中几个已被沙特逮捕。中间为瓦利德王子。这一天发生的一连串事件看似孤立，实则彼此关联。外界普遍认为哈里里辞职与沙特关系密切，旨在向伊朗支持的黎巴嫩真主党施压。穆罕默德王储在与伊朗关系问题上一贯强硬。在沙特看来，伊朗企图与伊拉克、叙利亚和黎巴嫩真主党共同打造“什叶派之弧”。而力争做逊尼派国家，乃至阿拉伯和伊斯兰世界领头羊的沙特则无法袖手旁观。现有也门战场久攻不下的情况下，开辟黎巴嫩作为博弈的新战场似乎也是一种选择。如果说哈里里辞职和导弹袭击机场事件中，“小王子”在老辣的伊朗面前还稍显被动，那么反腐行动，可以说是穆罕默德意图革除社会腐败顽疾而主动放出的一击重锤。短短数日内，数十位沙特政商界高层人士被捕，超过500人被革职或拘留，数千个银行账户被查封。笔者接触到的沙特民众无不为之击节。因缘际会?“小王子”的迷茫与希望石油是沙特最大，也是到目前为止唯一的经济支柱。沙特“石油土豪”的印象在中国都深入人心。凭借丰富的石油资源，沙特不仅可以满足国家基本需求，维持国民较高福利；还能购买世界先进武器，维护国家安全；甚至以石油为武器，跟世界大国讨价还价。但这样的好日子，伴随着能源科技的发展和国际油价的低迷一去不复返了。经济上的窘境，必定使得沙特长久以来的政治稳定开始松动。△沙特阿美石油旗下的炼油厂作为外界公认的世界最保守国家之一，沙特至今严格以伊斯兰教法治国，根源要追溯至建国之初沙特王室和“瓦哈比教派”结盟的政治格局。瓦哈比长老们主张“回归《古兰经》”，恢复先知穆罕默德时期伊斯兰教的“正道”，追求一切生活应当简单如一千多年前的社会。在一个生产力相对不足的农耕经济或游牧经济的世界中，这种方式也许有助于人们维持一个不错的道德水准。在社会福利相对良好的情况下，国民也有可能满足于生活中的“小确幸”。但当石油美元不再像潮水般涌来，再试图简单地通过教派说教劝导国民继续安于本分，已经开始变得不切实际。与其说是“小王子”开始了社会变革，不如说，沙特从王室到整个社会在选择变革领路者时正好遇到了他。只是前路如何，还难以估量。政治角度来说，从保守的“瓦哈比主义”立国转向“温和的伊斯兰”，迎合了民众渴望开放和自由的心态，重塑了国家形象。虽然方向正确，但是这种铁腕做法显然会触动利益集团的“奶酪”，反腐行动就是最好的例子。原本相对稳定的精英阶层，甚至一部分王室成员可能因为“小王子”违背“祖训”而站在他的对立面，宗教保守势力也有可能施加压力。另一方面，随着改革步伐推进，权利意识觉醒，当沙特民众发现没有一个有效的意识形态将其聚拢起来，或者社会改革速度不能满足他们的要求时，民众的目标有可能直指现有的政治体制。△沙特解除女性开车禁令。沙特妇女挑选汽车。经济方面，“小王子”用“2030愿景”给全世界画下一张“巨饼”，并成立了世界上最大的主权财富基金。但经济转型所需要的4万亿美元投资仅靠沙特阿美石油的上市可谓杯水车薪。狡黠的国际投资者乐于为“小王子”站台，但会不会用真金白银为他的雄心壮志买单也很难说。2018年，沙特将祭出史上最高财政预算来刺激经济增长，但就连沙特自己也不得不承认，2017年的国内生产总值预计将出现八年来的首次负增长。非石油产业收入2017年增长38%的成绩固然可喜，但其总量也仅仅与年度财政赤字基本相当，收入多样化与石油经济衰退二者之间赛跑的结果，只有时间能告诉我们答案。“小王子”和扎克伯格“小王子”对外介绍2030愿景曾经有一位记者向穆罕默德提问说，“沙特就像一台轮胎破旧、引擎老化的老爷车，怎样才能配得上雄心勃勃的年轻改革者？”“小王子”回答说：“这辆车必须向前进，如果不行，我就会替换它。”2018年，“小王子”的大计划能否一步步走向成功，我们拭目以待。毕竟，沙特这辆老爷车关系着海湾和中东，乃至整个世界的稳定。本文来源：央视作者：李超责任编辑：邵小波_NN2479",
    "Comment": {
        "Content": "瞎说，美国说这是中东最皿煮的国家！ 封锁也门海运，造成了人道危机，这个国家俨然成了霸权主义！ 曾经有一位记者向穆罕默德提问说，<br>“沙特就像一台轮胎破旧、引擎老化的老爷车，怎样才能配得上雄心勃勃的年轻改革者？”<br>“小王子”回答说：“这辆车必须向前进，如果不行，我就会替换它。” 地表最强我只服嗯嗯 跟嗯嗯比，你们都是渣！ 好的 老爷车，很形象 从小在这片土地长大的王子，真正深爱着自己的国家和人民 然后就绑架勒索有钱人？ [疲惫][疲惫]跟我同年同月生！怎么差距那么大呀 高级黑 额恩恩没他有钱吧 封锁也门海运，造成了人道危机，这个国家俨然成了霸权主义！ 跟嗯嗯比，你们都是渣！ 那也得感谢他伯伯守规则，以及他爸爸身体好以及不守规则。能力在这里是第二位的 加油 我还以为沙特是邪教恐怖分子独裁国家(σ՞ਊ՞)σ 地表最强我只服嗯嗯 恩恩有核武器啊，他才是最屌的80后 如果还有人记得一九五三年左右的时光，可能会想起那时地球上人类莫名的激情，为了些个蝇头小利或是其他，挣得你死我活不可开交，还是讲故事吧，有个传说，你不要当真，听听罢了！六十一甲子，六十四呢，当然是伏羲八卦了，什么啊？八八六十四嘛！我要说的是拜拜，六十四年，地上的人类要向上苍交税，为毛呢？因为这六十四年中有杀婴儿有虐待动物虐待弱者有逼迫官帽子家的子弟替自己去流浪折腾自己替自己去死去杀人等等等等，接着，便是我一直告诉大家的，忘记，然后停下来，不然，后五百年的磨难已经到了！这个说的不是地母这边，而是几乎针对所有人，怎么个交税呢？那就是砸烂一切，重新开始！时间估计要持续差不多二十三年，或是更长，那么，大家的日子会是什么样呢？身无分文骨肉相残互相倾诈流浪天涯病无所医老无sun养反正就是乱世如果谁寄希望做乱世枭雄，那么，我可以明确的告诉你，你是痴心妄想！这样的向天交税，越有所图，越什么都没有，人心的诚意会成为你是否能活下去的唯一标准！几乎丧命于路途，所幸回到了山中，看看这几天人世的变迁，更感慨世事无常，不要咬文爵字了，不要再去Pk，因为从开始就是几败俱伤，没有赢家。 然后就绑架勒索有钱人？ 曾经有一位记者向穆罕默德提问说，<br>“沙特就像一台轮胎破旧、引擎老化的老爷车，怎样才能配得上雄心勃勃的年轻改革者？”<br>“小王子”回答说：“这辆车必须向前进，如果不行，我就会替换它。” 沙特就像一台轮胎破旧、引擎老化的老爷车，怎样才能配得上雄心勃勃的年轻改革者？”<br>“小王子”回答说：“这辆车必须向前进，如果不行，我就会替换它。” 既然这样把你送到也门去你的朋友最多 从小在这片土地长大的王子，真正深爱着自己的国家和人民 网友称为“地表最强80后”，他就是“小王子”——穆罕默德·本·萨勒曼<br><br>恩恩呢？ 瞎说，美国说这是中东最皿煮的国家！ …… [疲惫][疲惫]跟我同年同月生！怎么差距那么大呀 好的 老爷车，很形象 能够从几千个王子中，脱颖而出，他本身应该有水平。至于改革，是顺应社会潮流发展。但是，改革的结果，普通沙特人是否做好承受准备？ vuhhhhh 从美国给以色列充当保护伞而不管沙特来看，现在什叶派壮大无比，沙特处境很艰难呀。 地表最强80后…不是正恩欧巴么 ",
        "Reply": 25,
        "Link": "http://comment.news.163.com/news_guoji2_bbs/D6GFSB2J0001875O.html",
        "Total": 143
    }
}