{
    "Source": "Netease",
    "PublishTime": "12/26/201704:31:51",
    "KeyWords": "胡歌,自拍,鼻屎,休闲服",
    "Title": "胡歌凌晨搞怪仰脸自拍 网友：只见鼻孔_网易娱乐",
    "Comment": {
        "Link": "http://comment.ent.163.com/ent2_bbs/D6IAC2KQ00038FO9.html",
        "Total": 281,
        "Content": "胡歌这两天应该是在演话剧，他那个话剧舞台有个设计叫莲花池，观众坐在池里看他们在台上演，大概都是这样的。 老胡最近突然画风变了是不是有对象了！ 哎喲我胡又调皮了！🤗🤗😘😘 喂，110么，有人拿鼻孔瞪我 我的胡歌好帅 就是妈宝男累事才没女朋友吗 这孩还真会玩 没想到你还有这么搞怪的一面 还有鼻屎，哈哈哈哈哈。 胡歌凌晨搞怪仰脸自拍网友：只见鼻孔 好看 整多了飘了吧！ 老胡又喝高了 说出你的故事 我有个大胆的想法[微笑][微笑][微笑] 老胡自娱自乐路上越走越远了 有鼻屎 小道消息，听说他这两天要公布恋情了。 都看见鼻孔里的毛了哈哈 我看到了这个鼻孔有一个大胆的想法，不知道当讲不当讲各位 没看见鼻屎，可以看见郁郁葱葱的鼻毛 喝多了吧，老胡 哈哈 老胡自娱自乐路上越走越远了 我一笑起来黑眼圈也超重的 整多了飘了 啥时候结婚囍 哎喲我胡又调皮了！🤗🤗😘😘 下次是什么搞怪动作？ 胡歌这两天应该是在演话剧，他那个话剧舞台有个设计叫莲花池，观众坐在池里看他们在台上演，大概都是这样的。 喂，110么，有人拿鼻孔瞪我 大陆炮王! 有鼻屎 我的胡歌好帅 没想到你还有这么搞怪的一面 就是妈宝男累事才没女朋友吗 这孩还真会玩 喝多了吧，老胡 还有鼻屎，哈哈哈哈哈。 胡歌凌晨搞怪仰脸自拍网友：只见鼻孔 好看 整多了飘了吧！ 老胡又喝高了 右鼻孔真恶心🤢 说出你的故事 我有个大胆的想法[微笑][微笑][微笑] 再不拍戏人气就没了 毕竟颜值高 有鼻屎 小道消息，听说他这两天要公布恋情了。 都看见鼻孔里的毛了哈哈 老胡最近突然画风变了是不是有对象了！ 我看到了这个鼻孔有一个大胆的想法，不知道当讲不当讲各位 没看见鼻屎，可以看见郁郁葱葱的鼻毛 还没去美国上学？ 哈哈 说的，可能是圣诞节 ",
        "Reply": 34
    },
    "Article": "胡歌网易娱乐12月26日报道12月26日凌晨，胡歌晒出一张自拍照，并配文：“呵呵，我就笑笑，我就这么看着”。照片中，胡歌一身休闲服，仰起脸对镜自拍，十分逗趣。网友们纷纷表示：“这就是传说中的用鼻孔看人吗？”“真的不要偶像包袱了！”“我好像看到了鼻屎”。本文来源：网易娱乐责任编辑：陈少杰_b6952",
    "URL": "http://ent.163.com/17/1226/04/D6IAC2KQ00038FO9.html"
}