{
    "PublishTime": "12/27/201710:59:03",
    "Source": "Netease",
    "Comment": {
        "Link": "http://comment.news.163.com/news2_bbs/D6LITPCV0001899N.html",
        "Total": 159,
        "Reply": 14,
        "Content": "慢慢就习惯了，好霸气的谈话，支持！ 祖国大陆军机绕台例行训练，台湾同胞不要觉得特殊！都是我们的家！ 解放台湾，刻不容缓 好、鼓掌 霸气的回应 这霸气侧漏啊，习惯了就好 我们一定要解放台湾 支持 例行训练，习惯就好😊！ 会习惯的 我们一定要解放台湾 习惯就好 这霸气侧漏啊，习惯了就好 支持 巧妙的有力回答！ 例行训练，习惯就好😊！ 慢慢就习惯了，好霸气的谈话，支持！ 祖国大陆军机绕台例行训练，台湾同胞不要觉得特殊！都是我们的家！ 好、鼓掌 霸气的回应 霸气 台湾就是中国不可分割的一部分…… 解放台湾，刻不容缓 "
    },
    "Article": "（原标题：国台办谈解放军军机绕台:例行训练慢慢就习惯了）海外网12月27日电?12月27日上午，国务院台湾事务办公室举行例行新闻发布会。国台办发言人安峰山就两岸政党交流、两岸军事互信和两岸文化往来等热点问题回答记者提问。有记者问，解放军本月17、18、20日连续派军机绕台飞行，并在17日发布了名为《绕岛巡航》的宣传片。请问发言人，这些举动有何深意？下一步会进行常态化的绕岛飞行吗？另外，请问新党主席郁慕明昨天表示，将成立“新党服务委员会”，与中共中央台办的相关部门对接。请发言人介绍一下相关情况。安峰山表示，您的第一个问题，国防部和国台办的新闻发布会已经多次明确表示过，这是计划内的例行性训练，大家慢慢就习惯了。您的第二个问题，我们乐见并支持新党在促进两岸交流合作、服务两岸同胞方面发挥更大的作用。本文来源：海外网责任编辑：王征_NN7526",
    "Title": "国台办谈解放军军机绕台:例行训练 慢慢就习惯了_网易新闻",
    "URL": "http://news.163.com/17/1227/10/D6LITPCV0001899N.html",
    "KeyWords": "国台办,解放军,军机"
}