{
    "Title": "澳大利亚悉尼一架水上飞机坠毁 机上6人死亡_网易新闻",
    "PublishTime": "12/31/201716:24:32",
    "URL": "http://news.163.com/17/1231/16/D70F4L6V0001899N.html",
    "Source": "Netease",
    "KeyWords": "悉尼,澳大利亚,飞机",
    "Comment": {
        "Reply": 32,
        "Content": "新年啦！希望大家都平平安安的 活该，[大笑][大笑][大笑][大笑][大笑]马屁精 人生就像走猫步：左一步、右一步。且活且珍惜！ 珍惜眼前给我点赞长命百岁 年都没跨过去 无辜的生命，寻奇的故事 飞机出事后存活率太低了 [被黑] 为什么不是澳大利亚人？ 天灾人祸，且活且珍惜 不太平啊 还是活着好 澳洲好多这种观光飞机没想到也不安全呢 澳囚：这一定是中国的干涉造成的 水上飞机到水上来应该是安全的 珍惜眼前给我点赞长命百岁 一路走好 活该，[大笑][大笑][大笑][大笑][大笑]马屁精 无辜的生命，寻奇的故事 怎么喷？在线等挺急的～ 年都没跨过去 乐极生悲 为什么不是澳大利亚人？ 不坐飞机可以，我就不信你不打飞机 保险公司要出血了 不太平啊 就坐过一次飞机✈️，不想再坐了 飞机上一共几个人？ 老天要你死，喝水都得死。 飞机应该给每个作为弄成救生舱，出事完全封闭，里面有氧气，有食物，存活率应该高不少，每个都安装上gps,可以定位到。 飞机出事后存活率太低了 澳囚：这一定是中国的干涉造成的 天灾人祸，且活且珍惜 天朝人玩命的活着，外国人活着玩命。 新年啦！希望大家都平平安安的 17年最后一天的终结者，走好! 人生就像走猫步：左一步、右一步。且活且珍惜！ 送这么大一份新年贺礼 这飞机是做什么的？从哪里来又往哪里去？ 好好活 [被黑] 真吓人。不坐了！ 群死群伤。孤独的人，胜利。 这种飞机也太旧了吧 ",
        "Total": 408,
        "Link": "http://comment.news.163.com/news2_bbs/D70F4L6V0001899N.html"
    },
    "Article": "（原标题：澳大利亚悉尼一架水上飞机坠毁机上6人死亡）海外网12月31日电据香港“东网”、英国《天空新闻》等媒体报道，当地时间周日（31日），澳大利亚悉尼一架水上飞机坠毁，机上6人死亡。报道称，坠机地点位于霍克斯伯里河，具体坠机地点尚未确定。相关机构目前已经对事故展开救援行动。另据英国《镜报》报道，死者包括一名11岁的男孩、1名飞行员以及4名英国人。目前已找到3名遇难者的遗体。报道称，飞机坠机原因暂时不详。本文来源：海外网责任编辑：李杭_BJS4645"
}