{
    "Title": "贝嫂晒一家六口全家福 大布帅气小七略变胖_网易娱乐",
    "PublishTime": "01/01/201812:08:13",
    "URL": "http://ent.163.com/18/0101/12/D72IS1DG00038FO9.html",
    "Source": "Netease",
    "KeyWords": "贝嫂,全家福,小七,罗密欧",
    "Comment": {
        "Reply": 15,
        "Content": "颜值靠克鲁兹了 小7越来越肉嘟嘟了 布鲁克林越来越像爸爸了，挺帅气的 大布o型腿 他要是不O型腿，就跟他老爸一样高了😄，很想帮他把挂在裤腰上的钥匙摘下来…… 幸福的一家！！祝福 小7最可爱，笑嘻嘻的萌萌哒 小七的腿比贝嫂的要粗！[喷水] 大布真的乡村气息十足 颜值靠克鲁兹了 小七的腿比贝嫂的要粗！[喷水] 老大的脚是怎么回事 布鲁克林越来越像爸爸了，挺帅气的 大布o型腿 幸福的一家！！祝福 小7最可爱，笑嘻嘻的萌萌哒 小七美翻了，真想亲亲她。。。😘😘😘 小7越来越肉嘟嘟了 幸福 羡慕 他要是不O型腿，就跟他老爸一样高了😄，很想帮他把挂在裤腰上的钥匙摘下来…… 这俩口子现在挺逗 大布真的乡村气息十足 大儿子比老爸丑多了 ",
        "Total": 94,
        "Link": "http://comment.ent.163.com/ent2_bbs/D72IS1DG00038FO9.html"
    },
    "Article": "贝嫂晒一家六口全家福网易娱乐1月1日报道今天，贝克汉姆的妻子维多利亚晒出一组新年全家福，照片里大儿子布鲁克林跟老爸差不多高，二儿子罗密欧和三儿子克鲁兹站在爸爸身边，女儿小七站在最前面，看样子真的胖了不少呀。本文来源：网易娱乐责任编辑：陈少杰_b6952"
}