{
    "Comment": {
        "Reply": 24,
        "Total": 271,
        "Link": "http://comment.news.163.com/news_shehui7_bbs/D6U0PG5N0001875P.html",
        "Content": "真英雄，<br>一路走好，<br>向您和您的卫國战友们致敬!!! 走好 站起<br>肃立<br>鞠躬<br>向周老和英烈英雄战友们致敬，<br>由于您们的勇敢和巨大付出，<br>仲华得以生存延续 真正的英雄 英雄一路走好 国民党呀！ 1938年，抱着上前线寻找大哥，拯救国家与民族的志向，周海清坐上从成都开往重庆的汽车，而后编入中国军队36军第5师工兵营第一连，成为一名抗日战士。<br>希望更多年轻人能关注抗日历史，关爱抗战老兵，别让他们的事迹埋没在黄土里。” 1938年5月4日洛杉矶五千人集会上……美国会议员司克脱先生对大众说：‘请大家记着，日本在中国杀死一百万人的时候，有五十四万四千是美国帮凶而杀死的。当日本飞机对南京狂轰滥炸时，日本飞机用的是美国提供的汽油；当日本军队向守卫南京的中国军队攻击的时候，他们的坦克大炮是用美国提供的钢铁制造的；当日本的炮弹轰向中国的军人和平民时，里面的炸药是美国提供的配方……”br赴美宣传中国抗日的陶行知先生，离开美国时悲愤地演讲道：‘我回国参加抗战去了。如果有一天我被日本炸弹炸死，请你们不要忘记，我身体的百分之五十四点四是被你们美国炸死的。” 老兵，走好！ 编入“中国军队”，是国军吧？<br>致敬国军！ 有什么好笑的，本来就是中国军队，当时只有一支真正意义上的中国军队！ 杀鬼子英雄 这才是真正的人民英雄 真的英雄，居然没多少人评论。。。。还不如戏子，真是悲哀！！！！ 中国军队？？哈哈……好笑…… 向抗战老兵致以最崇高的敬意！ 真英雄，<br>一路走好，<br>向您和您的卫國战友们致敬!!! 川军团。 走好 延安大轰炸呢？ 老兵，走好！ 真正的英雄 英雄一路走好 1938年，抱着上前线寻找大哥，拯救国家与民族的志向，周海清坐上从成都开往重庆的汽车，而后编入中国军队36军第5师工兵营第一连，成为一名抗日战士。<br>希望更多年轻人能关注抗日历史，关爱抗战老兵，别让他们的事迹埋没在黄土里。” 友好 真正的英雄！ 真的英雄，居然没多少人评论。。。。还不如戏子，真是悲哀！！！！ 中国军队？？哈哈……好笑…… 向抗战老兵致以最崇高的敬意！ 致敬老英雄 老人当年是八路军还是新四军？ 敬礼！ 站起<br>肃立<br>鞠躬<br>向周老和英烈英雄战友们致敬，<br>由于您们的勇敢和巨大付出，<br>仲华得以生存延续 国民党呀！ 小编，你家祖宗八代喊你归队！ 1938年5月4日洛杉矶五千人集会上……美国会议员司克脱先生对大众说：‘请大家记着，日本在中国杀死一百万人的时候，有五十四万四千是美国帮凶而杀死的。当日本飞机对南京狂轰滥炸时，日本飞机用的是美国提供的汽油；当日本军队向守卫南京的中国军队攻击的时候，他们的坦克大炮是用美国提供的钢铁制造的；当日本的炮弹轰向中国的军人和平民时，里面的炸药是美国提供的配方……”br赴美宣传中国抗日的陶行知先生，离开美国时悲愤地演讲道：‘我回国参加抗战去了。如果有一天我被日本炸弹炸死，请你们不要忘记，我身体的百分之五十四点四是被你们美国炸死的。” 编入“中国军队”，是国军吧？<br>致敬国军！ 有什么好笑的，本来就是中国军队，当时只有一支真正意义上的中国军队！ 杀鬼子英雄 这才是真正的人民英雄 "
    },
    "Title": "101岁抗战老兵周海清\"归队\" 曾亲历重庆大轰炸_网易新闻",
    "Article": "（原标题：101岁抗战老兵周海清“归队”亲历重庆大轰炸、昆仑关大捷）暖阳、林荫、散步，这些都是周海清喜欢的事物。12月30日上午，成都青羊区王家塘街，这些事物在冬日凑齐，但却不见了周老的身影。有专程来看望老人的志愿者，从邻里话语间发现，这位活了一个多世纪的老人，在三天前不声不响地离开了。在周海清的101年人生里，烙印最深的还是抗日时期。70多年前，他在成都报名从军奔赴抗日战场，在战火硝烟里寻找失联的大哥，并肩负着保卫国家与民族的重担。亲历重庆大轰炸、参与昆仑关作战、目睹川军兄弟阵亡、重创日军王牌师……成了他这辈子无法忘却的记忆。晚年里，他时常念叨起抗日战友，也在亲人、邻里、志愿者，甚至初次见面的陌生人前，讲起昔日川军出川抗战的英勇故事，并叮嘱大伙儿要记住，千万别忘了。老兵归队邻居：病床上提起“抗战”他还能说“走的很安静，101岁也算喜丧吧。”30日上午11时许，青羊区王家塘街一老院落里，周海清的家中锁着门，邻居说，一家人给周老办了丧事，和老悼念的亲友一同出去了。12月27日下午，院子里接到消息，周老在医院里安然离世了。“今年住院时间很长了，回家的时间越来越少了。”院里的杜师傅说，前不久，邻里间还专门去了趟医院看望他，“精神状态已经是时好时坏了。”“但要是跟他说起抗战、昆仑关，他就会顺着你的话，接着讲起有关抗战的事情。”他说，这几年，院子里不少居民，都知道周老曾是抗战老兵，“以前身体好喜欢打打麻将，之后又喜欢上散步，每次遇到邻居问他抗战，他都会坐下来慢慢给大家讲抗日故事。”峥嵘岁月攻坚大捷昆仑关重挫日军王牌师在他讲述里，提到最多的还是昆仑关战斗。1938年，抱着上前线寻找大哥，拯救国家与民族的志向，周海清坐上从成都开往重庆的汽车，而后编入中国军队36军第5师工兵营第一连，成为一名抗日战士。中国军队向昆仑关集结。（资料图）1939年，他随军经广西柳州，走路抵达宾阳县，参与昆仑关攻坚作战。“昆仑山周围有不少山，我们要拔除敌人的每个据点。”周海清生前接受本报记者采访时回忆，有次，他站在阵地工事上，一颗炮弹不偏不倚落在他附近炸开，“我被冲击波撞晕过去，战友以为我死了。”期间，最令他痛心的是，作为副排长的他，见到了不少比他年纪还小的四川兵娃子，瞬间就没子弹放倒，或被炸弹炸没，“太多人倒在了那里。”中国军队收复昆仑关。(资料图）最终，这场对日军发起的正面攻击战里，中国军队取得大捷，重挫日军王牌第5师团，对其第21旅团以歼灭性打击，极大地鼓舞了士气。关注老兵抗日“活化石”正在逐渐远去“我们2个月前听闻周老生病，还曾去看过他。”30日下午，四川巴蜀抗战史研究院秘书长张光秀在听闻周老离世的消息后，接连叹气，“我们还计划等他身体好些，去拜访老人家，再记录点有关抗日昆仑关战役的口述历史，没想到……”“周老的离去，又让四川抗日历史损失了一个‘活化石’。”她说，据志愿者资料统计，目前全川抗日老兵已不足千人，“他们的平均年龄都在90岁以上，随着时间的推移，离开着也越来越多，希望更多年轻人能关注抗日历史，关爱抗战老兵，别让他们的事迹埋没在黄土里。”本文来源：封面新闻作者：杨力杨涛责任编辑：邵小波_NN2479",
    "URL": "http://news.163.com/17/1230/17/D6U0PG5N0001875P.html",
    "Source": "Netease",
    "KeyWords": "周海清,抗战,抗日,日军",
    "PublishTime": "12/30/201717:35:18"
}