{
    "Article": "（原标题：伊朗伊斯兰革命卫队:2017伊朗\"骚乱\"事件已平息）海外网1月4日电据俄罗斯卫星通讯社报道，伊朗伊斯兰革命卫队总指挥官穆罕默德·阿里·贾法里(MohammadAliJafari)当地时间1月3日宣布，伊朗国内自2017年12月28日爆发的“骚乱”已经平息，游行示威者没有得到任何结果。据报道，在伊朗国内发生了持续6天的抗议活动后，伊朗伊斯兰革命卫队向3个省份派遣军队，镇压了反政府的骚乱，并防止发生新的骚乱。报道称，伊斯兰革命卫队总指挥官穆罕默德·阿里·贾法里(MohammadAliJafari)表示，“我宣布，2017年底爆发的“骚乱”事件彻底失败。伊朗国内的抗议人数很少，且整个伊朗境内的抗议人数不超过15000人。”他还指责了美国、以色列和沙特等国唆使“伊斯兰国”恐怖分子入境伊朗的做法。贾法里的声明是在特朗普承诺美国会在“适当的时候”给予伊朗人民必要的帮助后作出的。据此前海外网的报道，周三（1月3日）早些时候，特朗普在推特上发表声明称，美国将在适当的时候帮助伊朗抗议者对抗“伊朗的专制政府”，他们将得到美国的“大力支持”。特朗普表示，这个承诺显示了他对伊朗人民（抗议者）的尊重，因为他们试图“推翻这个腐败的政府”。本文来源：海外网责任编辑：徐萌_NN7485",
    "URL": "http://news.163.com/18/0104/04/D79ES38U0001899N.html",
    "KeyWords": "伊朗伊斯兰,伊朗,卫队",
    "PublishTime": "01/04/201804:13:02",
    "Title": "伊朗伊斯兰革命卫队:2017伊朗\"骚乱\"事件已平息_网易新闻",
    "Comment": {
        "Content": "放你妈的驴杆儿屁。 确实，2017已经结束，可2018刚刚开始 因为它们输不起，所以穷凶极恶 2019已在不远处招手，它们可以赢得99次胜利，但只要输一次，真正胜利就可以属于伊朗人民。 流氓亮出了本来面目 有第一次就有第二次种子已经播下 傻逼 顶！说得好！ 如果内部人民爱戴拥护自己的国家，外部势力是不可能得逞的，反之，不需要外部势力也会内乱。所以要善待自己内部人民。美国那么自由，游行像家常便饭，私人又拥有枪支，应该说很容易被外部势力搞乱，可事实呢。人民拥戴的政权才是稳固的政权。 对付这类骚乱必须用重拳，巴沙尔就是因为太软，才导致叙利亚现在的国破家亡，这种事情如果过多考虑美国和西方态度就死定了，最终害人害己 太监们高潮了 竟然出动军队…… 错，等同于美国的国民警卫队。 2018的才刚开始 哈哈哈哈哈哈 这才是革命卫队该干的事。 革命卫队就是当年的纳粹党卫军吧？ 还有伊拉克的共和国卫队，应该差不多。对内战斗力非常强 请不要侮辱纳粹 别急着邀功请赏。 2019已在不远处招手，它们可以赢得99次胜利，但只要输一次，真正胜利就可以属于伊朗人民。 美国隐毛被伊朗粉碎，彰显出中东霸主的气度。好！可以鼓掌！ 还是让红色高棉把你给平息了吧 相当于美国太平洋舰队，只是伊朗的一部队称号而已，战斗力非常强! 伊朗“风波”平息了？ 没有纳粹的战斗力，但对自己人民比纳粹凶残！ 没错，就像伊拉克一样，人口经历都超过萨达姆家族统治时期，军事也达到了近三十年巅峰！ 跟贴被火星网友带走啦~ 巴沙尔都对本国人民动用毒气了，还不够吗？ 事件的根本原因解决了吗镇压了一时能镇压一世 美国是不会动用军队镇压人民的伊朗就是靠强权维持他的统治不是长久之计啊！ 你用的华为手机吧😆😆 平息就好为革命卫队点赞 这笔账要算到发霉内衣身上 无耻至极 嗯，属于伊拉克一样的胜利，噗嗤 是呀，我也想看看谁笑到了最后 正确 你是傻逼 你还是人吗？<br>去看看叙利亚事件 假新闻，还在继续抗议游行 伊拉克现在不是胜利？你被洗脑的如同三岁的智障 跟贴被火星网友带走啦~ 祈祷平安 为什么一边到的评论？有组织的吧？ 革命卫队的祖宗，应该是希特勒的党卫军吧。很有战斗力！ 确实，2017已经结束，可2018刚刚开始 所以这话没毛病！ 因为它们输不起，所以穷凶极恶 他不傻，只是没良心 强他妈逼，就是一钙帮 想让伊朗大乱的希望又一次落空了。 武警 有第一次就有第二次种子已经播下 平息的好，为护教军点赞 👍👍👍 顶！说得好！ 煞笔 1992，落汤鸡，黑人，阵亡54人。 对付这类骚乱必须用重拳，巴沙尔就是因为太软，才导致叙利亚现在的国破家亡，这种事情如果过多考虑美国和西方态度就死定了，最终害人害己 已经多次了，自己不会查查吗？ sb 应该是世界各国人民 错，等同于美国的国民警卫队。 你只能代表你母子二人，谢谢 维护各国社会稳定，谴责干涉别国内政…… 革命卫队就是当年的纳粹党卫军吧？ 你是傻逼 楼上两傻的不能再傻的傻逼 还有伊拉克的共和国卫队，应该差不多。对内战斗力非常强 不！美帝比二战时期到日本人更残忍，他们致死的百姓远超日本杀死的百姓 真是穷山恶水出刁民好好反思下你们那穷是有原因的… 也就是说老百姓要继续造业？ 2楼纯纯的傻逼 为神棍助威，你个臭傻逼 无论怎么闹，也不会属于人民 下班后库房领手机！ hehe弱智 2019已在不远处招手，它们可以赢得99次胜利，但只要输一次，真正胜利就可以属于伊朗人民。 相当于美国太平洋舰队，只是伊朗的一部队称号而已，战斗力非常强! 放你妈的驴杆儿屁。 明明是党卫队！ 没有纳粹的战斗力，但对自己人民比纳粹凶残！ 3楼急眼了。 专制的手段一学就会 我去，又是美帝的锅 你黔驴技穷？鼓掌！ 美国隐毛被伊朗粉碎，彰显出中东霸主的气度。好！可以鼓掌！ 美国是不会动用军队镇压人民的伊朗就是靠强权维持他的统治不是长久之计啊！ 平息就好为革命卫队点赞 对了，纳粹不针对自己的人民！ 请不要侮辱纳粹 他要是人会说这话？ 你看见了?美爹告诉你的? 我靠，太平洋舰队什么时候这么弱爆了，沦落到和伊朗比了 美国要臭大街了 你还是人吗？<br>去看看叙利亚事件 如果内部人民爱戴拥护自己的国家，外部势力是不可能得逞的，反之，不需要外部势力也会内乱。所以要善待自己内部人民。美国那么自由，游行像家常便饭，私人又拥有枪支，应该说很容易被外部势力搞乱，可事实呢。人民拥戴的政权才是稳固的政权。 你是鬼子的遗腹子吧 巴沙尔都对本国人民动用毒气了，还不够吗？ 假新闻，还在继续抗议游行 任何国家的事应该有本国人就决定，老妹去死。任何国与国的事应该平等商量，老妹去死。 确实，2017已经结束，可2018刚刚开始 一路货色 一楼知道个卵 2019已在不远处招手，它们可以赢得99次胜利，但只要输一次，真正胜利就可以属于伊朗人民。 巴沙尔的毒气还不够吗？流氓们露出了獠牙！ 一个不事生产的伊斯兰僧侣特权集团在统治伊朗，而且这帮人啥事儿都想管，连老百姓的穿衣打扮都要管。这样作恶多端的邪恶集团，难道不该下台吗？ 平息 前面伊斯兰三个字你是看不见么？ 权力通过新兴传承方式继承的国家，迟早要被人民唾弃 对付这类骚乱必须用重拳，巴沙尔就是因为太软，才导致叙利亚现在的国破家亡，这种事情如果过多考虑美国和西方态度就死定了，最终害人害己 多么熟悉的声音 伊斯兰僧侣特权集团在统治伊朗，而且这帮人啥事儿都想管。 走狗 任何国家没有一支强有力的武装，不说对付外敌，即使内部也是国无宁日！ 错，等同于美国的国民警卫队。 跟贴被火星网友带走啦~ 没干也会有办法证明你干了 跟贴被火星网友带走啦~ 666 革命卫队就是当年的纳粹党卫军吧？ 巴沙尔才不手软，内战都打了起来也不放手，手软的是当年伊朗巴列维国王，没动用军警，自己流亡。 波斯人永不为奴！ 呵呵，年度、季度、月度还有天。。。 精辟 下次就要武装斗争了，不然没戏。 让子弹飞一会儿 总有一天911也会让世界人民认可的圣战 伊朗人民已觉醒 跟贴被火星网友带走啦~ 哈哈哈哈哈哈 游行可以，但不能打砸抢，否则政府有权镇压! 天天 这帮🦅🐩帮凶人渣将来应该全部消灭！ 二楼说的对 总统通过新兴传承方式继承的郭家，迟早要被唾弃 可怜的波斯人，抛弃自己的文化，投入阿人怀抱，现在沙特又不认你，你还要每天念他的经和他对着干 你是傻逼 伊拉克都解除制裁多少年了！才发展成这样，问题还是军阀割据！一个随时有炸弹爆炸的国家真的很幸福嘛！ 跟德国的党卫军一样，比伊朗国防军强大 坚决果断，毫不手软 啪啪啪 没错，就像伊拉克一样，人口经历都超过萨达姆家族统治时期，军事也达到了近三十年巅峰！ 革命卫队就相当于现在的纳粹党卫军！世界上没几只这样的队伍了！ ccav看的多了 美国隐毛被伊朗粉碎，彰显出中东霸主的气度。好！可以鼓掌！ 放你妈的驴杆儿屁。 狗屎，你家国民警卫队是服务最高领导的？特殊时期就会出来出来清洗能是国民警卫队？ 顺我者昌逆我者亡 有第一次就有第二次种子已经播下 早就知道是美帝的阴毛了！就是不知道具体措辞怎么写！美帝的阴毛又被粉碎了， 无耻至极 别忙，讓子弾飛一會兒 这才是革命卫队该干的事。 巴沙尔之所以还能存在全是奥黑的功劳。 坚决果断，毫不手软 下地狱去吧 你还是人吗？<br>去看看叙利亚事件 伊拉克现在不是胜利？你被洗脑的如同三岁的智障 巴沙尔都对本国人民动用毒气了，还不够吗？ 你难道真的没有影射？ 太监们高潮了 美国政府鸡蛋敢涨价一倍试试 去尼玛 确实，2017已经结束，可2018刚刚开始 革命卫队抓革命 宪法不是规定军队只能对付侵略者么 最高利益集团为了维护自己的统治，对待游行示威活动的人民都是出动军队镇压，进行镇压的军队却打着革命军人民军等等响亮的牌子 又是海外网！呵呵呵 不能乱！否则。。。 傻逼 武装到牙齿的革命卫队，屠杀手无寸铁的人民，真的很英勇! 将来你们死的有多惨已经可以预见，这也是国内很多黄皮肤美国人拼命要出国的原因！ 对付这类骚乱必须用重拳，巴沙尔就是因为太软，才导致叙利亚现在的国破家亡，这种事情如果过多考虑美国和西方态度就死定了，最终害人害己 狗杂种，卧槽泥马 萨达姆卡扎菲表示你说的对！ 武力不是万能的 嗯，属于伊拉克一样的胜利，噗嗤 哪都有你这条dog. 美国人民敢示威推翻政府，不出三天就被逮捕！！！ 伊朗现政府什么时候骗你了？你是什么鸟东西？美国的走狗不成？ 你妈的个傻逼 革命卫队就是当年的纳粹党卫军吧？ 喊口号的讨嫌啊！以前代着大家一起喊一起搞，都不怕死，现在都是在境外遥控指挥，忽悠煞笔当袍辉！！ 🙄去你大爷的 跟贴被火星网友带走啦~ 世界恐怖份子，米国该出手了 太软?他杀的人不少，主要还是部分军队哗变 看来俄罗斯真的没什么办法 你是美国花钱请来的吧，说话颠三倒四。 巴傻儿能不软吗？他的权力是他爹给的，他在世人面前能硬得起来吗？他有底气吗？不光是西方国家要弄死他，人民也是 真臭 世界上就那么几个流氓 老美应该灭了他以及其他帮凶 2019已在不远处招手，它们可以赢得99次胜利，但只要输一次，真正胜利就可以属于伊朗人民。 真牙成功！ 并且吃的是屎 抗议是斗不过军队的 没有纳粹的战斗力，但对自己人民比纳粹凶残！ 这么牛啊！ 跟贴被火星网友带走啦~ 跟贴被火星网友带走啦~ 你有病？送你去解剖？ 美国隐毛被伊朗粉碎，彰显出中东霸主的气度。好！可以鼓掌！ 平息就好为革命卫队点赞 你用的华为手机吧😆😆 这才是革命卫队该干的事。 做一个光荣的侩子手 也就是比纳粹还坏 独夫都是残忍的!不惜以人民的名义屠杀人民. 美国搞颜色革命，好像占中，想搞乱他国，因为联合国不同意它把以色列首都设在耶路撒冷。美国在全球只有9个国家（含美国和以色列在内）支持，128个国家反对，包括西欧和中国。美国在联合国没有面子，是外交史上最丢脸的事，美国报复伊朗，为以色列出气。 纳粹党卫军主要对外好不好！这是俄毛式的秘密井茶！ 为什么一边到的评论？有组织的吧？ 巴沙尔就是因为太硬屠杀反对派，才使事态恶化，没俄罗斯救命巴沙尔现在应该是卡扎菲的下场。 不超过15000人…… 腐败的政府，必须推翻！ 事件的根本原因解决了吗镇压了一时能镇压一世 蠢蠢欲动 恐怖如斯，不敢说话 异曲同工 语言爆力不是民、主、自、由。 流氓亮出了本来面目 有第一次就有第二次种子已经播下 全是一个论调，不从自身找原因，老是国外阴毛，这个真是共性。 怎么算是最后 对付这类骚乱必须用重拳，巴沙尔就是因为太软，才导致叙利亚现在的国破家亡，这种事情如果过多考虑美国和西方态度就死定了，最终害人害己 这特码的就是造谣。 效率真高0 2018的还没平息 好牛逼啊！ 竟然出动军队…… 那应该怎么弄，就死在一个坑里？ 美国人民敢示威推翻政府，不出三天就被逮捕！！！ 正解。 2019已在不远处招手，它们可以赢得99次胜利，但只要输一次，真正胜利就可以属于伊朗人民。 肯定假的 革命卫队就是当年的纳粹党卫军吧？ 跟贴被火星网友带走啦~ 可以每四年推翻一次。 美帝就是这样折腾出来的 你说的正确 你这辈子有可能当猪了，你儿子有可能不愿意，希望你儿子哪天表达不满时，被射杀。 政府本来就是美国人民自己选出来的，他们推翻啥？ 骚乱？某报之前不是还告诉我们说，是伊朗各地民众，上街支持政府的游行活动吗 严格来说，应该是反革命卫队。 平息就好为革命卫队点赞 还是让红色高棉把你给平息了吧 跟贴被火星网友带走啦~ 野火烧不尽，春风吹又生。 支持伊朗平息骚乱! 游行示威者没有得到任何结果。～～～卧槽泥马！ 有“卫队”两个字就是一样？ 2018的才刚开始 二楼定律。明明是反语都看不懂 美国隐毛被伊朗粉碎，彰显出中东霸主的气度。好！可以鼓掌！ 伊朗“风波”平息了？ 前进，前进，进！ 穷山恶水出刁民 这笔账要算到发霉内衣身上 是呀，我也想看看谁笑到了最后 正确 好好的波斯人信什么伊斯兰？！还被伊斯兰规矩禁锢。 错，等同于美国的国民警卫队。 美国人民不需要示威推翻政府人家用选票推翻政府 骚乱？ 祈祷平安 别急着邀功请赏。 骚乱事件？ 有枪就是王道 遗憾 能不能说话？ ",
        "Link": "http://comment.news.163.com/news2_bbs/D79ES38U0001899N.html",
        "Total": 12276,
        "Reply": 193
    },
    "Source": "Netease"
}