{
    "Comment": {
        "Total": 5,
        "Reply": 0,
        "Link": "http://comment.news.163.com/news2_bbs/D76ENP8Q0001899N.html",
        "Content": ""
    },
    "Title": "朝鲜半岛局势新年破冰 去年朝韩体育外交屡有突破_网易新闻",
    "KeyWords": "朝鲜半岛局势,韩国,朝鲜,外交",
    "Article": "（原标题：【朝鲜半岛局势·新年“破冰”】2017年朝韩“体育外交”屡有突破）就在刚刚过去的2017年，半岛局势趋于紧张，“剑拔弩张”“唇枪舌剑”成为常态。然而也是在这一年，两国间的体育交流没有因此中断，而且日益密切，屡有突破，为处于寒冬中的朝韩关系带来阵阵暖意。朝鲜跆拳道队员十年来首次访韩2017年6月，世界跆拳道锦标赛在韩国全罗北道茂朱郡举行。应韩国支持的世界跆拳道联盟邀请，朝鲜主导的国际跆拳道联盟示范团自2007年4月以来，十年间首次访韩。包括32名朝鲜籍成员在内的36人示范团在比赛期间共进行了4次表演。韩国总统文在寅也借此机会在大赛开幕式上向朝鲜发出了冬奥会邀请。韩国总统文在寅：这将对朝韩关系缓和以及半岛和平带来极大帮助，我希望这一成果，能延续到明年的平昌冬奥会上。冰球足球多项赛事上“交手”?据韩国媒体报道，对于邀请朝鲜参加平昌冬奥会一事，韩国方面曾有计划组建一支南北联合女子冰球队。而2017年4月6号，对于朝韩两国女子冰球队的队员来说注定是特殊的一天。在韩国江陵进行的平昌冬奥会测试赛上，韩国女子冰球队3比0击败朝鲜。这场比赛是两支球队近11年来首次交手，比赛的意义也已经远不在于胜负了。与此同时，另一场激烈的角逐在朝鲜首都平壤等待着两国足球女将。当地时间4月7号，2018年女足亚洲杯预选赛B组赛事迎来了朝鲜和韩国的对决，这场比赛也是双方女足首次在平壤进行正式比赛，历史意义不言而喻。最终两队以1比1的比分握手言和。时间来到12月的中国昆明。在第三届15周岁以下国际青少年（男子）足球大会上，来自朝鲜和韩国的青少年选手，进行了一场足球比赛。韩国江原道青少年足球队选手郑胜渚：比赛结束后，朝鲜选手主动来打招呼，跟我说比赛辛苦了，改变了我以前对朝鲜选手，很多先入为主的看法和偏见。在当晚举行的欢迎晚宴上，朝韩两国选手积极交谈、亲密合影，气氛十分融洽。本文来源：央视责任编辑：张海桐_NN9053",
    "URL": "http://news.163.com/18/0103/00/D76ENP8Q0001899N.html",
    "PublishTime": "01/03/201800:12:57",
    "Source": "Netease"
}