{
    "Title": "李亚鹏带李嫣登高 与女儿合照眼神藏父爱_网易娱乐",
    "PublishTime": "01/01/201809:20:43",
    "URL": "http://ent.163.com/photoview/00AJ0003/647013.html",
    "Source": "Netease",
    "KeyWords": "李亚鹏,李嫣,",
    "Comment": {
        "Reply": 48,
        "Content": "李亚鹏基因强大 好父亲 浓浓的父爱在眼睛里涌动着 孩子腿真长 孩子教育的真好，没有一般因先天缺陷而产生的自卑，内向，拒绝，躲避。看着特别阳光，积极，很有表现欲望👍👌👍 首先经济条件好，身边的各种资源好，教育，人脉……所以相对其他普通家庭而言更容易些…… 还是那个奶奶样 唯一的宝贝女儿，爱的不行！ 论爸爸当的比谢强一百倍 真特么丑 就是啊 李亚鹏为啥要去一个老女人，生个孩子还是残疾！好给你戴绿帽子！ 自己的孩子怎么都是好的 李亚鹏这一辈子冤啊，为一个妊妇生个残疾孩子，骚货逍遥快活， 怎么看起来像王大治 好肉真让猪拱烂了，整个这么难看的娃 这孩子挺懂事，幸亏没让王菲教育 真丑 好喜欢这孩子 其实一楼本身就是猪，李亚鹏的老家是河南叶县的，也就是叶公好龙成语的出处 长这么高了 菲儿留种不留人 李嫣亏得有李亚鹏这爹，要不，又毁了 没文化了不是？过元旦能代表狗年？ 离狗年还两个半月呢，你这是韩乔生：端午节刚过，我给大家拜个晚年的套路啊！ 王菲离开李亚鹏，却给李亚鹏留下一世的美好，这个孩子是给李亚鹏最好的回报 好人一生平安 缝得上是你的嘴，却缝不上你缺心眼儿的心 李亚鹏这个父亲当的很棒 是個好爸爸 爷俩长得真像 好孩子好爸爸新年加油 李亚鹏这个父亲当的很棒 河南名不虚传 好像娘子关 臭嘴 父女俩真像 这都跟拍 李亚鹏基因强大 怎么看起来像王大治 孩子腿真长 孩子教育的真好，没有一般因先天缺陷而产生的自卑，内向，拒绝，躲避。看着特别阳光，积极，很有表现欲望👍👌👍 论爸爸当的比谢强一百倍 就是啊 李亚鹏这个父亲当的很棒 李亚鹏应该娶张柏芝 离狗年还两个半月呢，你这是韩乔生：端午节刚过，我给大家拜个晚年的套路啊！ 李亚鹏晒娃还是比较少的吧另外他们是艺人身边都有助手的以为跟你一样阿独来独往 好肉真让猪拱烂了，整个这么难看的娃 其实一楼本身就是猪，李亚鹏的老家是河南叶县的，也就是叶公好龙成语的出处 没文化了不是？过元旦能代表狗年？ 王菲：停疯，来啊，快活啊。 是個好爸爸 爷俩长得真像 河南名不虚传 臭嘴 父女俩真像 真受不了这些菲迷，你爱你的王菲，麻烦别去攻击别人好嘛？ 这个腿是真王菲啊，随妈妈 爬山带摄影的，随时晒父爱，活该王菲离开他！ 好父亲 浓浓的父爱在眼睛里涌动着 李亚鹏这个父亲当的很棒 首先经济条件好，身边的各种资源好，教育，人脉……所以相对其他普通家庭而言更容易些…… 还是那个奶奶样 唯一的宝贝女儿，爱的不行！ 祝福 真特么丑 李亚鹏为啥要去一个老女人，生个孩子还是残疾！好给你戴绿帽子！ 自己的孩子怎么都是好的 王菲离开李亚鹏，却给李亚鹏留下一世的美好，这个孩子是给李亚鹏最好的回报 真丑 好喜欢这孩子 错，是管生不管养 长这么高了 菲儿留种不留人 怀疑李是整容的 李嫣亏得有李亚鹏这爹，要不，又毁了 李亚鹏这一辈子冤啊，为一个妊妇生个残疾孩子，骚货逍遥快活， 缝得上是你的嘴，却缝不上你缺心眼儿的心 好孩子好爸爸新年加油 这孩子挺懂事，幸亏没让王菲教育 哈哈哈哈 好像娘子关 好人一生平安 ",
        "Total": 1686,
        "Link": "http://comment.ent.163.com/ent2_bbs/PHOTJNR5000300AJ.html"
    },
    "Article": "李亚鹏带李嫣登高与女儿合照眼神藏父爱2017年最后一天，李亚鹏带着李嫣登山，还在微博上发照片说：“新年登高，一路不易，呼哧带喘的吐尽一年的浊气之后，登顶时才能畅快地享受冰鲜的山巅之气祝大家狗年旺旺旺，新年新气象。"
}