{
    "Article": "（原标题：打造“蓝水”作战能力美海军谋划下一代护卫舰）参考消息网12月27日报道据美国《国家利益》双月刊网站12月23日报道称，美国海军海洋系统司令部此前的一份公告称，海军正在要求国防工业准备提交“概念设计”方案，以建造一艘新型的战斗护卫舰，它可以摧毁小型船只的集群袭击，操作水下潜航器和空中无人机，支持航母战斗群，执行分散任务，用超视距导弹袭击敌人，并参与先进的水面和反潜作战。这份海军公告称，新的导弹护卫舰平台将“利用无人机系统进入有争议的环境，冒着更大的风险执行任务，与对手相比获得传感器和武器优势”。海军还让国防工业为该舰研制先进的传感器、网络技术以及指挥和控制系统。海军对新舰性能的设想似乎超出了计划阶段对该舰最初的预想——最初只是打算制造一款生存能力更强的海军濒海战斗舰的变体。图为美国海军装备的濒海战斗舰。据悉该舰的改进型可能成为美国未来护卫舰对于该护卫舰而言，许多热门特性如反潜和水面作战，显然反映或者超出了濒海战斗舰的任务范围。新护卫舰预期的武器和战术显然是迅速发展的下一代海军思维的产物。海军海洋系统司令部的一名官员对“侦察勇士”网站说：“我们提出很多设想，想看看什么是可能的。”海军需求评估小组此前的发现，提供了一个洞悉新护卫舰预想的武器、技术和广泛的任务范围的前所未有的机会。尽管许多特殊的武器系统和设计细节尚未确定，仍在国防工业的建议中悬而未决，但海军要求该舰能在航母攻击群和远程打击群等群体战斗场景中行动。此外，海军显然还想要一艘能够自主运行的军舰，能够执行分散的或更加独立的任务。海军的公告称：“这种型号军舰的部署概念，既包括与具备区域防空能力的驱逐舰和巡洋舰的联合行动，也包括与舰队的战术网络相关的独立行动。另外，这一平台必须能够抵御小型舰船的突袭。”在舰载防御系统、电子战技术、攻击武器和远程传感器方面，该护卫舰将拥有强大的“蓝水”作战能力。尽管海军官员没有全面详述目前正在考虑的新技术的细节，但他们表示，新的研究可能会带来不同类型的船体设计，以及新的攻击和防御武器。该舰将具备更强大防空能力及生存能力的设想，向一系列广泛的攻击和防御武器打开了大门，比如新兴的低成本激光武器，它能够摧毁来袭的敌人攻击或者发动进攻性袭击。本文来源：参考消息网责任编辑：姚文广_NN1682",
    "Source": "Netease",
    "KeyWords": "护卫舰,武器,美海军,战斗舰",
    "Title": "打造“蓝水”作战能力 美海军谋划下一代护卫舰_网易军事",
    "Comment": {
        "Total": 764,
        "Content": "你母亲腥苦了。 老妹最难能可贵的就是有序储备良性循环开拓进取标新立异未雨绸缪深思熟虑洞察于秋毫防患于未然...聚日月之精华敛天地之纯粹集精英之智慧纳民众之心意听四面之真言取八方之真谛...顺江河之势走万里蹬奇峰之高瞰山小应四季之变巧循环依时光之转妙更替秉上帝之仁济苍生施人间之善修大同... 秃子？包子？ 美国原来一直在引领潮流，现在却江郎才尽！搞濒海战斗舰，没人应！又搞新概念军舰，也还在水面游，没敢飞起来，也没敢沉入海底走，太保守了！ 苏额比那萃更坏更邪恶的垃圾，发明的主意对人类的危害至今还在 建议美国下一代护卫舰在舰身周边挂上破旧轮胎，这样可以避免撞烂！ 自二战后，美国一直引领着人类科技，并远远领先有关国家，这到也是不争的事实。 这应该对俄罗斯🇷🇺讲 还我们东西，滚出我们的生活。 秃子目标是星辰大海，纵横四海——渤海、黄海、东海、南海 搞了一大堆的概念舰种出来吸引眼球，结果还是兜兜转转的回到原来的护卫舰这个传统的舰种 具备远洋作战能力的海军,称做蓝水海军.近海防御的叫黄水海军. 从武器科技我们才能感受到外面的世界 描述起你爹来，真可谓尽心尽力啊！ 这说明伪素慰矮嘛裂流氓惶惶不可终日 含着，别说话。等下再去看你老木的币被ld撕得怎么样了。 美帝眼里，从没有什么蓝水黄水<br><br>只有你把黄水当大海来用 打造“蓝水”作战能力……这标题就是笑话，美帝海军七海豪情，10条航母每片海洋镇1条，剩下3条待命轮休。所以新护卫舰只能说强化海战“实力”，因为“能力”的隐意是有无，而“实力”意味着多寡。最后，请不要把自己的想法套用在别人头上，谢谢。 又要引领一波了吗？ 打造“蓝水”作战能力……这标题就是笑话，美帝海军七海豪情，10条航母每片海洋镇1条，剩下3条待命轮休。所以新护卫舰只能说强化海战“实力”，因为“能力”的隐意是有无，而“实力”意味着多寡。最后，请不要把自己的想法套用在别人头上，谢谢。 泥马勒戈壁，你把你老木的币都卖给美国了。在中国与美国之间，美国一直阻止中国统一台湾，遏制中国的发展，而你还支持美国反对自己的国家，美国给你饭吃么？如果美国不给你饭吃，你不是脑袋里都是屎，那还能有什么呢？如果美国给你饭吃，你不是汉奸，还能是什么？ 舢舨大队叫浑水海军！ 呵呵哒 呵呵泥马勒戈壁实事求是的评论一下你爷爷怎么你个孽子很不高兴吗？你的绿眼龙战天那两个名不用了？ 放尼玛之屁臭大街 你母亲被收进火锅了。加辣椒鞭操。 美国驻日本占领军像日本的女人们问候新年好，感谢这一年来日本女性的殷勤伺候，感谢日本男人们辛苦的看门端尿壶，送纸巾！更是感谢这些年生下的儿子们这么孝心，你们虽然身在中国，但是我们想着你们！在新的一年里，我驻日本占领军会再接再厉，也希望日本女人能多喊几句亚麻跌……————大不列颠.美跌.驻日韩占领军 美国海军力量如此强大，还要继续扩充武备，如果用穷兵黩武来形容是最合适不过了。 有白皮猪加持。<br>迟早会杀回来，又当上二大爷。<br>到时候会赏你个什么呢。<br>在我看是美帝不行，原来白皮大爷牵着拉布拉多就能打。<br>现在心虚，连中华田园犬都收编了。 你母亲腥苦了。 老妹最难能可贵的就是有序储备良性循环开拓进取标新立异未雨绸缪深思熟虑洞察于秋毫防患于未然...聚日月之精华敛天地之纯粹集精英之智慧纳民众之心意听四面之真言取八方之真谛...顺江河之势走万里蹬奇峰之高瞰山小应四季之变巧循环依时光之转妙更替秉上帝之仁济苍生施人间之善修大同... 秃子？包子？ 美国原来一直在引领潮流，现在却江郎才尽！搞濒海战斗舰，没人应！又搞新概念军舰，也还在水面游，没敢飞起来，也没敢沉入海底走，太保守了！ 老美也真是，我们是有a/b/c/d/e/f/。。。。各型超级战舰可以出口，总有一款适合你的，价格便宜，性能超群，各个都是宇宙级性能。来一款？ 苏额比那萃更坏更邪恶的垃圾，发明的主意对人类的危害至今还在 泥马勒戈壁，在中国与美国之间，美国一直阻止中国统一台湾，遏制中国的发展，而你还支持美国反对自己的国家，美国给你饭吃么？如果美国不给你饭吃，你不是脑袋里都是屎，那还能有什么呢？如果美国给你饭吃，你不是汉奸，还能是什么？ 建议美国下一代护卫舰在舰身周边挂上破旧轮胎，这样可以避免撞烂！ 自二战后，美国一直引领着人类科技，并远远领先有关国家，这到也是不争的事实。 含着，别说话。 海军蓝的所谓防水,意识是说水洗去墨迹表面的浮色之后,基底的颜色仍然牢牢地抓在纸张上,能让你看到原来写的是什么. 还我们东西，滚出我们的生活。 搞了一大堆的概念舰种出来吸引眼球，结果还是兜兜转转的回到原来的护卫舰这个传统的舰种 搞了一大堆的概念舰种出来吸引眼球，结果还是兜兜转转的回到原来的护卫舰这个传统的舰种 秃子目标是星辰大海，纵横四海——渤海、黄海、东海、南海 从武器科技我们才能感受到外面的世界 描述起你爹来，真可谓尽心尽力啊！ 这说明伪素慰矮嘛裂流氓惶惶不可终日 含着，别说话。等下再去看你老木的币被ld撕得怎么样了。 历史不可改变 又要引领一波了吗？ 美帝眼里，从没有什么蓝水黄水<br><br>只有你把黄水当大海来用 打造“蓝水”作战能力……这标题就是笑话，美帝海军七海豪情，10条航母每片海洋镇1条，剩下3条待命轮休。所以新护卫舰只能说强化海战“实力”，因为“能力”的隐意是有无，而“实力”意味着多寡。最后，请不要把自己的想法套用在别人头上，谢谢。 这应该对俄罗斯🇷🇺讲 打造“蓝水”作战能力……这标题就是笑话，美帝海军七海豪情，10条航母每片海洋镇1条，剩下3条待命轮休。所以新护卫舰只能说强化海战“实力”，因为“能力”的隐意是有无，而“实力”意味着多寡。最后，请不要把自己的想法套用在别人头上，谢谢。 你忘了英帝了吧？ 泥马勒戈壁，你把你老木的币都卖给美国了。在中国与美国之间，美国一直阻止中国统一台湾，遏制中国的发展，而你还支持美国反对自己的国家，美国给你饭吃么？如果美国不给你饭吃，你不是脑袋里都是屎，那还能有什么呢？如果美国给你饭吃，你不是汉奸，还能是什么？ 舢舨大队叫浑水海军！ 美国海军力量如此强大，还要继续扩充武备，如果用穷兵黩武来形容是最合适不过了。 具备远洋作战能力的海军,称做蓝水海军.近海防御的叫黄水海军. 有白皮猪加持。<br>迟早会杀回来，又当上二大爷。<br>到时候会赏你个什么呢。<br>在我看是美帝不行，原来白皮大爷牵着拉布拉多就能打。<br>现在心虚，连中华田园犬都收编了。 放尼玛之屁臭大街 你？你是那国人？你这只日本犬国来的畜生@！ 你母亲被收进火锅了。加辣椒鞭操。 美国驻日本占领军像日本的女人们问候新年好，感谢这一年来日本女性的殷勤伺候，感谢日本男人们辛苦的看门端尿壶，送纸巾！更是感谢这些年生下的儿子们这么孝心，你们虽然身在中国，但是我们想着你们！在新的一年里，我驻日本占领军会再接再厉，也希望日本女人能多喊几句亚麻跌……————大不列颠.美跌.驻日韩占领军 含着，别说话。 呵呵哒 ",
        "Reply": 38,
        "Link": "http://comment.war.163.com/news_junshi_bbs/D6LFTNM4000181KT.html"
    },
    "PublishTime": "12/27/201710:06:35",
    "URL": "http://war.163.com/17/1227/10/D6LFTNM4000181KT.html"
}