{
    "PublishTime": "12/31/201703:00:24",
    "Source": "Netease",
    "Comment": {
        "Content": "老鹰没把鸡吃了，可惜 狗鸡赢了？ 🐶🐔禁区手球，辣鸡 张近东忙着收米呢，鸡崽子以后有的输了，🐶🐔好好还债🤣 这一集老夫看过，🐶🐔本赛季怒进欧联，明年去欧联继续丢人，联赛七名开外🤣 踢的还行吧战术变化不大拉齐奥很强感觉小因扎吉未来会是大教练 用🐶蹄🐔爪怎么能算手球，贝那迪亚是人当然算手球 应该是国米更强,毕竟是联赛冠军啊.但是,足球是圆的,都可能赢. 国米登顶那几天大家回去看看评论，鸡仔嚣张跋扈，吹上天了，现在再看看评论，基本消失了，希望国米再登顶一次，还想再看看打脸 自个把球踢到自个手上，不判点球🐶🐔真烂。 就满足与进欧冠了？这个状态到赛季结束前四都无法保证啊 哈哈哈尤文请你🐔别掉队 拉齐奥真垃圾 没机会了，我🐔两年一轮回，想看我🐔登顶只能在等两年🤣 慢慢来吧，我对今年要求不高，别掉出前四就已经很满意了。 國米又是虎頭🐍尾了…… 一场球阿莱格里教会了全意甲怎么对付国米 大过节的你还司马给大伙助兴，真是辛苦了 开局太猛状态出的太早不是好事啊 习惯性崩盘？？？ 油表死吗笑哈哈 🐶🐔还想着拿冠军呢啊，你们是真没这个本事，垃圾球队滚回家抱孩子去吧😂😂😂 看到我睡着了，看来意甲不是太适应新年短休啊，感觉两支球队的球员都体能不足。 距离不是问题 气死了吧狗砸 联赛冠军？ 没有输，结果还是可以接受的 印尼🐒王甲级联赛🤣🤣 🐶🐔斯全家，🐔崽笑哈哈 熬夜看了比赛，虽然是平局，道不觉得很闷。<br>总的来说场面比前两场要好一点，起码有两个得分机会，巴莱罗的状态不像前两场那么低迷，坎德雷瓦还是踢得很差，没突破没传中，倒是坎塞洛充满活力，不知斯帕莱蒂为什么不把坎塞洛提上去打右边锋，坎德雷瓦先歇一场吧。拉诺基亚治疗了两次还是坚持了下来，挺不容易。<br>冬歇得进人，不然后程乏力，感觉战术变化太少，球员个人能力又不足以改变局势。 我是极其努力的爬起来看了这场，一直迷迷糊糊的，半睡半醒，没想到场上国米将士们也是这样迷糊啊，佳丽跪求不要首发了 裁判保了🐶🐔废物一条贱命。 马里奥，根本不在一个点上…可以卖了… 国米习惯性掉队哇…… 呀狗🐔又高潮了 关键时刻掉链子 鸡崽子再次依靠P眼和金表黑了蓝鹰两个点球，不愧是盗窃P眼鸡，祝新的一年里鸡崽子全家爆炸，老母螺旋升天🤣🤣 习惯性崩溃开始了 张近东忙着收米呢，鸡崽子以后有的输了，🐶🐔好好还债🤣 拜仁还出的早啊？巴黎现在是收着踢了，不然分差太大了。 一场球阿莱格里教会了全意甲怎么对付国米 又崩盘了。 这一集老夫看过，🐶🐔本赛季怒进欧联，明年去欧联继续丢人，联赛七名开外🤣 油表死吗笑哈哈 还是老问题：佳丽烂无可烂！上他真不如少打一人。马里奥那个“传球失误”，实际就是这货站着等球被人断了，对乌鸡也是这货丢球，桑顿背锅。这货慢得像蜗牛（特别是动作频率太慢，加减速、急停急转根本没有）；软得像棉条（那姿势，一副懒洋洋的娘娘状，从未见过重心下沉、充满力量的样子）；对抗必上手（犯规归还球权、送对方任意球）；传球胜卧底（5成回传、横传的无用功，5成传给对方）；跑位像傻子（能把人急死）；最主要是懒，全场就像稻草人一样，溜达、梦游。 就满足与进欧冠了？这个状态到赛季结束前四都无法保证啊 哈哈哈尤文请你🐔别掉队 拉齐奥真垃圾 你头像上的俩人还健在么？ 大奔仔，你怎么还不出现呢，你哥哥就是没有你硬气，太监就是太监，阉货，裤裆里的玩意不硬，人也跟着不硬 张哥又咋想 开局太猛状态出的太早不是好事啊 🐶🐔还想着拿冠军呢啊，你们是真没这个本事，垃圾球队滚回家抱孩子去吧😂😂😂 曼城，拜仁，大巴黎状态都出太早了 联赛冠军？ 没有输，结果还是可以接受的 印尼🐒王甲级联赛🤣🤣 我是极其努力的爬起来看了这场，一直迷迷糊糊的，半睡半醒，没想到场上国米将士们也是这样迷糊啊，佳丽跪求不要首发了 没机会了，我🐔两年一轮回，想看我🐔登顶只能在等两年🤣 狗鸡一群败类 狗鸡赢了？ 本来现在小国际就只有挣四的实力而已 后劲不足，早该崩盘了 🐶🐔禁区手球，辣鸡 今年是🐔年明年是🐶年，哈哈都是🐶🐔的本命年 用🐶蹄🐔爪怎么能算手球，贝那迪亚是人当然算手球 李哥咋想 慢慢来吧，我对今年要求不高，别掉出前四就已经很满意了。 國米又是虎頭🐍尾了…… 大过节的你还司马给大伙助兴，真是辛苦了 点赞 习惯性崩盘？？？ 老鹰没把鸡吃了，可惜 距离不是问题 气死了吧狗砸 预计90分钟会平手.或者拉齐奥胜!谁进球难说 意假真恶心想干你就看var不想干你也看var 应该是国米更强,毕竟是联赛冠军啊.但是,足球是圆的,都可能赢. 明确告诉你，只有输球找法院才是狗鸡唯一的出路 🐶🐔斯全家，🐔崽笑哈哈 熬夜看了比赛，虽然是平局，道不觉得很闷。<br>总的来说场面比前两场要好一点，起码有两个得分机会，巴莱罗的状态不像前两场那么低迷，坎德雷瓦还是踢得很差，没突破没传中，倒是坎塞洛充满活力，不知斯帕莱蒂为什么不把坎塞洛提上去打右边锋，坎德雷瓦先歇一场吧。拉诺基亚治疗了两次还是坚持了下来，挺不容易。<br>冬歇得进人，不然后程乏力，感觉战术变化太少，球员个人能力又不足以改变局势。 国米登顶那几天大家回去看看评论，鸡仔嚣张跋扈，吹上天了，现在再看看评论，基本消失了，希望国米再登顶一次，还想再看看打脸 裁判保了🐶🐔废物一条贱命。 感觉这次是要把皮奥利赶走的节奏。。。 呀狗🐔又高潮了 关键时刻掉链子 鸡崽子再次依靠P眼和金表黑了蓝鹰两个点球，不愧是盗窃P眼鸡，祝新的一年里鸡崽子全家爆炸，老母螺旋升天🤣🤣 米兰兄弟送温暖来啦 裁判良心啊，点球先问问再取消！ 国米良心队伍呀，这个平局真给力 不错👌👍👍 自个把球踢到自个手上，不判点球🐶🐔真烂。 马里奥，根本不在一个点上…可以卖了… 国米习惯性掉队哇…… 踢的还行吧战术变化不大拉齐奥很强感觉小因扎吉未来会是大教练 看到我睡着了，看来意甲不是太适应新年短休啊，感觉两支球队的球员都体能不足。 ",
        "Link": "http://comment.sports.163.com/sports2_bbs/D6V1472500058781.html",
        "Total": 1433,
        "Reply": 59
    },
    "Article": "网易体育12月31日报道：北京时间12月31日1点，意甲联赛第19轮的一场焦点对决在国际米兰和拉齐奥之间展开。两支球队均未能取得进球，最终0-0战平。连续3轮不胜的蓝黑军团目前仍排在积分榜第3位，距离榜首已有7分差距。",
    "URL": "http://sports.163.com/17/1231/03/D6V1472500058781.html",
    "Title": "意甲-国米0-0平拉齐奥连续3轮不胜 距榜首已7分_网易体育",
    "KeyWords": "拉齐奥,国米,意甲,卢卡斯"
}