{
    "Title": "巴基斯坦再向印军开火 同天释放145名印度渔民_网易新闻",
    "URL": "http://news.163.com/17/1228/20/D6P7B37N0001899N.html",
    "Source": "Netease",
    "Article": "（原标题：巴基斯坦再向印军开火同天释放145名印度渔民）图为巴基斯坦使用迫击炮发动攻击。（图片来源：印度报业托拉斯）海外网12月28日电当地时间周四（28日），印度国防部人士称巴基斯坦军队在克什米尔地区对印军“无端”开火，印巴双方发生“重火力交火”。同一天，巴基斯坦还释放了145名印度渔民，印媒称，此举是为释放善意。巴基斯坦再向印军开火据《印度斯坦时报》报道，印度和巴基斯坦军队当地时间周四（28日）在克什米尔地区蓬奇区域实际控制线附近发生“重火力交火”。印度国防部消息人士称，巴基斯坦军方对德格瓦尔（Degwar）区域进行“无端”、“无差别”开火和炮击，“使用小型武器、自动步枪和迫击炮对德格瓦尔地区的军事及平民设施发动攻击，攻击从早上6时30分开始，印军据点进行了坚决有效的回击。”报道称，印巴军队近期在克什米尔地区控制线附近局势愈发紧张。12月23日，巴基斯坦军队在克里（Keri）地区开火，导致4名印度士兵死亡，其中包括一名少校。作为回击，印军当地时间周一（25日）发动反击，5名印度士兵组成小分队越过实际控制线进入巴基斯坦控制地区300至500米，在拉瓦拉克特（Rawalakot）地区打死3名巴基斯坦士兵。资料图。（来源：印度时报）同天释放145名印度渔民另据《印度时报》报道，近期印巴之间因为印度间谍库尔布胡山·贾达夫（KulbhushanJadhav）一事关系紧张。在这种氛围中，当地时间周四（28日），巴基斯坦释放145名印度渔民以示“善意姿态”，此前巴基斯坦指控上述渔民在巴方水域捕鱼。据报道，上周巴基斯坦外交部发言人穆罕默德·费萨尔（MuhammadFaisal）曾发布声明表示，被捕的291名印度渔民将在1月8日之前分两批释放。一名警方官员表示，这些渔民将在严密防卫下被送往卡拉奇军营火车站，随后被送往拉合尔，“他们将在瓦加（Wagah）印巴边境被移交给印方官员。”据报道，剩余的146名印度渔民将于1月8日被释放并遣返。报道称，印巴双方渔民经常被指控在彼此水域非法捕鱼并因此被逮捕，因为阿拉伯海并没有明确的海上界限，渔民使用的木船也缺乏避免漂流的技术。本文来源：海外网责任编辑：张海桐_NN9053",
    "PublishTime": "12/28/201720:53:34",
    "Comment": {
        "Total": 15,
        "Content": "到时候别又BB打死平民了啊！ 巴铁加油，战狼已经在路上了 唯一尊重中国游客的老朋友国家战狼部队曾宣誓永不涉足巴铁领土 到时候别又BB打死平民了啊！ 巴铁加油，战狼已经在路上了 你这是最大的坑 唯一尊重中国游客的老朋友国家战狼部队曾宣誓永不涉足巴铁领土 ",
        "Reply": 4,
        "Link": "http://comment.news.163.com/news2_bbs/D6P7B37N0001899N.html"
    },
    "KeyWords": "巴基斯坦,印度,部队"
}