{
    "Source": "Netease",
    "KeyWords": "国安,伊尔马兹,山东鲁能,射手榜",
    "URL": "http://sports.163.com/17/1225/10/D6GC8K8Q00058781.html",
    "PublishTime": "12/25/201710:26:26",
    "Comment": {
        "Content": "毕竟是在中超镀过金的，确实不一样：伊尔马兹，洛维，保利尼奥表现都不错 确实是个好球员，为什么留不住，哎！ 有吊用，这种联赛水平根本不被认可 土超又不是比英超，比的是中超，也不够格吗 罗宁没看走眼啊：一年进20个球不是事儿 第三个怎么回事啊[喷水] 毕竟是在中超镀过金的，确实不一样：伊尔马兹，洛维，保利尼奥表现都不错 土超又不是比英超，比的是中超，也不够格吗 来中超表示水土不服，带不动 确实是个好球员，为什么留不住，哎！ Love 洛维？ 有吊用，这种联赛水平根本不被认可 罗宁没看走眼啊：一年进20个球不是事儿 ",
        "Total": 19,
        "Link": "http://comment.sports.163.com/sports2_bbs/D6GC8K8Q00058781.html",
        "Reply": 9
    },
    "Article": "今年夏天，国安外援伊尔马兹加盟了土超俱乐部特拉布宗。目前在土超的他，状态火热，在近日进行的一场土超比赛中，凭借伊尔马兹的进球，特拉布宗客场1-1逼平对手，本赛季出场14次的伊尔马兹已经攻入14球，场均一球的效率让人惊叹，伊尔马兹在土超迎来了彻底爆发。在本赛季土超射手榜上，与伊尔马兹并列的两名射手出场次数都比他多3场和2场。此外，曾效力山东鲁能的外援洛维以10粒进球排在射手榜第4位。本文来源：肆客足球App责任编辑：冯昊天_NSJS2656",
    "Title": "前国安外援领跑土超射手榜 14场14球效率惊人_网易体育"
}