{
    "Article": "（原标题：紧急！查看支付宝年度账单前，请先看看这个）今天早上起不少消费者都在朋友圈晒自己的支付宝账单和年度关键词到了下午，更是刷了屏但是很多人可能没有发现你可能不知不觉又签了一个“服务协议”岳成律师事务所合伙人岳屾山在微博上曝出一段话：岳屾山说的事实，可以从上图中看出来，而且选项已经默认选好。据岳屾山介绍，这个账单的查看和《芝麻服务协议》没有关联性，所以你选择取消同意，依然能够看到年度账单。但如果你没注意到，就会直接同意这个协议，允许支付宝收集你的信息包括在第三方保存的信息。怎么样小伙伴们，有没有感觉到深深的“套路”？不管你的年度关键词是才华、是潮，是远方，还是温暖、小确幸，你都不能幸免。岳屾山律师说，根据《消费者权益保护法》，消费者有选择权，而不是商家替消费者选择。“或许“芝麻”会说，你可以选择不同意，可是“芝麻”你偷偷摸摸的帮我选好了“同意”，还那么小的字，稍不留神就漏掉了，唬谁呢？”显然，这个“坑”很多人并不知道，你也许会好奇地又打开支付宝账单看一遍协议，对不起，你再次刷的时候，是看不见这个协议的。我们看下一下，协议都有哪几个要点：（就像协议里写的：您需要特别关注和充分理解黑体字的内容）1、你使用服务就等于接受协议2、根据协议，他们可以直接向第三方提供您的相关信息。3、根据协议，可以将您的全部信息进行分析并推送给合作机构，还有，有权不支持您撤销第三方的信息查询授权4、哪怕是服务终止后，他们仍可继续保留你的信息和数据5、当然，他们是免责的。当提供给第三方信息产生不良后果时，也是一样不用担责6、不用找你反复确认，产生的风险，也由你自己担着看到岳屾山律师微博的小伙伴们，已经开始不淡定了。岳屾山在微博中说，根据《互联网交易管理办法》的规定，经营者应当采用显著的方式提请消费者注意与消费者有重大利害关系的条款。同时对于信息收集，该规定要求经营者需要明示收集、使用信息的目的、方式和范围，并经被收集者同意。而“芝麻”这个根本不给你了解条款的机会，直接让你默认同意，稍不注意就进坑了。这个坑，还是连环坑，有网友见招拆招，还能发现其他惊喜，如发现华夏信用卡授权、浦发银行授权。年初了，不仅仅是支付宝账单，市面上还有各种购物APP的账单，现在，你是不是有种“坑”太多的感觉？赶紧去看一眼吧！本文来源：中国消费者报作者：裴莹责任编辑：李杭_BJS4645",
    "URL": "http://news.163.com/18/0103/20/D78KQ0UN0001899N.html",
    "KeyWords": "支付宝,律师,岳山",
    "PublishTime": "01/03/201820:37:31",
    "Title": "紧急！查看支付宝年度账单前请先看看这个_网易新闻",
    "Comment": {
        "Content": "就是这样的道理，要么就别用 你不同意照样收集你的信息！ 收就收呗，中国收费的地方是少吗？银行不收费吗 不好意思，评论错了，反正支付宝很良心了 随便 我看到了，，，无所谓啊，，，，反正现在随便注册什么东西，，，都会有一个我同意的，，，，不同意，，也用不了，，，真想用，，就得点同意 我每看到一楼怎样的傻鸟就气不打一处来 2楼傻逼玩意，1楼说的是财产隐私，你那装摄像头是生活隐私好吗？？？ 我也无所谓，看到就看到了呗，支付宝账单而已，只要钱不被转走就OK，支持一楼的观点，支持 想骂人！ 真的好垃圾，没看到，让人降低信任度 全世界都一样 马上卸载 支付宝也要开始作死的节奏了…… 很多一楼这样的sb才导致这些无底线的侵权 俺的这几十块钱啊，让这么多人费心了[鄙视] 身份证什么的所有信息都给了，还在乎这个？ 评论里面阿里的水军到处叫啊 说的跟你停用就不被收集了似的[鄙视][鄙视][鄙视] 看到了，支付宝良心企业，还和你说一声。别的企业要看你的信息会和你打招呼？ 马云最近不太平！ 总算明白为什么马云在美国的收购会被拒绝 不收集怎么出详细账单？行贿受贿用支付宝吗？隐私？ 你能改变银行不收费的局面吗，支付宝至少做到了让银行转账不收手续费了。 既然你这么正直，不如把你的银行卡，存折都拿出来展示一下，或者请允许我们在你家卧室装个摄像头，既然是正直的人，应该也不怕别人看你家卧室吧 太明目张胆了，你偷偷给也就算了，这么低级的伎俩，呕心人吗？ 本来无所谓，但看到这么多水军，把这种侵权行为说的好象很光荣似的，让人反感了。 我有不是当官的，我不怕我的财产隐私泄露，只有贪官才怕财产隐私泄露。一个普通老百姓我还怕当不了老百姓。马宝宝我用着确实很放心，一笔一笔的出入账单清清楚楚，支持马宝宝。 求你别用可以 在中国还有隐私么？别说这些好不好 没钱我隐私什么😄 我也无所谓，看到就看到了呗，支付宝账单而已，只要钱不被转走就OK 有意义？ 嗯屎多了就不臭了对吧 强迫症表示看见了，那又如何 醒醒吧，芝麻向第三方提供你的各种信息时是收费的！第三方查询一次就收几毛钱，无本万利的生意 明天开始停用支付宝！ 怎么说，一楼说的也是不对；二楼也算强词夺理。但是正是因为像一楼这种人太多，所以现在个人隐私真是惨不忍睹 不要脸的东西 强词夺理，照你这么说你早晚会死何不现在就死了？ 三大运营商都已经把我们信息泄露成这样了，支付宝算什么，在中国信息泄露这东西家常便饭吧🙃 马上用起招呼都不打一声的tx 一楼二楼都太偏激了，一楼说的像那么回事，可是这也助长了社会侵权问题，凭什么让人知道我有多少钱，我的钱干嘛用了？二楼这说的不是财产隐私了，是人权侵犯了 在这个果珈，我们都是裸奔，谈何隐私 即使你们有所谓难道支付宝就看不到了吗？ 我求你卸载，智商捉急 一群傻逼在这秀智商用着别人免费的服务还不接受别人的推广点之前你们怎么不注意看现在有新闻出来了你们怎么不想想这消息是不是竞争对手发出来的呢 淘宝，菜鸟，蚂蚁的优点适合任何国家地区经营，将会是全世界的交易公司。希望阿里巴巴尽快冲出世界，让世界人民更容易交易商品。 这是舔？看看澳大利亚最近罚v社是为什么？ 那个赞800+的希望你们说到做到 既然你这么正直，不如把你的银行卡，存折都拿出来展示一下，或者请允许我们在你家卧室装个摄像头，既然是正直的人，应该也不怕别人看你家卧室吧 想骂人马勒戈壁的 法律文书类型的文件，对个人来说就是不平等的，单个个体哪来那么专业的知识，这类性质文件应该算公共事务了吧？ 随便 隐私保护现状确实差，但支付宝、微信之类的巨头应该是作为标准规范的表率，而不是跟着野生骗子一起探下限吧？说难听点，骗子一般抓不住也就罢了，你这么大公司在这儿，还抓不住你？ 一看到什么晒，什么刷爆朋友圈，就下意识反应出四个字，mdzz 沒文化可怕 ,<br><br>vvv 这不算欺诈，属捆绑销售，未尽提示义务。根据消法合同法的相关规定，一些特别条款，尤其是甲方提供的格式条款，且带有损害消费者权益的条款，未尽提示义务、未附带特别说明的，属无效。但，要实现这种权益，可能需要消费者付出很高的司法成本。 这个律师蹭热点，把协议断章取义，正常授权写成了侵犯隐私，相信大部分人都没看协议完整内容，只看了他标红部分就开喷了，但是为什么协议里这部分不标红，略过了<br>“同时，我们向您承诺我们不会收集您的宗教信仰、基因、指纹、血型和病史信息以及适用的法律法规禁止收集的任何个人信息，同时我们也不会搜集您的聊天、短信、通话等个人信息，也不会收集、追踪您在社交媒体上的言论信息。” 这傻逼是马云儿子啊。 一样啊，有钱我也刷信用卡 看着有些贼影。 呵呵，从尝到甜头到盲目信赖，再到被损害还为虎作伥搞崇拜，历史还真是不断轮回。 不是抓不抓的问题，而是你那自以为是个人信息本来就没个鸟用，垃圾电话我就不信你没接过，被非法盗用的你怎么不去报警？ 马云的孙子也在这楼？这么关心支付宝 唉特意登陆说一句吧这个事情的发生是因为这个：某人的开房免押记录被老婆看到了，所以这人歇斯底里了就酱。。。。。 注册的时候身份证，手机号，早就给人家了，少装逼了。领人家红包怎么不骂垃圾了 没这个，身份证信息只能你用，有这个就说不准了！ 真的好垃圾，没看到，让人降低信任度 各位仁兄，隐私这种东西就算泄露了又怎么样，没可能不泄露，前几天打死狗的协警也轻松被人肉，你说你保密能保密多少东西，这种玩意，不要认真，还卧室里摄像头。。。这玩意花几百不是也看得到？有防范意识是好的，但是认真想想再喷好不好，支付宝让你丢过钱么？方便不？银行让你丢钱没？方便不？ 可是事实上大家都在用支付宝啊，只有你没用支付宝 此楼绝大多数是狗五毛 感谢支付宝教网民理财 身份证什么的所有信息都给了，还在乎这个？ 难道腾讯没有，在中国个人信息还有什么隐私，想想无脑喷有意思吗 支付宝已经回应“错了”已经改了页面，洗地的王八们，钱已到账💰别哔哔恶心人了 60了吧 支付宝是否有欺诈行为。 那他收集什么？难道又有什么是应该收集的么？我就是花个钱怎么花也不想收集给第三方有错吗？ 只要开通过芝麻信用的，肯定早就授权收集了，不然那些个骚扰广告哪来的哦 刚刚刷了支付宝/<br>改了/<br>一直不知道啊/ 表示本人从来没用过支付宝。不要以为支付宝又多厉害。也不要以为你用了别人也会用。 已经改了 你去过哪个国外？不懂就在这乱舔 我就没有开通花呗。我以前线下埋单总是系统默认花呗，一个月以前我关了花呗。最近几天，又弹出来花呗支付，不否认花呗带给我们便利，但是这样偷偷摸摸的行为真的很无耻！没有说你，我只是说花呗，谢谢。 老铁，666 我有不是当官的，我不怕我的财产隐私泄露，只有贪官才怕财产隐私泄露。一个普通老百姓我还怕当不了老百姓。马宝宝我用着确实很放心，一笔一笔的出入账单清清楚楚，支持马宝宝。 傻狗 求你别用可以 都是欺软怕硬，就问问各位手机上的垃圾短信垃圾电话有人管么？宽带还有一个多月到期，各种号码就打电话来问了。 微软在欧美被罚，因为绑定浏览器，被罚50多亿，在中国。。法治建设还需努力 呵呵，典型的无视消费者权益的行为，不过这也很常见，违法成本太低，维权成本太高造成的，全世界各个行业的大企业针对小客户都会这样做，低违法成本带回超高的回报，所以它们根本不在乎。 太阴了 不是大家都在用。中国13亿人其实有一大部分是不用的。这个完全跟个人习惯就好比别人喜欢用支付宝买东西。而我就是微信买。或者刷卡。其实我刷卡的次数比微信还多。我就习惯去任何地方刷卡。不能刷卡的地方我也不去。 这是赤裸裸的侵权行为 明天开始停用支付宝！ 支付宝授权给支付宝？那也算良心吧 没注意，近些年我诈骗电话接到多了 所以有律师这个行业啊，你看不懂没关系，请律师不就好了？就好比你不会做饭，难道就等着饿死？ 这东西在国外马云会被罚几十个亿吧😄 我们本来就是玻璃人，还怕这个！ 周鸿祎加入芝麻了? 你这逻辑也是幼稚，非黑即白？我只是说不同意隐私也泄露了，中国整个社会这方面的隐私保护意识以及法律普及都很差，我评论的是整个社会的现象。跟你多说无益，别回复我了。 支付宝算是良心了，比腾讯好太多 不用淘宝支付宝，一年去实体店买的东西价钱会翻倍。 163，腾讯的一条走狗。 已经是芝麻信用用户无需重复签订协议，没看到这句？用支付宝的有几个没开芝麻信用的？ 看到了，支付宝良心企业，还和你说一声。别的企业要看你的信息会和你打招呼？ 支付宝确实用户下滑了不少，微信给抢不少用户 强迫症表示看见了，那又如何 不同意隐私也一样泄露 企业做大做强直至垄断了，然后来一句可以不用，支持卸载？真要法治社会，分分钟秒杀你！ 所以得谢谢支付宝？ 我就一张银行卡。啥都没有了。大部分都是取现金。感觉还是带现金舒服 说的跟你停用就不被收集了似的 还有大幅提高淘宝店铺经营保证金，做法如出一辙，不交就给你屏蔽所以产品，可是交款界面却显示是你自提高补交的金额。 说得对 你这也够厉害的，那你说怎么办要马云赔你几万，也就能跑马云这来得理不饶人吧，隐私盗用的地方多了没见你们这么积极的，在来说说水军谁收钱发帖谁死全家，别忘了马化腾还有一个反阿里联盟玩水军他们可是行家。 怎么解除 喷马云的，可以不用，支持的默默支持[微笑]反对有反对的阴毛，支持有支持的权力[微笑]是对是错，可以证明一群人是不是沙币[窃笑] 不用淘宝可以用京东、网易严选、亚马逊、一号店。说真的，还真比较少用淘宝...去买假货吗？不用微信qq倒是基本断了社交，所以你用着微信qq取个马化腾死吗的名字，你这傻逼就这么双标？马云是你爸爸？😂 敢情你不是奴隶？傻逼 马猴的老乡怎么他妈的都是傻逼。 楼上那些谈隐私的来谈谈为什么我去中介看一套房子后就会有几十家不同的中介给我打电话？为什么我开了一个股票账户以后会有无数个投资公司打诈骗电话进来？在国内这种环境下我怎么保护我的隐私？ 身份证什么的所有信息都给了，还在乎这个？ 麻痹，现在没有一点隐私了 说实话我看见了，但觉得不同意用不了，和往常一样同意了 我有不是当官的，我不怕我的财产隐私泄露，只有贪官才怕财产隐私泄露。一个普通老百姓我还怕当不了老百姓。马宝宝我用着确实很放心，一笔一笔的出入账单清清楚楚，支持马宝宝。 女：我们分手吧！<br>男：为什么，我们在一起就是上天注定的。<br>女拿出一个硬币：我来扔你来猜，猜对了就是天意，猜错了就分手吧！<br>男：既然你执意如此，那就来呗。<br>女抛了抛硬币拽在手心：猜吧，这硬币是几几年的？ 装逼犯实在太多，一边热衷坐车去健身房花大钱锻炼，一边却不想走路到超市购物、饭店吃饭，只想网购、外卖！ 来来我倒想看看你有多少钱，你这么不在乎怎么不把自己财产都放大街上展览？老子有多少钱，用钱干什么了，凭什么让人知道？你花钱下载了个毛片是不是也想全世界知道？ 求你别用可以 刚看了一下，那个选项是没被选上的，是刚改的，还是被黑了？ 但是已经同意了 支付宝被黑了 能不能干都晓得了，还在乎这些？！ 我说我开了张交通银行信用卡，人家问到我08年的工作地了你们信吗？我都吓一跳！这年头。我们都在裸奔。呵呵。他丫根本早没隐私了。不过套路就你马的不对！ F¥u¥ck 无所谓了，大数据时代 你停用我直接吃屎，水军 字小的确实注意不到 刚看了一下，那个选项是没被选上的，是刚改的，还是被黑了？ 刚看了一下，那个选项是没被选上的，是刚改的，还是被黑了？ 看到了，支付宝良心企业，还和你说一声。别的企业要看你的信息会和你打招呼？ 支付宝迅速更新了页面啊亲！ 我fuxk 好傻逼的言论 既然你这么正直，不如把你的银行卡，存折都拿出来展示一下，或者请允许我们在你家卧室装个摄像头，既然是正直的人，应该也不怕别人看你家卧室吧 这个应该属于霸王格式条款，可以主张无效的吧 那怎办！ 直接说人穷逼，还提到小贷的，怕是你自己就这种人吧？我倒想看看石家庄人牛逼到啥啥程度了，别人知道自己有多少钱，都干嘛用了，对这一点不在乎的。 可能你理解错了，我的意思是已经点了，已经有第三方看过了。 [挨揍][挨揍][挨揍][挨揍]动作真快 确实太小了 [大笑][大笑][大笑] 中国商人不要脸到没底线。 有没有是他的事，给不给是我的事。支付宝这次有点恶心…… ٩(◦`꒳´◦)۶mmp！ 他奶奶的熊！ 明天开始停用支付宝！ 穷鬼小贷撸多了吧这么害怕别人知道 芝麻信用没开通，勾选的那个有用吗？ 差很差非常差！ 即便已经同意了，格式条款有明显偏向合同提供方，加重签署方义务的，可以主张无效。条款约定，即便解除，依然可以提取用户信息，这种约定明显加重对方负担。另外，也可以主张重大误解 我看到了啊，这有什么。千他骂信任他。家当都存余额宝了。这年头银行不也都不靠谱吗？不过这么小字体签订套路也是很恶心的。就算你明着有这协议我也会签啊。收集个人信息我想也是要做更好的服务铺垫。现在还有什么软件不收集你的信息？重要的是他是不是收集了能保护好，并且拿你的信息做为更好的为你服务还是赚钱？再说一句，这么套路就你他马不对！ 其实吧早就已经泄露了 那你站起来反抗呀，一定要反抗对消费者好的支付宝，不然你反抗大国企你会死无全尸 问题是，你根本退不了，找了半天，根要没有退出的接口。 先天傻逼和后天傻逼还是有共同话题的。 楼上的你说这些没用，那些洗地狗就是在误导大家，支付宝收集信息正常，恶心的是那些免责条款 我大鹅厂水军就这么被你发现了！？ 擦[被黑] 无耻 小题大做 是我看错了还是你们一群人都没看明白，坑的是允许他把资料给第三方使用，而且造成的不良后果不承担任何责任，这才是关键，第三方知道是什么么？ 没觉得有啥，我是看了新闻主动勾选上的。 领盗想扶持谁都是能成为成功人士。 所以就安心地享受强奸吧！反正都习惯了，对吧？ 你这也够厉害的，那你说怎么办要马云赔你几万，也就能跑马云这来得理不饶人吧，隐私盗用的地方多了没见你们这么积极的，在来说说水军谁收钱发帖谁死全家，别忘了马化腾还有一个反阿里联盟玩水军他们可是行家。 麻辣隔壁，支付宝这个不像话了 我打开显示的和作者的相反，是未选中状态的（在年账单中查询并展示你的信用信息）！<br>另外，这个东西只要是在年账单第一页一直都能看到的，并不是看不见！<br>不只是作者故意抹黑支付宝还是咋的！<br>可惜这里没法上图。。 对支付宝失去信任了！ 身份证什么的所有信息都给了，还在乎这个？ 被坑了！ 唉中国人可怜又可悲 爱用不用 我就想知道如果这算泄露隐私的话，那么微信的能够查询聊天记录怎么算？请各路水军大神指教。 随便 2楼傻逼玩意，1楼说的是财产隐私，你那装摄像头是生活隐私好吗？？？ 有本事起来做人，跪着过日子，还为这点小事吵。 你们没发现在跟马云的水军在辩论吗？他们是无底线的！所以我选择在心里默默的问候水军全家！ 账单是给你自己看的，晒出来取决于你的意愿。移动电话的通话记录，你出门的开房记录等等都存在的只是没像马老板这样明明白白的给你展示而已 我就想知道如果这算泄露隐私的话，那么微信的能够查询聊天记录怎么算？请各路水军大神指教。 首先来说支付宝是给了勾选项的可能不太明显但并没有范原则性错误，而且事后积极改正并道歉这更是难得了，在中国谈隐私就是笑话，如果你因为这件事而选择不用支付宝那么最起码大学你就别上了，想想这几年被骗的大学生有多少不都是隐私泄露导致的吗？在就是一楼绝对不是什么好东西是他先骂人的三楼才反骂的，6楼7楼别老你们理直气壮其实已经有失公允。 希望支付宝尊重消费者的权利和隐私，这种事以后不要再出现了 你以为你是什么，还真把自己当人啊。 都是套路 这种新闻突然一堆喷子关注起隐私集体围攻支付宝了....你可以卸载，你也不要寄快递，不要下载任何APP.买个车也不要留电话，不然会有人推销各种东西。喷子们拿出实际行动，别光喷，该删还得删哈！ 谈什么隐私？同志们上过车险吧？你选择了一家保险公司后，用不了多久所有的保险公司都会给你打电话推销这个险那个险，或者赠送你这个险那个险的！缺点太烦人，优点你可以对比一下哪个保险公司给的优惠幅度大。 出售个人信息竟然公开化了，在支付宝第三方合作下，以后各种有针对性的骚挠电话更多了。 三楼说什么了！它就开骂跟护主子有什么关系？学俩词就赶紧拿来显摆是吗？ 相信支付宝，互联网信用信息共享本是应该的 大中国就没有安全感了 信任马宝宝，又不是信任你！ 满满的都是套路 只要有腾讯这个拷贝机存在。你们的马爹就不可能一家独大。 东东的水军太多了 我有不是当官的，我不怕我的财产隐私泄露，只有贪官才怕财产隐私泄露。一个普通老百姓我还怕当不了老百姓。马宝宝我用着确实很放心，一笔一笔的出入账单清清楚楚，支持马宝宝。 这就是你这种小律师进不了大公司的原因？大公司考虑的是规避风险，把风险降到最低。能应对各种问题。（只要联网都能采集到信息，主要还是看公司的良心。） 你可真奇葩，权益被侵犯的多了就当成理所当然的事情，我告诉你我还真抵制不了，也不会卸载，但并不代表我们就坦然接受侵权，发出声音的人多了就会渐渐形成力量，难道被侵犯了还不能叫唤叫唤？一定要跟猪一样任人宰割就对了？ 是的。将来你用第三方服务，第三方从支付宝查不到你的信用等信息，不给你提供服务，你还不是要再次授权第三方。。 在中国，明坑暗坑处处是坑…… 怎么撤销难怪最近骚扰电话又多起来 这就是典型的操完婊子骂婊子 根本注意不到！有理由怀疑是故意不想让大家看见的[报警] 既然你这么正直，不如把你的银行卡，存折都拿出来展示一下，或者请允许我们在你家卧室装个摄像头，既然是正直的人，应该也不怕别人看你家卧室吧 但微信从来没有搞赢支付宝！ 忽悠 明天开始停用支付宝！ 被几大行和各运营商嫖过一万次的屁民，还在乎再被多嫖一次？ 没错 如今社会还有什么隐私，早就被曝光得完无体肤！ 反阿里联盟终于找到突破口了，这攻势还真猛。 一楼逻辑真尼玛奇葩，你那点东西是没啥价值，但不能成为大摇大摆侵权的理由，大陆人真是可悲又可恨～ 比起腾讯我还是选择支付宝，毕竟一个花钱一个送钱 厉害 在中国，你早就已经被拔光了，阴毛都给你数清楚几根了 在中国还有什么隐私吗？突然接到陌生人电话就知道你的名字，在哪住。 马上不用支付宝 我就想知道如果这算泄露隐私的话，那么微信的能够查询聊天记录怎么算？请各路水军大神指教。 在中国，明坑暗坑处处是坑…… [微笑]要不是支付宝帮我整理账单，我都不知道我的钱发哪里了。感谢支付宝。根据你的消费习惯，可以评价你的消费信用能力，可以给你更多的特权， 这个还真是国家层面的事情，然而在公民隐私权和国家公权在某些方面相冲突的时候隐私权就成了心照不宣的侵犯地带，在法无禁止或者说法不明确的灰色地带唯利是图的商家当然不会错过这样的机会。 刚在京东看点东西，网易立马就出广告了，喷子们不是很在乎隐私吗？赶紧卸载网易，别喷了！ 到处都是坑 这里面说好的都是托艹，我抗议 对你这种人，没法讲道理。抢劫犯拿你东西还说一声呢，他比小偷好？ 大数据时代，这个都还好一点，多少给你说下，买房买车上学，装修的卖建材的卖保险的提供野鸡大学的那么多，谁又来认真管理过？？支付宝大家多少还认同吧！ 随便 野狗日的，不是东西，竟然敢坑消费者。 写这个出这个应该是微信的托吧 大题小作 看到了，还是点了 反正不用手机支付宝，估计没有芝麻信用。 全世界都一样 哈哈哈 我一般不用马杰克的，JD不比他差。 套路 [被黑][被黑][被黑] 这种有点像电子签章，但严格来说，是没有法律效力的吧。 懒不看怪别人？？ 对你这种人，没法讲道理。抢劫犯拿你东西还说一声呢，他比小偷好？ 看到了，支付宝良心企业，还和你说一声。别的企业要看你的信息会和你打招呼？ 水军不少，爱用谁用，劳资今天发了朋友圈也没发现又坑。你支付宝店大，少我一个不少。弃用不是不方便，是你给我们玩小把戏。 屎多了不臭？ 哈哈 草他吗的中国各种套路，人民难啊…… 妈的，怎么这么多水军 我乐意！ 当猪仔一样，被卖来卖去 你同意不同意，数据都已经被收集在那里。你同意不同意，数据都在被分析处理，贩卖使用。不过服务协议能写出来，让你看到。算是比较正大光明的做法了！ 有意思吗！ 你这种穷水军逼逼什么 在中国谈隐私，笑话！ 有意义？ 嗯屎多了就不臭了对吧 不勾选马云凭什么借钱给你？ 明天开始停用支付宝！ 想骂人！ 哈哈，继续舔。 洗不白了。 尼玛！！！活在这里到处都是坑！ 三大运营商都已经把我们信息泄露成这样了，支付宝算什么，在中国信息泄露这东西家常便饭吧🙃 我觉得是连支付宝那么大的公司也要利用这种卑劣的手段使用霸王条款得到本可光明正大取得的基础数据，小偷小摸的，谈何诚信社会。 最可怕的是竟然把这些事搞得好像理所当然，应该了！慢慢就麻木了！ 马云真是越来越过分了！ 爱停不停 现在淘宝，天猫，支付宝套路真的很多？马云现在都不管呢？ 不同意隐私也一样泄露 马化腾那个游戏你敢不勾？？ 这个过分了 这tm不是隐私不隐私的问题，这是态度问题，水军挺多啊 垃圾 不管你们怎么黑，我永远支持支付宝，总比那什么TX强百倍，用大王卡的回家过年的时候就知道坑了，省外流量一元每兆，蚂蚁卡不玩虚的，没有省内省外之分，全国统一10元1G 胡说八道 停用呗，多你一个不多，少你一个也不少咯[大笑][大笑][大笑] 开始搞🐎☁️了 随便 看样支付宝已经请了大量水军。水军还有五秒到达战场！猥琐发育，别浪！ 已经卸载，2017账单为0 你无所谓是你的事，对方没权利因为顾及你无所谓就这么玩吧？字大了影响视觉效果？那支付宝可以不在页面里做这个授权选项啊，既然要做进去，就不能做得这么隐蔽。 卸载支付宝，太特么不要脸了。你解除授权它仍然可以向第三方提供你的个人信息，而且是你同意的。 我也玩了这个，可以取消“蚂蚁协议”吗？ 就是 侨兴债、趣店的事情还不好好吸取教训，一朝天子一朝臣，擦边球搞多了，就总有算账的时候 我凶你了？ 支付宝也不厚道了，舔阿里的人呢？ 这国时时刻刻犯自己制定法驴的团伙大把！ 微：44衣衣 要么姓马，要么姓马，要么用我的，要么用我的，对于在意的你，我并不在意你是否选我，选我收集你没商量。 支付宝朋友圈晒图，微信看不下去了 垃圾堆 还有很多人傻傻的搞不清楚这个同意授权给第三方的服务协议，并且第三方不会再次询问授权。而且由此导致的任何责任风险，芝麻都不承担责任。知道这种万金油授权和免责条款带来的后果吗？ 幸好看见了，没有勾选。 在中国还有隐私么？别说这些好不好 微：44衣衣8三八衣 你一个社会底层屁民，啥玩意不是，你要啥隐私？你以为你是屁几万啊？ 我操！都没注意！真tm的恶心 既然你这么正直，不如把你的银行卡，存折都拿出来展示一下，或者请允许我们在你家卧室装个摄像头，既然是正直的人，应该也不怕别人看你家卧室吧 彻头彻尾的流氓行为！ 她店里有些拉风的撩妹用品， 有啥都不好使。领导干部到人民群众都被所谓的无现金社会给忽悠了。。小偷少了吗？要问问微信支付宝每天有多少人账号里面的钱没了。。。他们构建商业价值，我们只是最下面的蚂蚱。。。 开始了，这只是个引子 从来不用支付宝的飘过 我有不是当官的，我不怕我的财产隐私泄露，只有贪官才怕财产隐私泄露。一个普通老百姓我还怕当不了老百姓。马宝宝我用着确实很放心，一笔一笔的出入账单清清楚楚，支持马宝宝。 真聪明，这小蚂蚁 类似的东西，过两天，其他电商也会推出的。 我不觉得这有什么关系哦。有必要大惊小怪地放到网易首页还加粗吗？ 好像找到一个发财的机会，起诉马云[不屑] 过分解读了，字写大了影响视觉效果啊。就算大了也没几个看的。这玩意估计和芝麻信用的协议没啥区别。 【那些在这里说同意被手机公布个人信息无所谓的】<br><br>----------------------------------------<br><br>大家只是无可奈何了而已~吧<br><br>哀莫大于心死、无所谓 好像有一便是看到这玩意的呢😒 明天开始停用支付宝！ 那些在这里说同意被手机公布个人信息无所谓的，如果不是水军，那就真的让人觉得很悲哀了。对泄露个人信息后造成的后果完全一点都不了解，现在可是信息社会啊！ 店大欺客 想骂人！ 不用手机才牛 垃圾 不能因为我们的信息常常被偷偷收集是常态，就默许支付宝这种行为啊！ 支付宝可算是非法集资的大哥么？如果大家一起挤提，会不会倒掉？ 都想变相炫个富而已嘛 一用宝你已裸身示人，还在乎？ 2楼，别再争执了，已经明白了隐私是重中之重的人，只能这么陪着，他们会有一天或会有一代人对这种隐私问题说出一句细思极恐的。 想骂人 你这地洗的 宝宝们该知道的和不该知道的早就都知道了～还怕个毛线 看到了，支付宝良心企业，还和你说一声。别的企业要看你的信息会和你打招呼？ 哈哈哈 支持你，赶快！ 霸王条款在国外隐私相关法律能告得马云倾家荡产 在中国隐私就是两个字，没有、任何、意义。 ",
        "Link": "http://comment.news.163.com/news2_bbs/D78KQ0UN0001899N.html",
        "Total": 57082,
        "Reply": 3624
    },
    "Source": "Netease"
}