{
    "URL": "http://ent.163.com/photoview/00AJ0003/647020.html",
    "Title": "权志龙被曝新恋情 曾赴济州岛约会4天3夜_网易娱乐",
    "KeyWords": "权志龙,",
    "Article": "权志龙被曝新恋情曾赴济州岛约会4天3夜1日上午根据D社独家报道,BIGBANG成员权志龙陷入恋爱中,对象正是李珠妍。据悉两人主要在家中享受约会,并小心谨慎的各自乘车分别进出。去年12月15日下午权志龙经由金浦机场前往济州岛,李珠妍也于当日晚些时候到达金浦机场,两人分别乘坐4时和6时的航班前往济州岛,一起享受了4天3夜的旅行约会。",
    "Source": "Netease",
    "PublishTime": "01/01/201811:53:52",
    "Comment": {
        "Link": "http://comment.ent.163.com/ent2_bbs/PHOTJNRC000300AJ.html",
        "Reply": 31,
        "Content": "不知道baby怎么想 少尼玛来分贾乃亮的热度 对象是个女的呀？我一直以为权志龙是同性恋！ 杜海涛给我跪下[大笑] 调侃不等于人身攻击呦， 可怜的小豆芽 中国继续封杀韩国🐶。 炮火连天 杜海涛的亲爹来了 是不是海涛老娘！ 傻逼韩国棒子可以滚了 懂了，干了四天三夜 那辆出租车是k5 是的呢，又矮又小定豆芽菜 这个棒子是谁？ 李珠妍很美耶！ 海涛妈妈找到了？ 傻逼杜海涛，跪下含朕龙根 不是说棒子爱国不买外国车嘛！一辆路虎，一辆RR 同性恋吗 杜海涛给我跪下[大笑] 调侃不等于人身攻击呦， 可怜的小豆芽 不知道baby怎么想 那辆出租车是k5 是不是海涛老娘！ 傻逼韩国棒子可以滚了 懂了，干了四天三夜 韩国棒子跟我们有关系吗？ 真有钱，羡慕 逼志龙额看到恶心 海涛妈妈找到了？ 李珠妍很美耶！ 炮火连天 不是说棒子爱国不买外国车嘛！一辆路虎，一辆RR 少尼玛来分贾乃亮的热度 权志龙难道不是杜海涛的丈夫么？ 对象是个女的呀？我一直以为权志龙是同性恋！ 没有小松菜奈个性 说不定还在一起吸毒呢 中国继续封杀韩国🐶。 和我在一个地方 炮火连天 这种小豆芽我就操不到！ 杜海涛的亲爹来了 傻逼杜海涛，跪下含朕龙根 7图是劳斯莱斯？？？ 约个炮就是恋情了嘛 是的呢，又矮又小定豆芽菜 这个棒子是谁？ ",
        "Total": 698
    }
}