{
    "PublishTime": "12/29/201717:56:22",
    "KeyWords": "萧敬腾,金志文,钟楚曦,自拍",
    "Source": "Netease",
    "URL": "http://ent.163.com/17/1229/17/D6RFJBPG00038FO9.html",
    "Comment": {
        "Link": "http://comment.ent.163.com/ent2_bbs/D6RFJBPG00038FO9.html",
        "Total": 185,
        "Content": "她在电影里，很像赵韩樱子。 芳华的故事就是男女主角二个社会上最单纯真诚善良乐于奉献的好人，最后都不适应社会，人到中年后都面对辛酸悲催无助局面，好在最后抱团取暖给人晚年免于凄惨孤独一生的希望。<br>尤其男主角，那可不是有人拍照做好事啊，是真真切切为全团战友做好事，最后还被陷害众人都落井下屎。让我对电影视野和别的观众都不同，我看的冯小刚在鞭挞不良人性向社会呼吁善待好人老实人吧！<br>的确是冯导拍摄的最有思想性的一部好电影，一声叹息！ 萧敬腾真是漂亮不起来 像个jb 对，刘涛，比刘涛好看些 哪里有像 觉得也有点像刘涛[窃笑] 真的长得非常像 我还是喜欢钟楚曦 真有点像 大家看看她能否胜任白洁第一顺位替补？ 芳华之后就她的文章最多，经纪公司还真是够拼的… 她在电影里，很像赵韩樱子。 都是祖籍广东人长得像很正常 芳华的故事就是男女主角二个社会上最单纯真诚善良乐于奉献的好人，最后都不适应社会，人到中年后都面对辛酸悲催无助局面，好在最后抱团取暖给人晚年免于凄惨孤独一生的希望。<br>尤其男主角，那可不是有人拍照做好事啊，是真真切切为全团战友做好事，最后还被陷害众人都落井下屎。让我对电影视野和别的观众都不同，我看的冯小刚在鞭挞不良人性向社会呼吁善待好人老实人吧！<br>的确是冯导拍摄的最有思想性的一部好电影，一声叹息！ 虽然苗苗的演技真的不错，但是我真是被钟楚曦吸引了，无论演技还是颜值都非常突出，尤其身材，在泳池里只有她穿泳衣最好看。看好她！有了她，请周冬雨，倪妮，林允加把劲了！希望大家都别靠黑别人让自己在娱乐圈站稳，都请用演技说话！ 像个jb 对，刘涛，比刘涛好看些 哪里有像 觉得也有点像刘涛[窃笑] 萧敬腾真是漂亮不起来 真的长得非常像 我还是喜欢钟楚曦 小猪罗志祥～美少女战士 真有点像 草泥马的，你们就这样对待一个战斗英雄，残废军人！ 大家看看她能否胜任白洁第一顺位替补？ 芳华之后就她的文章最多，经纪公司还真是够拼的… 穗子666 ",
        "Reply": 17
    },
    "Article": "网易娱乐12月29日报道12月29日，金志文微博发文：“钟楚曦！我喜欢！”并晒出一张萧敬腾的照片，网友惊呼“好像！”这张萧敬腾微笑的照片，金志文发现竟与《芳华》女主角钟楚曦有点神似。网友点评：“不论是眼神还是嘴唇，都像极了！”“萧敬腾可以认个妹妹了。”钟楚曦本人也出现在评论区，调皮回复到“摇晃的红酒杯！”还晒出一张自己和萧敬腾的自拍对比照，十分有趣。本文来源：网易娱乐责任编辑：张悦_NBJS5410",
    "Title": "《芳华》萧穗子撞脸萧敬腾 钟楚曦本人调皮回应_网易娱乐"
}