{
    "URL": "http://news.163.com/17/1229/13/D6R0810H0001875P.html",
    "Article": "（原标题：女孩婚礼当天，新郎、伴郎被抓走！前一天，他们干了这样太不地道的事！）12月25日，原本是杭杭州富阳姑娘小婷（化名）和江苏小伙小周（化名）大喜的日子。两人都是90后，从相识到相恋，一路走来，总算到了谈婚论嫁的时候。两家人千挑万选，最终商定，12月24日先在女方家摆酒，25日小两口去民政局登记领证，26日再回男方家摆酒。原本是件大喜事，然而，就在25日，和小周一起来接亲的两个伴郎双双被拘，小周也因为进了派出所，没能按照原计划去领证。这都是因为前一天深夜，他们酒后干了件荒唐事……12月25日一早6点多，富阳城东派出所陆续接到车主报警，称停在振兴路上的车子被人划了。民警赶到现场，发现共有6辆车被锐器划伤，包括马自达、起亚、现代等，其中受损最严重的是一辆白色大众轿车，划痕从前车门一直延伸到车尾处，且痕迹很深。是谁下的手？民警调看了监控，发现三个男子嫌疑很大。从监控视频中可以看到，12月25日凌晨0点24分，三个年轻男子一起走在振兴路上，忽然，走在前面的一个男子掏出钥匙，伸手就往停在路边的车上划。之后，另一个男子也动手划了几辆车。经视频追踪，民警锁定了三人的住处，在周边蹲点守候。下午2点左右，三个男子果然出现了，旁边还有一个姑娘同行。民警飞扑而上，将三人控制住。一旁的姑娘被吓傻了，愣了半晌才反应过来：“你们是什么人？抓我老公干嘛？”“我们是城东派出所民警！”一听这话，三个男子互相看了看，都默默低下了头。“你们到底干什么了？”听说是民警，姑娘急得眼睛都红了，差点哭出来，“领证怎么办？婚礼怎么办？”“你别急，我没事的......”三人中穿灰色羽绒外套的男子赶紧安慰她。民警询问得知，姑娘名叫小婷，富阳本地人；穿灰色羽绒外套的男子小周，是她的对象，两人前一天刚在富阳办了婚礼。和小周一起的两个男子，都是他从江苏老家带来的兄弟，这次当伴郎，一起来接亲的。既然是来办喜事的，为什么要划车？两个伴郎说，前一天中午他们陪新郎敬酒，喝了不少酒，晚上三人又一起出去吃夜宵，边吃边聊，一直到晚上12点才结束，都有点喝多了。步行回家经过案发路段时，新郎小周随口提了一句，说自己以前把车停在这里，被别人给划了。两个伴郎一听都很生气：“我今天晚上帮你报仇！”趁着酒劲，两人掏出钥匙，顺手划了停在路边的几辆车。小周虽然没有动手，但看到两人划车，也没有上前阻止，算是默许了。因为小周没有划车，民警对其进行教育后，于25号晚上予以释放。而两名伴郎因涉嫌寻衅滋事，被处以行政拘留14天的处罚。民警说，车损目前仍在核定中，如果超过2000元，两人还会被进一步追究刑事责任。事发后，小婷和小周领证的日子不得不推迟。办酒的日子不能确定，又没有伴郎出席，新娘小婷心情也很低落，称不愿再提起这件事了。本文来源：新闻夜航责任编辑：张宪超_NN9310",
    "Source": "Netease",
    "PublishTime": "12/29/201713:28:02",
    "KeyWords": "婚礼,领证,伴郎,新郎,违法,婚嫁",
    "Comment": {
        "Content": "酒后见人品 ",
        "Total": 1,
        "Link": "http://comment.news.163.com/news_shehui7_bbs/D6R0810H0001875P.html",
        "Reply": 1
    },
    "Title": "女孩婚礼当天新郎伴郎被抓 因前一天酒后划车报复_网易新闻"
}