{
    "URL": "http://news.163.com/18/0101/01/D71E1GTP00018AOP.html",
    "Article": "（原标题：丹凤黄金盗窃案两主犯获刑）华商报商洛讯2016年10月5日，丹凤县时代购物中心发生了一起黄金被盗案，盗窃价值高达70万余元，3名嫌疑人随后相继落网（2016年12月8日、12日华商报曾报道）。近日，丹凤县人民法院依法审理宣判了此案。2016年年初，被告谢某、陈某通过微信认识，两人均没有工作，遂产生“挣外快”的念头。2016年9月，二人在丹凤时代购物中心多次踩点后，制定了盗窃方案，购买了保安服、砍刀、丝袜等作案工具，并让张某（另案处理，已判有期徒刑3年）查看该商场二楼女厕所窗户结构及地形。2016年10月5日凌晨1时许，被告人谢某、陈某剪断女厕所防护网，蒙面进入购物中心，共盗窃金银饰品及手机等物价值70余万元。2016年10月11日，被告人谢某、陈某因涉嫌盗窃罪被丹凤县公安局刑事拘留，同年11月10日被依法逮捕。丹凤法院近日一审以盗窃罪判处被告谢某、陈某有期徒刑十三年又六个月，并分别处罚金20万元。一审判决后，两人均未提起上诉。本文来源：华商网-华商报作者：陈永辉责任编辑：韩佳鹏_NN9841",
    "KeyWords": "丹凤,盗窃案,盗窃,盗窃罪",
    "Source": "Netease",
    "Comment": {
        "Reply": 19,
        "Content": "说谁候呢 贪污190万缓刑3年 贪污七千万也最多两年 70万不是党内警告然后缓刑。。 别动不动来一句古文，你知道出处吗，读了全篇吗 这个够贪官吃一顿饭吗 窃珠者死，窃国者候 13年差不多，贪污判一年半 还是贪污好 判的好！依法打击坏人不管是谁 贪污算不算明目张胆的抢劫？ 盗窃是扰乱社会治安，贪污是颠覆社会制度。那些驴头法官咋就不知哪重哪轻啊？ 不算顶多算是偷，索贿算是抢劫 说的好 别动不动来一句古文，你知道出处吗，读了全篇吗 是猿，，，，，，，，，，， 说谁候呢 贪污190万缓刑3年 贪污七千万也最多两年 不错 窃珠者死，窃国者候 [不屑][不屑] 判的好，依法打击犯罪分子不管是谁，一视同仁。 这个够贪官吃一顿饭吗 70万不是党内警告然后缓刑。。 13年差不多，贪污判一年半 还是贪污好 判的好！依法打击坏人不管是谁 还是受贿好 贪污算不算明目张胆的抢劫？ 盗窃是扰乱社会治安，贪污是颠覆社会制度。那些驴头法官咋就不知哪重哪轻啊？ 不算顶多算是偷，索贿算是抢劫 ",
        "Total": 460,
        "Link": "http://comment.news.163.com/news2_bbs/D71E1GTP00018AOP.html"
    },
    "PublishTime": "01/01/201801:24:22",
    "Title": "两男子盗窃价值70万元黄金 被判13年6个月罚20万_网易新闻"
}