{
    "Source": "Netease",
    "KeyWords": "会东县,松露,黑松露,鹅肝",
    "URL": "http://news.163.com/17/1225/09/D6G7PVSE0001875P.html",
    "PublishTime": "12/25/201709:08:32",
    "Comment": {
        "Content": "以前喂猪滴…… 这东西怎么吃？ 看来贫穷限制了大家的想象力..... 本来在国内是不值钱，结果不知怎么的洋人发现吃西餐配这玩意有点意思，结果中国人就炒起来了，说洋人都说了有营养怎么怎么的。 黑松露炒蛋挺好吃的 黑松露盖浇饭挺好吃的 中国人也吃松露，纯属狗啃麦苗装羊，松露是成年公猪射出的精子味，有人20万买一斤多吃，真特么够黑暗的。 据说很好吃，但我没吃过，想吃来着，后来看一个外国找松露的用几条狗去找，那东西就被狗含在嘴里，那狗还直流哈喇子，然后在从狗嘴里抠出来揣兜里，当时我就无爱了！ 炒得好快啊 也叫猪拱菌 花了20万的在家哭，名字都没上 喂猪的！ 不用炒作，20年前最高拍卖价200多万，白松露，黑松露便宜点，人民币几万一斤吧，指的是欧美的橡树林里的松露，与国内品种可能有点差异。吃的时候，只能生吃，过火味道全没。北京最高档饭店年年有松露周，得提前一个月预订，都是达官贵人来吃的。 这东西公的吃了母的受不了，母的吃了会要公的命。。。。 你闻过还是吃过后者？ 现在便宜了吧,松露近两年产量大了很多!煲汤吃起来一股草菇味.干货闻起来倒是有股巧克力味.... 农业公司表示不服，花了二十万都没出现名字。。。。 这东西小时候在山上捡到，当牛粪扔了... 猪最会恭这个<br><br>松露猪_百度百科<br>放养的猪好多天都不产一个松露是什么原因_百度知道<br><br>最佳答案:猪本来就不会产松露!猪吃了松露之后!拉出的粪便的地方有概率长出松露! 这东西以前就是和秘鲁的玛卡一个作用--喂猪的。 傻逼 感觉像我老家的那种咸菜疙瘩 跟贴被火星网友带走啦~ 看过一个节目，欧洲人的确是用猪去拱 那岂不是不值钱了 一般拿来煲汤出味。老外西餐用的比较多。 止血药材，马粪包，完达山有的是。 我们这一般像其他菌类一样和火腿青椒等爆炒，也可以和土鸡煲汤，还可以切片刺身 不小心扔掉20万 当榨菜吃吧 现在也是喂猪的！ 还真是，猪对这东西非常敏感，它能够依靠嗅觉辨识出松露的位置，所以有人培训了猪来找松露，猪嘴夺食呀。。。 大西国啥不能发生? 用开水烫三分钟，控出，沥干。热勺下油，葱花炝锅，下肉片，炒略微带一点生肉时候，下松露，翻炒，下蒜蓉，盐，勾芡起锅，出盘。即可，下酒菜。 同问 林子里草地上最多的就是这种马粪包和狗尿苔 黑松露炖大鹅，挺好吃的 mmp等老子把竹鼠卖了再去挖！ 国内也有煲汤的用的，高档饭店一小碗汤，配上一小片 当地人觉得这东西味淡都是用来喂猪的，现在是用来装13的 闻起来像臭脚，吃起来没什么味道。。<br>其实就是炒作，国内国外都一样 逼格高的西餐常用比如做完之后磨一些薄片或者碎末在意面上面.. 猪对这个气味很敏感，所以都用猪来找，猪拱出来，人马上去抢来，也叫猪拱菌 松露味道很奇特.有点类似于浓烈的早上没刷牙人的口气汗味.总之这东西味道很具有辨识力. 黑松露烩面，挺好吃的 黑松露烩面，挺好吃的 买这个的不是托就是二逼。 这东西怎么吃？ 黑松露肥锅肉挺好吃的 猪肉炒松露,挺好吃的. 20万买个马粪包，钱多烧的 把铁锅烧热，挖一勺子猪油融化后将切好成片的松露煎至两面金黄即可！ 你这就是特么浪费＿！ 嘻哈大国大嘻国 像一坨狗屎 本来在国内是不值钱，结果不知怎么的洋人发现吃西餐配这玩意有点意思，结果中国人就炒起来了，说洋人都说了有营养怎么怎么的。 黑松露炒蛋挺好吃的 黑松露炒肥肠挺好吃的 黑松露盖浇饭挺好吃的 吃了拉屎不臭~？？？ 泡面的时候加一点挺好吃的 也叫猪拱菌 吃这东西的人，体态确实像，楼上形容的很贴切 闻起来像臭脚，吃起来没什么味道。。<br>其实就是炒作，国内国外都一样 猪最会恭这个<br><br>松露猪_百度百科<br>放养的猪好多天都不产一个松露是什么原因_百度知道<br><br>最佳答案:猪本来就不会产松露!猪吃了松露之后!拉出的粪便的地方有概率长出松露! 这东西公的吃了母的受不了，母的吃了会要公的命。。。。 喂猪的！ 买过一个小罐，80克，900多。欧洲进口的。两分钟吃完后悔 只要中国人重视了，马上给你老外颜色看看。什么高档食材，全给你人工养殖了！ 就跟咱们吃面加香椿似的? 喂狗的！ 毫无营养价值的东西被炒作的天价傻逼才会买 我还喜欢白松露拉面 这东西以前就是和秘鲁的玛卡一个作用--喂猪的。 记得贴完税发票出来证明 你闻过还是吃过后者？ 加点白菜煮着吃 感觉像我老家的那种咸菜疙瘩 松露味道很奇特. 吃了这玩意能精钢不坏不 那岂不是不值钱了 逼格高的西餐常用比如做完之后磨一些薄片或者碎末在意面上面.. 傻小子年纪估计没感觉，待你三四十岁了就有效果了 大西国啥不能发生? 看来贫穷限制了大家的想象力..... 松露巧克力 游戏里都是猪供的你不要骗我~ 这个也不是外国人发明的<br><br>是中华老爹家的特产 黑松露肉夹馍也是不错的，不喜欢孜然可以点这个 我们这一般像其他菌类一样和火腿青椒等爆炒，也可以和土鸡煲汤，还可以切片刺身 20万价值如何体现。只为个第一就价格高吗。 同问 林子里草地上最多的就是这种马粪包和狗尿苔 你说的是松茸 中国人也吃松露，纯属狗啃麦苗装羊，松露是成年公猪射出的精子味，有人20万买一斤多吃，真特么够黑暗的。 国内也有煲汤的用的，高档饭店一小碗汤，配上一小片 跟甜点或咖啡上撒了点肉桂一样 好像一坨屎。 当榨菜吃吧 错了，只吃表面一层，剩下的全丢掉 我们生活很幸福的，CCAV报道 等我把竹鼠卖了就去做 止血药材，马粪包，完达山有的是。 逼格高一点的都用白松露 你能喝多少 这东西怎么吃？ 这东西是不是又叫做黑块菌？？？ 松露的味道有如母猪发情时的味道，所以山民都是牵着大公猪去山上转，以此寻找松露。 就看着价格，绝对不能跟普通菌类一样，锅里炖了。像撒五香粉一样的撒在西餐上。 我一般都是泡面的时候放一颗借味 国产松露？ 黑松露炒蛋挺好吃的 贫穷限制了我的想象力~~~ 黑松露盖浇饭挺好吃的 据说很好吃，但我没吃过，想吃来着，后来看一个外国找松露的用几条狗去找，那东西就被狗含在嘴里，那狗还直流哈喇子，然后在从狗嘴里抠出来揣兜里，当时我就无爱了！ 炒得好快啊 人怎么吃不知道，我们这老母猪发情时，就会去林子里拱这玩意吃，因为这玩意有公猪的镜子味。哈O(∩_∩)O哈哈~ 喂猪的！ 不用炒作，20年前最高拍卖价200多万，白松露，黑松露便宜点，人民币几万一斤吧，指的是欧美的橡树林里的松露，与国内品种可能有点差异。吃的时候，只能生吃，过火味道全没。北京最高档饭店年年有松露周，得提前一个月预订，都是达官贵人来吃的。 老板，来碗油泼黑松露，在要个松露夹馍 中国是论盘吃的，欧洲是论片吃的！哈哈哈 黑松露炒黑木耳，爽得很 现在便宜了吧,松露近两年产量大了很多!煲汤吃起来一股草菇味.干货闻起来倒是有股巧克力味.... 有钱揍是任性 煮鸡蛋糕上面放点.....煎肥鹅肝上面放几片...... 松露的味道有如母猪发情时的味道，所以山民都是牵着大公猪去山上转，以此寻找松露。穷屌丝想知道啥味道，可以去问问母猪的下体。体验下富豪吃母猪下体的味道。。。 炒菜的时候放一点....和辣椒大蒜的作用差不多.... 松露味道很奇特.有点类似于浓烈的早上没刷牙人的口气汗味.总之这东西味道很具有辨识力. 什么东西 这东西小时候在山上捡到，当牛粪扔了... 这东西壮阳，所以贵 黑松露炖腊肉，挺好吃的 傻逼 精液的味道 跟贴被火星网友带走啦~ 小李丫，李总公司拍了个20万的松露。晚上说要请客，听说那个东西很壮，不行你联系一下歌舞团晚上来个节目？ 来云南，切片煮鸡，凉拌或者泡酒。大惊小怪的 不就是白蚁老巢里的东西吗？ 看过一个节目，欧洲人的确是用猪去拱 我也吃过几次了,还没明白是啥味道. 好大胆，你敢骂高贵的欧洲人是猪？牧羊犬马上来咬死你 这些都是国家的 就像茅台也有很多人喝不惯一样，松露也是纯粹的西方高档食品，都是有名无实，有人会炒房，房价自然升高，食品也是一个道理，跟味道没有半毛钱关系。 只有我知道黑松露可以做臊子面吗？ 黑松露烤串也不错 白松露肉夹馍味道也不错 不小心扔掉20万 高档食材的香料。中国松露品相不好，法国的比黄金还贵。 地下的不应该是郭嘉的吗，不能随意买卖的 唉，贫穷限制了我的想象 同问 没有东北的洗澡鱼值钱 除了吃，中国人还有什么？ 我要吃黑松露麻辣烫 我以为这是坨牛粪！ 我们一般都是黑松露炒腊肉。没得半斤炒不出来味道 有钱人的世界 不能理解，有什么好 逼格高的西餐常用比如做完之后磨一些薄片或者碎末在意面上面.. 猪对这个气味很敏感，所以都用猪来找，猪拱出来，人马上去抢来，也叫猪拱菌 和钱开玩笑。 还有股精液、潮湿、香水混合的味道 这东西怎么吃？ 猪食[窃笑] 味道很特别，很浓郁，感觉有种几天没洗脚和汗的味道，一开始不接受，多吃了几次，感觉还不错，很难忘的味道，怪不得这么贵 4532452345 这东西怎么吃？ 人怎么吃不知道，我们这老母猪发情时，就会去林子里拱这玩意吃，因为这玩意有公猪的精子味。哈O(∩_∩)O哈哈~ 看来贫穷限制了大家的想象力.. 调味、调味、调味，味道独特，刺激味蕾。有野味的感觉。 用开水烫三分钟，控出，沥干。热勺下油，葱花炝锅，下肉片，炒略微带一点生肉时候，下松露，翻炒，下蒜蓉，盐，勾芡起锅，出盘。即可，下酒菜。 黑松露炒蛋挺好吃的 这东西不健康，我就从来不吃。 然后最后还是送给了领导吃！ 用猪的嗅觉寻找松露是传统... 喂猪的！ 这东西怎么吃？ 不及胖头鱼 哇⊙ω⊙ 比如做完之后磨一些薄片或者碎末在意面上面.. 逼格高的西餐常用比如做完之后磨一些薄片或者碎末在意面上面.. ：我要宣布一件事情，大家还记得2011年的抢盐的事情吗？我家里的盐在今天，就是今天，终于吃完了，吃完了呀！我的个亲娘啊！终于给吃完了。​​​ 为啥你会捡牛粪 做挂面汤吃！就是煮面条，把松露切片扔锅里。 黑松露盖浇饭挺好吃的 这东西怎么吃？ 这东西怎么吃？ 黑松露刺身，酱油芥末，美味 看来贫穷限制了大家的想象力..... 花了20万的在家哭，名字都没上 用开水烫三分钟，控出，沥干。热勺下油，葱花炝锅，下肉片，炒略微带一点生肉时候，下松露，翻炒，下蒜蓉，盐，勾芡起锅，出盘。即可，下酒菜。 同问 一般拿来煲汤出味。老外西餐用的比较多。 女朋友寄了两大包给我妈[窃笑] 朕已阅 这东西小时候在山上捡到，当牛粪扔了... 继续炒 现在也是喂猪的！ 还真是，猪对这东西非常敏感，它能够依靠嗅觉辨识出松露的位置，所以有人培训了猪来找松露，猪嘴夺食呀。。。 用开水烫三分钟，控出，沥干。热勺下油，葱花炝锅，下肉片，炒略微带一点生肉时候，下松露，翻炒，下蒜蓉，盐，勾芡起锅，出盘。即可，下酒菜。 那个702g是幼儿园小朋友写的吧 喂猪的！ mmp等老子把竹鼠卖了再去挖！ 这东西怎么吃？ 当地人觉得这东西味淡都是用来喂猪的，现在是用来装13的 同问 没吃过。。 冬虫夏草处理了没？ 是贫穷限制你的想象力？ 农业公司表示不服，花了二十万都没出现名字。。。。 就一个蘑菇，至于吗？ 这炒作及格线都达不到。。。 同问 呵呵 好大一坨翔！ 很好吃，最喜欢磨成粉撒在牛排、佐料、炖菜中，鲜美 以净重702克的微弱优势 又想骗我去挖松露？ 切片用橄榄油或黄油煎一下撒点盐胡椒就可以吃鲜的不得了 ",
        "Total": 1607,
        "Link": "http://comment.news.163.com/news_shehui7_bbs/D6G7PVSE0001875P.html",
        "Reply": 166
    },
    "Article": "（原标题：四川一个县的年度“松露王”，702克卖出20万元高价）封面新闻讯12月24日，会东县第二届黑山羊黑松露美食节开幕。在美食节评选环节，一个重达702克的松露，成为了2017年的“松露王”，以20万元的价格被买走。松露是一种食用野生菌类，也被称为块菌、猪拱菌，一般生长在松树等树木根下，含有丰富的蛋白质、氨基酸和大量微量元素。松露在西方饮食文化中地位很高，与鱼子酱、鹅肝并列“世界三大珍肴”。凉山州会东县有着松露自然生长的优良条件，是中国最早发现松露的地方，也是目前中国最大的松露产地，年产松露80至100吨，有松露品种十余种。听说要举行“松露王”选拔赛，会东县多家农户和商家积极报名，组委会从中选出了单个重量在200克以上的24个松露进入决赛。在决赛现场，参赛代表将自己的松露宝贝放在前台展示，公证人员现场公布称重结果。572克、611克、559克、701克……被摆上秤盘的松露，一个比一个重。评委根据松露重量、大小、完整度、成熟度四项标准，最终评出一、二、三等奖共6名。最终，1号松露以净重702克的微弱优势，获得一等奖，拿下“松露王”称号。评选过后是拍卖环节，以现场拍买、标价、现场加价、现场中拍的方式进行，底价为1万元。经过多轮竞价，这个“松露王”，被一家农业公司，以20万元人民币的价格买走。本文来源：封面新闻责任编辑：邵小波_NN2479",
    "Title": "四川会东选出年度\"松露王\" 702克卖出20万元高价_网易新闻"
}