{
    "URL": "http://ent.163.com/18/0101/17/D73635MQ00038FO9.html",
    "Title": "新年第一天发福利！热巴媚眼红唇 学杨幂不露全脸_网易娱乐",
    "KeyWords": "杨幂,新年,热巴,自拍",
    "Article": "热巴晒出美美的两张自拍网易娱乐1月1日报道据台湾媒体报道，迪丽热巴扭臀辣跳舞的跨年表演大获好评，一双长腿让粉丝看了惊艳不已。而新年第一天，热巴也不忘晒出新年美照，其中一张是她手遮半张脸，大晒媚眼红唇诱惑。迪丽热巴在2018年第一天就放送福利，在微博晒出新年自拍，她露出侧脸甜笑自拍，其中一张以手遮住近半张脸，自拍风格和杨幂的招牌“不露全脸”相似，展现媚眼红唇诱惑，高颜值实在美爆。本文来源：网易娱乐责任编辑：李彤_NK4455",
    "Source": "Netease",
    "PublishTime": "01/01/201817:44:10",
    "Comment": {
        "Link": "http://comment.ent.163.com/ent2_bbs/D73635MQ00038FO9.html",
        "Reply": 30,
        "Content": "美哦 热吧？不我冷 大家能说实话吗？？人家确实长得不错。。身材也不错。。 美哦 美啦 炒了大概2年了吧一部代表作也没有光看见片酬增加演技还是大写的尴尬 美啦 有点像网红脸 好美 美哦 好美呀 因为网红整容化妆都趋向欧洲人，而热巴自己就长这样。 现在真没人管啊？几个狗屎随便找个样子一般的没有从艺的，都可以自封大明星 小屁屁还挺翘的 以后炒作说清楚点！维族哑女，热巴！那样炒作几年，随便扭扭，还能有色狼同情 现在娱乐行业大量饼爷，杨天使，赵丽颖，现在还有热巴这种样子一般大型活动装哑婊发骚随便扭！<br>你们是不是素质太低了！装什么明星！ 美哦 炒了大概2年了吧一部代表作也没有光看见片酬增加演技还是大写的尴尬 汉，或，众少，还有混血<br>从小到大，多少纯天然美女，甚至一些太婆，中国不缺各种纯天然美女！<br>草包货，在她们族里都是一般的样子，炒尼玛！跨年夜，扮演发骚的哑婊随便扭扭，还觉得特惊艳！<br>一群💩 美哦 人家哑女团还有千手观音享誉世界！<br>热巴真垃圾！ 草包，又一般外形，倒是够自恋了，跨年夜她那个算个什么节目啊！真太垃圾了，一群狗屎。 以后炒作说清楚，这个货炒作好几年了！才知道是个哑巴！ 有点像网红脸 讨厌，模仿杨幂，粉丝还带头撕杨幂，真的够讨厌的 美哦 欧洲范多了，她是很一般 你们大量狗屎涂墙，发粪涂墙！还歪说，大陆就是没文化！<br>大陆有的是各种人才！是你们这些素质倒数的，现在集体狗屎当道，随便混乱！一群狗屎。 离地三尺有条沟，<br>一年四季水长流。<br>不见牛羊来喝水，<br>只有乌龟来洗头… 它的公司老板是谁！干什么！找这种垃圾！ 好美 因为网红整容化妆都趋向欧洲人，而热巴自己就长这样。 大家能说实话吗？？人家确实长得不错。。身材也不错。。 美啦 一点也不像，她一看就是新疆人那边的 真的太一般了！见过多少纯天然的，热巴还是外民族的，只是大鼻梁，五大三粗的迟钝，没气质灵气等，真太自恋了 迪弟热巴，某族哑女明星！<br>继续得瑟 美啦 美啦 热吧？不我冷 好美呀 对了，热巴外形凑合算别的民族而已，才艺都说会很多。<br>热巴，她是哑巴？ ",
        "Total": 162
    }
}