{
    "Article": "（原标题：亚洲野象“闯进”云南普洱一乡镇抢粮袭击家畜当地紧急处置）中新网昆明12月30日电记者30日从云南省普洱市森林公安局获悉，最近几天，长期停留在云南省普洱市思茅区六顺镇的野生亚洲象频繁进入村寨、公路，给村民的生命财产造成威胁，当地相关部门加强了防范措施。图为张祖培家被野象“杀死”的黄牛。张祖培摄28日晚，位于思茅区六顺镇南邦河村委会的思澜公路路段，一头野象突然来到公路上溜达，不仅给交通造成影响，也让居住在附近的村民受到不小的惊吓。由于当时人比较多，在大家的驱赶下，这头野象最后离开村寨，没有造成人员和财产损失。不过六顺镇团结村的张祖培家就没有那么幸运了。25日，他家放在山上的一头黄牛失踪，直到28日才找到。此时，黄牛已死亡多时。“当时，我们去看见的时候四脚朝天，大象脚印在附近到处都是，牛死的地方树枝也踩坏了。”张祖培说，他们将黄牛剥开看到脖子、两个前膀已经是紫血。可能是野象从那里路过，相遇后将黄牛“杀死”。普洱市思茅区六顺镇境内一共活动着野生亚洲象43头。进入冬季以来，农田里的农作物逐渐收割完毕，野象在野外很难觅到合适的食物，因此部分野象频繁进入村寨，偷吃村民晾晒在院子里或者住房一楼的食物，给村民的房屋、粮食等财产造成一定的损失。针对这一情况，当地森林公安、林业等部门也加大了相关防范措施。普洱市思茅区森林公安局刑侦大队大队长郑成志表示，现在思茅区已经组建了野象跟踪员队伍，做了一个信息发布平台。野象跟踪员监测到野象活动位置、活动轨迹后及时向这个平台发布信息，平台收集到信息后，扩散到涉及野象活动的所有村寨、所有居民，把野象活动的信息及时告诉村民，让村民做好预防准备。当地林业部门还向保险公司投保，对村民损失给予一定的理赔；对野象频繁出没村寨村民的房屋，通过加高挡墙、架设围栏等措施，加强防范；在村寨架设太阳能路灯，提高夜间能见度，随时掌握野象活动轨迹。同时，在野象频繁出没路段安装监控探头，掌握野象行踪。本文来源：中国新闻网作者：毕晓东宋志刚责任编辑：邵小波_NN2479",
    "PublishTime": "12/30/201714:29:00",
    "URL": "http://news.163.com/17/1230/14/D6TMG0GG00018AOQ.html",
    "Comment": {
        "Content": "我一个小学同学，上学那会儿不好好学习，后来靠关系进了家编辑社，整天东抄西凑，瞎几把乱编。后来他家失势了，老婆给他带绿帽子走了。他寂寞难耐，有次在单位偷领导小秘书的丝袜，套着躲在会议室里打飞机被抓包，领导大怒，开除之。他只能上街发小卡片，不小心被车撞了个下肢瘫痪，失去功能，唉…现在只能烂在床上当自媒体…所以啊，千万不能东抄西凑，瞎几把编啊！ 保护动物造成的损失怎么赔？ “黄牛”被大象踏死？老家出事了[挨揍] 所以还是要扩大保护区范围 我以前在南邦河当村官 动物生存空间太少了，坐在顶端高级动物太贪心 其实是大象的栖息地不断减少 原本就是野象的家园，是被你闯进来的，而且闯进的你是越来越多，还有脸说大象？你闯进来种植了多少亩橡胶，多少亩茶叶地，多少亩旱地你就砍破坏了多少亩，大象家园的原始森林，还有脸说大象？ 黄牛：还没有帮大家买到高价春运火车票就挂了，一定要给我报仇啊 野象是郭嘉保护动物吧，来来来，你家的保护动物，给我造成损失，咋算 原本就是野象的家园，是被你闯进来的，而且闯进的你是越来越多，还有脸说大象？你闯进来种植了多少亩橡胶，多少亩茶叶地，多少亩旱地你就砍破坏了多少亩大象家园的原始森林，还有脸说大象？真是搞笑！ 大象也是为了生存 哟哟哟，彭改寿你应该认识了 这个世界对动物实在不公平 大象，我拼本事抢的东西 下次派城管去跟大象决斗 最大的陆地动物要造反啦 “黄牛”被大象踏死？老家出事了[挨揍] 我以前在南邦河当村官 动物生存空间太少了，坐在顶端高级动物太贪心 泰国大象可怜点 好像政府陪 原本就是野象的家园，是被你闯进来的，而且闯进的你是越来越多，还有脸说大象？你闯进来种植了多少亩橡胶，多少亩茶叶地，多少亩旱地你就砍破坏了多少亩，大象家园的原始森林，还有脸说大象？ 野象是郭嘉保护动物吧，来来来，你家的保护动物，给我造成损失，咋算 原本就是野象的家园，是被你闯进来的，而且闯进的你是越来越多，还有脸说大象？你闯进来种植了多少亩橡胶，多少亩茶叶地，多少亩旱地你就砍破坏了多少亩大象家园的原始森林，还有脸说大象？真是搞笑！ 大象也是为了生存 宁可人亡，不可象死，国规 宇宙的探索是离不开我的话的，只有把围绕地球公转的一切物质包括气体计算在地球体积之内才能找到地球真正的边和角，那是反引力汇聚地，是真正的真空隧道，宇宙高速路，太阳系内的动脉!把围绕太阳公转的一切物质包括气体计算在太阳体积之内才能找到恒星与恒星的边和角，那是恒星与恒星之间的真空高速隧道，找到真空隧道以近光速超光速飞行那不是个事!宇宙飞行器也不能按照飞机的二维结构原理制造，飞机是不能高速自转的，但只有高速自转才能产生真空电磁场，以近光速飞行，未来的宇宙飞行器必须按地球原理制造，八层以上结构，你看地球高速自转着前进，我们人坐在地球上有啥不适感觉吗？ 国家赔呗 文章不是说了有保险公司赔吗？ 我一个小学同学，上学那会儿不好好学习，后来靠关系进了家编辑社，整天东抄西凑，瞎几把乱编。后来他家失势了，老婆给他带绿帽子走了。他寂寞难耐，有次在单位偷领导小秘书的丝袜，套着躲在会议室里打飞机被抓包，领导大怒，开除之。他只能上街发小卡片，不小心被车撞了个下肢瘫痪，失去功能，唉…现在只能烂在床上当自媒体…所以啊，千万不能东抄西凑，瞎几把编啊！ 保护动物造成的损失怎么赔？ 野象可以吃吗[窃笑][窃笑][窃笑] 所以还是要扩大保护区范围 人退 其实是大象的栖息地不断减少 国家赔偿，具体就是当地林业部门赔偿。 黄牛：还没有帮大家买到高价春运火车票就挂了，一定要给我报仇啊 哟哟哟，彭改寿你应该认识了 这个世界对动物实在不公平 大象，我拼本事抢的东西 象鼻是很好的料理材料 下次派城管去跟大象决斗 ",
        "Link": "http://comment.news.163.com/news2_bbs/D6TMG0GG00018AOQ.html",
        "Total": 198,
        "Reply": 27
    },
    "Source": "Netease",
    "Title": "亚洲野象\"闯进\"乡镇抢粮袭击家畜 当地紧急处置_网易新闻",
    "KeyWords": "野象,普洱,云南,牲畜"
}