{
    "URL": "http://news.163.com/18/0101/12/D72IISPT000187V5.html",
    "Title": "又不销毁了! 台涉外部门称\"误植护照\"改贴防伪纸_网易新闻",
    "KeyWords": "台湾,美国,护照,贴纸",
    "Article": "（原标题：又不销毁了!台涉外部门称“误植护照”改贴防伪纸）【环球网综合报道】台湾地区第二代晶片“护照”误植类似美国华盛顿杜勒斯机场的图样，引发岛内轩然大波。该批错误“护照”也被台媒曝光称将悉数销毁。但台湾“联合新闻网”1日报道，台涉外部门昨日晚又宣布，不用销毁了!“误植护照”改加贴防伪贴纸了。综合台媒消息，台当局涉外部门“领事事务局”30日才表示，“中央印制厂”已根据桃园国际机场提供的照片，重新设计“护照”完成图样，将重新印制，希望2018年2月初可以重新发行。台涉外部门31日晚间又举行紧急记者会宣布，在不影响“护照”的安全和防伪功能下，在误植的页面上，加贴防伪贴纸，如此一来就不需要销毁“护照”;每张贴纸30元，内页误植的“护照”共五十五万本，需约1650万新台币，远比重印所需的2.2亿新台币，省下不少，这笔费用由涉外部门负担。此次台涉外部门搞出的“护照乌龙”风波最早由一名台湾网友发现，该网友在社交媒体上发布了一张刚刚换发的新版“中华民国护照”照片，其中第五页上居然出现了美国杜勒斯机场。对此，该网友酸道“外交部很棒，正式宣告台湾成为美国第51州了!”不少网友也在留言中讽刺说，台当局这种做法“太可笑”简直是“自欺欺人”，有网友甚至表示，“没有弄错啊!一堆梦想舔美国老爸的屁股很久了,先在‘护照’上搞点小花招来自嗨自慰也不错啊”!本文来源：环球时报-环球网。更多精彩，请登录环球网http://www.huanqiu.com责任编辑：张宪超_NN9310",
    "Source": "Netease",
    "PublishTime": "01/01/201811:57:00",
    "Comment": {
        "Link": "http://comment.news.163.com/news2_bbs/D72IISPT000187V5.html",
        "Reply": 5,
        "Content": "民主国家花钱这么累，哪像我们这么大气 挽尊 把蔡逼逼贴上去！ 民主国家花钱这么累，哪像我们这么大气 李狗养了个蔡逼婊子！ 好么这是公开舔人家了 ",
        "Total": 15
    }
}