{
    "Source": "Netease",
    "KeyWords": "日本北海道,机场,暴风雪,气压",
    "Title": "暴风雪将袭击日本北海道等地 政府发布雪崩预警_网易新闻",
    "PublishTime": "12/25/201709:03:00",
    "URL": "http://news.163.com/17/1225/09/D6G86E4800018AOQ.html",
    "Article": "（原标题：暴风雪将袭击日本北海道等地政府发布雪崩预警）中新网12月25日电据香港《文汇报》报道，受突然增强的强烈低气压和冷锋影响，日本北海道和东北地区预计于本月25日起一连四日出现暴风雪，日本气象厅24日发出警告，呼吁当地民众小心大雪和雪崩。资料图：此前，受强冷空气影响，日本北海道地区遭遇罕见暴风雪天气，部分地区积雪厚度已超过2米。据日本气象厅表示，一股低气压24日清晨在朝鲜半岛一带形成，迅速增强并移向日本海方向，预料在今日会通过北海道，加上另一股由太平洋移向日本东北的低气压，两者将于今晚在鄂霍次克海结合成一股更大的“炸弹低气压”。受这股超强低气压影响，日本气象厅预计26日日本北部上空5000米的气温会降至摄氏零下36度，为周边地区带来暴风雪。不过日本气象厅也警告称，来自南面的暖空气将于26日下午北上，预计会令东北地区气温上升，届时部分积雪可能提前融化，或会造成雪崩。另外，韩国西部近两日也出现恶劣天气，仁川国际机场前日起大雾久久不散，截至昨日已有多达900多班航班延误或取消，大批乘客滞留。机场营运商紧急派120名职员到场协助安抚乘客，部分乘客不满机场方面没有解释情况，不少乘客更要留在机场过夜。受大雾影响，仁川机场23日早上发出能见度不足400米警报，之后能见度一度降至只有50米，虽然情况其后好转，但近日机场能见度再降至400米以下。本文来源：中国新闻网责任编辑：邵小波_NN2479",
    "Comment": {
        "Content": "瑞雪兆丰年，善 那叫暴风雪???在加拿大房子不被雪埋住都不叫好意思叫暴风雪#!!!! 瑞雪兆丰年，日本加油，亚洲的希望。 大雪 风光66 来得好 瑞雪兆丰年，善 祈福 还从来没在加拿大过冬，甚至住一个月的情况都没。但我看过加拿大一开门，外面全是雪，把门都封了 那叫暴风雪???在加拿大房子不被雪埋住都不叫好意思叫暴风雪#!!!! 妈蛋我家着就下了两场小雪还都站不住前几天还-20度呢这几天就零下几度前天买的冰砖扔外边都化成汤了都是北方咋差这么多呢 看雪的好季节 大雪 ",
        "Reply": 11,
        "Link": "http://comment.news.163.com/news2_bbs/D6G86E4800018AOQ.html",
        "Total": 18
    }
}