{
    "Source": "Netease",
    "PublishTime": "12/26/201711:27:22",
    "KeyWords": "黄晓明,黄轩,热吻",
    "Title": "黄晓明别看！黄轩baby新剧额咚激吻狗粮撒不停_网易娱乐",
    "Comment": {
        "Link": "http://comment.ent.163.com/ent2_bbs/D6J24T6U00038FO9.html",
        "Total": 955,
        "Content": "那黄轩的嘴会不会不干净了？梅毒可以通过接吻传染 黄轩这是要疯啊..... 买一送一的 狗男女 景甜表示不服 呵呵，戏子就是戏子啊。。 AB就吻戏不用替身 蒋雯丽别看 出来卖的，接个吻很正常撒！ 黄轩哈哈 那不就是说和baby接吻就是间接的亲了小小明 黄轩说实话难看啊 摸大幂幂腿时那抹淫笑浮现出来了 黄轩忘了baby嘴里有教主弟弟的味道吗 黄晓明是农民气质！ 咋样，是不是满嘴都是哥的味？ 黄轩说她有口臭 替身演的，然后扣的图 真服这些明星跟别人亲来亲去的自个老公（老婆）的内心真是强大[大笑] 黄轩本来能红一波的，这下中了杨颖的毒，然后会沉寂一段时间的。 真没有啥帅气地啊 放屁。黄轩只想尝尝小明哥的鸟味[微笑] 毫无演技 小明看着黄轩淫荡的笑了 这种剧有人看么 我反正是不会看的 我发现杨颖只和当红艺人合作谁最红和谁演 舔过多少棒子都数不过来了，还会在乎这个 这会怎么不抠图了，怎么不替身了啊？ 戏子的心就是宽，自己老婆被人亲被人摸都得笑呵呵的 黄轩很喜欢这种有夫之妇 小明早晚要被绿的 和她拍电视剧的男演员会被喷的很惨……毫无演技 可是小明孩子鼻子大不能是这个原因吧？ 绝不看 景甜还真不算，大唐荣耀男主是新人 那黄轩的嘴会不会不干净了？梅毒可以通过接吻传染 空间,行,亲密合照各种旅行勾肩搭背手牵手鸳鸯浴 朋友圈,卖鞋子卖衣服 呵呵，戏子就是戏子啊。。 黄轩这是要疯啊..... 出来卖的，接个吻很正常撒！ 黄轩哈哈 baby嘴大，黄轩脸都被啃掉了 咋样，是不是满嘴都是哥的味？ 造谣犯法 狗男女 替身演的，然后扣的图 额，，， 真服这些明星跟别人亲来亲去的自个老公（老婆）的内心真是强大[大笑] 黄轩本来能红一波的，这下中了杨颖的毒，然后会沉寂一段时间的。 他们家的钱，就算不接吻也能活的挺好的吧，不是为了钱谁愿意让媳妇跑头露面，这可能是凡人的想法吧 放屁。黄轩只想尝尝小明哥的鸟味[微笑] 小明看着黄轩淫荡的笑了 黄轩，小明老婆的嘴软不？ 我发现杨颖只和当红艺人合作谁最红和谁演 黄晓明说无所谓的他亲的只是卑鄙抠图的脑袋 黄轩的嘴还没大嘴🐵大了吧？ 黄轩，你怎么可以吻杨颖[暴怒][暴怒] 逛个贴吧,行,不是表白就是奔现 黄轩很喜欢这种有夫之妇 不喜欢baby，她演的看不下去 舔过多少棒子都数不过来了，还会在乎这个 AB就吻戏不用替身 没事，小明不要紧的 快算了吧，大唐荣耀里有几个比景甜红的？别无脑喷 那不就是说和baby接吻就是间接的亲了小小明 黄轩快把硅胶叼出来 摸大幂幂腿时那抹淫笑浮现出来了 杨颖除了睁大眼睛还是睁大眼睛，我们是来看演技的不是看你眼睛的，嘴巴总觉得怪怪的 黄轩说实话难看啊 额，，， 真没有啥帅气地啊 委屈我男神了！ 喝过多少蛋白质都记不清了，还会在乎这个？ 不看辣眼睛 这会怎么不抠图了，怎么不替身了啊？ 都结婚有孩子了，拍这种戏不尊重自己的家庭，都那么有钱了，干嘛还要出来拍这种戏 黄轩说她有口臭 刺激 景甜表示不服 黄晓明是农民气质！ 买一送一的 毫无演技 蒋雯丽别看 小明看着黄轩淫荡的笑了 出来卖的，接个吻很正常撒！ 我反正是不会看的 这种剧有人看么 戏子的心就是宽，自己老婆被人亲被人摸都得笑呵呵的 黄轩忘了baby嘴里有教主弟弟的味道吗 小明早晚要被绿的 和她拍电视剧的男演员会被喷的很惨……毫无演技 可是小明孩子鼻子大不能是这个原因吧？ 绝不看 ",
        "Reply": 58
    },
    "Article": "额咚激吻网易娱乐12月26日报道Angelababy产后复出演艺圈，接拍第一部电视剧《创业时代》于25日公开预告。她和黄轩首次合作商战剧，开拍以来话题不断，剧组抢在年底曝光将近5分钟剧情，男女主角额咚、亲吻的画面格外吸睛！《创业时代》改编自付遥的同名小说，黄轩饰演工程师郭鑫年，因为发明了APP软体“魔晶”，从此走上创业之路。他邂逅Angelababy饰演的投资分析师那蓝，两人陷入热恋时，事业却面临了前所未有的挫败。预告中，他凭着研发软体得到了惊人的高收益，同时吸引许多企业家的觊觎，陷入低潮时获得Angelababy额咚安慰，但还是失去了当时创业的勇气。Angelababy则是陪在黄轩身边的坚强女友，柔声喊话：“不管你有多痛苦，多难过，都不要一个人悄悄溜走，我陪你”，最后鼓励男主角反击，“做出比魔晶更好的软体，杀回去！”两人除了额咚安慰、打气金句，还有深情吻本文来源：网易娱乐责任编辑：李彤_NK4455",
    "URL": "http://ent.163.com/17/1226/11/D6J24T6U00038FO9.html"
}