{
    "Article": "网易娱乐1月3日报道1月2日，潘粤明更新微博，写道：“过节最爱说一句话：啥也不说了都在酒里！酒里有啥？时至今日我终于明白酒里有啥，因为酒醒后我只剩下了思考人生，除了这个我没力气做任何事情。”此微博曝光后，网友纷纷围观并留言互动，称：“我说所有的酒都不如你。”“你这小长假过的，全在酒里了。”“你骗人，你明明还有力气玩手机。”本文来源：网易娱乐责任编辑：宋玉鑫_NK6612",
    "PublishTime": "01/03/201805:39:27",
    "URL": "http://ent.163.com/18/0103/05/D771DKBC00038FO9.html",
    "Source": "Netease",
    "Comment": {
        "Content": "潘老师流量戏骨，棒棒哒 时间可以冲淡一切，也可以证明一切，好好磨炼演技，重新站起来吧。 一直觉得他挺有才的！ 摘帽了? 酒到深处往事历历在目你说潘不想董洁那是假的但是一回想起来可能剩下的只有伤心了吧 潘粤明现在又成为流量明星了 蔡志忠画风 多才多艺 如果会做诗，他不就是当代李白么？ 可以说抄袭蔡志忠的画讷……人物风格一模一样…… 潘老师流量戏骨，棒棒哒 时间可以冲淡一切，也可以证明一切，好好磨炼演技，重新站起来吧。 蔡志忠的画可谓童年记忆… 酗酒装醉，在自己家里就好了，干嘛还要发到网上 方便看看你儿去无聊 潘粤明现在又成为流量明星了 蔡志忠画风 如果会做诗，他不就是当代李白么？ 可以说抄袭蔡志忠的画讷……人物风格一模一样…… 明白还需清醒. 潘粤明和文章长得巨像 一直觉得他挺有才的！ 摘帽了? 多才多艺 酒到深处往事历历在目你说潘不想董洁那是假的但是一回想起来可能剩下的只有伤心了吧 多才多艺才能在圈里混长远 酗酒还对了？装醉还对了？ ",
        "Reply": 17,
        "Total": 248,
        "Link": "http://comment.ent.163.com/ent2_bbs/D771DKBC00038FO9.html"
    },
    "Title": "潘粤明晒画作谈喝酒感悟：酒醒后只剩下思考人生_网易娱乐",
    "KeyWords": "潘粤明"
}