{
    "Title": "男子沉迷赌博游戏劫杀网约车司机 一审被判死刑_网易新闻",
    "URL": "http://news.163.com/17/1229/15/D6R6QJUL000187VE.html",
    "Source": "Netease",
    "Article": "（原标题：劫杀网约车司机的男子一审被判处死刑）2017年12月28日，无锡市中级人民法院开庭宣判了一起抢劫案件，被告人王忠贤因犯抢劫罪，情节恶劣，被判处死刑，剥夺政治权利终身，并处没收个人全部财产。本案是由无锡中院院领导担任主审法官的一起案件，自“院庭长办案”制度实施以来，无锡法院全面推进，将该项制度作为常态化工作开展，有效提升了法院的办案质量。审判现场江南晚报公众号图案情简介被告人王忠贤因沉迷于赌博游戏，曾向多家小额贷款公司借款，后因无力偿还到期欠款，遂产生抢劫之念。王忠贤认为滴滴专车司机拥有较好的车辆，经济应该较为宽裕，便决定以滴滴专车司机作为抢劫对象，并购买一把水果刀作为作案工具。法院开庭宣判2017年5月23日下午，王忠贤在无锡某网吧上网等至天黑后，便用打车软件网约司机郁某某驾驶的滴滴专车至无锡梅园一家酒店，在到达目的地后再骗郁某某驾车至宜兴市，待车辆行驶至宜兴市丁蜀镇附近，王忠贤看四周无人，采用持水果刀威胁的方法劫得郁某某随身携带的现金人民币800余元和华为BLN-AL10型手机、苹果6SPLUS型手机各1部，并逼迫郁某某从银行卡上转账人民币3000元至上述华为手机的微信钱包。其间，被告人王忠贤还逼迫郁某某通过微信语音对其妻子谎称接了一个去上海的大单子以争取逃跑时间。随后，被告人王忠贤采用持水果刀划割颈部的方式，将郁某某杀死并把尸体藏匿于被害人所驾专车的后备箱。后王忠贤驾驶该车（价值人民币145000元）逃离现场。2017年5月25日凌晨，公安机关在安徽省枞阳县一宾馆内抓获被告人王忠贤，并在上述宾馆附近停放的涉案车辆后备箱内发现被害人郁某某的尸体。法官宣读判决书依法判决被告人王忠贤抢劫数额巨大，作案手段残忍并致一人死亡，犯罪后果特别严重，社会危害性极大，无锡市中级人民法院一审依法判处死刑，剥夺政治权利终身，并处没收个人全部财产。本文来源：无锡市中级人民法院责任编辑：李天奕_NN7528",
    "PublishTime": "12/29/201715:06:00",
    "Comment": {
        "Total": 72,
        "Content": "还老哥走好，走你MB，这种人就应该死。 二逼货，有钱人会去开滴滴？为了块儿八毛的伺候大爷？底层何苦为难底层？ 这就叫穷凶极恶吧 这人没救了判死刑也好，不然下一个不知道是谁？ 打工是不可能打工的，这辈子都不可能打工的！老哥走好！ 谋财害命 玩啥赌博游戏，还不如亡者农药，至少不会让你倾家荡产 判的好 重庆望江江边修兵工厂嘛，免费入住小区房嘛，卖商铺嘛。 做个调查物，价油价房价上涨感觉生存压力越来越大的点支持 千刀万剐，谁家养的狗东西，你马勒戈壁，害人害己，这种人就应该折磨死他，让他后悔来到这个世上 性感荷官在线给你发牌了？ 起码带你走嘛。 判的好 二逼货，有钱人会去开滴滴？为了块儿八毛的伺候大爷？底层何苦为难底层？ 死不死还得看美国驻华最高发廊。 戒赌吧老哥又少一个 支持 这就叫穷凶极恶吧 重庆望江江边修兵工厂嘛，免费入住小区房嘛，卖商铺嘛。 千刀万剐，谁家养的狗东西，你马勒戈壁，害人害己，这种人就应该折磨死他，让他后悔来到这个世上 打工是不可能打工的，这辈子都不可能打工的！老哥走好！ 吓死我了 这人没救了判死刑也好，不然下一个不知道是谁？ 亡者農藥也騙爹爹的救命錢？好的哪裡去？ 还老哥走好，走你MB，这种人就应该死。 滴滴打车:没毛病啊，我这个打车的“打”，就是打劫的打！ 玩啥赌博游戏，还不如亡者农药，至少不会让你倾家荡产 谋财害命 做个调查物，价油价房价上涨感觉生存压力越来越大的点支持 谋财别害命啊。 ",
        "Reply": 20,
        "Link": "http://comment.news.163.com/news2_bbs/D6R6QJUL000187VE.html"
    },
    "KeyWords": "死刑,抢劫,法院"
}