{
    "URL": "http://tech.163.com/17/1227/14/D6LV2NSG00097U7R.html",
    "Comment": {
        "Total": 822,
        "Reply": 124,
        "Link": "http://comment.tech.163.com/tech_bbs/D6LV2NSG00097U7R.html",
        "Content": "从源头治理，不能让不法分子有机可乘，定要严厉打击此类恶劣的金融犯罪！ 出来混迟早是要还的 网易水军太多，请放开评论 坚决打击此类犯罪行为，维护人民群众的切身利益 做什么事都得有底线超过了就得为自己所做的付相应的责任 社保不是庞氏骗局？ 无论任何人凡是触犯法律都要收到相应的处罚，依法打击此类犯罪 你同事可不担心，他们也知道是骗局，只不过都觉得自己不会是击鼓传花的最后一个 坚决打击此类犯罪行为，维护人民群众的切身利益 希望通过整治不规范的违法互联网金融公司，来给大家营造一个好的投资理财环境。 临沂也有一家叫3658商城的，比钱包的利率还高，同事们好多都投钱的，真替他们担心 希望通过整治不规范的违法互联网金融公司，来给大家营造一个好的投资理财环境。 多行不义必自毙 假药狠心抛弃你，支持爆料 乖乖自首才是明智之选 良心过不去自首了吧让你不走正路！ 年前就撤出钱宝了，现在用钱宝的利息投3658[微笑]稳 我们要相信司法机关，支持他们依法办案 南京电视台领导现在情绪稳定 张小雷违法犯罪的具体事项还有待警方调查后披露。 各位投资者一定要擦亮眼睛，找靠谱的平台 谨慎投资，不要贪图眼前利益 坚决打击此类犯罪行为，维护人民群众的切身利益! 支持公安依法打击犯罪 因为里面安全，在外面可能会被打死 我的5万。。。。 3658商城什么时候打掉呢？巨额利息诱惑[大笑] 支持公安依法打击犯罪 同事亏了20万 3658商城，投40万，一个月收益五万，美滋滋 希望国家倾全力打击这种黑平台和三无代理公司 这种圈了钱就像跑路的必须严厉惩处 投资有风险，必须谨慎，不要上当受骗 明白人都知道怎么回事 支持公安依法打击犯罪 必须严厉打击犯罪分子！ 我们要相信司法机关，支持他们依法办案 无论任何人凡是触犯法律都要收到相应的处罚，依法打击此类犯罪 支持公安依法打击犯罪 投资有风险，投资需谨慎，提高风险意识 坚决打击此类犯罪行为，维护人民群众的切身利益 为什么自首？ 乖乖自首才是明智之选 社保不是庞氏骗局？ 投资有风险。 一个有诈骗前科的人又玩还有人信他，不骗你骗谁[大笑][大笑][大笑] 贾跃亭是不是帮张小雷转移资金了 1997年28岁之时就已经成为千万富翁。<br>28岁管理千万资产的时候太年轻了。 张小雷违法犯罪的具体事项还有待警方调查后披露。 给大家一个更猛的“牛牛通宝”，年化收益120%，你懂的… 有道理 你同事可不担心，他们也知道是骗局，只不过都觉得自己不会是击鼓传花的最后一个 年前就撤出钱宝了，现在用钱宝的利息投3658[微笑]稳 小声点 输不起就不要上赌桌，其实投之前也知道会有这么一天，只是没想到这么快。 十几年后，出来还是一条好汉 这种平台就没有靠谱的，有天上掉馅饼的事吗？脑子正常一点的都知道年化利率超过十个点都可疑，别说二十以上的了 你投了多少？ 公安机关都发正式通告了，还有一堆人在说官方被盗号不肯信，还在幻想什么呢，这就是骗局啊 每次迅雷下载都会跳出来个迅雷理财，里面年利率也不低，不知道可不可靠 我都33了不过我看工作室，能管理几万元。<br>他才28管理亿元，这一定缺少经验的。<br>马云说过他管理过百万，没管理过很多钱，不敢想那个孙正义要千万投资。<br>马云是一个很保守的一个人。<br>这位新闻中的年轻人，太年轻了。 我就想知道公司高管涉嫌犯罪吗 希望国家倾全力打击这种黑平台和三无代理公司 [窃笑][窃笑] 明白人都知道怎么回事 又死了不少人 学假药停套现跑路才是明智之选[大笑][大笑] 妻儿都在美利坚 收购了乐视就有破产的理由了 各位投资者一定要擦亮眼睛，找靠谱的平台 因为里面安全，在外面可能会被打死 啊，我放了1千万进去的。张小雷你不得好死 叫你贪[大笑][大笑][大笑] 呵呵，公安机关最后会把所有的资金都给冻结，其中一部分作为办案经费，经历几年侦查，钱最后不了了之～反正投资者是没有份的。 8年了才打了两个，一个e租宝，一个钱宝 辣鸡，还钱 1969年出生的 临沂也有一家叫3658商城的，比钱包的利率还高，同事们好多都投钱的，真替他们担心 现在还在投钱宝的，基本都知道这是一个骗局，他们之所以义无反顾的投进去，就是因为相信自己不会是接最后一棒的，所以希望这些人不要又跳出来要政府维权了，你们不值得同情。 没错，都是非法集资的参与者，而不是受害者！ 但凡有点金融知识的人就该知道不正常，进去的人未必不知骗局，就看谁接最后一棒 蝴蝶效应，就怕挤兑。钱宝这么大的平台出事儿，说句不好听的，其他平台都不好过！还是谨慎为好。 已经没受害者这种说法了 南京电视台领导现在情绪稳定 115万没了 南京法官好自为之吧 我投了10万进去了，各位这钱还能搞回来吗？这不是自首了吗？警方是不是可以让他把钱还回来啊 不然买乐视游戏业务干嘛用 都邻居，转账给美国人买他游戏 3658商城什么时候打掉呢？巨额利息诱惑[大笑] 张小雷没那么幸运，妻女早已被控制 很多钱宝投资者到现在还认为这是谣言。 这两个根本就不是国家打的，是自己资金出现问题 典型的庞式骗局，多少人被套在里面了啊，相信公安机关吧，现在还在不信官方消息的是真的脑子不好吧，支持警方打击此类一切传销集资骗局。 道行不行 是不是后台不够？ 哈哈，又一骗子成老总！ 投案自首说经营不善倒闭多好啊。 打你妈 错了，是南京和上海联合起来。 贪心不足的后果，不要老想着天下掉馅饼，哪有那么好的事情呢？相信公安机关会依法处理的，受害者太多了 做实体不如行骗来钱快 为什么自首？ 从源头治理，不能让不法分子有机可乘，定要严厉打击此类恶劣的金融犯罪！ 坚决打击，一个不要放过，保障国家正常经济秩序！支持公安机关严打！ 网易水军太多，请放开评论 卧槽难道他想搭假药停的顺风车出去？结果玩脱了？ 做什么事都得有底线超过了就得为自己所做的付相应的责任 希望通过整治不规范的违法互联网金融公司，来给大家营造一个好的投资理财环境。 无论任何人凡是触犯法律都要收到相应的处罚，依法打击此类犯罪 必须严厉打击犯罪分子！ 坚决打击，一个不要放过，保障国家正常经济秩序！支持公安机关严打！ 贪心不足的后果，不要老想着天下掉馅饼，哪有那么好的事情呢？相信公安机关会依法处理的，受害者太多了 典型的庞式骗局，多少人被套在里面了啊，相信公安机关吧，现在还在不信官方消息的是真的脑子不好吧，支持警方打击此类一切传销集资骗局。 多行不义必自毙 坚决打击此类犯罪行为，维护人民群众的切身利益! 现在网络上这种骗钱模式多如牛毛 良心过不去自首了吧让你不走正路！ 事后诸葛亮，之前怎么不说 从源头治理，不能让不法分子有机可乘，定要严厉打击此类恶劣的金融犯罪！ 这种业务的公司居然能上市． 后面的人不投钱进去。他们怎么套现？ 必须严厉打击犯罪分子！ 不信谣，不传谣！ 假药狠心抛弃你，支持爆料 我的5万。。。。 做什么事都得有底线超过了就得为自己所做的付相应的责任 无论任何人凡是触犯法律都要收到相应的处罚，依法打击此类犯罪 同事亏了20万 支持公安机关依法打击。 希望国家倾全力打击这种黑平台和三无代理公司 这种圈了钱就像跑路的必须严厉惩处 投资有风险，必须谨慎，不要上当受骗 会员有啥用？ 公安机关都发正式通告了，还有一堆人在说官方被盗号不肯信，还在幻想什么呢，这就是骗局啊 出来混迟早是要还的 还我300万 必须严厉打击犯罪分子！ 现在还在不信官方消息的是真的脑子不好吧，支持警方打击此类一切传销集资骗局。 无论任何人凡是触犯法律都要收到相应的处罚，依法打击此类犯罪 骗了这么多年，怎么回事[狗] 谨慎投资，不要贪图眼前利益 谨慎投资，不要贪图眼前利益 怎么给他搞到这么大？ 钛媒体14年就爆料钱宝了，政府都把警惕非法集资贴到钱宝门口了，他们自己要投智商感人。<br><br>目前的淡定和团结，一周无果后就是愤怒和维权，其实投资之前大家心里都通透的很 一首凉凉送给我执迷不悟的朋友 投资有风险，投资需谨慎，提高风险意识 坚决打击此类犯罪行为，维护人民群众的切身利益 我们要相信司法机关，支持他们依法办案 支持公安依法打击犯罪 支持公安依法打击犯罪 支持公安依法打击犯罪 典型的庞式骗局，多少人被套在里面了啊，相信公安机关吧，现在还在不信官方消息的是真的脑子不好吧，支持警方打击此类一切传销集资骗局。 我们要相信司法机关，支持他们依法办案 坚决打击此类犯罪行为，维护人民群众的切身利益 公安机关都发正式通告了，还有一堆人在说官方被盗号不肯信，还在幻想什么呢，这就是骗局啊 支持公安依法打击犯罪 贪心不足的后果，不要老想着天下掉馅饼，哪有那么好的事情呢？相信公安机关会依法处理的，受害者太多了 投资有风险，投资需谨慎，提高风险意识 支持公安依法打击犯罪 希望通过整治不规范的违法互联网金融公司，来给大家营造一个好的投资理财环境。 支持公安依法打击犯罪 投资有风险，投资需谨慎，提高风险意识 坚决打击此类犯罪行为，维护人民群众的切身利益 坚决打击此类犯罪行为，维护人民群众的切身利益 我们要相信司法机关，支持他们依法办案 "
    },
    "Article": "（原标题：钱宝网实控人张小雷是谁？曾接盘乐视游戏，还因诈骗入过狱）记者周炎炎陈宇曦12月27日消息，据平安南京官方微博透露，钱宝网实际控制人张小雷因涉嫌违法犯罪，于2017年12月26日，向南京市公安机关投案自首。目前，南京市公安机关正在开展调查。澎湃新闻发现，钱宝网的实际控制人张小雷人生经历尤为跌宕起伏，此前曾因泛美亚公司“海外输送足球学员”诈骗事件入狱，2012年成立了钱宝网后被质疑庞氏骗局、涉嫌非法发行证券，在今年9月还强势收购了乐视的游戏板块。曾因“泛美亚事件”锒铛入狱张小雷视觉中国资料图张小雷出生于1969年，号称1997年28岁之时就已经成为千万富翁，第一次被公众熟知是因为2003年的泛美亚事件。张小雷在出任泛美亚公司CEO时，以“向海外输送足球学员的名义”，先后将50多名小球员送到南美留学，并利用向小球员收取费用和向外界融资两条途径，总计获取资金约1000多万。但事实上中国少年球员与智利西班牙联盟俱乐部毫无关系，只是该俱乐部一名球员本人租了西班牙联盟队主球场边角上的一小块地方，作为中国小球员的训练场地。小球员在乌拉圭生活窘迫，1000万元不知去向，后来被媒体曝光后，张小雷因诈骗罪锒铛入狱。张小雷后来出狱后也没有放弃足球，钱宝旗下的钱宝足球俱乐部筹备于2013年，并于2014年初正式注册成立。更大的动作是在2014年成为了西甲皇家社会新赛季的主赞助商，赞助期为1年。于是可以看到2014年到2015年间，西甲皇家社会的球员身着“钱宝”字样的球衣在赛场上奔跑。北京时间2014年8月11日晚，皇家社会官网宣布中国企业钱宝网成为其主赞助商。微商平台涉嫌庞氏骗局在出狱之后的2012年，张小雷成立了钱宝网，这是一个微商入驻平台，缴纳2万元抵押金即可开店营业。奇怪的是，平台推出“看广告”任务，即注册用户缴纳一定数额的保证金，要去“任务大厅”看广告、填问卷、玩游戏，完成任务后得到收益。钱宝网宣传材料称，“如果用户能够缴纳10万元保证金，并保证每日完成一定量的‘看广告’任务，每月可获最低4000元、最高过万元的收益。”早在2014年，就有媒体质疑钱宝网的运营模式，计算出该公司维持半年需要至少4000万元，并且没有广告商会把钱花在点击广告赚钱的用户身上。唯一的可能性，是不断发展用户，用新加入的用户的保证金来分发给用户当收益，即庞氏骗局。截至今年9月，钱宝网官网显示，平台流水超过500亿元，注册用户超过2亿。官网还曾显示，截至2016年9月份，入驻50万余商家，日活跃用户超过1000万。如今打开钱宝网官网，显示的也是平安南京的上述微博通报。事实上，今年8月，就有投资人发现钱宝网无法提现，而有媒体报道，钱宝网上海总部空无一人，疑似跑路。但是此后张小雷在微信公众号录了视频，强硬表示：“这个事哥们你搞大了，你给自己惹了很大的麻烦，因为你惹上我了，我跟别人还不太一样，维不维权的我先不管，反正我一定要找到你，在这里我悬赏十万，人肉你找到你，好吗，你等着。找到你以后怎么办？法律有法律的办法，我基于法律框架之下也有我的办法。你这么伤害我的宝粉，我一定会让你痛不欲生，肯定会让你付出更惨烈的代价，为我的宝粉复仇。”一直到12月26日，也就是张小雷投案自首当日，钱宝网的微信公众号还更新了一篇新年祝福，视频中有张小雷出镜恭贺新年。因非法发行证券，名下新三板公司退市钱宝网的另一个争议是非法发行证券，而发行的是新三板公司泡宝网（832983.OC）的股份。泡宝网（山东泡宝网络科技股份有限公司）成立于2009年1月5日，是一家集产品展示、信息发布、在线交易、物流配送等业务于一体，基于B2C模式的营销服务企业，主要依托旗下“泡宝网”网络，以网络购物、积分换礼和礼品服务等形式进行商品销售及同城配送服务。根据Wind资讯，张小雷对泡宝网持股40.56%，是第一大股东，因而泡宝网和钱宝网构成关联公司。2016年4月13日，泡宝网的主办券商西南证券发布了风险提示公告称，公司实际控制人张小雷控制的关联方南京钱宝信息传媒有限公司旗下的钱宝网电子商务交易平台于2016年1月份发行了25000个“钱宝份额”，并承诺“钱宝份额”可折换为泡宝网公司的股票。根据钱宝网任务大厅的描述可知，该项目首次认购价格每股20元，每个份额1000股股票。项目描述还表示，钱旺信控集团已与泡宝网达成战略合作，共同完成定向增发，并整合新业务（应用市场和游戏），快速把新业务纳入到上市体系。另外，项目描述还承诺2017年托底收购价格每股不低于31元。也就是说钱宝网该项目募资金额高达5亿元，计划定增股票份额高达2500万股。因而山东监管局认为该行为违反了《非上市公众公司监督管理办法》第四条“公众公司公开转让股票应当在全国中小企业股份转让系统进行，公开转让的公众公司股票应当在中国证券登记结算公司集中登记存管”的规定；并涉嫌违反《中华人民共和国证券法》的有关规定，涉嫌构成非法发行证券。对于钱宝份额问题，山东监管局要求钱宝网当即停止该项目的线上或线下运行。公司的实际控制人张小雷也承诺，钱宝应用市场和游戏发行业务新三板股权申购确权项目终止后，该项目不再恢复。同时，对于通过钱宝网发行的泡宝网股份将全部赎回，并将募集资金全额返还给投资人，该项目将完全终止，所发行份额不再折换为任何公司的股票。今年12月中旬，全国中小企业股份转让系统发布公告称，因控股股东、实际控制人占用公司资金以及向关联方提供借款未及时对外信息披露，泡宝网及其实际控制人张小雷、董事长张小悦、时任财务负责人兼董事会秘书杨文阳被出具警示函。而就在张小雷投案自首的前夕，泡宝网于12月22日终止挂牌而退市。100%收购乐视游戏值得注意的是，股转系统的警示函显示，2017年8月29日，泡宝网全资子公司上海冰穹网络科技有限公司通过农行账户将1400万元借给张小雷控制的成都钱坤智能系统有限公司，2017年9月5日，成都钱坤智能系统有限公司归还借款1400万元。上述行为未履行内部决策程序、未及时进行信息披露且未约定利息，构成了资金占用。其中提到的上海冰穹网络科技有限公司正是9月大手笔收购乐视游戏的“金主”。上海冰穹网络科技有限公司，成立于2016年1月11日，注册资本1100万元，法定代表人为方春秀，股东为山东泡宝网络科技股份有限公司。9月19日，旗下游戏发行公司冰穹互娱在官方网站宣布，以现金形式正式收购乐视游戏100%股权。在当天冰穹互娱收购乐视游戏的发布会上，冰穹互娱CEO王强、乐视游戏CEO董萌现身。冰穹互娱CEO王强称，能达成本次收购，主要基于两点：一是两家公司志同道合，目标一致；二是各取所长，优势互补。9月19日当天，钱宝网微信号也推送了收购乐视游戏的消息，说法是“钱宝旗下冰穹互娱正式全资收购乐视游戏”，钱旺品牌持有人张小雷在谈及为何选择乐视时表示，“我们就是要在别人屋漏偏逢连夜雨的时候，帮人把瓦片盖上，犹如雪中送炭。”该篇推文还介绍到，“张总说，他一直有着英雄救美的情怀，而乐视也足够‘美’”。本文来源：澎湃新闻责任编辑：白鑫_NT4464",
    "KeyWords": "钱宝网,张小雷,游戏,乐视",
    "Source": "Netease",
    "Title": "钱宝网实控人张小雷曾接盘乐视游戏，还因诈骗入狱_网易科技",
    "PublishTime": "12/27/201714:31:28"
}