{
    "KeyWords": "公交车,肇事,驾驶员,追撞",
    "PublishTime": "01/02/201809:22:00",
    "Comment": {
        "Link": "http://comment.news.163.com/news2_bbs/D74SJTFS00018AOQ.html",
        "Content": "司机说我分神了 不用查了，事故演习，散了 司机技术越来越差。 开车不技术。 最近事挺多的 一看就是美帝的阴谋 睡着了吧。 不用查了，事故演习，散了 这不会赖上大陆吧… 😓😓 司机说我分神了 司机分神了 ",
        "Total": 13,
        "Reply": 10
    },
    "Title": "台北2辆公交车追撞致11名乘客受伤 肇事原因待查_网易新闻",
    "Article": "（原标题：台北2辆公交车追撞致11名乘客受伤原因待查(图)）中新网1月2日电据台湾“中央社”报道，台北市仁爱圆环1日下午发生一起公交车追撞事故，造成车上乘客8女、3男受伤，均无生命危险。两名驾驶员酒测值均为零，肇事原因仍待查。台北市仁爱圆环1日下午发生一起公交车追撞事故，造成车上乘客8女、3男受伤，车祸原因待查。图为追撞车辆。图片来源：“中央社”台北市消防局大安中队长郭乃诚1日晚接受媒体联访时表示，下午5时47分接获通报，北市仁爱圆环发生2辆公交车追撞事故。消防局永吉分队小队长陈柏翰补充说明，经确认现场无安全顾虑后，统计车上伤者共计11名，为8女、3男伤员，送往3间医院治疗。11名伤员意识皆清醒，无生命危险。陈柏翰指出，其中有一名7旬老妇伤势较严重，无法行走；其余均为轻伤。现场可见前车车尾毁损，后车车头玻璃成蜘蛛网状碎裂。驾驶客运906线公交车(后车)的倪姓司机表示，事发当时疑似是有一辆自小客车未打方向灯就突然右转，随后的905线公交车反应不及而急煞，才造成他煞车不及而追撞上去酿祸。警方表示，已针对两名驾驶员进行酒测，酒测值均为零，详细肇事原因仍待后续调查。本文来源：中国新闻网责任编辑：谷莹_NN6577",
    "Source": "Netease",
    "URL": "http://news.163.com/18/0102/09/D74SJTFS00018AOQ.html"
}