{
    "PublishTime": "01/01/201813:13:53",
    "Comment": {
        "Total": 2,
        "Link": "http://comment.war.163.com/news_junshi_bbs/D72MK99O000181KT.html",
        "Reply": 0,
        "Content": ""
    },
    "Article": "（原标题：约旦国王解除3名王子军队职务引传言，或为军改树立榜样）约旦王室2017年12月31日警告称，将对任何散布有关王室谎言的人采取法律手段。几天前，在对约旦军队的一次重大改组中，约旦国王阿卜杜拉解除了他的几个兄弟在军队中的职务。社交媒体上有传言称，国王阿卜杜拉挫败了一场政变并软禁了一些王室成员。约旦国王阿卜杜拉。东方IC资料图路透社报道，2017年12月26日，约旦国王阿卜杜拉宣布他的兄弟阿里王子、费萨尔王子以及他的表亲塔拉勒王子退休，此前他们都在军队中担任要职。费萨尔王子原是约旦皇家空军司令和副总参谋长，阿里王子多年来一直执掌皇家卫队，塔拉勒王子毕业于英国皇家桑赫斯特军校并且是约旦精英特种部队军官。他们均被要求退休，但是都得到了荣誉晋升。阿卜杜拉称，此举是重组约旦军队的等级和结构的一部分。12月31日，约旦王室在一份声明中警告说，将对那些在社交媒体和网络上散布“谎言和错误声明”的人采取法律手段，声明指控这些流言的目的是要在离间约旦王室与普通约旦百姓。“最近传播的这些捏造的新闻，是为了破坏约旦及其机构，”声明中说。路透社援引约旦军方消息人士的话称，约旦国王阿卜杜拉将让十几名高级将领退休，而在此之前先让几位王子退休是为了树立一个榜样，以显示王室并非高于法律。约旦国王阿卜杜拉本身就是一名精英特种部队指挥官，他表示这次军队重组计划是为了通过削减开支，将约旦12万军队打造成一支精干高效且装备尽量的现代化武装，以打击恐怖组织。路透社称，约旦军队中许多将领都来自约旦本地部落，这些人形成了对约旦王室的支持，并在军队和政府中扮演重要角色。约旦人视王室为一个团结全国的统一力量。约旦公民中相当一部分是巴勒斯坦人，他们是在中东战争之后迁到约旦的，这将约旦至于冲突的中心。路透社指出，约旦地处伊拉克、叙利亚和以色列之间，却相没有太多地受到周边地区动荡的影响。本文来源：澎湃新闻责任编辑：李曦_NN2587",
    "Source": "Netease",
    "Title": "约旦国王解除三名王子军队职务 或为军改树立榜样_网易军事",
    "KeyWords": "约旦,部队,王子,王室",
    "URL": "http://war.163.com/18/0101/13/D72MK99O000181KT.html"
}