{
    "URL": "http://news.163.com/17/1228/12/D6OAMRAQ00018AOQ.html",
    "Comment": {
        "Reply": 24,
        "Content": "遂宁四川职业技术学院也好不到哪去，难吃的一比，学生都点外卖。 新闻越短事情越大 责任人出来说两句呢？ 正忙，要罚酒三杯呢！！！ 必须追责 已出院58了？哇塞，是不是应该举杯庆祝下呀？ 食药监局只管罚款，平时哪管这些 吃未熟的扁豆吃的，散了吧[狗] 观音故里，希望保佑🙏 饭堂的饭菜太脏了 哈哈哈，负责任大锅 今晚加班写发言材料[喷水][喷水][喷水] 只写好看的吧 遂宁四川职业技术学院也好不到哪去，难吃的一比，学生都点外卖。 肺结核那个又凉处理了吧 新闻越短事情越大 必须追责 新闻越短事情越大 观音故里，希望保佑🙏 这个季节的四季豆贵不？ 肺结核都没啥事 我头像什么颜色？ 责任人出来说两句呢？ 正忙，要罚酒三杯呢！！！ 已出院58了？哇塞，是不是应该举杯庆祝下呀？ 哈哈哈为了钱💰什么事都做 为什么只写已出院多少.... 不知道 这么简单的新闻啊？ 食药监局只管罚款，平时哪管这些 吃未熟的扁豆吃的，散了吧[狗] 四季豆？ 饭堂的饭菜太脏了 严查严办，药品，食品安全文件，人民生命高一切 哈哈哈，负责任大锅 今晚加班写发言材料[喷水][喷水][喷水] ",
        "Total": 131,
        "Link": "http://comment.news.163.com/news2_bbs/D6OAMRAQ00018AOQ.html"
    },
    "Title": "四川一学校发生疑似食物中毒事件 已出院58人_网易新闻",
    "Source": "Netease",
    "KeyWords": "食物中毒,四川,学校",
    "PublishTime": "12/28/201712:24:00",
    "Article": "（原标题：四川一学校发生疑似食物中毒事件已出院58人）遂宁市食药监局发布的最新公告。钟欣摄中新网遂宁12月28日电记者刚刚从遂宁市卫计委、市食药监局获悉，遂宁市应用高级技术技工学校昨日疑似因食物中毒住院的患者，截至12月28日10时，已累计出院58名；目前，住院患者37名，其中重症病人2名(前期4名重症患者中2名已好转转入普通病房)。住院病人病情平稳，无生命危险，无新增病例。后续情况记者将进一步跟进。本文来源：中国新闻网责任编辑：范姜国一_NN9138"
}