{
    "Comment": {
        "Total": 5700,
        "Reply": 333,
        "Link": "http://comment.news.163.com/news_guonei8_bbs/D750LL720001875N.html",
        "Content": "上海以前拆迁户分的房也是五年现在改为三年，从拿到房产证后三年 直接租70年吧 这明显会导致房源紧张！房价看涨 他们的一切手段都是为了保证房价只涨不跌 炒房的一般都是3-5年后脱手。 人为有价无市。 打击投机者? 很多地方限售便成了排外。现在搞房产全国联网，以家庭为单位谁家有多少房，很容易查清，再一律10年不许转卖，只能自住。可现在要社保几年，有的行业有许多刚需人士在当地工作多年却没有社保也被排斥出局了，而许多当地人有几套住房不必再买房了。 最后的结果就是二手房源越来越少，物以稀为贵，你们懂的…… 快震出来了。 打击刚需 中国的官老爷，权力真大啊！！！！！ 就应该掐死炒房，房子本来就是拿来住的，一个十几亿人口的国家更应该杜绝炒卖，让更多人卖得起房有什么不好？ 深圳一直是我国的楼市风向标，北京跟上 几天一个政策几天一个政策，越限越涨，一团乱麻！ 所谓控，只是不能暴跌。涨不要紧却不能暴跌，崩盘就大件事了。哈哈 只许你卖，不许我卖。要脸吗 不调控怎么有节奏的涨？ 加大土地供应面积才是最好的调控方法。其它都是扯 这是直接掐死啊 货币涌来涌去，放水的根本问题不解决，搞什么政策都是白搭。 卖出价不得高于买入价房子马上变白菜 放上5年更值钱 年年调控年年涨 收空置费是很多欧美国家的做法，你以为有没有人住就只看你水电使用情况啊？你以为别人的基层管理人员和居委会一样混日子的啊？ 炒房一般都是3-5年卖的 说收空置费的就不过脑子，你告诉我你是怎么知道别人空置的，买个小功率灯插上，一个月一度电，找中介一个月某天家里水龙头全打开，放上20分钟水，你说个查空置的好方法 执迷不悟[大笑][大笑][大笑] 刚好捂五年，等房价再上一个台阶再抛 是谁推高了房价，心里没点逼数么？真是什么中介地产么？本末倒推法，你们先限制房价，在拍卖土地，暗箱操作，提高利息，提高首付，看是为了防止倒卖房子，其实也是为了规避银行风险，真是名利双收啊。 震精，好震精的消息。 5年不准卖就横盘了。 把不想当房奴的人锁定五年，逼迫急需买房的人去库存，这就是所谓的调控。 外国人靠的是高科技赚钱【大陆人靠的是泥瓦块赚钱！！！明显不在一个档次上，这样是成不了世界强国的！！！】 支柱产业 所有的调控都是为了使房子成为更加稀缺的资源，意在何为？ 接下来，所有城市都这样 成功的让炒房的和要换房的多缴几年贷款利息 五十年不准卖才好！ 楼市再爆大新闻!吓着了，赶紧贷款买一套房。 刚好五年后卖，可以免税 真想控制房价，收空置费就可以了！ 帮着哄抬 建设外行，捞钱内行 炒房一般都是3-5年卖的 为撒区建市做准备？ 嘿嘿，楼上的，你们头上咋都是绿色的呢 上有政策、下有对策！ 炒房者的福音：哇塞，5年限售，利益更大哦，谢谢，谢谢！ 企鹅群～先加我名字好友～我私信你 学区房，有房子没户口也不给你读书，这样自然没人买学区房了，少了一个概念，江景房海景房加价百分之100，每年收房价百分之1的风景使用费，自然这样的房子也没人要了，自然掉价，卖房子可以，除了第一套房子的，第二套房子收增值部分的百分之100税收，，你都知道，上面的人肯定也知道，只是拥有多套房子的基本上都是人大代表和党员，有权有钱的人，他们怎么会让自己利益损失了 微信还是qq群啊？怎么加 你有你的办法俺有俺的招。这些年，谁干赢了？ 张总,建议改名为深圳开盘中心 如果为打击炒房的至少应该30年限售，5年限售，是为炒房者服务的，是专业为炒房者谋利益的，因为炒房者5年出售，利益更大！！！！！ 限售管用吗？存银行还得存个三年定期才能拿到利息。五年不卖就不卖呗，五年后再卖还不是涨价挣钱，比存银行吃利息不知道高多少。 必须的 这和那些开发商捂盘几年等涨价有什么区别？ 年年调控年年涨 炒房者们，嗨起来，5年5年，我赚，我赚，赚发啦，炒房的朋友们一起来，大家一起嗨起来！ 感觉不对啊，地越少能盖的房子越少，住房的价格是涨还是降？要想降房价就要限购同时要多盖房，只有房子多了才能降房价，限售地皮只有让房子越来越贵。 很多地方限售便成了排外。现在搞房产全国联网，以家庭为单位谁家有多少房，很容易查清，再一律10年不许转卖，只能自住。可现在要社保几年，有的行业有许多刚需人士在当地工作多年却没有社保也被排斥出局了，而许多当地人有几套住房不必再买房了。 肛需反正是自己住，就算２０年不能卖都没关系，打击的是那些炒房的 12楼居然信国家真的有心打压房贷，笑尿！ 这也算新闻吗？老戏新做~~~ 成功的让炒房的和要换房的多缴几年贷款利息 最好，不限售，限售干嘛？国家只征收升值部分50%的税收！！！干脆，利民！请尽快出台！！！ 各大楼盘已经开始封盘调价，今天珠海43个项目封盘上调价格，中山61个项目封盘不卖。港珠澳大桥通车，2018年全新的一轮涨幅来劲了 调控不就为了涨吗 房价像弹簧，看你强不强，你强他就软，你软他就强。 楼上傻得厉害，在这里讨论只不过过过嘴瘾，你以为自己真有那权力？最傻的是你竟然觉得他们真的在调控房价，让手上最多房子的人去调控房价，只会越调越高。 打击投机者? 就是个涨。 打击刚需 我家驹歌迷，你也是吗 暴利下的质量，不卖三四十后也是要报废 年年盼，年年涨，横批——涨！ 真正的限售政策应该是这样：5年限售，升值部分收50%的税收，这样才是真正的限售！！！！！ 合法统建楼？ 年年卖地，年年涨 最后的结果就是二手房源越来越少，物以稀为贵，你们懂的…… 放上5年更值钱 房子不自住，租出去不行吗，空置税怎么交，请问。 上海以前拆迁户分的房也是五年现在改为三年，从拿到房产证后三年 最缺商品房的地方搞个限售，哈哈，那要更加放心买入商品房了，物以稀为贵 这样才是真正地打击炒房者，这么好的政策为什么没有呀？人民盼望！！！！ 老式钢盔是绿色的 使劲折腾 十四亿人口，都建了三十亿人住的房子了！你晚上去各城乡结合处的小区看看哪栋楼不只是才亮几盏灯，你倒是租出去啊？ 别人有路你不走，偏要在水里摸着过河，想摸鱼你直说啊？ 翻上翻下，左看右看，还是一个涨字 岁岁增涨岁岁调。 呵<br>呵<br>！<br>他们玩的开心就好！ 主要是控制供给端保证高房价，但是又要卖地赚钱搞的政策。 喂，童言无忌，你为什么不加入网易跟帖局特别行动队？我看你跟帖很多很有质量啊🤔。 直接斩断，每个人/家庭只能买2套，想要卖，只有卖了再买不好吗？ 统计下旧改商品房面积,会吓到 我觉得50年不准卖，最好 真正的多军是不卖的… 炒房的不缺那点时间，实际上先富起来那些先买了一堆房，然后越来越富 皮第二场 他们的一切手段都是为了保证房价只涨不跌 炒房的一般都是3-5年后脱手。 哈哈，原来还能这么玩啊，看来我奥特慢了 好…… 说收空置费的就不过脑子，你告诉我你是怎么知道别人空置的，买个小功率灯插上，一个月一度电，找中介一个月某天家里水龙头全打开，放上20分钟水，你说个查空置的好方法 执迷不悟[大笑][大笑][大笑] 有屌用。 感谢08 可以签一个协议嘛，这种事。。。有些保障房还不让出租呢，但是你看住保障房的谁是户主？户主都是开着豪车住着别墅呢。至于真正需要保障房的，SORRY，你没资格！ 这都是怎么了？ 掠夺刚需！把他们的的钱榨光光！ 这是不给卖，减少房源的举措，你们兴奋个鸟嘛。 年年调控年年涨 不错 最好涨到100W一平方 小渔村变成天堂了！ 莫让调控变空调。 哪次调控不是为了防止下跌？还有那次暴涨不是救市拍地王加媒体鼓吹造成的？ 目前所有的调控政策治标不治本。房价高低是市场的事情，房子买卖也是市场的事情。政府不应该去干涉。但政府有权利去收税，也要权利使银行限制贷款。但这两样事情居然那么多年都没有去做。一个人买N套房子，自己还有宅基地，小产权房，不用交高额税，五年内，不断买卖房子，不用交高额税。只用了房价10-30%的本金，买了一套房子，过两三年卖了，不用交高额税。外国人买中国人的房子，不用交高额税。通过房子得到收入，也不用交高额税。还是那句，请开始你的表演。 繼續看好樓市 成功的让炒房的和要换房的多缴几年贷款利息 楼市再爆大新闻!吓着了，赶紧贷款买一套房。 喂，童言无忌，你为什么不加入网易跟帖局特别行动队？我看你跟帖很多很有质量啊🤔。 步步跟进步步高 利息涨了，坑死刚需了。 好。 超量货币印刷，货币直追津巴布韦，房价涨幅超光速。。。 打击刚需 特别行动队在哪加入啊？我不知道这个组织 风光66 哟哟哟,继续爆! 要换大房咋办，你是不是傻 这头，他们说根据几十年调房价，每次都要反着看 还得 把问题留给下一代 风光66 人为限制市场供应量，人家只说调控，没说往哪个方向调…… 点赞 放上5年更值钱 打击投机者? 炒房一般都是3-5年卖的 你进来了吗？ 加大土地供应？哪次不是救市拍地王暴涨的？近十年先不说土地供应，就是盖的房子够30-40亿人住应该没问题吧？哪个地方不是扩张了好几倍？ 看好了，这是又要涨了！ 不调控试试！ 打击一般老百姓！ 房子是谁的？ 震精，好震精的消息。 房地产市场必须健康发展。<br>人体健康是整体的，头痛吃个止痛片、关节酸痛贴个狗皮膏，只是说缓解症状，不能说是健康了。 没事，现在不用人民币了，直接改用比特币 好样的，贼喊捉贼的功夫被你们使得炉火纯青！ 吓死宝宝了 不要只是吐槽政府的调控政策，你有什么好办法可以拿出来讨论啊，可以建言献策啊！但是类似楼上说的什么规定卖出价格不得高于买入价这种混蛋言论，不提也罢。我觉得针对房地产的调控政策，首先要合法，然后要有可行性，为公众所接受。现在这限售，我觉得已经有违反上位法的嫌疑了，我买了房子，那是我的私产，我理当有处分的权利，你凭什么限制我买卖？ 可以卖？只是买方税费更高！ 爱咋咋地，反正屁民没有反抗的权利 那房价不更得涨，不然买不到房子 炒房的一般都是3-5年后脱手。 最后房产税+公租房双拳出击。 这个是帮助炒房人，因为一般也要5年后，房子价格才有明显的涨幅！ 卖出价不得高于买入价房子马上变白菜。这一条足够了。狠！ 存着涨价再卖 买房？买的起吗？ 凭什么？这都管的啥？既然是商品房，为什么不能卖。那干脆分房吧 看来房价又该涨了。新增住宅用途的土地，又是限租又是限售，以后市场上可交易的新房会越来越少，稳住二手房的价格。另一方面租售同权的提法政策上落实是没问题。政府也可以免予一次性出让土地卖亏了，先租以后涨的更多再卖。而且老百姓的住房观念要多少代才能改变，各位三四十岁的不妨问问自己你生的儿女以后是优先考虑有房的还是租房的？中国年轻女性和中老年丈母娘群体要放下条件优先的原则，除非我们的经济社会发展停滞或者制度改变，没有那么多特殊阶层和冒头的优秀男人。等到哪天普通中国人一个月挣得钱可以轻松做几种各种享受型消费，能买几支iphone，能每周末近郊玩一次，能轻松应对教育医疗，那房子就该不值钱了。否则对于普通人来说，房子仍然是最能给人安全感的东西。劝大家不要放弃买房的想法。同时，支持房子是用来住的不是用来炒的。 根本在于搞实体经济不行，只能用土地财政寡钱 年年调控年年涨 演技好 这和炒房有关系？怪人家？人家见投资，怎么不怪是谁设计这个局的人呢？ 把不想当房奴的人锁定五年，逼迫急需买房的人去库存，这就是所谓的调控。 小渔村变成天堂了！ 呵呵 最少十年以上吧，五年有毛用 五十年不准卖才好！ 刚好五年后卖，可以免税 你不知道是谁在炒吗 寸土寸金了 这是它们的经济来源，换成你你会真让楼市下来吗？这可是牵一发而动全身 三到五年风云变换，谁能预见和承受这几年的压力。谁是房价推高者还没点数么。别来转移注意力到普通购房者身上 牛逼，我们就是这样的市场经济！ 够狠啊，这不等于给炒房的一个官方保证？ 外国人靠的是高科技赚钱【大陆人靠的是泥瓦块赚钱！！！明显不在一个档次上，这样是成不了世界强国的！！！】 这才叫市场经济 买的缴税，卖的也要交，房子成本只会越来越高 不动产，应该三十年不准买卖 现在不都是拿到房产证3年才能卖吗 一户限购一套，没人平均面积规定好，我就不信房价下不来 这才叫市场经济 5年不脱手，如果成本回不来就可以，如果天天涨就无所谓 把房地产变为永久不动产。房价上涨10倍，威武 放上5年更值钱 五年后翻倍再卖不好吗 炒房一般都是3-5年卖的 也许不到5年就不是你们说了算了 租都租不起了。收各种税，房东就涨房租，我等屁民活不起，咬牙割个肾付首付吧。 绿水青山就是金山银山？放它妈的狗屁！昧着良心说假话的一群畜生！钢筋水泥才是金山银山！！！ 有用吗 近年来这个早卖的都痛苦 无语了 我认为这么多年来政府所有的调控政策，其出发点不过为了让房价不那么快涨，让房价的上涨速度大致等于经济增速。但房价往往先于经济大幅跳涨，这时候就需要调控政策打压一下，让房价在高位走一个平台整理，等待经济增长到差不多的高度，房价又会进入下一个跳涨。当然这是基于过去三十年中国经济长期高速增长的总结。而未来我们的经济不可能一直保持那样的高速增长，等到经济增速的变化曲线走平的时候，房价的增长率一定会小于经济增速，而且很可能会开始一个较长周期的下跌。到那时候调控的方向就是救市了，但同样的救也救不起来的。<br>实际上即使没有各种调控政策，也是会按照这样一个规律来的，调控不能改变经济规律，只是让波动的幅度小一点而已。 就应该掐死炒房，房子本来就是拿来住的，一个十几亿人口的国家更应该杜绝炒卖，让更多人卖得起房有什么不好？ 不涨价，怎么还地方债？涨了价，才有GDP，才有领导升迁的好前途啊！ 涨价去库存 不要只是吐槽政府的调控政策，你有什么好办法可以拿出来讨论啊，可以建言献策啊！但是类似楼上说的什么规定卖出价格不得高于买入价这种混蛋言论，不提也罢。我觉得针对房地产的调控政策，首先要合法，然后要有可行性，为公众所接受。现在这限售，我觉得已经有违反上位法的嫌疑了，我买了房子，那是我的私产，我理当有处分的权利，你凭什么限制我买卖？ 调控年年调控年 事实是大家买不起了，但房子也不能留手里，更不能降价卖，所以就弄这么个出租的办法。 人生有多少个五年，刚需的话没问题吧 面粉价格不限制，限制面包的价格。太特么孙子 西安就这样啊，没什么好惊讶的 除了少部分极端的大量借款炒房的以外大部分都不着急房子放着等得起 翻手是云，覆手是雨，孙猴子的脸七十二变 vsbsbshs 深圳地就少，如果可以卖的房子更少了，有啥后果？ 就这样玩你们的，怎么滴！ 只许你卖，不许我卖。要脸吗 五年，神经病 扯淡，你那是老黄历。现在这政策环境炒房的谁敢拿五年以上？ 50年比较好，或者70年，也没区别 🐂逼非要让人跳楼呀！ 横盘开始了[微笑] 路过 5年不准卖，第6年赚几倍。 年年调控年年涨 5年后疯涨！ 这几年不准卖是交房开始还是说土地拍好开始算？ vzvzvs 好，继土改，土地国有之后，国家又一扛鼎力作！房子也国有啦！哈哈，真正的无产阶级初级阶段初现端倪！ 真想控制房价，收空置费就可以了！ 那个叫屯房，炒房要现金流 zvgshshd 妈<br>的<br>！<br>他们具有的没完没了了！ 炒房的一般都是3-5年后脱手。 坐等五年后疯长 北京去年开始已经放量供应土地了 五年太短，最少要十年。 打击投机者? 五年刚好等个好价钱 打击刚需 这种规定合法吗？ 太短了，应该十五年住宅不让卖 忽悠呗！ vzbshshs 所谓控，只是不能暴跌。涨不要紧却不能暴跌，崩盘就大件事了。哈哈 只许你卖，不许我卖。要脸吗 错，好多认筹后开盘就出手。 这是市场经济模式吗? 这是市场经济模式吗? vzvsvs 扯淡，你那是老黄历。现在这政策环境炒房的谁敢拿五年以上？ 放上5年更值钱 炒房一般都是3-5年卖的 这是市场经济模式吗? 北京地价降了没？ 别说出来 还是不搞限售，房价涨多高就涨多高， 前提你要有足够资金熬过这3年。深圳这种土地动不动就压死几十个亿的现金在那里，而且3年后政策也不知道怎样，还是有一定风险的 现在土地的政策还是未知数 楼市泡沫如果暴跌………全民遭殃！ 越这样土地越稀有，一旦开卖这价格不得了 “限售”也是一种挽救房产泡沫的“强心针”，<br><br>但病入膏肓的迟早要死去，“强心针”只能暂时保命，这一天应该很快就要来了 了嘿嘿搜楼哦了测累的龙头破了呵呵贝诺同乐 炒房的一般都是3-5年后脱手。 打击投机者? 我自己花钱买来的东西居然连个处分权都没有 一线城市不涨二三线危险 我们这里最近房价屡创新高啊，有的每平米涨1-2千，几百不等。都是拜棚改所致。 三年后房价翻番了，卖家耍赖的太多了，法院最后也就判定退款，可是买房时机耽误了……这样的案例不要太多 此一时彼一时，政策制定和执行者的不连贯和非确定性注定了这房价还会越涨越高 可持续性贷款是政策之一，和市场经济无关 又不是所有的地 蜻蜓点水，九浅一深 ！！！！！ 租了70年使用权，又问要钱，怎么算怎么不合适。 年年调控年年涨 公租房房间小的连床都放不下，面积大的等老百姓去选早都没了，选房时候不准拍照违者禁选一年，猫腻才大了，还不如多建点经适房了 是谁推高了房价，心里没点逼数么？真是什么中介地产么？本末倒推法，你们先限制房价，在拍卖土地，暗箱操作，提高利息，提高首付，看是为了防止倒卖房子，其实也是为了规避银行风险，真是名利双收啊。 限售就是脱裤子放屁，哪个房子不经过三五年才能涨出交易成本和贷款利息？除了疯了的那三个加起来不到一年的阶段，买了一两年就卖的能赚什么钱？ 商品房属不属于商品？商品的属性是什么？上学时读的书原来都是假的 少啊，高层能住吗？我们又不是香港 看来是这样的 楼市再爆大新闻!吓着了，赶紧贷款买一套房。 国有企业，公务员优先吧！ 现在的房子太贵了 直接租70年吧 价格没涨到位，不许卖 房子是用来干嘛的？ 宇宙的探索是离不开我的话的，只有把围绕地球公转的一切物质包括气体计算在地球体积之内才能找到地球真正的边和角，那是反引力汇聚地，是真正的真空隧道，宇宙高速路，太阳系内的动脉!把围绕太阳公转的一切物质包括气体计算在太阳体积之内才能找到恒星与恒星的边和角，那是恒星与恒星之间的真空高速隧道，找到真空隧道以近光速超光速飞行那不是个事!宇宙飞行器也不能按照飞机的二维结构原理制造，飞机是不能高速自转的，但只有高速自转才能产生真空电磁场，以近光速飞行，未来的宇宙飞行器必须按地球原理制造，八层以上结构，你看地球高速自转着前进，我们人坐在地球上有啥不适感觉吗？ 买房本来就是一次缴70年租金 支持国家政策 反正买不起 新房只能租赁，逼迫刚需和投资客只能买二手房，五年后他们把手里的房子高价卖光后远走高飞，留下一片滔天洪水 严厉？等涨了再卖有啥不好 土地资源少，房源少，刚需急，怎么办？提高楼价吧！ 折腾完城市，准备折腾到乡村了！ 用这几块地，拉住房地产，防止崩盘。 只要拿地价格低，五年后谁能保证不翻几翻？ 人为制造紧张，就是为了涨价!涨价印钱加税档的三宝 身边案例：卖买双方签订协议，买方先入住，三年后拿到产权证再办理过户。与其说调控其实是官猿忽悠一下老百姓。 放屁[大笑][大笑][大笑] 好演技 不要炒了 搞个限买试试，一个家庭只准持有一到两套。中国的房子真的少吗？ 减少市场二手房流通数量，稳定二手房房价罢了…… 公租房还是什么廉租房最后落到哪些人手里了？ 调控的目的还是为了涨价，不然跌了房子卖给谁？ 不到100万每平坚决不卖 就是这样的 现在的房子太贵了 多少一平出手 好说，要涨多少 "
    },
    "Title": "楼市再爆大新闻!深圳对一块住宅用地实行5年限售_网易新闻",
    "KeyWords": "楼市,住房,租赁,楼市调控",
    "Article": "（原标题：突然！楼市传来大消息：这里的房子五年不准卖！）2017年的最后时刻，楼市再爆大新闻!深圳突然宣布：在一块即将在2018年2月1日出让的住宅用地上，施行限售政策，限售期为5年!12月30日，深圳规土委在官网上公布了四块“二类住宅用地”的转让消息。其中前三块土地全部为“纯租赁”地块，具体信息如下：根据土地转让公告，上述三块土地“建设全年期自持租赁住房，项目建成后，宗地内租赁住房和商业用房在70年出让年期内自持。自持是指租赁住房及商业用房限整体登记、不得分户登记，不得转让，允许抵押但抵押金额不得超出合同地价与建筑物残值之和”。也就是说，上述三块用地的房子，只有整体的房产证，不是每套一个证。第四块土地，就是“限售地块”，具体信息如下：这块地在深圳坪山(见下图)，土地面积1.9万多平米，未来建筑面积8.63万平米，其中至少配建人才住房15290平方米，还有商业、幼儿园等。土地转让采用“单限双竞”的办法以挂牌方式出让，即：限成交地价、竞成交地价和人才住房面积。当这块土地达到最高限价12.545亿元的时候，就开始竞“增加的人才住房面积”，相应就缩小了可以出售的普通商品房面积。从转让合同里可见，普通商品房部分可以向社会公众出售，但购房者在拿到不动产证之后5年内不得转让。限售是楼市调控的主要杀手锏在楼市调控越来越猛烈的背景下，限售，成为目前楼市调控的主要杀手锏。所谓限售，是指新购住房需取得产权证满一定年限，方可上市交易或办理转让公证手续。这些年限大部分都设置在2到3年不得转卖，深圳这块住宅土地的房子是5年不能卖。约50个城市公布了“限售令”第一个限售的城市是厦门，2017年3月23日厦门新规，要求新购住房需取得产权证后满2年方可上市交易。随后，有大约50个城市公布了“限售令”，限售期间一般是2年到5年不等，一些城市甚至在二手房交易里，也实施了“限售令”。2017全年，深圳没有出让一块“建成后房屋可供出售”的普通住宅用地，这在大城市里是唯一的。2018年出让的第一块普通住宅用地，就附加上了限售5年的条款。可见，政策没有放松的迹象。值得注意的是，北上深三大一线城市，一直没有针对普通商品房实施限售。虽然此次深圳推出的“限售令”只是针对特定地块，但也意味着，“北上深不限售”的局面开始改变了，2018年楼市调控会持续。本文来源：央视财经责任编辑：程钢_NN7377",
    "URL": "http://news.163.com/18/0102/10/D750LL720001875N.html",
    "PublishTime": "01/02/201810:47:53",
    "Source": "Netease"
}