{
    "Source": "Netease",
    "Title": "中国北部战区与驻韩美军建热线？媒体：假消息！_网易新闻",
    "Comment": {
        "Link": "http://comment.news.163.com/news2_bbs/D6JMATRO0001899N.html",
        "Content": "",
        "Reply": 0,
        "Total": 43
    },
    "URL": "http://news.163.com/17/1226/17/D6JMATRO0001899N.html",
    "PublishTime": "12/26/201717:20:10",
    "Article": "（原标题：中国北部战区与驻韩美军建热线？假消息！）【环球时报-环球网报道】解放军北部战区没有与驻韩美军司令部以任何形式建立热线联系，日本媒体的报道纯属子虚乌有。这是《环球时报》星期二了解到的情况。日本《朝日新闻》星期一晚间发出一则报道称，“美中决定在两国负责朝鲜区域的中国北部战区和首尔驻韩美军司令部之间开通热线电话，以应对紧急情况”。日本媒体的报道迅速引起韩国方面的注意。韩国《中央日报》称，“热线开通后，在朝鲜一旦发起挑衅或发生社会激变时，美中之间便可将其作为军事沟通的渠道，而美中两国将韩国排除在外讨论朝鲜问题的情况也可能无法避免”。而据《环球时报》了解，日媒的上述报道完全不属实，不仅中国北部战区与驻韩美军无直接联系，中国其他军事单位也没有这种做法。另外我们还了解到，中国军方也无今后与驻韩美军建立军事热线的打算。一位希望匿名的军事学者还对《环球时报》表示，他认为，通过日本媒体散布“中国军方与驻韩美军建立军事热线”的假消息，这是一个圈套，意在破坏中朝关系，也扰乱韩国的视线。本文来源：环球时报-环球网。更多精彩，请登录环球网http://www.huanqiu.com责任编辑：张海桐_NN9053",
    "KeyWords": "北部战区,中国,军事,日本"
}