{
    "Comment": {
        "Link": "http://comment.news.163.com/news2_bbs/D6L7AHNE0001899N.html",
        "Reply": 20,
        "Content": "前国民党“立委”孙大千在脸书直言，什么叫梦想？其实就是委婉地告诉你，做不到，“没有办法给大家一个明确的方向和承诺，只能用梦想来搪塞，真的很丢脸!” 做梦真好 台湾全面免费医保，这是真的吗？ 坏球的报道，呵呵。。 台湾2000多万人都被这娘们给忽悠了，有的还帮她数钱呢。 台币22K不够你们乡下打零工的? 建议蔡英文到大陆地市级来跟班进修 台湾基本工资还不如我们乡下打零工的 可以把他选下台，这边可以吗 马英九最后的支持率也是29%，和现在的空心菜一样。 这个是赖神的功德院之后的梦想府。 台湾2000多万人都被这娘们给忽悠了，有的还帮她数钱呢。 建议蔡英文到大陆地市级来跟班进修 最低工资，哈哈哈，狗只最低多少啊，就说狗只一省会啊，不足1000元，收入排名在南非和塞尔维亚之后， 台湾全面免费医保，这是真的吗？ 台湾基本工资还不如我们乡下打零工的 菜B快跑当心斩首 弯弯没人了，用个兽医来执政 封锁台湾。 建议中国政府早点武统台湾消灭台独畜生狗杂种们一个都不留…… 马英九最后的支持率也是29%，和现在的空心菜一样。 不管咋样总是他们自己选出来的啊，下次选举看准点！ 前国民党“立委”孙大千在脸书直言，什么叫梦想？其实就是委婉地告诉你，做不到，“没有办法给大家一个明确的方向和承诺，只能用梦想来搪塞，真的很丢脸!” 做梦真好 菜菜歇了吧 台币22K不够你们乡下打零工的? 22K差不多4800,其实在大陆不算低了，但在台湾是发达社会了，而且是20来年前就这个水平了，就有问题了 可以把他选下台，这边可以吗 22k怎么算出来的48004800基本就是25k啦 坏球的报道，呵呵。。 这个是赖神的功德院之后的梦想府。 ",
        "Total": 131
    },
    "Article": "（原标题：蔡英文最低工资梦想遭嘲讽：搪塞之词，丢脸！）台湾地区领导人蔡英文日前跟财经媒体记者茶叙时感慨台湾为什么留不住人才与资金。她认为起薪低是人才外流的重要因素，因此必须要慢慢拉高劳工最低薪资，并称“3万元(新台币，下同)是我的梦想”。此话一出，立即在岛内引发反弹。2017年接近尾声，台湾“劳动部”26日提醒，明年度基本工资为2.2万元、时薪140元。蔡英文进一步称，明年是景气好转的一年，当局要加速建设台湾，让年轻人有更多就业机会，不再低薪。据台湾联合新闻网26日报道，各部门目前都在构思如何达成目标。“劳动部政务次长”苏丽琼透露还在收集各方意见，时间表不确定。至于基本工资有无可能调到3万元，“经济部次长”王美花称，企业如果愿意主动响应当然最好，所以蔡英文才提到这是她的梦想。《中国时报》26日称，根据各国际机构陆续发布的2018年经济增长率预估数值，台湾在亚洲开发地区都是敬陪末座;昔日同为“亚洲四小龙”的新加坡、韩国和香港，甚至后进的“五小虎”泰国、越南、菲律宾、马来西亚和印尼不用说了，“如今台湾的经济成长率其实已到了连哈萨克斯坦都不如的局面”。据悉，去年参选台湾地区领导人的新北市长朱立伦当时提出基本工资调高到3万元的政见，结果被蔡英文嘲笑说“如果这样，就可以得诺贝尔奖”。民进党辩解称，执政以来调涨基本工资近2000元，超过国民党执政8年的调升幅度。国民党发言人洪孟楷反击说，马英九执政时期共5次调整基本薪资，从17280元一直调整到20008元，增加金额为2728元。反观蔡英文执政后，到明年才是2.2万元，增加1992元，“所以马当局时期的2728是大于还是小于蔡当局的1992元，民进党的‘立委’为了护航，难道连基本算术都不会了？”前国民党“立委”孙大千在脸书直言，什么叫梦想？其实就是委婉地告诉你，做不到，“没有办法给大家一个明确的方向和承诺，只能用梦想来搪塞，真的很丢脸!”与经济一样难看的，是蔡英文的支持率。美丽岛电子报25日公布的最新民调显示，蔡英文的信任度已降至执政19个月以来的新低，只剩32%;施政满意度因受惠于“赖清德效应”一度止跌回升，但近来上涨的全部都吐了回去，不满意度重新回到六成以上。民调还显示，过去蔡英文总自认最受年轻人和高学历者欢迎，但如今这群人已变成最不满意她的一群人，其中20岁至29岁满意蔡英文表现的比例仅剩21.8%。《中国时报》26日的一篇文章称，面对如此难看的经济展望，人民想知道的是蔡英文的解方。可惜的是，她谈的却是一厢情愿的梦想。文章说，执政19个月后，蔡英文面对媒体竟好意思说，她一直在思考如何让资金和人才都能留在台湾，“不知道蔡英文还要思考多久？岁月不待人，人才和资金也是”。台湾中央日报网络报称，蔡英文在民调低迷之时，看不到有任何反省或改变，不但继续追杀国民党，而且僵化两岸对峙，结果是原来的支持者不爽，原来的反对者更坚定，“这个现象的确让人很纳闷，为什么会有这样的政治人物？”本文来源：环球时报-环球网。更多精彩，请登录环球网http://www.huanqiu.com责任编辑：王征_NN7526",
    "PublishTime": "12/27/201707:36:18",
    "URL": "http://news.163.com/17/1227/07/D6L7AHNE0001899N.html",
    "Title": "蔡英文最低工资梦想遭嘲讽：搪塞之词 丢脸！_网易新闻",
    "KeyWords": "蔡英文,台湾,国民党,民进党",
    "Source": "Netease"
}