{
    "Article": "（原标题：三人合伙从吉林到广西抢劫金店，被判刑十三年至十四年不等）宣判现场本文图均为广西高院公众号图12月29日，（广西）梧州市万秀区人民法院对“3.24”黄金劫案进行一审宣判，被告人赵天娇、任广东、张鹤飞分别被判处有期徒刑十四年至十三年不等，三名被告人均被剥夺政治权利三年，并处罚金五万元。审判长宣读判决书经审理查明，2017年3月上中旬，被告人赵天娇、任广东、张鹤飞合谋到广西抢劫金店。随后被告人赵天娇出资，伙同任广东在长春市区内购买了作案工具仿制手枪两支、电话卡等物品，由被告人张鹤飞使用他人身份证购买了两张长春至桂林的火车票。3月19日，被告人赵天娇从长春出发先行到达广西梧州等地进行踩点，3月21日，被告人任广东、张鹤飞使用被告人赵天娇提供的资金，按照赵天娇事前安排从长春坐火车到达桂林后，搭车去贺州购买二手男装摩托车、头盔等作案工具。3月23日，被告人任广东、张鹤飞驾驶摩托车从贺州向梧州方向出发。被告人任广东、张鹤飞去到梧州市中山路1—3号“中国黄金”金店后，因店铺已经关门而未能实施抢劫。3月24日22时许，被告人任广东与被告人赵天娇通话后，伙同被告人张鹤飞佩戴头盔、手套、口罩，再次去到中山路1—3号“中国黄金”金店内，由任广东手持仿制手枪对店员进行恐吓，张鹤飞使用铁锤敲烂展柜侧面玻璃，二人伸手将展柜内里的金项链、金戒指、金手镯、金吊坠一批（经鉴定共价值人民币141750.52元）抢走。抢劫得手后，被告人任广东、张鹤飞、按照事先商量好的逃跑路线，向广东方向逃跑，在逃跑途中，不断将作案工具、作案所穿的衣服等物品丢弃。3月26日，被告人赵天娇与被告人任广东、张鹤飞在安徽阜阳汇合后继续往长春方向逃跑。3月27日，被告人赵天娇、任广东、张鹤飞逃跑途径内蒙古奈曼旗时被公安人员抓获，公安人员在赵天娇身上搜获被抢的金饰一批，并已发还给被害人。三名被告人在法庭听判（从左至右：赵天娇、任广东、张鹤飞）法院认为，被告人赵天娇、任广东、张鹤飞以非法占有为目的，合伙以暴力胁迫的方法抢走他人财物，数额巨大，其行为已构成抢劫罪，依照《中国人民共和国刑法》，应依法予以惩处。根据三名被告人的犯罪事实、性质、情节以及对社会的危害性，以被告人赵天娇犯抢劫罪，判处有期徒刑十四年，剥夺政治权利三年，并处罚金人民币五万元；被告人任广东犯抢劫罪，判处有期徒刑十三年，剥夺政治权利三年，并处罚金人民币五万元；被告人张鹤飞犯抢劫罪，判处有期徒刑十三年，剥夺政治权利三年，并处罚金人民币五万元。本文来源：澎湃新闻责任编辑：韩佳鹏_NN9841",
    "URL": "http://news.163.com/17/1229/21/D6RQ7M62000187VE.html",
    "Source": "Netease",
    "KeyWords": "广西,抢劫,抢劫罪,罚款",
    "Comment": {
        "Reply": 17,
        "Link": "http://comment.news.163.com/news2_bbs/D6RQ7M62000187VE.html",
        "Total": 104,
        "Content": "又是吉林又是到广东又是到广西的看得都晕了😖 这个想法有些奇怪，贪污上亿跟个人似乎没有关系是不是可以不判 吉林传销失败然后广西干了一票？ 居然到广西抢，白山黑水对战十万大山 原来，666省那些不生锈的链子就这么来的…… 对于抢劫罪来说判的轻了 14万十三年？ 要不都想当官，贪500万都不好意思判！ 如果是抢了你的十三万呢？ 一人平均不到5万，判了13年,亏大发了，要是官猿贪污5万还得受廉洁表彰呢！ 东北丑逼男，丑陋 从吉林去广西抢劫，然后往广东跑，再到安徽汇合，最后到内蒙古被抓。 又是吉林又是到广东又是到广西的看得都晕了😖 十四万 老铁双击666 如果是抢了你的十三万呢？ 要不都想当官，贪500万都不好意思判！ 居然到广西抢，白山黑水对战十万大山 这个想法有些奇怪，贪污上亿跟个人似乎没有关系是不是可以不判 对于抢劫罪来说判的轻了 胆子不小 14万十三年？ 判少了 这年头抢不如骗，搞个动物园收门票，挣的更多 吉林传销失败然后广西干了一票？ 哈哈哈哈哈哈 从吉林去广西抢劫，然后往广东跑，再到安徽汇合，最后到内蒙古被抓。 一人平均不到5万，判了13年,亏大发了，要是官猿贪污5万还得受廉洁表彰呢！ 东北丑逼男，丑陋 原来，666省那些不生锈的链子就这么来的…… "
    },
    "Title": "3人从吉林到广西抢劫金店涉案金额14万 被判十三年_网易新闻",
    "PublishTime": "12/29/201720:50:00"
}