{
    "Source": "Netease",
    "KeyWords": "宋慧乔,宋仲基,卫衣,棒球帽",
    "Title": "婚后生活更甜蜜！宋慧乔宋仲基打保龄球被偶遇_网易娱乐",
    "PublishTime": "12/25/201710:35:28",
    "URL": "http://ent.163.com/17/1225/10/D6GCP5MO00038FO9.html",
    "Article": "宋仲基宋慧乔被偶遇网易娱乐12月25日报道12月25日，有网友在晒出了宋慧乔宋仲基打保龄球的照片。该网友还表示：“昨晚，有韩国网友在梨泰院偶遇了打保龄球的宋仲基宋慧乔，除了双宋夫妇外，还有一众友人同行。两人婚后真是合体撒狗粮撒不停呀，不知道今天圣诞节两个人又会去哪里约会呢？”照片中，宋仲基穿着黑色卫衣带着棒球帽，而宋慧乔则是穿着灰色卫衣。一行人看起来玩的很开心，两个人婚后也是如此甜蜜。宋仲基宋慧乔和朋友们去打保龄球不少网友，也发现了宋慧乔胖了一些。网友纷纷表示：“羡慕啊！！！双宋夫妇要永远幸福喔！”、“感觉俩人都胖了呢，双宋夫妇婚后的幸福生活。”本文来源：网易娱乐责任编辑：杨明_NV5736",
    "Comment": {
        "Content": "乔妹怎么越来越大妈装扮 婚后一两年还能想,几年过后不敢想象 婚后好幸福呀 我声明，我是中国人，我不过圣诞节、感恩节、父亲节、母亲节、感恩节、万圣节、情人节这些非国家法定的西洋节假日，在元旦节、国际劳动节、国际妇女节、国际儿童节这些法定的西洋节假日我也照常上班。西洋来的洋历本身就是耶稣这个三十三岁老头的邪恶产物，我只看农历，只过中华传统节日，就算那节日不是法定节假日，我也一定请假庆祝。我平时穿衣服只穿汉服唐装旗袍，不穿西装杰克衬衫。我家里从来不用电灯，电话，电视机，收音机，手机，晚上点灯就好。我生病了，从来不吃药不打针，小孩从不打疫苗，都是上山采点药。别人都问我为什么这么酷？因为我头上有一根大清的大辫子 乔妹侧颜美呀 怀孕了 是的，永远停留在过去的人啥节都不接受。 哦哦 穿汉服和唐装，然后又留着大清的辫子，这不是一个四不像吗 死肥猪 怀孕了 智商低看不懂的别回。 婚后好幸福呀 乔妹怎么越来越大妈装扮 我声明，我是中国人，我不过圣诞节、感恩节、父亲节、母亲节、感恩节、万圣节、情人节这些非国家法定的西洋节假日，在元旦节、国际劳动节、国际妇女节、国际儿童节这些法定的西洋节假日我也照常上班。西洋来的洋历本身就是耶稣这个三十三岁老头的邪恶产物，我只看农历，只过中华传统节日，就算那节日不是法定节假日，我也一定请假庆祝。我平时穿衣服只穿汉服唐装旗袍，不穿西装杰克衬衫。我家里从来不用电灯，电话，电视机，收音机，手机，晚上点灯就好。我生病了，从来不吃药不打针，小孩从不打疫苗，都是上山采点药。别人都问我为什么这么酷？因为我头上有一根大清的大辫子 是的，永远停留在过去的人啥节都不接受。 呵呵 保龄球………… 哦哦 卧槽，怎么还没离婚，奇迹啊 婚不婚都挺无趣的 不发宋仲基宋慧乔难道发你的新闻？新浪娱乐本来就是报道娱乐圈的，国家大事啥的有人民日报和其他媒体啊，有些人咋那么搞笑呢。 满屏宋慧乔！宋仲基！网易收了多少钱？ 怀孕了 你不管，我骄傲👻👻👻 怀孕了应该不会去玩保龄球吧 智商低看不懂的别回。 婚后一两年还能想,几年过后不敢想象 我想问一下，网易娱乐小便文章结尾都有网友精彩评论，这种评论是小便编的还是真的是网友留言 风光66 乔妹侧颜美呀 怀孕了 大清辫子酷个毛， 不可能是宋慧乔！怎么那么胖！ sb 穿汉服和唐装，然后又留着大清的辫子，这不是一个四不像吗 怀孕了吗 死肥猪 哇偶 不要整天上头条秀恩爱，既然已经成为夫妻了，那就因该好好回家生小孩儿去哇！宋仲基宋慧乔哈哈 ",
        "Reply": 28,
        "Link": "http://comment.ent.163.com/ent2_bbs/D6GCP5MO00038FO9.html",
        "Total": 130
    }
}