{
    "Article": "（原标题：湖南宁乡一校车被失控货车撞击侧翻1死16伤）#endText.video-infoa{text-decoration:none;color:#000;}#endText.video-infoa:hover{color:#d34747;}#endText.video-listli{overflow:hidden;float:left;list-style:none;width:132px;height:118px;position:relative;margin:8px3px0px0px;}#entText.video-lista,#endText.video-lista:visited{text-decoration:none;color:#fff;}#endText.video-list.overlay{text-align:left;padding:0px6px;background-color:#313131;font-size:12px;width:120px;position:absolute;bottom:0px;left:0px;height:26px;line-height:26px;overflow:hidden;color:#fff;}#endText.video-list.on{border-bottom:8pxsolid#c4282b;}#endText.video-list.play{width:20px;height:20px;background:url(http://img1.cache.netease.com/video/img14/zhuzhan/play.png);position:absolute;right:12px;top:62px;opacity:0.7;color:#fff;filter:alpha(opacity=70);_background:none;_filter:progid:DXImageTransform.Microsoft.AlphaImageLoader(src=\"http://img1.cache.netease.com/video/img14/zhuzhan/play.png\");}#endText.video-lista:hover.play{opacity:1;filter:alpha(opacity=100);_filter:progid:DXImageTransform.Microsoft.AlphaImageLoader(src=\"http://img1.cache.netease.com/video/img14/zhuzhan/play.png\");}if(/(iPhone|iPad|iPod|Android|NETEASEBOBO|blackberry|bb\\d+)/ig.test(navigator.userAgent)||/safari|chrome|firefox/i.test(navigator.userAgent)&&navigator.plugins&&!navigator.plugins[\"ShockwaveFlash\"]){varstr1='<videocontrols=\"controls\"preload=\"auto\"width=\"100%\"poster=\"http://vimg3.ws.126.net/image/snapshot/2018/1/8/U/VU68BSV8U.jpg\"style=\"max-height:100%\">';varstr2='<sourcetype=\"video/mp4\"src=\"http://flv.bn.netease.com/videolib3/1801/02/blFPx9932/SD/blFPx9932-mobile.mp4\">您的浏览器暂时无法播放此视频.</video>';document.getElementById(\"FPlayer1404863609673\").parentNode.innerHTML=str1+str2;}湖南一失控货车撞翻校车，致1死17伤（来源：original）window.NTES&&function(d){varf=function(c){varb=c.getAttribute(\"flashvars\"),a=c.getAttribute(\"repovideourl\").replace(\".flv\",\"-mobile.mp4\");h=d(c.parentNode.parentNode.parentNode),g='<embedsrc=\"http://v.163.com/swf/video/NetEaseFlvPlayerV3.swf\"flashvars=\"'+b+'\"allowfullscreen=\"true\"allowscriptaccess=\"always\"quality=\"high\"wmode=\"opaque\"width=\"100%\"height=\"100%\"type=\"application/x-shockwave-flash\"/>';if(/(iPhone|iPad|iPod|Android|NETEASEBOBO|blackberry|bb\\d+)/ig.test(navigator.userAgent)){g='<videocontrols=\"controls\"preload=\"auto\"width=\"100%\"height=\"100%\"><sourcetype=\"video/mp4\"src=\"'+a+'\">您的浏览器暂时无法播放此视频.</video>';}h.$(\".video\")[0].innerHTML=g;},e=function(b){vara=d(b.parentNode.parentNode.parentNode);a.$(\"li\").removeCss(\"on\"),b.addCss(\"on\"),a.$(\".video-title\")[0].innerHTML=\"string\"==typeofb.textContent?b.textContent:b.innerText,a.$(\".video-title\")[0].setAttribute(\"href\",b.getAttribute(\"url\")),a.$(\".video-from\")[0].innerHTML=\"（来源：\"+b.getAttribute(\"source\")+\"）\",f(b);};window.continuePlay=function(){vara,b=d(d(\".video-list.on\")[0].nextSibling);3==b.nodeType&&(b=d(b.nextSibling));if(b&&d(\".video-innerinput\")[0].checked){e(b);}},function(){vara={init:function(){if(d(\".video-listli\")[0]){d(d(\".video-listli\")[0]).addCss(\"on\"),this.eventBind();}},eventBind:function(){d(\".video-listli\").addEvent(\"click\",function(b){e(d(this)),b.preventDefault();});}};a.init();}();}(NTES);新华社长沙1月2日电记者从湖南宁乡市政府获悉，2日下午3时50分许，当地发生一起货车与小学校车相撞事故，造成1名学生医治无效死亡，14名学生受伤，另有两名校车工作人员受伤。据通报，事故发生在当地公路S209线宁乡市双凫铺镇月华路口，事发时一辆失控的牌照为豫EE7689的货车将对面正常行驶的宁乡学安校车公司湘A9S230校车撞倒侧翻至耕地，造成15名学生与1名司乘人员、1名照管员受伤。校车核载19人，实载17人。事故发生后，宁乡市委、市政府及相关部门负责人迅速赶到现场进行处置。目前所有受伤人员均已送往医院救治，其中一名学生送医院抢救无效死亡，其余人员在医院留观并治疗。事故原因正在调查中。4岁男童被校车撞死事发时司机抱着女学生开车9月30日，宁明县一所幼儿园校车送孩子们回家时，司机将一名刚下校车的4岁男童撞倒致死。10多天后，家长终于看到了行车记录仪的录像，发现司机开车时有一名小学女生坐在他腿上，女生还手握方向盘，而正是此时发生了悲剧。看到这段视频，死者家长既震惊又悲愤。本文来源：新华网责任编辑：范姜国一_NN9138",
    "Title": "湖南一校车被失控货车撞翻 1名学生死亡14人受伤_网易新闻",
    "PublishTime": "01/02/201819:55:22",
    "Source": "Netease",
    "Comment": {
        "Content": "狗一样的货车司机 可怜的孩子 领导孩子不做这车，这车里也出不了总统 货车为什么会失控 美国校车里面坐着美国未来总统我们的校车只坐小绵羊不能相提并论 事情发生在我们这～视频都有～麻烦说那纸糊的校车话过过脑，奔驰宝马还不是一样死人，意外的事情谁能说的准！！！只是希望这样的事情尽量别发生，天佑无辜的孩子们！ 前不久，美国校车刚出事，死了好几个学生的新闻你们选择性失明了 傻逼东西什么都不知道就知道乱黑，老子就是这里派出所上班在医院几个小时了就是因为这件事被一辆大货车撞翻的换你的车来早就成废铁了知道吗 路过。 是，大车是危险。但这和校车不结实矛盾吗？除非大车故意撞过去，力量加速度。 美国的校车能抵挡住几十吨的牵引车吗？ 中国校车——贴上个校车两字的牌子就叫校车了！[微笑] 触目惊心 逝者安息🙏！一路走好！ 没看视频的喷子别乱喷，校车是正规的质量也很好，只是对方可是几十吨的大货车好不好，换成哪里的校车都一样，要不是校车质量好像以前那种面包车肯定死的人更多。 扎心了孩子父母肯定伤心死了 楼上两个还真是傻逼，你们看视频了吗？ 楼下那傻逼，你在现场吗？ 跟贴被火星网友带走啦~ 什么校车能把几十吨的挂车撞翻？你倒是说说看 河南的司机怎样不了解，但河南牌照的车真他妈没素质 什么事都tm喷明明是货车失控就tm爱断章取义 我国的校车可不真是不行 还是马其顿的校车结实 拆拿应该换成叉那，更接近上海话发音，嘿嘿… 楼上的傻逼。你怎么知道我没在现在？你爹我就在宁乡 不好意思，我是中国人，出个国就成外国人了？什么鸟几把逻辑？ 嘻嘻就你这傻逼还信手机定位了那我一分钟能从美国到中国 别怪我说话难听，中国那纸糊的的校车，伤这几个孩子算幸运了。可怜的孩子。 尼玛的逼查查百度，看看美国的校车 货车司机不长眼 货车撞校车不是应该货车翻车吗？美国就是这样啊！ 战无不胜 心惊胆战 父母该多伤心，哎，年底希望大家都平安健康。 钢板也能给你撞烂啊 河南的司机就应该终身禁驾？ 乡亲们，先看视频再喷，十几吨的货车失控了，要是一般轿车估计已经瘪了，校车的质量挺不错的了，主要是超载超速不养护啊，中国公路四大“天王”，泥头车，超载货车，电动车，横穿高速老太婆，个个都是防不胜防啊。 跟贴被火星网友带走啦~ 这要美国车也是一样，那么大货车还撞不过拉十九人校车？别老是说这不好那不好有本事移民，就你去国外也会喷 纸糊的？ 如果小学生坐的马其顿校车就安全了，如果生在马其顿就好了！ 要不要出来走一走 这个司机一看就没有法律意释，特别是河南的司机应该让他终身禁驾。 男盗女娼的地方 已经很多喷子杀过来了 美国的校车能抵挡住几十吨的挂车吗？ …… 傻逼你上日本值勤去了？ 我是宁乡人，下午各种群里都在发这个视频，说实话不怪校车，換作以前我们挤的面包车已经好了不知道多少。但是可怜了这些孩子，心痛！ 行，！// 要是速度快，轿车也可以撞死校车里的人 河南的司机怎样不了解，但河南牌照的车真他妈没素质 货车为什么会失控 那问题来了，为什么一个在派出所上班的要定为到日本 美国校车里面坐着美国未来总统我们的校车只坐小绵羊不能相提并论 战无不胜 前不久，美国校车刚出事，死了好几个学生的新闻你们选择性失明了 被拒绝 我没针对你啊。 触目惊心 喷子多的一毛 中国校车——贴上个校车两字的牌子就叫校车了！[微笑] 看的心疼！快过年了易友们平安出行！ 注意安全 扎心了孩子父母肯定伤心死了 战战栗栗 这也能喷校车，人才！ 俩牛逼的创一起了，可怜的孩子校车司机素质有待提高 什么校车能把几十吨的挂车撞翻？你倒是说说看 简直可怕 什么事都tm喷明明是货车失控就tm爱断章取义 仅以此例？还是遇到的没素质的车多是河南的？还是遇到的河南的车多没素质？还是其他？ 还是马其顿的校车结实 简直可怕 豫EE7689,看到这个“豫”字开头的车牌，无论大车小车，离远点准没错 穷山恶水 哈哈哈 网易经常抽风，我也是湖南的，定位经常定到日本 你看视频了没有？看清楚是什么校车没？这种校车不管是宣传还是实物，安全系数比你平时做的豪华大巴高了不知几倍，完全可以拿出去跟世界上其他国家的比比，不懂瞎喷，不要动不动就觉得外国的月亮一定比国内的圆，弄清楚再说… 喷子的贯术——转移话题——每当无力反驳别人时 喷子们的眼中美国什么都好 别怪我说话难听，外国再牛逼的校车，碰上中国的半挂车都是垃圾 别怪我说话难听，中国那纸糊的的校车，伤这几个孩子算幸运了。可怜的孩子。 今早刚从那经过。。 乡亲们，先看视频再喷，十几吨的货车失控了，要是一般轿车估计已经瘪了，校车的质量挺不错的了，主要是超载超速不养护啊，中国公路四大“天王”，泥头车，超载货车，电动车，横穿高速老太婆，个个都是防不胜防啊。 希望孩子们平平安安长大 货车撞校车不是应该货车翻车吗？美国就是这样啊！ 这时候还有心思开地图炮，同是广州人都觉得不好意思了 我想知道一楼赞是自己点的还是其他人点的，是傻还是喷子， 领导孩子不做这车，这车里也出不了总统 心惊胆战 说实在的4楼没说错，大天朝的一把手出身占了95%以上，不是那5%贵族中人不可能 河南的司机就应该终身禁驾？ 安全出行 跟贴被火星网友带走啦~ 这要美国车也是一样，那么大货车还撞不过拉十九人校车？别老是说这不好那不好有本事移民，就你去国外也会喷 什么特么失控，肯定是超速，跑大货的都这德性，路上赶死一样 天灾人祸不断，长个心眼，假恶斗灌输谎言，分辨善恶明真相上天佑。 标题图片有大白腿 没看视频的喷子别乱喷，校车是正规的质量也很好，只是对方可是几十吨的大货车好不好，换成哪里的校车都一样，要不是校车质量好像以前那种面包车肯定死的人更多。 最后一句是人话，其他的喷出来有多大意义！话难听不说的话也不会憋死你吧 校车又出事了，教训啊！ 666 哈哈，山西说人家穷山恶水 这个司机一看就没有法律意释，特别是河南的司机应该让他终身禁驾。 男盗女娼的地方 …… 有的校车司机像开飞机一样 狗一样的货车司机 荷兰的牌照？什么意思 货车司机都该死，一个个的超载闯红灯走反道各种违规，可看死的不是他们。别说什么为了生活，为了生活的不止他们这群人，还不如贩毒的 新华社开始关注宁乡了🤗 大哥真的假的哦，别吓我好不好。我知道是被一辆大货车撞翻了，车挺好的就是还差点，就是想要中国的校车越来越好，没别的意思，对事不对人。大哥别生气哈，小弟知错了，别到时候我都不敢去湖南了，我就湖南旁边的 事情发生在我们这～视频都有～麻烦说那纸糊的校车话过过脑，奔驰宝马还不是一样死人，意外的事情谁能说的准！！！只是希望这样的事情尽量别发生，天佑无辜的孩子们！ 祈福，祝平安 好难过 凡事必有代价，经济学需要在安全性和经济性上取得一个合乎社会认同的平衡点，若校车制作的如同坦克坚不可摧，其制造成本必将非常高，而这成本会转移到家长身上；若校车制造成本非常低，其发生事故的伤亡率必将上升。政府需要制定合理的标准找到这个平衡点，使得校车成本*伤亡概率（也就是社会付出的总成本、总风险）最小化。凡事都有两面性，不及成本的追求绝对的安全实属不理性。 是，大车是危险。但这和校车不结实矛盾吗？除非大车故意撞过去，力量加速度。 美国的校车能抵挡住几十吨的牵引车吗？ 尼玛太可怕了，想想那些孩子还算幸运，只有一个不幸运 尊重生命 我国的校车可不真是不行 刚刚发生的重大交通事故。在黑塘仑向双夫铺方向的下坡路段，一辆三轮车和一辆重型挂车同上下坡，三轮车突然横路，重车采取急刹避让造成逆向行驶，将一辆往月明方向的校车挤至路边翻入稻田，校车车窗玻璃全部破碎，学生至少一人死亡。重车严重损坏，二十多吨钢材滚入稻田。三轮车车主逃之夭夭。此事件惊动了政府和交通部门，维持交通和勘察现场的工作人员几十人。三轮车车主难逃责任。 没看视频的喷子别乱喷，校车是正规的质量也很好，只是对方可是几十吨的大货车好不好，换成哪里的校车都一样，要不是校车质量好像以前那种面包车肯定死的人更多。 你顶着非人类的LOGO，却说着人一样的话，何也？ 楼下那傻逼，你在现场吗？ 不是装甲车材料吗 傻逼东西什么都不知道就知道乱黑，老子就是这里派出所上班在医院几个小时了就是因为这件事被一辆大货车撞翻的换你的车来早就成废铁了知道吗 中国校车——贴上个校车两字的牌子就叫校车了！[微笑] 尼玛的逼查查百度，看看美国的校车 严惩凶手 [大哭] 好多地方还是面包车改成的。😒 校车已今非昔比。 楼上的傻逼。你怎么知道我没在现在？你爹我就在宁乡 日本井犬儿？？ 没关系的！下次注意点 网易喷子笑死我 愿天下再无交通事故，逝者安息 中国的校车什么质量？ 别怪我说话难听，中国那纸糊的的校车，伤这几个孩子算幸运了。可怜的孩子。 把他撞到日本去了 同意楼上两位意见。 我不知道这个校车质量如何，但我知道我国货车的杀伤力，尤其挂的是荷兰拍照 失控难道不是故意撞过去？ 刚刚发生的重大交通事故。在黑塘仑向双夫铺方向的下坡路段，一辆三轮车和一辆重型挂车同上下坡，三轮车突然横路，重车采取急刹避让造成逆向行驶，将一辆往月明方向的校车挤至路边翻入稻田，校车车窗玻璃全部破碎，学生至少一人死亡。重车严重损坏，二十多吨钢材滚入稻田。三轮车车主逃之夭夭。此事件惊动了政府和交通部门，维持交通和勘察现场的工作人员几十人。三轮车车主难逃责任。 这就是当年你爷爷饿死的理由吗 领导孩子不做这车，这车里也出不了总统 纸糊的？ 路过。 钢板也能给你撞烂啊 跟贴被火星网友带走啦~ 美国的校车能抵挡住几十吨的挂车吗？ 逢年快过节了，一孩子死亡意味着这家散了，我肯请广大司机朋友，瑾慎驾驶，不要再伤及无辜了，谢谢了。 长沙就只有宁乡么？总是这里出问题新闻！ 国产校车好像就是披着一个国外校车的皮，其他没啥区别吧 的确如此，毕竟，我们中国还是个发展中国家 一个民族对待孩子的态度已经注定了它的未来 就在我家这边，听说是大货车为了躲避一个三轮车打急了方向盘 十次事故九次快,希望司机们不要认为自己技术好就玩命开,车毕竟是个工具,没有人能完全控制好它. 傻逼你上日本值勤去了？ 逝者安息 哎一路走好 我是宁乡人，下午各种群里都在发这个视频，说实话不怪校车，換作以前我们挤的面包车已经好了不知道多少。但是可怜了这些孩子，心痛！ 与校车发生交通事故，按责任双倍处罚！ 别理会喷子，兄弟！一个简单的例子：交警查车，喷子会喷交警抓钱狗！出事喷子会说交警懒政狗！都懒得理他们了！ 货车司机可以去死了 安全第一！ 大过年的祝大家安全驾驶，一路平安！ 666 注意 能不能慢点 愿孩子平平安安度过灾难 事情发生在我们这～视频都有～麻烦说那纸糊的校车话过过脑，奔驰宝马还不是一样死人，意外的事情谁能说的准！！！只是希望这样的事情尽量别发生，天佑无辜的孩子们！ 因为天朝的校车里不可能坐未来是总统级别的人 宇宙的探索是离不开我的话的，只有把围绕地球公转的一切物质包括气体计算在地球体积之内才能找到地球真正的边和角，那是反引力汇聚地，是真正的真空隧道，宇宙高速路，太阳系内的动脉!把围绕太阳公转的一切物质包括气体计算在太阳体积之内才能找到恒星与恒星的边和角，那是恒星与恒星之间的真空高速隧道，找到真空隧道以近光速超光速飞行那不是个事!宇宙飞行器也不能按照飞机的二维结构原理制造，飞机是不能高速自转的，但只有高速自转才能产生真空电磁场，以近光速飞行，未来的宇宙飞行器必须按地球原理制造，八层以上结构，你看地球高速自转着前进，我们人坐在地球上有啥不适感觉吗？ 父母该多伤心，哎，年底希望大家都平安健康。 又一个家庭支离破碎 假日事故综合症吗?谨慎出行. 9.1仙游校车事故，竟然硬生生的压下去了，现在媒体可以说话么？ 可怜的孩子，可怜的父母 马路杀手大货车 没看视频的喷子别乱喷，校车是正规的质量也很好，只是对方可是几十吨的大货车好不好，换成哪里的校车都一样，要不是校车质量好像以前那种面包车肯定死的人更多。 恐怖 楼上两个傻逼，知道什么几十吨的牵引挂车吗？ 宇宙的探索是离不开我的话的，只有把围绕地球公转的一切物质包括气体计算在地球体积之内才能找到地球真正的边和角，那是反引力汇聚地，是真正的真空隧道，宇宙高速路，太阳系内的动脉!把围绕太阳公转的一切物质包括气体计算在太阳体积之内才能找到恒星与恒星的边和角，那是恒星与恒星之间的真空高速隧道，找到真空隧道以近光速超光速飞行那不是个事!宇宙飞行器也不能按照飞机的二维结构原理制造，飞机是不能高速自转的，但只有高速自转才能产生真空电磁场，以近光速飞行，未来的宇宙飞行器必须按地球原理制造，八层以上结构，你看地球高速自转着前进，我们人坐在地球上有啥不适感觉吗？ 看到货车就烦 怎么没图 试试🇺🇸的 好多小货喜欢抢道… 样板村出事，扶不扶？ 悲剧 再结实的车失控货车迎面撞也受不了 担心送医途中 2楼装作有脑子的样子 这大货车撞的悍马也没用 保佑！ 我家怎么老上头条 别怪我说话难听，中国那纸糊的的校车，伤这几个孩子算幸运了。可怜的孩子。 tm的那些开货车的路就像是他家修的一样 中国校车——贴上个校车两字的牌子就叫校车了！[微笑] 因为天朝的校车里不可能坐未来是总统级别的人 领导孩子不做这车，这车里也出不了总统 纸糊的？ 马其顿笑而不语。 2楼这个傻逼，什么车能抵挡的住几十吨的牵引车？ 钢板也能给你撞烂啊 小孩子很可怜，一路走好吧。家属也要节哀顺变。 跟贴被火星网友带走啦~ 我感觉大车应该是下坡一直刹车，后刹车片过热失灵 如果小学生坐的马其顿校车就安全了，如果生在马其顿就好了！ 能为下一代考虑吗？ 刚刚发生的重大交通事故。在黑塘仑向双夫铺方向的下坡路段，一辆三轮车和一辆重型挂车同上下坡，三轮车突然横路，重车采取急刹避让造成逆向行驶，将一辆往月明方向的校车挤至路边翻入稻田，校车车窗玻璃全部破碎，学生至少一人死亡。重车严重损坏，二十多吨钢材滚入稻田。三轮车车主逃之夭夭。此事件惊动了政府和交通部门，维持交通和勘察现场的工作人员几十人。三轮车车主难逃责任。 要不要出来走一走 看来你是不知道马其顿。 大祸车 一楼这种出了事就是祈福天佑一类的，没半点脑袋的蠢货。 已经很多喷子杀过来了 逝者安息🙏！一路走好！ 可怜的孩子 唉…… 我们这校车，就是大巴车 现在怎么都对花朵下手？ 货车司机不长眼 涂个黄漆就叫校车 瞎吧看到校车还不减速 [大哭] 纸糊的？ 倒霉，有时候孩子也要记安全带 可怜的孩子 远离货车 可怜的孩子，请大家开车一定要让行校车 ",
        "Reply": 171,
        "Link": "http://comment.news.163.com/news2_bbs/D76004520001899O.html",
        "Total": 1762
    },
    "KeyWords": "货车,学校,湖南",
    "URL": "http://news.163.com/18/0102/19/D76004520001899O.html"
}