{
    "URL": "http://news.163.com/17/1229/07/D6QBNGO80001875P.html",
    "Article": "（原标题：男子早起唱歌被骂晚上扎轮胎泄愤被路人阻止拔刀伤人）正义网莆田12月28日电男子早期唱歌被邻居骂,晚上喝酒回家后越想越气,就携刀出门扎轮胎泄愤,遭到路人询问,抽刀将路人刺伤。近日,经福建省莆田市仙游县检察院依法审查后已经决定对男子陈某批准逮捕。2017年9月3日晚上,庄先生与朋友在社区祠堂门前喝茶。晚上22时30分左右,突然传出诡异声音,加上此时风起,让人有种毛骨悚然的感觉。庄先生与朋友在好奇心驱使下寻找“恐怖声音”来源,过了一会儿,终于找到这声音来源——轮胎漏气声。认出这是他们同村一人的汽车,而且晚上就一男子路过,庄先生认定是刚路过那名男子所为。见男子刚离开不久,庄先生与朋友便去追赶,终于在超市门口追到男子。庄先生出口询问男子为什么要刺破轮胎,不想男子当即从背后抽出一把长约30厘米的军刀刺向庄先生。被刺后庄先生立马起身往后跑,但不慎摔倒,男子见状欲再次逞凶,危急时刻庄先生朋友先一步扶起庄先生逃跑。男子追了几十米也没追到二人,随后扬长而去。事后鉴定,庄先生右侧血气胸、右肺挫裂伤及右胸壁皮下气肿,损伤程度为轻伤二级。随着陈某的到案,陈某那奇葩的作案动机也浮出水面。事发当天晚上19时左右,陈某喝完酒回家睡不着,想起早上起床哼了几首歌,被隔壁男子骂神经病,越想越气,就去敲隔壁的门,因无人应答,就回家拿了刀别在后背腰间出去。走到祠堂附近时看到有辆轿车,心情不好加上喝醉了,便用刀刺破轮胎。后庄先生追来,陈某以为他是车主,便刺了庄先生。本文来源：正义网责任编辑：张宪超_NN9310",
    "Source": "Netease",
    "PublishTime": "12/29/201707:29:30",
    "KeyWords": "轮胎,违法犯罪,逮捕",
    "Comment": {
        "Content": "凶手是楼主的干爹 这货应该枪毙。因为他随时可能危害社会！ 故意杀人吧？请死刑 网易的喷子可以360度无死角开喷，习惯就好 这是走火入魔的 垃圾人真多 楼主难道被骂过？这么包庇这个凶手？ 这人心理有问题吧 如果以后谁看见别人的事都不管，那只会生出更多的罪犯，到时候你又说世人太冷漠无情！！！有人行凶你却在这里包庇罪犯，反而指责受害者？？？？ 这两个爱管闲事的真是活该 毙了吧，这号人出来会更加变本加厉报复社会，说不定是下一个火烧公车的凶手 大煞笔 故意杀人罪，重判别出来。 这货应该枪毙。因为他随时可能危害社会！ 你竟然跟喷子讲道理 随身带刀的都是坏蛋耶[暴怒][暴怒][暴怒] 真是一个傻逼 远离垃圾人 垃圾还是不要放粗来 凶手是楼主的干爹 楼主难道被骂过？这么包庇这个凶手？ 这两个爱管闲事的真是活该 [狗][狗][狗] 毙了吧，这号人出来会更加变本加厉报复社会，说不定是下一个火烧公车的凶手 随身带刀的都是坏蛋耶[暴怒][暴怒][暴怒] 为好人加油希望坏人越来越少 大煞笔 支持一楼，在社会里我只相信法官说的 这真的任意妄为 刀是什么样的刀？ 网易的喷子可以360度无死角开喷，习惯就好 故意杀人吧？请死刑 这是走火入魔的 “干”四声？ 这人心理有问题吧 如果以后谁看见别人的事都不管，那只会生出更多的罪犯，到时候你又说世人太冷漠无情！！！有人行凶你却在这里包庇罪犯，反而指责受害者？？？？ 这脾气适合做城管 垃圾人真多 死刑都是便宜他了应该拉去挖煤矿挖一辈子 故意杀人罪，重判别出来。 祸从口出 这真的任意妄为 ",
        "Total": 341,
        "Link": "http://comment.news.163.com/news_shehui7_bbs/D6QBNGO80001875P.html",
        "Reply": 29
    },
    "Title": "男子唱歌被骂扎其轮胎泄愤 路人阻止反拔刀伤人_网易新闻"
}