{
    "URL": "http://news.163.com/17/1229/00/D6PI2OTF00018AOP.html",
    "Article": "（原标题：918888元查干湖头鱼竞拍创纪录！）",
    "Source": "Netease",
    "PublishTime": "12/29/201700:01:02",
    "KeyWords": "查干,旅游节,头鱼,祭湖",
    "Comment": {
        "Content": "买一个大头鱼。 哈哈 我，鱼，打钱 对企业来说是100万广告费值不值！ 是为了间接说明人民币贬值么？ 畸形消费误导产业，一旦跌落，倒霉的是该产业底层从业人员 就想来看看哪个傻X又上了炒作的当? 送俩字，滚蛋。。。你知道重庆吃的鳙鱼，鲢鱼这两种🐠从湖北批发过来多少钱一斤吗？。。。。最后超市才卖几块钱一斤，还包宰杀切块……一样的东西，超市几块钱一斤的玩意，炒你吗个x，傻子才上当 泡泡越吹越大也就离炸掉不远了 吹吧没救了 不用说了，我知道你们的套路 自娱自乐玩的真嗨！鼓掌👏👏👏👏 吹牛不上税。 03年，我在广东打工，电子厂，7点半上班时间晚上9点下班，一个月工资1000出点头，省吃俭用，两个月可以买头鱼，14年过去了，我现在在杭州承承包的某快递装车卸车，手下30人左右，一个月3万左右。我得多少月买的起？ 有意思吗？不够怎么炒作也只是一条鱼，一条非常非常普通的胖头鱼，拍出92万的天价！我想问问：1.有没有实际交易的记录？2.谁拍到了这条天价鱼？3.谁吃了这条天价鱼？4.拍卖得来的钱去哪了？我开始还以为有进一步的说明：这笔拍卖的钱捐助了慈善，然后我太天真了！ 炒接着炒。再加个万。 可以创造一波鱼头期货，开启一波类似于比特币的新行情 还挺hi的 自娱自乐就好 自己玩 卖给傻逼的人 自己拍、自己买，哈哈，这独角戏越演越上瘾了 我身家100万，我爸种的水稻每粒5万元，我买了20粒，不贵… 老铁省。冬季一大特色。泡沫鱼。918888万谁买。100块一条老子都嫌贵 是为了间接说明人民币贬值么？ 畸形消费误导产业，一旦跌落，倒霉的是该产业底层从业人员 我，鱼，打钱 对企业来说是100万广告费值不值！ 买一个大头鱼。 吹牛逼要吹爆 哈哈 吹牛逼不上税啊！ 就想来看看哪个傻X又上了炒作的当? 送俩字，滚蛋。。。你知道重庆吃的鳙鱼，鲢鱼这两种🐠从湖北批发过来多少钱一斤吗？。。。。最后超市才卖几块钱一斤，还包宰杀切块……一样的东西，超市几块钱一斤的玩意，炒你吗个x，傻子才上当 泡泡越吹越大也就离炸掉不远了 吹吧没救了 通胀历害 03年，我在广东打工，电子厂，7点半上班时间晚上9点下班，一个月工资1000出点头，省吃俭用，两个月可以买头鱼，14年过去了，我现在在杭州承承包的某快递装车卸车，手下30人左右，一个月3万左右。我得多少月买的起？ 自娱自乐玩的真嗨！鼓掌👏👏👏👏 恩是的设置成拍卖,底价设置成1元就在一元竞拍里面能找到了哦 这物价涨得伤心了 吹牛不上税。 不用说了，我知道你们的套路 有意思吗？不够怎么炒作也只是一条鱼，一条非常非常普通的胖头鱼，拍出92万的天价！我想问问：1.有没有实际交易的记录？2.谁拍到了这条天价鱼？3.谁吃了这条天价鱼？4.拍卖得来的钱去哪了？我开始还以为有进一步的说明：这笔拍卖的钱捐助了慈善，然后我太天真了！ 切莫回到大跃进哟 我想知道哪个凯子买了 炒接着炒。再加个万。 可以创造一波鱼头期货，开启一波类似于比特币的新行情 还挺hi的 自娱自乐就好 自己玩 卖给傻逼的人 自己拍、自己买，哈哈，这独角戏越演越上瘾了 看到标题内容不看直接来这里。我是那条鱼，打钱！ 我身家100万，我爸种的水稻每粒5万元，我买了20粒，不贵… 老铁省。冬季一大特色。泡沫鱼。918888万谁买。100块一条老子都嫌贵 ",
        "Total": 502,
        "Link": "http://comment.news.163.com/news2_bbs/D6PI2OTF00018AOP.html",
        "Reply": 32
    },
    "Title": "918888元！查干湖头鱼竞拍创纪录 10年前仅7299元_网易新闻"
}