{
    "Comment": {
        "Total": 952,
        "Reply": 142,
        "Link": "http://comment.sports.163.com/sports2_bbs/D74OD9FT00058781.html",
        "Content": "近十年来，左撇子只有梅西一个人可以称得上人物的！！作为一个前锋，如果仅仅只会用左脚，本质上就是残废一个！！！从来不看好什么卢卡裤。。。 小马哥不在左路才有位置，不过博巴真是全能 曼联加油💪 劳尔呢 好这锅发的没毛病多发几个要不然还是有点小尴尬 卢卡库是累的 卢卡库早该轮休了，打的最多比赛的就是他，从来不换下。这么打块头，肯定吃不消。赛季开始是体能充足，后面根本摆脱不了了 罗本呢？ 博格巴：锋线受伤我受益，踢前腰靠近禁区才是你想要的博格巴[微笑] 他们俩是因为累受的伤吗？耶稣是因为意外，丁丁纯粹是被恶意犯规。看不懂就少发言。 博格巴、卢卡库怎么用才是鸟应该考虑的。 雷科巴似仙左脚，苏克的左脚能拉小提琴，哈吉的左脚如鬼魅，卡洛斯左脚大力出奇迹。 一楼说了近十年，楼上几位的语文老师刚给我打电话了，他找你们有事。 技术很好，球商有待提高 曼联加油 波霸再也别防守了 博格巴还好，现在头疼的是卢卡库，还有姆希塔良这两个人，实力是有的，关键是怎么用 你是智障吗？ 嚓你吗的，忘记上半场左前场想过人把自己绊倒了？观众都笑死了还吹你吗小编 你很懂，行了吧！疲劳造成规避动作迟缓、脑子反应不够快，看你洗的…… 跟贴被火星网友带走啦~ 搞得像罗老汉退役了似的。你的数学老师在给你打电话，快接！ 梅西跪下膜拜行吗 怎么网易现没人分析战术的，这场球真是画风突变啊，少了卢卡库反击速度明显加快了，而且也不瞎鸡吧传中了，再说一次，不传中了，前场竟然玩起渗透配，还有波霸果然是踢前腰好用，个人能力释放出来，而且马夏尔也比拉师傅好用，起码不独。 这场赢的关键是反击速度起来了，没有卢卡库、伊布速度快很多！ 贝尔呢 曼联掉队就是从波霸受伤开始的 还有卢卡库。<br>显然鸟的战术需要调整 还有从卢卡库助攻开始的……[不屑] 别人说是曼联天王，和梅西有什么关系？ 踢逆足的罗本被你吃了？ 博格巴未来曼联天王，比C罗强多了 罗老汉内切推车，无人能防 雷科巴，苏克，哈吉，卡洛斯表示很无奈。 梅西是你不知道他会用什么方式过掉你，罗本是全世界都知道他要内切打门，但你就是防不住。 博格巴这场也不是真正意义上的前腰、算是干了半个前腰和半个左边锋的工作，中场自由人，没有过多防守任务的博格巴才算是真正解放了他的进攻属性，以前为什么老是起高球传中找卢卡库？因为中前场一帮人传不好最后一传或者控不住球，传不进去扯不开空间那当然只有起高球找卢卡库，然后指望卢卡库凭借个人能力进球或者二点三点包抄、但是都做得不好。但是昨晚解放博格巴之后看看博格巴在左边路的活动吧，能拿住球能和肖马夏尔林家德玩出配合，还能传出极具想象力的渗透球找到有空间的队友，也能在禁区踩单车晃过对方防守球员爆射球门。这些事情你说曼联队内之前哪个中前场球员能办到？之前曼联进攻最大的问题就是最后一传没人能做好，马夏尔经常面对两三人包夹也非要强行突破，拉仕福德更不说了宁愿往别人身上浪射一脚也不传球。突不进传不进那只有起高球找卢卡库，昨晚博格巴真的奉献了一场教科书式的边路球员应该怎么踢球 里瓦尔多呢？马拉多纳呢？泽罗伯托呢？厄齐尔呢？.... 不看比赛的喷子果然可怕 说的不错。穆帅的球队。边路尤重要。 木鸟：防守！防守！到禁区里边来参与防守！ 曼联加油💪 如果卢卡库上真打不出这场的效果，技术不足，霸气不够，今场的快速传切赏心悦目 [大笑][大笑]怎么回的是裸奔，完全出乎喷狗的意料 这货总能叫人眼前一亮。 罗本呢 罗本呢？ 借鉴下老斯的踢法 一招鲜吃遍天所有人都知道罗老汉内切射门但是人家就是进球你也没招啊4年3进决赛的时候罗老汉一内切后卫和门将都知道要射门了可是人家就是进成功率极高你一点招都没有 一楼说了近十年，楼上几位的语文老师刚给我打电话了，他找你们有事。 技术很好，球商有待提高 曼联加油 说的好像我没看那场比赛一样！耶稣不是跳起着地时自己伤的？丁丁不是疲劳，对方从后方铲球根本伤不到他，或者只是痛一下 梅西真的是偏向使用左脚。估计比起右脚的实力比我也强不了。 贝尔有些玻璃属性[狗][狗] 梅西跪下膜拜行吗 一楼看看恒大全华班就行了。 还有卢卡库。<br>显然鸟的战术需要调整 哈哈哈哈哈 左撇子球员点球VS右撇子守门还是有很大优势做假动作的。 踩单车其实很简单.关键是你要对球有很好的控制力.要是球性不熟.建议:先把球练熟了以后再开始练踩单车.足球技术是有一个渐进的过程. 楼上，我知道吹牛逼不纳税。梅西右脚进球都是你岁数的好几倍了 继续练吧! 这脸打的漂亮 博格巴未来曼联天王，比C罗强多了 罗老汉内切推车，无人能防 早该这么踢了 罗纳尔多那种叫钟摆.不是单车. 博格巴这场也不是真正意义上的前腰、算是干了半个前腰和半个左边锋的工作，中场自由人，没有过多防守任务的博格巴才算是真正解放了他的进攻属性，以前为什么老是起高球传中找卢卡库？因为中前场一帮人传不好最后一传或者控不住球，传不进去扯不开空间那当然只有起高球找卢卡库，然后指望卢卡库凭借个人能力进球或者二点三点包抄、但是都做得不好。但是昨晚解放博格巴之后看看博格巴在左边路的活动吧，能拿住球能和肖马夏尔林家德玩出配合，还能传出极具想象力的渗透球找到有空间的队友，也能在禁区踩单车晃过对方防守球员爆射球门。这些事情你说曼联队内之前哪个中前场球员能办到？之前曼联进攻最大的问题就是最后一传没人能做好，马夏尔经常面对两三人包夹也非要强行突破，拉仕福德更不说了宁愿往别人身上浪射一脚也不传球。突不进传不进那只有起高球找卢卡库，昨晚博格巴真的奉献了一场教科书式的边路球员应该怎么踢球 不看比赛的喷子果然可怕 6楼和8楼的语文老师被气疯。一楼的第一句话到感叹号已经结束，这是基本的语文常识。第二句是“作为一个前锋，如果仅仅只会用左脚，本质上就是残废一个！！！”楼上诸位针对这句话做出的回应有错么？！ 近十年来，左撇子只有梅西一个人可以称得上人物的！！作为一个前锋，如果仅仅只会用左脚，本质上就是残废一个！！！从来不看好什么卢卡裤。。。 小马哥不在左路才有位置，不过博巴真是全能 这是穆里尼奥。 一楼应该加上一句：状态一直稳定高光 c罗不是不会过人的吗？ 你都说了后方铲球了，我就不想说什么了。 罗本呢 博格巴：锋线受伤我受益，踢前腰靠近禁区才是你想要的博格巴[微笑] 楼上，我知道吹牛逼不纳税。梅西右脚进了多少球都是你岁数的好几倍了 贝尔呢 踢逆足的罗本被你吃了？ 哈哈，黑龙犬，你主人在召唤你 波霸再也别防守了 因为别人踩到它的狗尾巴了 你是智障吗？ 曼联必胜。 卢卡库真的是“助攻王” 怎么网易现没人分析战术的，这场球真是画风突变啊，少了卢卡库反击速度明显加快了，而且也不瞎鸡吧传中了，再说一次，不传中了，前场竟然玩起渗透配，还有波霸果然是踢前腰好用，个人能力释放出来，而且马夏尔也比拉师傅好用，起码不独。 曼联掉队就是从波霸受伤开始的 劳尔呢 黑龙犬没关系 里瓦尔多也是左脚匠 我是校长，找我们语文数学老师啥事？现役老师还是退休老师？ 罗老汉就是那三板斧用到退役都会有人抢，但是罗老汉那玻璃体质。。。。 很好很强大 …… 梅西不踩单车，不插花传球，也不nolookpass，是不是他不会啊？ 我觉得莫德里奇左脚也很厉害啊，尤其是外脚背 还有从卢卡库助攻开始的……[不屑] 嚓你吗的，忘记上半场左前场想过人把自己绊倒了？观众都笑死了还吹你吗小编 近10年，272和罗本算个人物了吧，难道在1楼眼里只有梅西的级别才算？这要求也忒高了，古往今来足坛能有几个人物 所以说，喷子的力量是无穷的 穆帅的中场我认为排名是这样的：斯内德，兰帕德，德科，博格巴，莫德里奇 矮脚虎佐拉呢 2B，没看比赛，他能说那个坐球车吗？到底谁没看比赛！ 靠，怎么网易现没人分析战术的，这场球真是画风突变啊，少了卢卡库反击速度明显加快了，而且也不瞎鸡吧传中了，再说一次，不传中了，前场竟然玩起渗透配，还有波霸果然是踢前腰好用，个人能力释放出来，而且马夏尔也比拉师傅好用，起码不独。 上面五大中场，老子最担心的就是博格巴，因为只有他才是黑人。 罗本呢？ 你说的是那个所有人都知道他要内切射门却挡不住的那个？ 博格巴、卢卡库怎么用才是鸟应该考虑的。 别来给c罗和波霸招黑，都不是一个位置的 哈哈哈哈哈哈哈哈(ಡωಡ)hiahiahia 这个家伙就是有点托大。踢后腰位置经常被抢断。如果他真的在这个位置发挥了作用。曼联真的就不用找前场球员了。 [喷水]垃圾博格巴 你为毛打一楼的脸啪啪啪这么响。 前锋要速度快射术好的，就像当年米粒托和埃托奥一样，伊布只能打阵地战，卢卡库有速度但脚下技术不细腻，容易思考人生，头球有比埃尔霍夫那个水平就不得鸟了。所以说要不买前锋，要不让马夏尔当前锋，或者打双前锋。而且后防线上人员经常伤停，主力阵容固定不下来，这也是问题，还好有德黑鸭。只要不进小禁区，你休想射进。 跟梅西平起平坐！ 都是你老婆的支持 梅西跪下膜拜行吗 德科应该排第二 孔卡呢？让你吃了？ 一楼才看球的大家不要对他这么苛刻嘛刚上幼儿园的人怎么会懂加减法嘛 还有从卢卡库助攻开始的……[不屑] 这两球传的很普通吧，还能吹上天 大渣好！我是渣渣辉，和我一起来玩传奇吧，送你麻痹！起来嗨！ 这样看来迪巴拉还是很有必要啊。。。。曼联可以进攻像利物浦防守依然这么稳的 当劳尔吃素的啊 别人说是曼联天王，和梅西有什么关系？ 一招鲜吃遍天，罗老汉凭借着突突突，内切，射门，成为了一流前锋 厄齐尔呢？ 博格巴未来曼联天王，比C罗强多了 贝尔呢？ 范佩西呢 嚓你吗的，忘记上半场左前场想过人把自己绊倒了？观众都笑死了还吹你吗小编 等于说失误一次就不能吹了 罗本要是不是玻璃体制，也是梅罗一类的人物了 近十年来，左撇子只有梅西一个人可以称得上人物的！！作为一个前锋，如果仅仅只会用左脚，本质上就是残废一个！！！从来不看好什么卢卡裤。。。 呵呵，拉倒吧，别的我不管，莫德里奇无论如何不会排到最后 范佩西呢？ 黑人不黑人无所谓，因为的确有厉害的黑人足球运动员，但是本赛季，博格巴伤停，停赛，低迷，他真能打出他的身价，怎么会跟曼城有那么大的比分差距？粘球的毛病时有时无，不值1亿 老子呢 席尔瓦 不说足球先生，先拿个英超荣誉全满冠再来黑吧，大儿子。 智障二中2b班250号[大笑] 大卫席瓦尔呢 罗本还可以，贝尔就算了吧 靠这货？暂时先持保留意见，如果是维埃拉那种性格的法国黑人我还信。 博格巴就是球盲过滤器，我魔复兴基石，其实曼城费尔南迪尼奥换成博格巴，那就无敌了 博格巴还好，现在头疼的是卢卡库，还有姆希塔良这两个人，实力是有的，关键是怎么用 你是智障吗？ 贝尔呢 范佩西 这场赢的关键是反击速度起来了，没有卢卡库、伊布速度快很多！ 曼联掉队就是从波霸受伤开始的 真的是没看球最近博格巴的表现真的好 迪巴拉呢？ 不看比赛的喷子果然可怕 范佩西呢 梅西是你不知道他会用什么方式过掉你，罗本是全世界都知道他要内切打门，但你就是防不住。 6666 别人说梅西跪拜，跟你有什么关系？ 里瓦尔多呢？马拉多纳呢？泽罗伯托呢？厄齐尔呢？.... 老汉内射，不，内切，世界第一 狗屁用，前三场他干嘛去了？本赛季，伤，停，低迷，一场比赛出彩就吹？ 冷静的他真的可怕，但是关键场次还是不太稳重 好大好大就是 两个世界波，和博格巴有个鸡毛关系 又开始吹了 捧了杀杀了捧小编就不能实际一点！ 好这锅发的没毛病多发几个要不然还是有点小尴尬 已投诉手动滑稽 状态太差了 这家伙出场稳定一点，曼联还是打的出来的 "
    },
    "Title": "曼联波神带你玩天赋足球!脚腕助攻+插花+踩单车_网易体育",
    "KeyWords": "博格巴,曼联,埃弗顿",
    "Article": "网易体育1月2日报道：曼联近期过得很不顺，不仅在成绩和进攻表现上不佳还连续遭遇到伤病，面对质疑和人员缺损，穆里尼奥在对埃弗顿的比赛中对进攻组合做出了大幅度的调整，首先是解放博格巴，让博格巴不再有防守任务，其次是让马夏尔出任中锋。这两个调整收到了很好的效果，是曼联2-0击败埃弗顿的关键。穆里尼奥上赛季也解放过博格巴，上赛季一度给博格巴连续踢前腰的机会，但博格巴在前腰位置上表现很糟糕，最终穆里尼奥又把博格巴挪回了后腰位置。和埃弗顿的比赛，穆里尼奥让埃雷拉和马蒂奇搭档后腰解放博格巴，但没有让博格巴踢前腰，而是安排博格巴踢一个类似左边前卫的位置，看起来博格巴踢这个位置有些不合适，但在新位置上博格巴有不错的表现。博格巴的直接贡献是两次助攻，第57分钟，博格巴左路带球突破后横传，无人防守的马夏尔大禁区线前停球后右脚射门，球飞入右上角，曼联1-0领先埃弗顿。马夏尔在射门时无人防守，和博格巴的突破有一定关系，博格巴的突破把埃弗顿的人都压入了禁区，导致禁区前沿没有埃弗顿球员保护。随后博格巴再次在左路传球助攻林加德，当然这个进球林加德的个人能力是决定性因素，博格巴是刷了数据。除了这两次助攻外，博格巴其他时候在左路的进攻表现也可圈可点，在没了防守任务且更接近对方球门后，博格巴充分发挥了自己拿球、带球好的特点，经常能在边路带球杀入埃弗顿的禁区。在比赛初期，博格巴在这个位置还有点不习惯，和马夏尔、卢克-肖的配合也还有点问题，但经过上半场45分钟的熟悉后，下半场博格巴就在左边路彻底打开。在完成一次助攻后，博格巴踢得更加地轻松，开启了个人的技术秀，第61分钟，博格巴在面对戴维斯和施耐德林的夹防中，突然来了一个C罗式的插花脚传球动作，准确找到了前插的马夏尔。从回放来看，19岁的戴维斯对于这样的传球完全没想到，他显得有些懵，先是看看马夏尔再回头看看博格巴，一脸地吃惊。第63分钟，博格巴再次从左路杀入禁区，面对曾一同在曼联青年队踢球的迈克尔-基恩，博格巴用漂亮地踩单车动作晃出了角度，然后右脚抽射，虽然球最后被皮克福德扑出，但博格巴的这次禁区内的摆脱过人又很像C罗。在本场完成两次助攻后，博格巴本赛季的助攻数已上升到了7个，成为队内助攻王，也超越了他上赛季的6次助攻。本赛季博格巴一直没有机会展现他的全部进攻才华，当本场比赛他被解放后，他就立刻爆发，此前数场比赛曼联在进攻端表现非常糟糕，博格巴也因此饱受质疑，但博格巴并不是没有进攻的才华，他需要的是更多的自由空间和更少的防守任务，本场穆里尼奥给了博格巴想要的东西，博格巴立刻给予了回报。如果博格巴每一场都能有本场这样的表现，那穆里尼奥就不需要为进攻担忧了。本文来源：网易体育作者：恒山责任编辑：朱楷正_NS4807",
    "URL": "http://sports.163.com/18/0102/08/D74OD9FT00058781.html",
    "PublishTime": "01/02/201808:23:30",
    "Source": "Netease"
}