{
    "Article": "（原标题：原广州军区后勤部政委刘智民中将逝世，享年90岁）刘智民12月29日，澎湃新闻记者从刘智民将军亲友处获悉，原广州军区后勤部政委刘智民中将12月26日在广州逝世，享年90岁。公开简历显示，刘智民出生于1927年，山东荣成人，1941年11月参加革命，1943年10月加入中国共产党，此后在东海军分区独立团、胶东军区第五师服役。解放战争时期，刘智民先后在辽东军区直属第二支队、东北民主联军第四纵队、东北野战军第41军、广西军区任职。在东北工作期间，刘智民他先后参加过三保本溪、四保临江和新开岭歼灭国民党第25师的作战，还曾参与了辽沈战役中著名的塔山阻击战。中华人民共和国成立后，刘智民先后在原中南军区政治部组织部、原广州军区政治部组织部任职，后出任原第41军123师政治部主任，师副政委，师政委。1969年8月，刘智民出任原第41军政治部主任，后改任军副政委兼政治部主任。1972年11月，刘智民调任原总政治部干部部副部长，1980年7月任原广州军区后勤部副政委，1983年3月任原广州军区后勤部政委（正军职），1993年6月离休。1955年，刘智民被授予少校军衔，同时被授予三级独立自由勋章和三级解放勋章。1958年晋升为中校军衔，1964年2月晋升为上校军衔。1988年8月，刘智民晋升为中将军衔。本文来源：澎湃新闻责任编辑：何雨芳_NN5632",
    "URL": "http://news.163.com/17/1229/12/D6QRAMI4000187VE.html",
    "Source": "Netease",
    "KeyWords": "广州军区,刘智民,中将,军衔",
    "Comment": {
        "Reply": 6,
        "Link": "http://comment.news.163.com/news2_bbs/D6QRAMI4000187VE.html",
        "Total": 98,
        "Content": "老首长一路走好 老将军走好 老前辈，走好 老将军走好 一路走好 都是高寿 老首长一路走好 老将军走好 老前辈，走好 老将军走好 一路走好 都是高寿 "
    },
    "Title": "原广州军区后勤部政委刘智民中将逝世 享年90岁_网易新闻",
    "PublishTime": "12/29/201711:54:00"
}