{
    "Article": "网易娱乐1月4日报道徐静蕾在微博晒出一张14岁的旧照，并配文：“什么都不是问题、除非自己觉得是个问题。新年本来有些事不开心可是鉴于必须让自己真开心因为这是必须必须要有的能力，所以就开心了。能力很强虽然长了一个好大好大的大包。喝醉的人最接近真理，因为我十四岁就已经是这个德行样儿。”照片中，徐静蕾身穿一件条纹上衣，配上一头短发，十分稚嫩。有网友好奇道：“旁边这位挺美”，徐静蕾回复该网友：“我同学里那是美女如云呢”。网友们纷纷评论道：“360度无死角震撼，180度完美体现，90度气场直击，0度无可挑剔。总结完毕，谢谢。”“没乐自己找乐！没事偷着乐！过得潇洒，活得真实！”“从小美到大！除了你还有谁？”徐静蕾也一一回复了大家：“说得怎么那么对？哈哈”“真的，没有人能帮咱们，除了咱们自己。”“那必须啊长这么好看还需要整么哈哈哈哈”本文来源：网易娱乐责任编辑：张楠_NK4501",
    "URL": "http://ent.163.com/18/0104/05/D79IC6Q000038FO9.html",
    "KeyWords": "徐静蕾,短发,美女",
    "PublishTime": "01/04/201805:14:15",
    "Title": "徐静蕾借酒消愁 晒照自称“14岁就是这个德行样”_网易娱乐",
    "Comment": {
        "Content": "啥开不开心的，闭眼瞎过呗 国妓脏算什么？ 老徐，好久不见。 年龄大啦，寂寞了。 一脑门子叉号 不管咋样，我还是想坐坐 绿茶婊的灭绝师太 00后吧？ 太松，小心你整个人都被吸进去 徐静蕾演过啥？怎么出的名？ 首先你得准备几瓶营养快线 北京著名公交车 我也想向王朔同志战斗过的地方致敬。 旁边的像刘晓庆好看 得不到就诋毁没意思 徐一亿现在微博多少粉丝了？ 过的潇洒肆意，也挺好啊 求解答 滴，学生卡 能跟全国著名的范公交有的一比？ 注意包裹严实，小心病毒。 起码比五五开家的那个共享单车强 啥开不开心的，闭眼瞎过呗 徐静蕾演过啥？怎么出的名？ 国妓脏算什么？ 得不到就诋毁没意思 徐一亿现在微博多少粉丝了？ 一脑门子叉号 不管咋样，我还是想坐坐 难不成是宇宙黑洞？ 00后吧？ 太松，小心你整个人都被吸进去 比国妓脏？ 首先你得准备几瓶营养快线 北京著名公交车 旁边的像刘晓庆好看 毫无女人味的女人[喷水] 没发现那（两）个好大好大的大包。。。 老徐，好久不见。 年龄大啦，寂寞了。 过的潇洒肆意，也挺好啊 求解答 滴，学生卡 能跟全国著名的范公交有的一比？ 乏味的女人。。。 上面两位真比不上徐 注意包裹严实，小心病毒。 起码比五五开家的那个共享单车强 绿茶婊的灭绝师太 囖有 同问！！ ",
        "Link": "http://comment.ent.163.com/ent2_bbs/D79IC6Q000038FO9.html",
        "Total": 419,
        "Reply": 30
    },
    "Source": "Netease"
}