{
    "Source": "Netease",
    "PublishTime": "12/26/201707:50:00",
    "KeyWords": "世界卫生组织,精神病,成瘾,游戏",
    "Title": "打游戏成瘾将被视为精神病？世界卫生组织发话了_网易新闻",
    "Comment": {
        "Link": "http://comment.news.163.com/news_junshi_bbs/D6IM63HG000181KN.html",
        "Total": 19,
        "Content": "直接规定：限制小学生玩游戏。 谁再玩游戏，就有理由进行强制治疗了 直接规定.限制小学生玩游戏的时间.多好啊. 什么东西过度都是病，岂止是打游戏一项，所以说故意夸大其词的人才最可恶。 直接规定：限制小学生玩游戏。 什么东西过度都是病，岂止是打游戏一项，所以说故意夸大其词的人才最可恶。 谁再玩游戏，就有理由进行强制治疗了 挽尊 直接规定.限制小学生玩游戏的时间.多好啊. 长时间加班是不是精神病？？？ 某日，小编闯入本市最大网吧，大喊：在座的都是精神病。 ",
        "Reply": 7
    },
    "Article": "（原标题：打游戏成瘾将被视为精神病？！世界卫生组织发话了...）【环球网综合报道】世界卫生组织(WHO)计划于明年发表的诊断手册《国际疾病分类》(ICD)中，首次纳入“游戏障碍”(GamingDisorder)，意味打游戏成瘾或将正式成为心理疾患的一种。香港东网12月26日报道称，世界卫生组织在监控计算机游戏长达10年后，决定将部分过度沉迷游戏的玩家视为精神病患者，虽然有关草案的措词尚未定案，但已列出临床医生判断是否患病的标准。根据草案，若将游戏置于其余生活关注(lifeinterests)之上，便有机会患上“游戏障碍”，但确诊则需要持续有关行为长达1年或以上。世界卫生组织心理健康及药物滥用部门成员波兹尼亚克(VladimirPoznyak)称，医学专家需要意识到，打游戏成瘾可对健康造成严重后果。他说，“多数电子游戏玩家并无问题，正如喜欢饮酒的人亦不一定会酒精成瘾，但在特定情况下，过度的行为会导致不良影响。”本文来源：环球时报-环球网。更多精彩，请登录环球网http://www.huanqiu.com责任编辑：姬雪莹_NN6784",
    "URL": "http://war.163.com/17/1226/07/D6IM63HG000181KN.html"
}