{
    "Article": "（原标题：辽宁男子欲拍保姆裸照勒索发生数次关系后杀了）一男子买彩票输光积蓄，竟然想下药迷晕女保姆，然后拍裸照勒索钱财。男子顺利招到一位58岁的女保姆，将对方迷晕剪开衣服后，男子并没有给对方拍裸照，而是与对方发生数次性关系。最后，男子用电棍、砖头将女保姆砸倒，用胶带封住对方口鼻，然后将女保姆封于炕洞里，致被害人因机械性窒息死亡。男子自杀不成主动投案，被法院判处死刑缓期执行。男子欲迷晕女保姆拍裸照勒索钱财1976年出生的卢某在大连瓦房店打工过程中，因痴迷彩票，把钱都输光了，于是想到骗个女保姆到出租房内，用迷药将其迷倒，然后通过给保姆拍裸照的方式勒索钱财。2016年9月21日9时24分，卢某在瓦房店一微友群发布找保姆消息，当天，58岁的曲某通过微信与卢某谈好了当保姆的事。卢某事先把胶带以及从网上买的手铐、铁链放到电视柜里。网络配图第二天18时许，卢某将曲某接到租房内，卢某趁对方不注意，将买来的迷药放在曲某喝的饮料里，曲某喝完后就躺在炕上睡着了。当天21时许，卢某看曲某睡熟，就想拍裸照。发生性关系后残忍杀害女保姆卢某用剪刀将曲某衣服剪开后，卢某称曲某突然醒了过来，随后两人发生了性关系。当晚至第二天天亮，卢某说两人又发生了两次性关系，因曲某跟他发生性关系，就不想敲诈她了。2016年9月23日中午11时许，两人吃完饭后因钱发生了争执，“我于是想弄死她。”当时躺在炕上的曲某想要坐起来，站在地上的卢某拿起电视柜上的电棍打在曲某后脖子上，电棍断了，曲某仰面躺了下去。曲某又到灶台下面拿了半截砖头，将曲某脑袋转到一边，用砖头打了曲某后脑几下。然后卢某用手铐把曲某双手从后背铐上，用铁链把曲某腿绑上，用胶带把曲某嘴封上。网图之后卢某用胶带把曲某口鼻眼睛封上了，并把炕上一块水泥板打开，将曲某放进了炕洞里，然后用水和泥将水泥板缝隙封上。男子称自杀未遂投案自首卢某将曲某的手机以及自己的手机卖出后，乘车来到大连市内，他在一个旅店睡了一宿。2016年9月24日早晨，卢某称他带着安眠药，买了一瓶酒上了山，他吃了200多片安眠药并喝了点白酒，睡了过去。9月27日卢某醒了，发现自己没死成，就下山找了个警车自首了。卢某，老家在辽宁省西丰县。曾因犯敲诈勒索罪，于2007年9月14日被辽宁省西丰县人民法院判处有期徒刑三年，2010年3月8日刑满释放。卢某于2016年9月28日被刑事拘留，同年10月12日被逮捕。2017年4月7日，大连市人民检察院以犯故意杀人罪对卢某提起公诉。公诉机关指控，“卢某出于勒索钱财的目的，于2016年9月22日18时许，将曲某骗至瓦房店市某屯18号其租住的房屋内。因勒索不成担心曲某报警，2016年9月23日中午，卢某用电棍、砖头击打曲某后颈部，用事先准备好的手铐、铁链将曲某手脚锁住，用胶带将曲某的嘴鼻部封住之后，将曲某弃于屋内事先挖好的炕洞内，并用水泥将炕洞封死。后卢某将曲某的一部iphone6手机拿走后卖掉。经鉴定，曲某因机械性窒息死亡，iphone6手机估价为人民币1600元。”犯故意杀人罪被判处死刑缓期执行公诉机关认为，卢某采取暴力手段故意剥夺他人生命，造成一人死亡的严重后果，应当以故意杀人罪追究其刑事责任。卢某对起诉书指控的事实和罪名均无异议。其指定辩护人认为，卢某自动投案，到案后如实供述犯罪事实，构成自首，请求对其从轻或减轻处罚。2016年9月27日，卢某在甘井子区王家桥十字路口附近向正在巡逻的民警投案，到案后如实供述了自己的犯罪事实。法院审理后认为，卢某故意非法剥夺他人生命，造成一人死亡的严重后果，严重侵犯了公民的生命权利，破坏了社会治安秩序，已构成故意杀人罪。卢某故意杀害与其并无积怨的被害人，罪行极其严重，论罪应当判处死刑，但鉴于被告人自动投案，到案后能够如实供述自己的罪行，构成自首，对其判处死刑，可不立即执行。法院判决卢某犯故意杀人罪，判处死刑，缓期二年执行，剥夺政治权利终身。本文来源：辽沈晚报责任编辑：李天奕_NN7528",
    "PublishTime": "01/03/201808:52:18",
    "URL": "http://news.163.com/18/0103/08/D77CENT50001875P.html",
    "Source": "Netease",
    "Comment": {
        "Content": "难道没有死刑罪了，这样的畜生留他何用?还想出来祸害人吗？ 难道你家里长辈有经验？ 总是刷网易，眼都瞎了！ 不立刻执行死刑是放纵犯罪。 76年的强奸58岁的，我也是醉了 大家都是一样的货色！ 迷昏这两个字对换完全是不一样的意思 以为是男的被保姆…… 还是有区别的，鬼子不上那么老的 我也是这样才点进来的，同道之人还不少 原来我也不是一个人[喷水] 这么残忍故意杀人，为什么不死刑！ 你不是一个人😂 58岁也不放过，跟小鬼子有啥区别！ 看来我也是 跟贴被火星网友带走啦~ 什么几把法官 这都不死刑，狗屁啊😡️ 某宝 男子迷昏女保姆欲拍裸照发生数次关系后将其杀害<br>我看成了：<br>男子昏迷女保姆欲拍裸照发生数次关系后将其杀害 我也是 人都死了，你想怎么说就怎么说。 那些抢劫杀人的，大都是坐过牢的渣子！要学古代脸上刺字！一看就知道！也有所防备！好人变坏容易！坏人变好难啊！ 啥法律？这还缓刑？ 那么问题来了迷药哪里买？ 这尼玛跟日本人有个毛关系 彩票是罪魁祸首，为什么不查封彩票？ 比小鬼子残忍多了 看了三遍 你们撸多了么 东北人跟野蛮人有什么区别 那是你不知道 对不起，我是东北人，我不会这么做。这样的也是垃圾，丢人了，真的对不起。希望我这个东北人能多少让您觉得我们也有点好人，谢谢 东北是个好地方 只是发生关系，没说是强奸 凭什么不判死刑立即执行？ 可以的，还最低还款就不算逾期了，没有违约金。只是未还的部分会有利息，有钱还是早点还清。 看来要戒撸了 都在路上 我还看了好几次标题，都看成昏迷 看了好几遍才发现两句的区别，我这眼神也不灵了 有没有哪位老哥知道信用卡的，信用卡刷爆了，账单还款日要来了，我提前还了最低额度，那请问下还款日我还需要还款吗？可以一直还最低额度吗？ 为什么缓期..直接枪毙得了 墙都不扶就服你 大家都不孤独 这算虐杀了吧？竟然没有死刑！还只靠它一个的口供……法律对民间犯罪真宽容！ 卧槽，原来不止我一个人。戒色吧去三个月吧。 小鬼子绝对比苏联兵好！不信去问问东北人！ 我只能说你选择离开那个地方是对的，别再回去了 你这个错了，我不会因为别人连自己家乡都不认，谢谢你的建议，我会努力。因为你们。我才会进步，也希望自己能改变一下别人对我们的看法 男子迷昏女保姆欲拍裸照发生数次关系后将其杀害<br>我看成了：<br>男子昏迷女保姆欲拍裸照发生数次关系后将其杀害 上官馆？ 两个人都是为了钱…… 我看成：男子迷昏，女保姆欲拍裸照发生数次关系后将其杀害 原来吃200片安定片也死不了，怪不得上次我吃了100片没用，就睡了差不多两三天的样子就醒了 不是一个人 游戏害了多少青少年？为何不封杀？ 那白山黑水，旅游挨宰，老太太挨搡。佛祖；收了那群妖孽吧！ 缓期是依据什么 还有我，我以为女保姆犯事儿了 666666。 你不是一个人😂 58岁也不放过，跟小鬼子有啥区别！ 越是人渣越死不了？ 鬼子到东北可会挑了，土掉渣东北大妈都不要。<br>蛾毛了连81岁都不放过。 不久前新闻报道说一男子酒后在公厕强奸80多岁的老太太，人变态还是社会变态？ 兲国还能买到真货？ 没钱去拍快手视频啊干这傻事太尼玛残忍了 看来眼花的不止我一个 是老妇要求多次好不好！！！ 我看成了“男子昏迷女保姆欲拍裸照发生数次关系后将其杀害”ｸﾞｯ!(๑•̀ㅂ•́)و✧ 死缓？坚决反对无良法院判决，要立即判处死刑立即执行！杀人偿命，天经地义！ 垃圾就是垃圾，没有什么好说的。 [喷水][喷水][喷水] 彩票是罪魁祸首，为什么不查封彩票？ 所以还是把有限的经费放在防止，又穷又懒又乱上的农民犯罪上面。<br>5000年的历史经验教训证明，又穷又懒又烂生的农民造成的危害比外敌入侵，更惨重！<br>珍惜生命，远离农民！ 比小鬼子残忍多了 算我一个 六年前我工作如意称心每年都有点存款，这六年来我是要钱没钱要老婆没老婆，猪肉涨价了，清菜白米也涨价了，所有吃喝拉撒衣食住行都涨价了，我还真的打算到公园里搭帐篷住了，别说买房，TMD很快连房租都交不起了[大哭] 我也是[窃笑] 不久前有条新闻报道说一男子酒后在公厕强奸80多岁的老太太，人变态还是社会变态？ 东北人跟野蛮人有什么区别 58岁也上。。。。 千刀万剐！兽类不如。令人发指。 3进宫的人都是教育不好的了，建议直接死刑了把 对不起，我是东北人，我不会这么做。这样的也是垃圾，丢人了，真的对不起。希望我这个东北人能多少让您觉得我们也有点好人，谢谢 金钱是万恶之源，为什么不把人民币全部销毁 凭什么不判死刑立即执行？ 为什么要缓期？罪大恶极的犯罪还缓期？ 这弯有点急啊 [惊讶]还以为就我自己看成这样了 为了让有些人能够自首，你要是自首还死刑立即执行，谁要自首啊。。。无奈 信息量太大 一夜发生了两次性行为，23号中午吃饭才被杀，这中间有有多少事情呀，只要不是一直被看管或软禁，应该都是有求救的机会，为什么没有逃跑，？？？？ 买了假冒安眠药。呵呵눈_눈。 我也看成昏迷了。就想看看男主昏迷了怎么那啥的 妈蛋，大部队在这，我来晚了 很难理解已经闭经的老妇，如何下得去屌，而且能先后做三次，这得有多饥渴 凶手是不是又是农民？ 有多少人跟我一样看成【男子昏迷。。。女保姆欲拍裸照】 老妇久旱逢甘露！！！要求刁多俩次。 请全品关注：歹人用最为先进的生化剧毒，投毒，致人残，互文人死，而逃脱法律的制裁！无色无味，不知不觉！法网恢恢！ 为什么不是死刑啊？ 骂别人干啥😂 立即枪毙 金币 男子迷昏女保姆欲拍裸照发生数次关系后将其杀害<br>我看成了：<br>男子昏迷女保姆欲拍裸照发生数次关系后将其杀害 这种情形也死缓？为什么？ 小编标题奸计得逞了 软柿子似的中国法律！真是个笑话！搞得好人不好，坏人不坏…… 自首可以免除其部分或全部责任 法律对罪犯向来比较宽容,所以现在的社会你永远不要成为被害者. 孙悟空不会同意的。 卖安眠药的也坑人 这种还缓刑怎么判的 这么残忍故意杀人，为什么不死刑！ 你不是一个人😂 58岁也不放过，跟小鬼子有啥区别！ 要是这么严重的故意杀人都判不了死刑，那大家还怕什么？让傻逼们的依法治国玩蛋去吧！ 自首可以免除其部分或全部责任 那一片就是奉天县城的小鬼子 其实我也看成了那样！ 58岁！！！这男的真下得了屌 充分体现我国法律的仁慈 丧心病狂 这样才死缓？机械性窒息，多难受？活埋这货都不为过！希望法官火化的时候活过来，祝好！ 这算虐杀了吧？竟然没有死刑！还只靠它一个的口供……法律对民间犯罪真宽容！ 同上 彩票是罪魁祸首，为什么不查封彩票？ 一样， 比小鬼子残忍多了 剧情跌宕起伏，悬念迭起...最后大跌眼镜！ 口味挺重啊 贴呢？ 自觉排队！ 反正就是死了别的不重要[窃笑] 假药多啊，吃了200多片安眠药都死不了。 那么问题来了，二楼三楼是啥？ 留着，挺好，犯多大的罪恶也没有死刑，然后在继续犯罪 难道强奸抢劫故意杀人然后去自首就可以缓刑？再表现好点关个几年就出来了？那么好 莫非有病 这么残忍故意杀人，为什么不死刑！ 主动投案 凭什么不判死刑立即执行？ 自首可以免除其部分或全部责任。 买彩票输光积蓄，这肯定是我们网易辉哥的忠实粉 买彩票输光积蓄，这肯定是我们网易辉哥的忠实粉 看成“男子昏迷女保姆欲拍裸照发生数次关系后将其杀害”了 中国法律向来都是对重罪的轻判，对轻罪的重判，淘鸟窝就是十年 理解不了 我也是 为什么不是死刑都这么残忍 唉，破坏行规 ＋一 +1 男子迷昏女保姆欲拍裸照发生数次关系后将其杀害<br>我看成了：<br>男子昏迷女保姆欲拍裸照发生数次关系后将其杀害 这样都不死，够可以的啊 200粒安眠药没死[喷水][喷水][喷水] 什么死缓？狗屁！直接死刑！这种惯犯又是杀人，还不直接死刑吗？ 人渣 呵呵 什么死缓？狗屁！直接死刑！这种惯犯又是杀人，还不直接死刑吗？ 为什么？为什么？为什么？我TM也想知道！ 这种蠢逼，吃两百片安眠药都没死，连自杀的能力都不具备，你们就帮帮他，枪毙了算了，成全他！ 对那些凶残的罪犯和大贪官们，死刑还是十分必要的，如果真的不判他们死刑，就判他们终身监禁、终身镣铐，进火葬场前卸下，给下一任这样的罪犯和贪官戴上。 不是一样的吗 这么残忍故意杀人，为什么不死刑！ 这种属于累犯，性质极其恶劣，居然缓刑 58岁保姆用苹果6手机？这个保姆啥价位？ 苹果6才值1600块钱， 杀无赦 安眠药是淘宝买的吧？😁😁 敏煮的光辉，自由的郭杜，来世还做美郭人?[狗][狗][狗] 这么残忍故意杀人，为什么不死刑！ 我看了好几遍也是看成这个的。。。。还在想，现在男人也不安全啊 不一样。。。。反了 都是撸多了烟花[大笑] 你这话挺真诚，看来你和这个败类确实不一样 因痴迷彩票，把钱都输光了。<br>小编用词能准确点吗？为四化做贡献怎么能叫输呢？！！！ 200粒安眠药都没有死啊 58岁？重口味…… 这么残忍故意杀人，为什么不死刑！ FAD系列的 非要等罪犯出狱后把某法官的老婆杀了才会立即执行，平民百姓就死得这么冤！这种人（罪犯缓刑两年）留着就是浪费粮食…… 不自首，警察怎么抓的到犯人。。。。。 你也是不一个人 尼玛，结结实实看了六次才发现不同点 居然是自愿发生关系？没有强奸？ 对不起，我是东北人，我不会这么做。这样的也是垃圾，丢人了，真的对不起。希望我这个东北人能多少让您觉得我们也有点好人，谢谢 这个标题也是醉了！ 你不是一个人😂 那么问题来了，二楼三楼是啥？ 东北人跟野蛮人有什么区别 药加鑫也自首了 这种人不死刑法律有什么用 这还死缓 故事会吗 量刑太轻，只要杀人就自首，可以不死， 凭什么不判死刑立即执行？ 不能一棍子打死，人分好坏，安能地域？ 这种人该千刀万剐，为什么不判死刑 我也是。 杀了人，只要自首，就可以不死？这就是中国的几吧法律！ 所以啊，不是所有自首都会死缓 我看了三遍才找到两句的不同，没救了 人因机械性窒息死亡。男子自杀不成主动投案，被 我也看错了[喷水] +1 男子迷昏女保姆欲拍裸照发生数次关系后将其杀害<br>我看成了：<br>男子昏迷女保姆欲拍裸照发生数次关系后将其杀害 76年的强奸58岁的，我也是醉了 血的教训啊！以后不要买彩票了！ 艹， 是狠 这女的是找死的吗？发生关系前，她醒了，然后一晚上两次！第二天中午俩人儿居然还吃了个饭...然后危机关头还谈上钱了... 这么残忍故意杀人，为什么不死刑！ 你不是一个人😂 58岁也不放过，跟小鬼子有啥区别！ 杀人偿命天经地义，凭什么不枪毙？ 这也能从轻？ 保姆、58岁、爱凤6！ 迷药好用，安眠药疑似买的假的[大笑] 杀人不死刑，服了 这智商！！！<br>打算抢劫保姆，能给人做保姆，会有多少家底？？<br>在微信群里找的保姆，众目睽睽，保姆失踪了肯定找你！<br>迷晕保姆，先强行发生一次关系，保姆醒来后，俩人又发生两次关系，说明保姆对第一次并没当做强奸，此时，男的还是安全的没犯罪的，最起码女的不告你你就还不是罪犯！<br>第二天，俩人吃饭，为饭钱产生争执，这男的也是既穷又无脑，你把人家奸了，估计也就是吃个十来块的家常便饭，还为这个起争执，然后用砖把人拍死！<br><br>这傻逼，早点枪毙了，别说祸害社会，就是抢劫，也是业内的败类、蠢货！ 死刑后没人自首了。因为这个案件估计都没立案 会不会是我前男友他爹啊？也姓卢，也在大连[挨揍] 比小鬼子残忍多了 去应聘发现自己被人下药还捆绑了，这女人心得多大才会自愿与给她下药，绑她的人发生性关系？ 因为他做了慈善事业，买的福利彩票，不是体彩！买体彩就是喂男足那帮不争气的狗！ 58岁...畜生。 有自首情节，这点设置的非常好。 58岁的保姆都不安全了😂 确定是58岁？ 畜生不如…… 你们不是两个人[大笑] 死刑 只是发生关系，没说是强奸 那么问题来了，二楼三楼是啥？ 不一样 58岁 同样 东北大哥！ 苦、空、无常、无我 你们看看看看你呢 如何确认自愿？靠凶手自己的口供？ 凭什么不判死刑立即执行？ 没想到女保姆58岁了，性欲还这么强，这凶手也是饥不择食，58岁女保姆还能有水出？ 难道现在连口供都不能靠？ 我也是 一群人的跟上[大笑] 信息量很大啊 很黄很暴力 这就是啊 小鬼子是对外狠 58岁 这造假药的连安眠药都不放过[惊讶] 怎么写的，没看明白，发生数次性关系，按下数吗？ 口味很重 杀的是公职人员试试 男子迷昏女保姆欲拍裸照发生数次关系后将其杀害<br>我看成了：<br>男子昏迷女保姆欲拍裸照发生数次关系后将其杀害 吃200片安眠药睡一觉还能醒过来，估计是买到了伪劣的安眠药了！ 残忍杀人不死刑，假药坑人毒不死 中福在线连环夺宝比老虎机还厉害 因为你们是男的，潜意识受虐倾向，天天想被女人强的好事落自己头上。 他是干啥把钱搞没的[微笑] 我看成男子昏迷女保姆欲拍裸照…… 花甲大娘都啃得落，真系好胃口 这算是奸杀吧 我也是 终于一炮成功可到地狱 难道花钱了？？？？？？？？？？ 赵本山的老乡-西丰县人 两百多片安眠药吃下去没死醒过来了[被黑][被黑][被黑] 你不是一个人😂 放虎归山，后患无穷。 在不戒撸,什么都看不见了,哎. 这都不死刑，狗屁啊😡️ 畜生 这么残忍故意杀人，为什么不死刑！ 我就觉得不可能嘛 那个地方的人真牛! 尼玛，我看了好几遍才看清哪里不一样，天冷了，脑子运行的慢了 这算虐杀了吧？竟然没有死刑！还只靠它一个的口供……法律对民间犯罪真宽容！ 是母牛都想上! 和你看成一样的标题[大笑] 李小璐不是一般人 有没有人注意到彩票害得多少人家破人亡！ 殺，這個農民人渣。😡🗡 这种人太无脑他有钱会来做保姆 人民法院的判决就是组织决定，公民必须无条件服从，谁敢反对，俺马上小跑步去报告组织，领取奖金过大年。 小编小学没毕业吧？ 什么故事？感觉匪夷所思。 贾乃亮是不是功夫不行，否则李小璐也不会找别人吧 这都不死刑？ 这样还要缓2年？缓刑果然是最不和谐的存在 58岁看起来是相当饥渴 19岁大学毕业那年找工作，面试我的人事经理是个漂亮的白富美，她肤白个高，长发长腿，不足之处是颧骨较高。她问我：你能干多长时间？我有些诧异，但还是老老实实回答：一般半个小时，状态好的时候四十分钟。她红着脸低声说：我是说你在这儿能干多久？我环顾四周，有些羞涩的说：这我可能放不开，我从没当着这么多人，真的不太习惯。三天后我被录取了，原来她是老板娘。她送给我一本《能量决定命运》，让我学习红浅学。三个月后她挺着肚子辞职离开公司，临行前嘱咐我一定认真学习，不学红浅学，赶不上马化腾，娶不起林志玲。不读《能量决定命运》，富不过刘强东，跑不过贾跃亭。二十年后孩子会来认你的。一个月后我也因肾病离职回乡休养，老板给我多发两年的工资。 东北人跟野蛮人有什么区别 我也是 仅仅因为自首就可保命，太无语。法律是怎么了？ 对领导犯罪更宽容 这二逼标题，我看了好几遍。 荒唐啊 58岁。。。你都下手 一样 ",
        "Reply": 1821,
        "Total": 31854,
        "Link": "http://comment.news.163.com/news_shehui7_bbs/D77CENT50001875P.html"
    },
    "Title": "男子迷昏女保姆欲拍裸照 发生数次关系后将其杀害_网易新闻",
    "KeyWords": "裸照,杀害,杀人,勒索"
}