{
    "Source": "Netease",
    "KeyWords": "世界大战,英国,拆迁",
    "Title": "英最牛\"钉子户\":谁拆房我就向谁发动第3次世界大战_网易新闻",
    "PublishTime": "12/25/201716:38:42",
    "URL": "http://news.163.com/17/1225/16/D6H1I92Q0001899N.html",
    "Article": "（原标题：英国最牛“钉子户”扬言：谁拆我房，就发动第三次世界大战）12月25日，据英国《每日邮报》报道，英国一居住在地方政府所有但早已废弃地区的居民表示自己绝不离开这里，要是有人硬叫他拆迁，他威胁自己将不惜一切代价发动第三次世界大战。查理·怀特在自家房子前今年66岁的查理·怀特（CharlieWright）出生在英国西北部城市伯肯黑德一座位于Ilchester街上的房子里，并与八个兄弟姐妹在这里快乐长大。但是，在他成长的过程中，他家周围的房子都陆陆续续地被拆除了。三十年前，他为家里买下这座房子，但拒绝将房产留给除自己以外的任何人。不同于周围房子千篇一律的装修风格，怀特家房子的大门上刷着亮黄色的漆，还插上一面英国国旗，骄傲地随风飘扬。他说，“别具一格的装饰风格灵感来源于，要是有人靠近我的房子（逼他拆迁），我就要向他发动‘第三次世界大战’”。周围空荡荡，只剩下怀特家的房子这座拥有四间卧室的房子坐落在曾经十分繁华的Ilchester街上。但是，如今街区凋敝，曾经熙熙攘攘的街道两旁只剩下废弃的房屋架子。邻居们陆续搬走，只剩下怀特一人还住在这里。“我在这里出生，全家9口人都曾住在这里。随着兄弟姐妹们陆续结婚搬离，当时就只剩下我和我妈妈”，怀特说道。“你出生在这座房子里，它就成了你生命中的一部分。我不会为了谁而搬离这里”。但是，15年前，怀特的妈妈去世了，与妻子离了婚的怀特就成了真正意义上“独享”这座房子的人了。不过，他并不感觉孤单，因为随后一位好友搬进他家一起居住。可以说怀特真的一辈子都呆在这个街区，因为就连上班也在街角的美孚石油公司。“我一辈子只穿过一次马路，那是在我16岁时，我走到了街道的最底端”。“那些在这里工作的日子简直令人难以相信。因为你走着路就能去上班”。如今街区凋零，怀特家周围的房子也逐渐被拆除但是，好景不长，该地区随后迎来了迅速攀升的失业率，随着房屋被拆迁，更多的就业机会也流失了出去。房子的内部毫不凋敝，厨房、客厅、书房都透着安逸舒适尽管如此，怀特依然坚定地表示，虽然自己很想念亲人和朋友环绕在身边的日子，但自己绝不离开这里。“我了解每一个住在这个街区的人，他们是我的兄弟姐妹。上至我的奶奶妈妈、叔叔婶婶们都曾一直住在这里”，怀特说道，“曾经我牵着狗走在街上，每个人都认识我，我也认识他们。基本上一半街区的人都曾出生在这里，只要我一走出去，我感觉就一切都好”。本文来源：封面新闻作者：宁宁责任编辑：徐萌_NN7485",
    "Comment": {
        "Content": "出门直接给你推了 49之前好像都没这么狠过 楼上天真，地不是你的难道房子是你的？ 我们有100种方法让你自愿搬走 推到了你的房子等于英国也到了，好！大英帝国需要你！ 英国牛！ 下面的那张是竖着的。 然后再花钱找几个媒体抹黑“钉子户”，“阻碍社会建设” 你说到重点了，法啊！法啊！想怎么定都从笑话了。 拖出去麻烦，直接推了，不就是死个把人吗？20万搞定。 请组织派我到英帝那消灭这邪恶的人！不成功绝不回来！😶😶😶 我的东西被你征用的，还不给钱？ 发达国家的事情我们这些发展中国家的人想不明白 同样是钉子户。中国的钉子户是为了钱。这外国钉子户是为了什么呢？ 我这破房子就卖1个亿怎么了？买不起，你可以不买啊，又没逼着你买对不啦？ 有资本，对着干～宪法和法律是你的靠山。 那是在中国，国外房子和地都是个人的 凭什么说别人是钉子户，随便盖帽子这样好吗？我自己的合法财产我当然自己做主。 艹，国内这种也很多吧，为什么老舔呢 你就是冲着不成功去的。别以为我不知道 那些阴阳怪气的我也觉得搞笑 “地是国家的”?幼稚！即使当年杀了那多地富反……，✘得了他们的地，而后谓之“锅有”了，但农村还有大量的地没有被“锅有”，也只好说:集体有，呵呵，但终究还不算被“国有” 它们怎么说怎么有理，没办法，人家两张口啊 私有财产神圣不可侵犯，就是这个意思！ 美孚公司停发你的工资，看你搬不搬 地是国家的！你把房子搬走！！ 只能说你运气好生在英国而已！要是换个地方先对你停水停电，在把你家周围挖一条深沟，最后等你出门不在家了就被误拆啦[窃笑][窃笑][窃笑]你敢去法院告，首先让你进精神病医院打几天针吃几天药在说[挨揍][挨揍][挨揍] 最大的腐败：权力私有化，财产公有化。 他不出门你就没办法了？明天去人事部报道结算工资吧 你应该感谢你生的国家 说个身边的真事，上个星期发生的，我好朋友家的，拆迁办趁哟朋友姑父家人都不在的时候把她姑父家的房子推平了，她姑父带着一瓶农药在村委会喝下了，icu里好几天了 个人财产神圣不可侵犯。 我要可以自己订法律，我TM干什么都是依法! 请你不要出门 普及一下，那块地就是他的，只要他不同意搬，谁也不能拿他怎么样。。。什么，强拆？谁敢！强拆者要吃官司赔大钱的！ 昨天看了个依法强拆，今天看了个这个 你好华为用户，你说国内指的是《战狼2》里面的烈士俞飞家？ 就是不允许私有，啥好事好东西都是国家的，反之都不是国家的 跟贴被火星网友带走啦~ 断水断电，看你怎么活 跟贴被火星网友带走啦~ 跟贴被火星网友带走啦~ 小米你好小米再见 好好看看书吧，什么叫国有 半夜一伙不明身份人员直接将你绑到20公里之外的荒郊野外，等你回到家，房子已经被夷为平地 为钱不可耻 你就在英国嚣张，敢回来不 出门直接给你推了 醒来请举一下手。✌ 四楼明天来人事部报到！ “街道钢琴师”愿你安好。 下面的那张是竖着的。 老李当然利害，目光长远 一断电，冲进抬出来，拆完闪人，不立案，打官司都打不赢。 这种小事不劳烦领导叫给小的们去就行了您老还是在家叫小莉陪你 呵呵，或许吧。不过不重要，重要的是他自己是个快乐的二逼就行了。理想国不就是保证人人在法律构架内按自己意愿快乐地二逼或不二逼地生活嘛。 我是来看评论的 赞成 就是，以为在英国就不会被跨国？我们什么事情都做的出来，我们跨起来自己都害怕 我有一百种让你死翘翘的方法。楼下仔细介绍一下 拆迁就是有钱人耍的流氓。 准备自己打井，太阳能发电吧 这语气差点把英帝吓尿了，其实只用从中国借10个训练有素的城管和1台挖掘机，分分钟叫他重新做人！ 发达国家的事情我们这些发展中国家的人想不明白 同样是钉子户。中国的钉子户是为了钱。这外国钉子户是为了什么呢？ 我这破房子就卖1个亿怎么了？买不起，你可以不买啊，又没逼着你买对不啦？ 挖掘机在哪里 感觉老马也很危险啊 还是老李厉害👍 竖着的那张是逼样的吗 竖着的嘴倒是还有大用处，可他们那张除了胡吃海喝，吹牛逼说谎话，卵用都没有。 老李是真厉害啊，按老李的看法应该撑不了多久了吧？ 十几辆蓝翔毕业生开的挖掘机铲车包围他的房子，百八十名看过战狼2的武警护卫，4名丰乳肥臀的护士，两名三十多年行医经验的老专家，四个虎背熊腰的老城管，一位安全驾驶两百万公里的老司机开着120等在门口，一座拥有一千多张床位的精神病院。<br>请问：谁家的房子拆不得？ 这一楼故意要依法消失了 19楼是对奴性的最形象的解释 天壤之别！ 举个爪 人家的水电公司是上市企业不是你想停就可以的有合同的不要敢不通知就断试试可以告你谋财害命的～ 还出个鸡毛门，直接推了 兄弟们，小学你们没学过咱们是公有制国家吗？比如某人有间工厂，令到只需发个新政策，搞个公私合营，呵呵🤭，没关系的就坐冷板凳吧…… 没有，领导，他不出门我确实没有办法，但是我会保证他永远出不了门 半夜扔出来的也不是一个半个了，这算好的 那得看地方，有些地方你敢这样牠们就敢把你埋了！ 现在是给你个价逼着你强买 小学还学过“贫贱不能移”，所以但凡有点能力或官二代们都移民了 就是，就是您老在家陪小莉，我们几个小的去给你办就行了！ 他不出门你就没办法了？明天去人事部报道结算工资吧 我好像以前看过很多丈夫杀了老婆孩子，然后自己再自杀的新闻。。。这样公安还可以记一功 仅凭此嚣张言论就可以给他定罪了，扰乱世界和平还是地区稳定？ 请你不要出门 普及一下，那块地就是他的，只要他不同意搬，谁也不能拿他怎么样。。。什么，强拆？谁敢！强拆者要吃官司赔大钱的！ 幸福的钉子户 西方邪恶国家第一条:个人财产神圣不可侵犯 我看了看一楼地址。 断水断电，看你怎么活 有本事回国来嚣张 个人觉得应该是文明国家和不文明国家来区分更为贴切！ 你有本事回来再说一遍 看到外国拆迁我的手就不知觉的点了进来 回来别说强拆，人都给你躲猫猫掉 装修不错，地下室是不是有颗原子弹啊 私有财产神圣不可侵犯，就是这个意思！ 为钱不可耻 黑夜中的铲车 这个是个实实在在的二逼，一根筋。 公民的人身财产安全高于一切！没有任何人打着为国为大众的名义侵犯个人的财产！这是无耻的行为！就不该有钉子户这种说法！ 有一种叫飞天石块的东西！ 你就在英国嚣张，敢回来不 出门直接给你推了 法治国家 49之前好像都没这么狠过 艹，国内这种也很多吧，为什么老舔呢 敢在中国嚣张才算厉害 地不是他的 一楼再给我等屁民普及一下，如果他交不起房产税了，那块地还是他的吗？能强拆吗？会像我们这里规定的只有一套住房，即使还不起贷款，银行也不能没收房产吗？ 外国物权法不是摆设吧，怎么会法律上没理？ 在某锅，人活的不如狗，拆狗窝，狗都敢呲呲牙，人是不敢吱声的……你懂的 没有砸门砸窗？这不科学啊！ 与国内钉子户不同的是，他没有影响到公众利益。 很安逸！ 你就在英国嚣张，敢回来不 “个人服从集体，局部服从全局”都是藐视个体的权益，最终人人都可能成为受害者。 找一群流氓去！ 英国没有强拆米国讲人权瑞典福利好啥都别逼逼了……走呀 国内就是想要钱，钉子户，喷狗一般都这样，双标 我滴个龟龟你很适合当拆迁队队长明天来报道 拿个花瓶啥意思啊哥 同样是钉子户。中国的钉子户是为了钱。这外国钉子户是为了什么呢？ 引起第三次世界大战开发商肯定不敢！ 有资本，对着干～宪法和法律是你的靠山。 庆幸你是英国人 曹尼玛才是大事、 总有些没有受过教育的傻逼相信这些。相当于现在的老人相信养生品不相信自己的儿女一样。 断水断电停社保<br>先理后兵黑社会<br>拆不了？ 希望他们多一点钉子户！ 在中国你可以试试…… 敢不敢来中国试试 我们国家去一个拆迁人员就搞定 老蒋也搞土改，不过是花钱把地主的地买下来再贷给没地的农民种 如果怀特是大陆人，那么你就会在他的房子周围捡到“怀特的左腿”或者“怀特的右腿” 就是，我们拆迁办不需要你这样的废物。 没有私有没有隐私 可能英国佬比较笨的原因，人家想不出来这么高明的主意！ 你应该感谢你生的国家 你在英国可以这么做，你来ZG试试，首先断你电…… 地不是你的就相当于侵略了。日本人在你各大城市盖一大堆房子，你不能拆吗？你跟他谈物权吗？你没都给日本人没收吗？ 他不出门你就没办法了？明天去人事部报道结算工资吧 我叫Ferry，来自非洲，由于家里穷，20岁还讨不到老婆，我持旅游签证来到了广州，并撕毁了护照，留了下来，至今已经10年。我每天必去泡吧，因为我只要一说老爸是酋长，或说来自美国，立马会有大批中国姑娘投怀送抱，大街上搭讪中国姑娘也屡屡成功，就这样，我过上了帝王般的生活。至今我睡过的中国姑娘已达3位数（数量在黑人圈中属中等），这些姑娘个个年轻漂亮、善解人意，主动给我钱花，其中十几个还为我生了孩子，也不用我养。我想好了，等我睡的中国姑娘达到4位数，就挑一个中国姑娘结婚，这样就可以永远合法地留在中国了！我们喜欢留在中国，因为我们能深切地感受到中国的友好，中国不但援助非洲大量美元，为非洲铺铁路、架桥梁、建学校、修医院，还派出漂亮的女医生女护士为我们治病，派出漂亮的女老师教我们汉语（为了方便泡中国妞，兄弟们学得很卖力），每年还花钱请1万多黑人兄弟来中国留学培训，中国出手就是慷慨、大气！中国从来不歧视艾滋病患者，早在2010年就取消了对艾滋病患者的入境限制，这对于我们黑人兄弟来说是天大的福音呀！中国人非常可爱，宁可自家的几千万男儿打光棍，也会先给我们黑人兄弟找个婆娘。最可爱的要属中国警察了，我的一个兄弟打的不给钱，推搡司机，中国警察私掏腰包垫上了。相比之下，我的那些在美国的兄弟就没这么幸运了，白人警察随时有可能射杀他们；在俄罗斯的兄弟也好不到那里去，经常遭到光头党的袭击。中国国泰民安，没有外族入侵（有强大的解放军保卫着我们），我们为生活在中国而感到骄傲和自豪！榜样的力量是无穷的，在我们的感召下，越来越多的黑人兄弟不远万里从非洲来到中国，共享中国改革和发展的成果。广州已经容纳不下了，好在中国地大物博，黑人兄弟不断向中山、东莞、深圳、南宁、厦门、长沙、武汉、成都、西安、义乌、上海、济南、北京、沈阳、长春等宜居城市进发。我的一个哥们不但在深圳娶妻生子，还当上了政协委员！中国精英大量移民欧美，黑人兄弟正好过来弥补；中国人不愿多生孩子，而黑人兄弟的繁殖能力比小强还要强，必将为缓解中国的老龄化做出巨大贡献！目前全中国已有100万黑人兄弟，这一数字将以每年30％的速度增长，估计到2030年将达2000万，到2050年将达1亿，到2100年将占总人口的一半。到时候，中国将成为黑人兄弟和华人姐妹共同拥有的和谐家园！ 喷子们先别高潮，搞清楚英国是土地私有。 请你不要出门 有部电影叫树大招风，看了就懂了 普及一下，那块地就是他的，只要他不同意搬，谁也不能拿他怎么样。。。什么，强拆？谁敢！强拆者要吃官司赔大钱的！ 😄 努力，在曼谷挺好的 断水断电，看你怎么活 半夜里，连人带房子给推了 凭什么公有 多大点事， 是啊，地是人家的，他想咋样没毛病，咱们也是啊，土地是国家的........ 居然不断水断电，也没有恐吓，差评。 三十年前，他为家里买下这座房子，但拒绝将房产留给除自己以外的任何人。新闻这么说的，房子是他的，可能地不是他的，我估计不能损坏房子的情况下，你想咋拆迁都可以··· 法院根本不受理，报案不立案，上访抓人，英国就是一弱肉强食的国家。 蓝翔拆迁六队表示已经准备就绪 法律上他没理，所以他才叫嚣玩命呢。 为钱不可耻 枪杆子里面出政权 不出门就不能推了，小同志，对待敌人应该如何，不用我交你吧 英国城管不过如此啊 看把你能的，还发动第三次世界大战，你打得过城管吗？ 买卖交易是人类文明社会正常现象，只有土匪强盗才使用强拆手段 楼上天真，地不是你的难道房子是你的？ 原来国外的房子真的是自己的 原来抵制强拆要挂英国🇬🇧 既然死都不怕，杀他全家 [喷水] 有本事回来！ 你应该感谢你生的国家 你头像是哪位老师？ 听过生孩子的，没听过生国家的 杀谁呢？拆迁办里人很多。关键把制度拆了。 国外真落后，没艾滋拆迁队？ 不是你牛B而是看看在哪个国家 可以考虑误拆 能陪多少 之前是这么说过呀，房子是你的，土地不是你的～～ 并不是所有中国钉子户都是为了钱。而是他们达不到英国的这种环境，让他一直钉子户下去。只能作为某种妥协。 为了尊严 我的东西被你征用的，还不给钱？ 拆你房子算轻的，挖掘机“不小心”把你埋了的可能性都很大。现实案例屡见报道。 发达国家的事情我们这些发展中国家的人想不明白 同样是钉子户。中国的钉子户是为了钱。这外国钉子户是为了什么呢？ 我只问一句，他家有水有电没 我原以为只有中国有最强钉子户！原来外国的月亮也不见得比中国圆 强拆都有法可依了 赔钱是小事，可以直接击毙的，我一个朋友在美国，顺有人敢闯民宅，警告还不走可以击毙。如果自己没枪，警察可以马上过来击毙闯入着，私有财产，公民安全神圣不可侵犯。 多亏你是在英国，在中国！半夜铲车推了你。 给你三天时间 学习了，改天钉子户可以标语：谁拆我房我就让希特勒复活 也是老百姓没枪，如果有枪那个敢强拆 “发动第三次世界大战”，没有恐怖分子的嫌疑？ 这就是英国成不了大国的原因……！落后，屁大点事都搞不定！ 风可进雨可进国王不能进 面对这样的事件莫名伤感 我300多年的祖屋居然在2017年7月被“空心屋”理由强拆了 国家的一切资源都是国有的 这是一种情怀 他不出门你就没办法了？明天去人事部报道结算工资吧 有国旗在，敢拆就是反党反国 在中国，你会死得无声无息，就像你从来不存在一样 请你不要出门 普及一下，那块地就是他的，只要他不同意搬，谁也不能拿他怎么样。。。什么，强拆？谁敢！强拆者要吃官司赔大钱的！ 书上告诉我们：全心全意，毫不利己，专门利人，立为公，执为民，先进，优越……真把书当回事的，懂不懂嘲讽别人不看书的，不是傻就是装，仿佛自己满腹经纶居高临下于别人的胸无点墨无知可笑，能别这么装范不？ 这里不拆迁，连亲戚都没得做 城管没找你喝茶吗？ 断水断电，看你怎么活 这样的房也普通得可以吗？ 你来这试试 好流逼啊！ 一楼你有种回国，老子让你分分钟爸妈不认得你，敢跟开发商作对，你看看有几个还活着的？ 好好看看书吧，什么叫国有 你就在英国嚣张，敢回来不 请问土地证上年限多少？ 反正英国媒体不敢写“钉子户”三个字。 为钱不可耻 国旗亮了，原来哪儿都一样。 我在网易喷死他们 先断水断电其它的后面补充 人家回来是爷、随便进出、你去个英国试试？ 英国佬难道不明白舍小家为大家的道理么耽误GDP担待的起么 我觉得天朝强拆队可以接国外业务了！ 央央大国的钉子户都是为了钱吗？ 这个应该感谢宪法赋予你的权利！ 水电公司，除非必须听命于法庭判决，否则凭什么要断供？若断供，人家起诉你公司，你必又输又赔，这就是人家的游戏规则。公权力根本不敢耍流氓。 你就在英国嚣张，敢回来不 贵国没有城管吧 从明天开始雇一批捡破烂的天天围着你着你房子转，趁你不注意的时候砸窗砸门偷你的东西。弄得你精神崩溃，看你能坚持多久。 回来看看吧，这边办事效率高太多了[微笑] 英国佬难道不明白舍小家为大家的道理么耽误GDP担待的起么 他不睡觉吗？方法多的是 同样是钉子户。中国的钉子户是为了钱。这外国钉子户是为了什么呢？ 请你不要出门 英国拆迁公司快来中国取经学习吧！ 回来也是有权有势 啊啊啊啊，又要看一个月的新闻联播了。[狗] 我觉得别的国家应该把拆迁工作承包给我们国家，太没效率了。 噢，原来是先拆再陪啊，流程相反，结果一样 你以为你是希特勒吗？ 请组织派我到英帝那消灭这邪恶的人！不成功绝不回来！😶😶😶 叫我们的城管去，看他搬不搬！ 外国钉子户基本上都是因为一种情怀，对自己的房子和环境有着深厚的感情，难分难舍 我们分分钟教你重新做人 晚上去几个人把他抬出来拉走房子直接推了 这哪是拆房子，明明就是拆英国！把拆迁玩成了国家大事，就服你牛逼！像你学习 为了出名上新闻[窃笑] 请求支援，领导前面两个我怕打不过，我去 这活我朝阳区城管大队包了！ 他不出门你就没办法了？明天去人事部报道结算工资吧 “地是国家的”?幼稚！即使当年杀了那多地富反……，✘得了他们的地，而后谓之“锅有”了，但农村还有大量的地没有被“锅有”，也只好说:集体有，呵呵，但终究还不算被“国有” 笑话，水电公司我也是有人权的，我不签订新的供水电合同，你能把我怎么的？ 等他死了，没人交房产税了，地也就没了。 小心二半夜推土机啊！ 普及一下，那块地就是他的，只要他不同意搬，谁也不能拿他怎么样。。。什么，强拆？谁敢！强拆者要吃官司赔大钱的！ 中国为钱抗拒拆迁，外国为感情抗拒拆迁！ 不一样的是外边烂里面干净整洁，国内是外墙贴瓷砖，里面毛胚房[鄙视][鄙视][鄙视] 子弹免费送，死也白死，还没人说 以楼主的智商根本不可能完成这个任务，请组织派我去帮他！ 好像我们的钉子户都不能好好采访啊？ 老人都有怀旧的病 断水断电，看你怎么活 先谈zf你们就搞清楚了 满清鞑子来了，这块地是自己的，八国联军来了，这块地是自己的，袁世凯称帝了，这块地是自己的，老蒋北伐成功了，这块地是自己的，日本鬼子来了，这块地是自己的，直到那一年，这块地再也不属于自己的，也许这辈子都不能见到还给自己那一天 贫穷限制了我们的想象力 油价刚降下来，他们直接曾税，你们有什么不服的，法律都是他们定的。 国家是个什么概念，至今都搞不清楚！ 请祖国派我去，我给他一个强拆 发达国家的事情我们这些发展中国家的人想不明白 为钱不可耻 是的，你不用担心。要是在…… 在中国这得死几回了，死了人都找不到那种 断电，停水，挖河建孤岛，半夜放鞭炮打黑枪砸玻璃，放毒蛇，英国人太没想象力 出门直接给你推了 万恶的资本主义，连个钉子户都搞不定，真气人。 中国的城管呢，过去分分钟就把你拆了 你应该感谢的是你的国家 我这里确实有钉子户不为钱，纯感情。 那官司就要到自来水和电力公司了以为在天朝啊 你的意思是说现在不是法制社会？ 你来我国试试？ 你就在英国嚣张，敢回来不 这是英帝，不是朝鲜 這個情況怎麼都不會發生 万恶的帝国主义 请您晚上睡在房顶上！ 法治国家就这样 感谢个屁，周围都没人也没工作了，就是一个吃低保的 回来分分钟教你做人 在家一样推 怀特老师是时候爆发了 别出门啊，兄嘚 就是，你敢回来吗😊 捍卫生活和心灵的家园 普及一下，那块地就是他的，只要他不同意搬，谁也不能拿他怎么样。。。什么，强拆？谁敢！强拆者要吃官司赔大钱的！ 工资?不存在的，赶紧滚蛋! 回来就让你怀疑人生 让我想起了海上钢琴师 人家不敢回来。也不屑回来。我等屁民不知何年何月才能去？人家脱离苦海了，你还叫人家回来，你良心何在？ 不一定需要你出门，半夜就可以给你推了 任务 老炮大叔，你太恋旧了，人要顺应社会发展趋势 不出门也能给你推了，反正现在死人都能自己爬进去了 很多人都说国外也有钉子户，其实我仔细看看，发现国内外钉子户还是有区别的，国外的钉子户大部分是怀旧，为了理想，国内的钉子户，都是为了钱，只要钱给到位，光着身子都能搬家 里面好干净 外面斑秃，里面却明窗净几一尘不染，难得！ 他不出门你就没办法了？明天去人事部报道结算工资吧 你应该感谢你生的国家 不敢 国家是人民的，不只是易友的 人在里面一样推 七言诗阳春凌霄岩张耘华春光诗社阳春日报凌霄溶洞天下雄.内生乾坤风云涌;恰似飞龙腾气象，万层钟乳滴神功！嫦娥出浴水底月，银川叠盏落九重;更留底河载仙客，世间壮景尽所容！广东省阳春市凌霄岩风景区由玉溪三洞、玉溪二洞和凌霄岩组成，游览完领略溶洞之天下雄（山之天下雄为泰山）！<br><br><br>七言诗南岭国家森林公园夏日游张耘华2017年仲夏于韶关南岭氧吧天下凉，心旷神怡时间长；天外瀑布九重落，宛如九龙下岭央；旁林绿荫接青天，潭吟轻涛风静赏；美景迷人君再来，风调雨顺国运昌！南岭国家森林公园位于广东省韶关市乳源县境内，韶关市南岭国家森林公园一日游！ 请你不要出门 自由，尊严，民主，法治 说到隔壁那家伙今天看他高清头像恶心的我把老婆按在床上又草了一遍才消气要是干起来劳资马上去丹东买几个店面放那 外国没有城管吗？ 断水断电，每天晚上扔石头砸玻璃， 断水断电，看你怎么活 外国干不出这事来 不出门不敢推？ （多做好事，必有好报）美攻朝中收台战略对冲平衡（加快发展繁重工作替代性智能机器，不用延迟退休）公司上市后业绩异常下降，依法赔偿遏制骗钱（当务之急大小限减持和再融资要挂钩分红或回购，违则重罚，促进长期良好经营，缓解套现压力）尽快开征股指期货的印花税，才能降低杠杆及高频风险，限制其乱影响股市（基金只有盈利才收管理费，真正为投资者服务）连续2天涨跌停就限仓交易，共同受益，利国利民！ 为什么国外的房子都是独栋？ 敢在这边强拆说这话。别说大半夜拆了你的房子。命都可以要了你的。 有点可怜感觉周围人一定不理解他 国家是个什么概念，至今都搞不清楚！ 同样是钉子户。中国的钉子户是为了钱。这外国钉子户是为了什么呢？ 为钱不可耻 英雄气概。 ",
        "Reply": 1043,
        "Link": "http://comment.news.163.com/news2_bbs/D6H1I92Q0001899N.html",
        "Total": 25923
    }
}