{
    "Article": "PGOne绯闻风波后首现身口罩遮面快步疾走近日，PGOne被拍到疑似与李小璐共度一夜，绯闻成为舆论关注焦点。今日，他首度现身机场，头戴黄色鸭舌帽搭配黑色卫衣连帽衫，口罩遮面，整张脸捂得严严实实。PGOne一路疾行，与粉丝们匆忙打完招呼后便坐上保姆车。",
    "URL": "http://ent.163.com/photoview/00AJ0003/647159.html",
    "KeyWords": "PG,One,",
    "PublishTime": "01/03/201817:06:30",
    "Title": "PG One绯闻风波后首现身 口罩遮面快步疾走_网易娱乐",
    "Comment": {
        "Content": "红个毛线，以前这货上过哪家正规媒体的头版？就这回和李小璐一搞全国人民都认识他了，我怀疑这就是他弄的套路。 成日戴口罩像個傻逼一樣，還以為很帥 他就是不戴口罩我都不认识他 时代捧出的娱乐垃圾 PGone?一个屁股还是屁股一个？ 古代这也是杀头之罪现在的人大多不知廉耻 刚才看他一篇报道回头就看不到了是关于他这个垃圾唱的垃圾歌，我咧了个去，这样的歌词也能出街，奇了怪了[喷水][喷水][喷水] 马苏也不是好鸟，也是骚货，所谓物以类聚，你看看马苏的朋友基本都是婊子。手挽手留宿还他么弟弟？不就是3P的局么？！ 三刀六洞 有什么奇怪的，大部分人都是满脑子应该被消灭的物种，希特勒的理念是对的 没听说过这个傻逼啊 狗屎pgone （DISS屁鸡丸）你的颜值比不过王宝强你的嘴巴好似大烤肠你的歌迷全是鬼打墙你的trap好比垃圾王鬼吼的节奏狗爷都不懂红花会的渣滓居然有人捧你和gai的矛盾太明显屁死俺的辣舞和你们有点远gai再坏他还搞慈善你出轨的名声就像公鸡下鸡蛋亮哥这么好的人他的媳妇你都干thisis红花会的渣滓PGone 在黑帮电影里是pgone要被阉割的 这货就是个种猪朋友妻不可欺的道理都他妈的不懂 pg1：你们嫖娼约炮开房花钱，我开哥家豪车玩嫂子她还得倒搭钱，你们行吗？ 还有脸出门吗？对了，这货就没脸 我到现在不知道这小子长什么样 名字我都不知道怎么读，哈哈小路逼爽吗？ 说出了我们的心声 勾义嫂何止是阉割那么简单 满满的套路~~~自己知道就好 其实他微博上的脑残粉还挺多，被称为邪教粉，比掏粪粉丝还要脑残 大家好，我是PGONE，请大家欣赏我的新rap《好吃不过饺子》：<br>comeon！<br>乃亮大哥，有些话不能多说。<br>你家的饺子味道真不错！<br>你的头发有点绿。<br>你的眼神有点忧郁。<br>你的人生就像言情剧。<br>哦，爸爸去哪儿了。<br>哦，嫂子去哪儿了。<br>嫂子和兄弟一起去哪儿了。<br>她挽着我的手。<br>她搂着我的头。<br>她把白白的饺子塞到我的口。<br>她在我的身下尽情的嘶吼。<br>one！two！three！four！<br>two！two！three！four！<br>three！two！three！four！<br>onceagainoh～yeah～<br>和我一起说唱！<br>嘿，乃亮！<br>不仅你的奶亮，你的头也亮！<br>嫂嫂说去做头发，我的小名就叫头发！<br>你天天喊我弟弟，嫂嫂也喊我弟弟，我还有个弟弟！<br>嫂嫂玩着你的弟弟，还玩着我的弟弟！<br>就问你刺不刺激！yeah！ 这逼什么时候不戴口罩，戴帽子了？ 讲真，不是这件事我都不认识他！ 这货是有多丑，自己都嫌弃自己了！不敢在公共场合露脸 同是嘻哈冠军一个睡饺子一个捐款100W给山区做慈善一个在台上装纯台下偷人一个台上嚣张台下做人一比较就知道谁是真正的冠军了PG跟GAI比确实差太多 17年最好的连续剧：1白鹿原2白夜追凶3鸡毛飞上天，炒作最厉害连续剧：1人民的名字2三生三世，最佳外剧：权游！最佳电影：摔跤！最炒作：战狼2！最失望：猩球3，加勒比5！丑闻：马蓉，白百何，宋小宝，赵四，薛之谦，李小璐，陈思成，郭敬明，周立波！最创新综艺：演员的诞生！最尴尬：奚梦瑶！最幸福：郭富城，鹿晗，陈冠希！最佳音乐：大鱼，成都！只代表个人观点！ 路人甲的也可以靠这出名了？ 璐真是天下第一兵器……贱（箭）；亮真是天下第一暗器……彪（镖）。 戴什么口罩啊，不是李小璐，我敢说没多少人认识你 这逼其实心里乐着了终于火了 大家好，我是PGONE，请大家欣赏我的新rap《好吃不过饺子》：<br>comeon！<br>乃亮大哥，有些话不能多说。<br>你家的饺子味道真不错！<br>你的头发有点绿。<br>你的眼神有点忧郁。<br>你的人生就像言情剧。<br>哦，爸爸去哪儿了。<br>哦，嫂子去哪儿了。<br>嫂子和兄弟一起去哪儿了。<br>她挽着我的手。<br>她搂着我的头。<br>她把白白的饺子塞到我的口。<br>她在我的身下尽情的嘶吼。<br>one！two！three！four！<br>two！two！three！four！<br>three！two！three！four！<br>onceagainoh～yeah～<br>和我一起说唱！<br>嘿，乃亮！<br>不仅你的奶亮，你的头也亮！<br>嫂嫂说去做头发，我的小名就叫头发！<br>你天天喊我弟弟，嫂嫂也喊我弟弟，我还有个弟弟！<br>嫂嫂玩着你的弟弟，还玩着我的弟弟！<br>就问你刺不刺激！yeah！ 这SB居然有粉丝?中国真的不缺脑残！感觉中国的嘻哈就是吃了黑人吉宝 卧槽这都有保姆车了戏子来钱太容易了吧 天天带脑子，是秃子嘛 傻逼 这逼是不是没长脸啊从来不露脸 搞几句低俗的东西，长这样还有粉丝还能红，天理难容啊！ 这人是谁呢？ 时代捧出的娱乐垃圾 我擦要不是这事谁认识他 有才 哟哟哟，我有个兄弟叫贾乃亮，但他的老婆是真奶亮。他对小弟我非常大方，而我让他头绿的发光。饺子好吃不如嫂子，嫂子跪着像只狗子。我们挽手只是朋友，不是你口中的炮友。虽然她彻夜未归，但她并没有出轨。我们只是练了嘻哈，然后她说想要啪啪。但我保证没有碰她，因为我们戴套的啊。 这货就是个种猪朋友妻不可欺的道理都他妈的不懂 上联：贾在哭，万在笑，小璐在挨炮下联：宋在操，马在叫，宝宝在咆哮横批都是绿的。 还有脸出门吗？对了，这货就没脸 王昊（把名字拆分一下）我相信你会点赞 垃圾大家不要关注他顶起来我们支持亮哥 你不遮面站我面前大声喊出你的名字，我还是不认识你....... 这比搁过去就三刀六洞了 我怎么感觉这个事情就是为了吵红这个逗比呢 这身高，这路人脸都可以红，歌词还没意思的，， 不认识 红花会是个什么玩意儿？皮缸的大哥是陈近南吗？ 你们怎么可以这样说P猪精，肯定是人家勾引他的！他还那么年轻，你们忍心对一个新起之秀下如此毒口嘛？对方是吸尘器，吸力太强！我P猪精肯定是无辜被下药了，他根本就躺着没动！哼！我就算期末挂科也要跟你们这些黑粉死磕到底！嘤嘤嘤！ 得了便宜还不快闪 喷两句脏话就真实了？玩什么嘻哈天生又没有黑人的律动在那忽悠忽悠你们这些傻子的， 卧槽 所以玩了嫂子、吃了饺子，你不就认识了 在黑帮电影里是pgone要被阉割的 娱乐圈一个睡一个 路人甲的也可以靠这出名了？ 很装x的，表面故作淡定实则很小家子气，没gai有实力 看嘻哈比赛的时候喜欢他很正常吧，干干净净的，实力也很强。 又丑，品德还有问题，这种人该封杀 红花会的？要不要除名 不艹李小璐都不知道这东西是谁？艹了李小璐也读不出这货的名字，长着一张大众脸 通奸乱伦，女的浸猪笼，男的上二嫂要被施家法！ 说姓名？别一天屁股万屁股万的…… 讲真，你曾经认识宋喆吗？ 这草包，果然火了！之前一直不知道这厮是谁 大家好，我是PGONE，请大家欣赏我的新rap《好吃不过饺子》：<br>comeon！<br>乃亮大哥，有些话不能多说。<br>你家的饺子味道真不错！<br>你的头发有点绿。<br>你的眼神有点忧郁。<br>你的人生就像言情剧。<br>哦，爸爸去哪儿了。<br>哦，嫂子去哪儿了。<br>嫂子和兄弟一起去哪儿了。<br>她挽着我的手。<br>她搂着我的头。<br>她把白白的饺子塞到我的口。<br>她在我的身下尽情的嘶吼。<br>one！two！three！four！<br>two！two！three！four！<br>three！two！three！four！<br>onceagainoh～yeah～<br>和我一起说唱！<br>嘿，乃亮！<br>不仅你的奶亮，你的头也亮！<br>嫂嫂说去做头发，我的小名就叫头发！<br>你天天喊我弟弟，嫂嫂也喊我弟弟，我还有个弟弟！<br>嫂嫂玩着你的弟弟，还玩着我的弟弟！<br>就问你刺不刺激！yeah！ 这种人还火了，真恶心，不当奸夫没几个人认识他吧 娱乐娱乐而已……娱乐场所……公共汽车 讲真，不是这件事我都不认识他！ 没听说过这个傻逼啊 这种新闻也能火，无语 可能叫狗蛋。。 炮火 把他扔到山口组里面 路人甲的也可以靠这出名了？ 鸭舌帽标配 下三滥的东西，人渣 幸亏是冬天，这夏天捂这么严实非得起痱子不可，，，作孽 就这傻逼，哪来的粉丝 这逼估计都傻了，没经历过这样的事 娱乐圈一个睡一个 宋喆二代 他自己自导自演的吧 明星都这装扮出门，他看得见路吗？ 戴什么口罩啊，不是李小璐，我敢说没多少人认识你 管不好自己的下半身，自毁前途，你完了 大家好，我是PGONE，请大家欣赏我的新rap《好吃不过饺子》：<br>comeon！<br>乃亮大哥，有些话不能多说。<br>你家的饺子味道真不错！<br>你的头顶有点绿。<br>你的眼神有点忧郁。<br>你的人生就像言情剧。<br>哦，爸爸去哪儿了。<br>哦，嫂子去哪儿了。<br>嫂子和兄弟一起去哪儿了。<br>她挽着我的手。<br>她搂着我的头。<br>她把白白的饺子塞到我的口。<br>她在我的身下尽情的嘶吼。<br>one！two！three！four！<br>two！two！three！four！<br>three！two！three！four！<br>onceagainoh～yeah～<br>和我一起说唱！<br>嘿，乃亮！<br>不仅你的奶亮，你的头也亮！<br>嫂嫂说去做头发，我的小名就叫头发！<br>你天天喊我弟弟，嫂嫂也喊我弟弟，我还有个弟弟！<br>嫂嫂玩着你的弟弟，还玩着我的弟弟！<br>就问你刺不刺激！yeah！ 上联：贾在哭，万在笑，小璐在挨炮下联：宋在操，马在叫，宝宝在咆哮横批指璐为马。 这货不戴口罩我都不认识 请问这货是谁 人渣，口味很重 奸夫出来了 一杯敬宝强一杯敬乃亮守着你的善良选择了原谅所以羽凡的绿从此不再漫长帽子不在无处安放[窃笑][窃笑][窃笑] 还不在家好好呆些日子，还出来混， 说出了我们的心声 我就没看过一张他全脸的照片，名字我也不会读 反正一生黑他了 人家王宝强也就是被经纪人绿了，这贾乃亮是被口口声声叫“哥哥”的“好弟弟”绿的…感觉更惨 这货是有多丑，自己都嫌弃自己了！不敢在公共场合露脸 红个毛线，以前这货上过哪家正规媒体的头版？就这回和李小璐一搞全国人民都认识他了，我怀疑这就是他弄的套路。 这是个啥鸟人，火的莫名其妙 屁肛是哪个葱谁告诉我 此车车龄36年左右，车长大概1米65左右。车况保持一般，内饰较好，车前后保险杠脱落，疑似经常被追尾，排气管黝黑，烧机油严重。发动机巅峰状态，但拉缸严重。30分钟后下排气出水，缸内直喷。新手不建议入手，老司机方可一战，由于使用频率太高，磨损太大，建议要换大号加长加粗活塞，否则油耗高，感觉不到动力，老手能吃苦耐劳的尚可驾驶，新手看看尚可，滤芯儿更换不及时，造成通风不畅，有异味，千万不要轻易去碰，否则遗憾终身，根据我开车20年经验！两大灯少许下垂！打着后发动机噪音过大！缸筒活塞间隙过大！做过全车划痕处理！喷过全车漆！总结：此车长期被人野蛮驾驶，事故车！谨慎！谨慎！！！ 成日戴口罩像個傻逼一樣，還以為很帥 他就是不戴口罩我都不认识他 在黑帮电影里是pgone要被阉割的 18年1月，挺好的，终于拿起小板凳，抓起瓜子，一边嗑瓜子一边围观了 为什么中国明星爱戴口罩，是空气太差了吗。 丑得跟那啥似的 这是智障么 此车车龄36年左右，车长大概1米65左右。车况保持一般，内饰较好，车前后保险杠脱落，疑似经常被追尾，排气管黝黑，烧机油严重。发动机巅峰状态，但拉缸严重。30分钟后下排气出水，缸内直喷。新手不建议入手，老司机方可一战，由于使用频率太高，磨损太大，建议要换大号加长加粗活塞，否则油耗高，感觉不到动力，老手能吃苦耐劳的尚可驾驶，新手看看尚可，滤芯儿更换不及时，造成通风不畅，有异味，千万不要轻易去碰，否则遗憾终身，根据我开车20年经验！两大灯少许下垂！打着后发动机噪音过大！缸筒活塞间隙过大！做过全车划痕处理！喷过全车漆！总结：此车长期被人野蛮驾驶，事故车！谨慎！谨慎！！！ 不是说这货吸毒Diss姚贝娜和马苏李小璐递都有一腿吗，看样子不是什么好人，脑残粉还老公老公叫着呢 丑人多做怪 有什么奇怪的，大部分人都是满脑子应该被消灭的物种，希特勒的理念是对的 pg1：你们嫖娼约炮开房花钱，我开哥家豪车玩嫂子她还得倒搭钱，你们行吗？ 这货咋感觉长得有点像李宗瑞啊？ 这种人鬼鬼祟祟的不是什么好东西 上联：贾在哭，万在笑，小璐在挨炮下联：宋在骑，马在叫，宝宝在咆哮横批指璐为马。 同上 不但爽了还火了 大家好，我是PGONE，请大家欣赏我的新rap《好吃不过饺子》：<br>comeon！<br>乃亮大哥，有些话不能多说。<br>你家的饺子味道真不错！<br>你的头发有点绿。<br>你的眼神有点忧郁。<br>你的人生就像言情剧。<br>哦，爸爸去哪儿了。<br>哦，嫂子去哪儿了。<br>嫂子和兄弟一起去哪儿了。<br>她挽着我的手。<br>她搂着我的头。<br>她把白白的饺子塞到我的口。<br>她在我的身下尽情的嘶吼。<br>one！two！three！four！<br>two！two！three！four！<br>three！two！three！four！<br>onceagainoh～yeah～<br>和我一起说唱！<br>嘿，乃亮！<br>不仅你的奶亮，你的头也亮！<br>嫂嫂说去做头发，我的小名就叫头发！<br>你天天喊我弟弟，嫂嫂也喊我弟弟，我还有个弟弟！<br>嫂嫂玩着你的弟弟，还玩着我的弟弟！<br>就问你刺不刺激！yeah！ 在古代这种人是要进猪笼进硝酸的！ 搞几句低俗的东西，长这样还有粉丝还能红，天理难容啊！ 这逼其实心里乐着了终于火了 卧槽这都有保姆车了戏子来钱太容易了吧 傻逼 这货是谁！包滴枪他妈个逼 蓉易出轨，宝受委屈，璐出马脚，贾装没事，百年好合，风羽同舟 傻逼， 打他 既然说是误会，为什么不敢大大方方的开个新闻发布会来澄清呢？人家冠希哥都敢开发布会承认自己做的事情还道歉，你要真没有这事情，还不出来证明自己清白？遮遮掩掩的没鬼就怪了！ 三刀六洞 他叫什么？ 名剑易躲，暗贱难防啊 我相信以后你会更火 傻逼玩意 不用这口罩帽子，我也不认识啊。。。 这傻逼到底是谁啊真的媒听说过他 屁股一号是干嘛的 什么傻逼玩意 赶着去日小璐？？ 2018还有那个霍思燕那对也要出问题 勾义嫂何止是阉割那么简单 这是一下火过头了，马上成黑炭了 建议封杀此人 大家好，我是PGONE，请大家欣赏我的新rap《好吃不过饺子》：<br>comeon！<br>乃亮大哥，有些话不能多说。<br>你家的饺子味道真不错！<br>你的头发有点绿。<br>你的眼神有点忧郁。<br>你的人生就像言情剧。<br>哦，爸爸去哪儿了。<br>哦，嫂子去哪儿了。<br>嫂子和兄弟一起去哪儿了。<br>她挽着我的手。<br>她搂着我的头。<br>她把白白的饺子塞到我的口。<br>她在我的身下尽情的嘶吼。<br>one！two！three！four！<br>two！two！three！four！<br>three！two！three！four！<br>onceagainoh～yeah～<br>和我一起说唱！<br>嘿，乃亮！<br>不仅你的奶亮，你的头也亮！<br>嫂嫂说去做头发，我的小名就叫头发！<br>你天天喊我弟弟，嫂嫂也喊我弟弟，我还有个弟弟！<br>嫂嫂玩着你的弟弟，还玩着我的弟弟！<br>就问你刺不刺激！yeah！ 天下第一兵器难道不应该是剑吗？ 不知道这人是啥玩意 马克，坐等爆料 这逼是不是没长脸啊从来不露脸 在黑帮电影里是pgone要被阉割的 古代这也是杀头之罪现在的人大多不知廉耻 为什么明星都喜欢带口罩遮的严严实实 马苏也不是好鸟，也是骚货，所谓物以类聚，你看看马苏的朋友基本都是婊子。手挽手留宿还他么弟弟？不就是3P的局么？！ 2017年的最后两天刚认识他 娱乐圈终于凑齐贾宝羽组合 其实李小璐对他来说就是个bitch 很好奇他的粉丝是什么样的 这货说唱一个调，还是喜欢艾夫杰尼 璐宿一夜，贾装没事。璐出马脚，贾装原谅。 真心没听过 李小璐毕竟还知道，你踏马谁啊还弄成这样，你不弄也不认识你啊 出轨年年有，今年头一个。职业捉奸人翁语在哪？ 留名 有中文名字吗 同是嘻哈冠军一个睡饺子一个捐款100W给山区做慈善一个在台上装纯台下偷人一个台上嚣张台下做人一比较就知道谁是真正的冠军了PG跟GAI比确实差太多 这货火了 贾乃亮，是男人就离婚！这样的女人要不得！从她的微博你还看不出她出轨了么？更别说互留宿！我就问你知道不知道！男人这时候别怂！ 这人是谁啊？！他妈的 嘻哈的都是垃圾 ＰＧ玩李小露贾乃谅；<br>陈冠吸张柏汁谢霆疯！ 璐真是天下第一兵器……贱（箭）；亮真是天下第一暗器……彪（镖）。 什么JB玩意 这逼其实心里乐着了终于火了 我成功了 总感觉是抄作……希望是抄作 也就只能靠这些才能红 （DISS屁鸡丸）你的颜值比不过王宝强你的嘴巴好似大烤肠你的歌迷全是鬼打墙你的trap好比垃圾王鬼吼的节奏狗爷都不懂红花会的渣滓居然有人捧你和gai的矛盾太明显屁死俺的辣舞和你们有点远gai再坏他还搞慈善你出轨的名声就像公鸡下鸡蛋亮哥这么好的人他的媳妇你都干thisis红花会的渣滓PGone PGone?一个屁股还是屁股一个？ 刚才看他一篇报道回头就看不到了是关于他这个垃圾唱的垃圾歌，我咧了个去，这样的歌词也能出街，奇了怪了[喷水][喷水][喷水] 变形金钢5没上榜。。不科学 S1赛季吸毒队以微弱的优势获得冠军，嫖娼队获得第二名，出轨队吊车尾。S2赛季在以马为首，以万绝杀，出轨以绝对优势获得冠军，嫖娼队失去了王，海两名主力坐实了第三名，吸毒毕竟是上届冠军实力还是有的，不过今年出轨队势头过猛，吸毒终究还是敌不过出轨队，荣获第二名。2018已然来临S3赛季悄然开场，各队正在摩拳擦掌吸毒却斩下首分，不愧是老牌战队，这份实力实在是吊打嫖娼队的脸。不知今年嫖娼队能不能拿下冠军，吸毒队，出轨队都获得过冠军。让我们拭目以待吧！ 超越周杰伦？这些粉丝脑子里是不是进了粑粑？ 这一炮真贵，1400w，还是个有孩子的女人！有这钱也不去找个年轻的 中国人口这么多！林子大了什么鸟没有啊 本来就是傻逼 我到现在不知道这小子长什么样 璐宿一夜，贾装没事，万没想到，卓实厉害，只因嫂子太骚，弟会饶舌。贾：敢问璐在何方？璐在裆下！ 这逼什么时候不戴口罩，戴帽子了？ 其实他微博上的脑残粉还挺多，被称为邪教粉，比掏粪粉丝还要脑残 国内嘻哈圈挺有名的，被粉丝抱以超越周杰伦的厚望 上联：贾在哭，万在笑，小璐在挨炮。下联：宋在操，马在叫，宝宝在咆哮。横批：骑马上璐[微笑] 这谁啊 恶心的男人 一看就是心里有鬼……整的像过街老鼠似的！😂😂 我就不懂了，这他妈所谓的嘻哈范儿就是手势卫衣帽子球鞋口罩再加上一年到头不敢把逼脸露出来，整天躲在裤裆里的吊样？？？ 真奇葩，出轨出名了 这是谁。。。 璐宿一夜，贾装没事。璐出马脚，贾装原谅。 1.歌词没有内涵完全为了显得屌到处拼凑2.歌词含糊听不清3.音色难听4.明明很丑整天戴个口罩帽子以为漏个眼睛自己就帅了 在权游面前，你那个123都是很一般，也就鸡毛飞上天可以看看。 毛不易的歌没上榜》不科学 上个嘻哈节目觉得自己是杠把子，轻狂高傲各种diss，口口声声real的大骗子，忽悠铁子联系嫂子，真他妈狗篮子，伤了成千上万的迷妹子，却选择个小婊子，伤风败俗的小屌丝玷污了这个圈子，今后还想闯成个啥样子，赶紧收拾好你的的票子，快快滚犊子！ 有名你麻痹 包得像个智障一样 上联：贾在哭，万在笑，小璐在挨炮<br>下联：宋在操，马在叫，宝宝在咆哮<br><br>横批：指璐为马。 17年最好的连续剧：1白鹿原2白夜追凶3鸡毛飞上天，炒作最厉害连续剧：1人民的名字2三生三世，最佳外剧：权游！最佳电影：摔跤！最炒作：战狼2！最失望：猩球3，加勒比5！丑闻：马蓉，白百何，宋小宝，赵四，薛之谦，李小璐，陈思成，郭敬明，周立波！最创新综艺：演员的诞生！最尴尬：奚梦瑶！最幸福：郭富城，鹿晗，陈冠希！最佳音乐：大鱼，成都！只代表个人观点！ 我现在都不认识 火了终于大家认识我了 这丑逼 大家好，我是PGONE，请大家欣赏我的新rap《好吃不过饺子》：<br>comeon！<br>乃亮大哥，有些话不能多说。<br>你家的饺子味道真不错！<br>你的头发有点绿。<br>你的眼神有点忧郁。<br>你的人生就像言情剧。<br>哦，爸爸去哪儿了。<br>哦，嫂子去哪儿了。<br>嫂子和兄弟一起去哪儿了。<br>她挽着我的手。<br>她搂着我的头。<br>她把白白的饺子塞到我的口。<br>她在我的身下尽情的嘶吼。<br>one！two！three！four！<br>two！two！three！four！<br>three！two！three！four！<br>onceagainoh～yeah～<br>和我一起说唱！<br>嘿，乃亮！<br>不仅你的奶亮，你的头也亮！<br>嫂嫂说去做头发，我的小名就叫头发！<br>你天天喊我弟弟，嫂嫂也喊我弟弟，我还有个弟弟！<br>嫂嫂玩着你的弟弟，还玩着我的弟弟！<br>就问你刺不刺激！yeah！ 没出这事以前真不认识这货 他还有粉丝，够了 这SB居然有粉丝?中国真的不缺脑残！感觉中国的嘻哈就是吃了黑人吉宝 你哥拿你当铁子，你却惦记你嫂子；你是嘻哈大手子，刚进娱乐圈就当浪子！你说过夜真的没啥子，真拿你亮哥当软柿子；你这品行真的狗篮子，赶紧他妈滚犊子！ 满满的套路~~~自己知道就好 他衣品真的不行。 确实火了，不过一直不知道这货到底长啥样 这些狗逼戏子成了如今社会的上流，简直可笑 讲真，不是这件事我都不认识他！ 百草个逼终于可以用爱的宣言给她甩掉了 打扮的像个傻逼一样的 搞几句低俗的东西，长这样还有粉丝还能红，天理难容啊！ 这逼其实心里乐着了终于火了 中国的脑残经济我们是不懂的 PG到底是干什么的 现在人做人都没有底线了。为了出名啊！他妈的，他爽歪歪啊[大笑] 不是人民的名义吗？ 这是一个脱了口罩就没人认识的家伙[大笑] 上联：贾在哭，万在笑，小璐在挨炮，下联：宋在操，马在叫，宝强在咆哮。横批，指璐为马。 这逼其实心里乐着了终于火了 17年最好的连续剧：1白鹿原2白夜追凶3鸡毛飞上天，炒作最厉害连续剧：1人民的名字2三生三世，最佳外剧：权游！最佳电影：摔跤！最炒作：战狼2！最失望：猩球3，加勒比5！丑闻：马蓉，白百何，宋小宝，赵四，薛之谦，李小璐，陈思成，郭敬明，周立波！最创新综艺：演员的诞生！最尴尬：奚梦瑶！最幸福：郭富城，鹿晗，陈冠希！最佳音乐：大鱼，成都！只代表个人观点！ 好弟弟！ 这样子包着也有粉丝接机啊脑残粉真是无法理解 狗屎pgone 屁股丸不走快点，怕被假奶亮碰见挨打…… 我真不认识啊。网易有没有零零后的小朋友给我们介绍下？ 是屁精王 一部妖猫传完爆所有2017年的华语电影、电视剧。 勾二嫂死老母，正一臭閪打靶仔！ 傻逼终于火了恭喜你了 即使已经公关，也是惧怕舆论，毕竟没有底气啊！ 名字我都不知道怎么读，哈哈小路逼爽吗？ 就一个小混混，这女人什么眼光，太饥渴了还是怎么了， 人渣！朋友的老婆也不放过，下贱！ 装在套子里的人？难怪小鹿喜欢。 太遗憾了，这傻逼居然红了 低俗的人 一个外国二人转歌手，弄得跟艺术家似得，妈的中国人真没文化。 屁精王厉害啊！嫂子都能搞上床 天天这个逼样谁特么认识你一样 第一次知道有这个屁几万的人 哈哈，他的小伙伴们呢？？？红花会不是喷天喷地的吗？？？还有那个叫小白的不是跟他很铁吗？这种事情怎么不叫上一起玩。。。 乃亮没血性 Pgone干什么的 上联：贾在哭，万在笑，小璐在挨炮下联：宋在操，马在叫，宝宝在咆哮横批：指璐为马。 丑人多作怪 成日戴口罩像個傻逼一樣，還以為很帥 养这种低素质的孩子！唱的什么狗屎 这都能认出来吗？ 天天带脑子，是秃子嘛 我觉得军师联盟算第一连续剧 小鸭步 长这路人丙样子，不带口罩还有几个人会认出来咋地。 这个肮脏的社会是不允许异性交朋友的 因为长得丑，才戴帽子戴口罩[微笑][微笑][微笑] 回你妈妈肚里吧 这个是个什么狗屎人物，不是这个事情都不知道这个人 大家好，我是PGONE，请大家欣赏我的新rap《好吃不过饺子》：<br>comeon！<br>乃亮大哥，有些话不能多说。<br>你家的饺子味道真不错！<br>你的头发有点绿。<br>你的眼神有点忧郁。<br>你的人生就像言情剧。<br>哦，爸爸去哪儿了。<br>哦，嫂子去哪儿了。<br>嫂子和兄弟一起去哪儿了。<br>她挽着我的手。<br>她搂着我的头。<br>她把白白的饺子塞到我的口。<br>她在我的身下尽情的嘶吼。<br>one！two！three！four！<br>two！two！three！four！<br>three！two！three！four！<br>onceagainoh～yeah～<br>和我一起说唱！<br>嘿，乃亮！<br>不仅你的奶亮，你的头也亮！<br>嫂嫂说去做头发，我的小名就叫头发！<br>你天天喊我弟弟，嫂嫂也喊我弟弟，我还有个弟弟！<br>嫂嫂玩着你的弟弟，还玩着我的弟弟！<br>就问你刺不刺激！yeah！ ",
        "Link": "http://comment.ent.163.com/ent2_bbs/PHOTJNVN000300AJ.html",
        "Total": 5180,
        "Reply": 234
    },
    "Source": "Netease"
}