{
    "URL": "http://ent.163.com/17/1227/18/D6MD1G8L00038FO9.html",
    "Comment": {
        "Total": 102,
        "Reply": 16,
        "Link": "http://comment.ent.163.com/ent2_bbs/D6MD1G8L00038FO9.html",
        "Content": "禁枪吧学学中国 可是蕾哈娜和他表弟都是巴巴多斯的啊。。。。 这脸美国版的蓝盈莹 黑人真的是太不争气了。美国那么好的条件，真的只要你努力一下都不会太差 为啥据香港媒体报道？ 禁枪吧，不要再残害无辜了 韦德表妹也是这种死法 美国真不安全 我靠那么乱 黑人怎么不争气了，美国的黑人日子过的不好吗 她也黑呀 美国有些黑人确实不努力，碰见二十几岁在超市停车场要东西和钱，还有晚上在大街上席地而卧的……有的城市治安不好，晚上都不敢上街怕挨抢。 黑人真的是太不争气了。美国那么好的条件，真的只要你努力一下都不会太差 可是蕾哈娜和他表弟都是巴巴多斯的啊。。。。 猩猩还是那个星星 这脸美国版的蓝盈莹 表弟怎么是黑色的 禁枪吧学学中国 死者为大。 为啥据香港媒体报道？ 節哀 "
    },
    "Article": "网易娱乐12月27日报道据香港媒体报道，现年29岁的美国流行乐坛天后蕾哈娜前晚在社交网站上上传与表弟TavonKaiseenAlleyne的合照并透露他在一枪击案中身亡！而蕾哈娜刚刚与他以及家人在家乡巴巴多斯庆祝节日。蕾哈娜留言说：“表弟安息…不能相信我昨晚才用臂弯抱着你！永远也没想到这是最后一次我感觉你身体的温暖！永远爱你！”，而Rihanna在留言也不望呼吁“中止枪械暴力”。据知21岁的TavonKaiseenAlleyne于当地时间周二晚上，在巴巴多斯StMichael‘s步行时，有一名男人上前向他连开数枪，之后逃离现场。Tavon之后被私家车送往医院附近，但最后伤还不治身亡。本文来源：网易娱乐责任编辑：陈恺_NK4686",
    "KeyWords": "蕾哈娜,枪杀,枪击案,巴巴多斯",
    "Source": "Netease",
    "Title": "表弟被枪杀身亡！蕾哈娜发文悼念：永远爱你_网易娱乐",
    "PublishTime": "12/27/201718:35:28"
}