{
    "URL": "http://news.163.com/17/1228/19/D6P1UUCD0001899N.html",
    "Comment": {
        "Reply": 104,
        "Content": "这样的员工到地下都得带着。 什么？我钱宝亡了？ 下一个可能就是斐逊路由器了 想开些，过上几年可能你会发现32w连屁都不算。 中国这样的公司难道还少，监管机关不作为害的都是老百姓 上交国库，大家都没意见吧？🔫 这个就是赤裸裸的诈骗，可是还有那么多人上当，真是奇怪 什么马竞，是张呈栋的那个队 55w多，整个人都是懵的。 被雷了32个，现在在天台喝白酒发呆。何去何从啊 林子大了真是啥玩意儿都有啊 钱宝！！！！！！！当时西甲马竞队服上印的钱宝？？？？？ 有诈骗前科的人还可以开这种公司？ 哎这尼玛真是祸躲不过 流星月亮地球太阳系有发动机么？没有!他们却高速在宇宙中运行!为什么？因为他们的运行轨道本身就是太空高速时空隧道!他们的运行路线一半为去路一半为来路，周而复始地运行着!地球自转公转着，本就没有东西南北上下左右等方位!谁定的？我们的天父啊!目的只有一个，告诉人类我们天父的星座方位!所以九曲桥的方向始终对着东北方!在宇宙一切物质中，永远是子体围绕母体运动，这是恒定的!所以地球自转并围绕太阳公转!因地球是自转公转的，所以根据地球的东西南北是找不到星外文明的星座方位的!只有找到太阳的上下前后东西南北才能准确地给天父星座方位定位!我们天父星座方位在太阳系东北上方第九颗恒星那里!那里以双伴恒星为中心带动周围108颗恒星运动着! 别人是使用软件机器人发的，程序设定的 此帖经由斐讯路由器发出 就当炒股了呗，中国股市不也百分之八十人亏，想开就那么点事 这钱最后大家能拿回来吗？ 机器人太可怜了 警察叔叔不懂技术 中国人喜欢存钱，不象老外月光的多，中国医保福利不好，老百姓没安全感，最后成全这些骗子了 你想他的利息，他想你的本金。富贵本来险中求。[微笑] 你猜[微笑] 应该能回来吧这么大一笔啊 正解！ 跳啊 三成？想得美……… 那房子车子去抵押吧 别人是使用软件机器人发的，程序设定的😂😂😂 哎呀，骗子们都是巨富，穷的都是老实人 哈哈 别人是使用软件机器人发的，程序设定的[可怜][可怜][可怜][可怜][可怜] 傻逼太多！ 一楼跳吧你这智商活着浪费粮食 中国有钱人还是比较多 警察真是傻逼的可以，不但抓不到人，骗局这么大还是人家自首的，连自动推广都不知道 曾经听过一上海人说的一句话，他问我中国最扯得的一句话是什么你知道嘛？我说不知他说:勤劳致富 公司里一个同事被坑了十几万，感觉他像没事人一样[微笑] 都是某些网站自动推送的，比如... 表弟同事银行贷款40万玩钱宝 不可能，这种赔付率最后很低的，连回来本金的三成就不错了 这些推广都是提前设定好的吧 这些宝粉傻逼到什么样你们知道吗？官网公告他们说网站被黑了，我说平安南京官方微博也公布了，他们说微博被黑。活该他们被骗。 浙江温州皮革厂的歌没听过？ 没错 哈哈，宝粉快来洗地啦！我不要醒，不要醒。 神补刀 什么？我钱宝亡了？ 曾经听过一上海人说的一句话，他问我中国最扯得的一句话是什么你知道嘛？我说不知他说:勤劳致富 这没啥，更新慢了一点点罢了<br>就好比我今天路过一个单位，门口还写着欢度春节呢 下一个可能就是斐逊路由器了 推广是提前设定好的，[微笑]小编不知道？ 君子爱财取之有道！ 傻逼太多！ 上交国库，大家都没意见吧？🔫 钱宝是知名第三方支付，钱宝网是打擦边理财 什么马竞，是张呈栋的那个队 55w多，整个人都是懵的。 被雷了32个，现在在天台喝白酒发呆。何去何从啊 皇家社会的吧 林子大了真是啥玩意儿都有啊 钱宝！！！！！！！当时西甲马竞队服上印的钱宝？？？？？ 不一定是机器人，可能是自己把自己都骗了，认为老板自首是以退为进，实际上被政府保护起来了呢😂😂😂😂 流星月亮地球太阳系有发动机么？没有!他们却高速在宇宙中运行!为什么？因为他们的运行轨道本身就是太空高速时空隧道!他们的运行路线一半为去路一半为来路，周而复始地运行着!地球自转公转着，本就没有东西南北上下左右等方位!谁定的？我们的天父啊!目的只有一个，告诉人类我们天父的星座方位!所以九曲桥的方向始终对着东北方!在宇宙一切物质中，永远是子体围绕母体运动，这是恒定的!所以地球自转并围绕太阳公转!因地球是自转公转的，所以根据地球的东西南北是找不到星外文明的星座方位的!只有找到太阳的上下前后东西南北才能准确地给天父星座方位定位!我们天父星座方位在太阳系东北上方第九颗恒星那里!那里以双伴恒星为中心带动周围108颗恒星运动着! 别人是使用软件机器人发的，程序设定的 此帖经由斐讯路由器发出 联璧，蛙宝啥的，赶紧跑[微笑] 这钱最后大家能拿回来吗？ 孝经曰：“天子有诤臣七人，虽无道，不失其天下。” 说对了 时候了，该报了 组织相关部门的人智商就是这样 感觉是恐怖故事、不敢看 戒色吧占领网易 联璧金融 害人害己 还有利可图 确实好员工 你猜[微笑] 厉害 想开些，过上几年可能你会发现32w连屁都不算。 （多做好事，必有好报）美攻朝中收台战略对冲平衡（加快发展繁重工作替代性智能机器，不用延迟退休）公司上市后业绩异常下降，依法赔偿遏制骗钱（当务之急大小限减持和再融资要挂钩分红或回购，违则重罚，促进长期良好经营，缓解套现压力）尽快开征股指期货的印花税，才能降低杠杆及高频风险，限制其乱影响股市（基金只有盈利才收管理费，真正为投资者服务）连续2天涨跌停就限仓交易，共同受益，利国利民！ 应该能回来吧这么大一笔啊 啊哈哈哈哈，传销的力量还真是无穷的。。。 呵呵 你再猜 那房子车子去抵押吧 应该,是老板跟员工,设的套路罢了! 哎呀，骗子们都是巨富，穷的都是老实人 哈哈 警察好酸 这些推广都是提前设定好的吧 钱宝就是以前的快钱 跟贴被火星网友带走啦~ 分享一个领红包的码，复制后面的红包码，打开支付宝就可以领取，哈哈我刚才中了188元，mhb6D86311 这些推广都是提前设定好的吧 以前拿好几个手机号注册买东西，买完一次就不用了[窃笑] 警察真是傻逼的可以，不但抓不到人，骗局这么大还是人家自首的，连自动推广都不知道 第一次用京东就是用的快钱 都是某些网站自动推送的，比如... 你真以为人家这样想？人家只是调侃。 洗脑能力MAX 三成？想得美……… 这些宝粉傻逼到什么样你们知道吗？官网公告他们说网站被黑了，我说平安南京官方微博也公布了，他们说微博被黑。活该他们被骗。 没错 这样的员工到地下都得带着。 警察也玩幽默了哈😊 呵呵，你们网易一个叫迷雾世界的游戏宣布不更新了就差闭服了，微信公众号还不是一直在推送忽悠人去玩 中国这样的公司难道还少，监管机关不作为害的都是老百姓 真是敬业 这个就是赤裸裸的诈骗，可是还有那么多人上当，真是奇怪 年度最佳 被雷了32个，现在在天台喝白酒发呆。何去何从啊 2亿用户？ 有诈骗前科的人还可以开这种公司？ 都是骗子。 那也是微博发的，大家都知道，调侃一下而已。 人与人之间还有信任吗？ 别人是使用软件机器人发的，程序设定的 钱宝终于出事了 哎呀，骗子们都是巨富，穷的都是老实人 机器人太可怜了 像我这样存款一直是两位数的，想被骗都难。 警察叔叔不懂技术 中国人喜欢存钱，不象老外月光的多，中国医保福利不好，老百姓没安全感，最后成全这些骗子了 社会就是这样，会哭有奶吃 55 你想他的利息，他想你的本金。富贵本来险中求。[微笑] 要是有这样的员工就好。 比如微软小冰[狗] 会骗人的，都是巨富。 跳啊 哈哈，宝粉快来洗地啦！我不要醒，不要醒。 大哥：说点如何补救的内容，行不？ 这是什么社会呀。 别人是使用软件机器人发的，程序设定的[可怜][可怜][可怜][可怜][可怜] 独善其身，谁还提信任 听过，倒闭了，闭了，闭了，变成世界名曲，麦克杰克逊 微博有api接口，对接一下就能自动发微博 正解！ 中国有钱人还是比较多 很正常。。同事搞的云集微店，还经常从上面买东西，用标有云集微店等字样的盒子寄过来的 说明什么？说明你们抓的不是幕后大老板。 哈哈哈哈哈 这些推广都是提前设定好的吧 要与时俱进 浙江温州皮革厂的歌没听过？ 神补刀 用软件发的。程序是设定好。 别人是使用软件机器人发的，程序设定的😂😂😂 ",
        "Total": 2181,
        "Link": "http://comment.news.163.com/news2_bbs/D6P1UUCD0001899N.html"
    },
    "Title": "\"最佳员工\":钱宝网老板已自首 员工还在努力发推广_网易新闻",
    "Source": "Netease",
    "KeyWords": "张小雷,违法犯罪,员工",
    "PublishTime": "12/28/201719:19:33",
    "Article": "老板已自首，员工还在努力发微博……#年度最佳员工#大家学习一下，顺便别再往里面投钱了……钱宝网创始人投案500亿流水和2亿用户何去何从？钱旺集团7周年年会过后不到一周，曾因诈骗罪锒铛入狱的集团创始人张小雷恐将再陷囹圄。12月27日早间，南京市公安局官方微博“平安南京”发布公告称，钱宝网实际控制人张小雷因涉嫌违法犯罪于昨日(26日)向当地警方投案自首。目前，警方正在开展调查。本文来源：平安北京责任编辑：张海桐_NN9053"
}