{
    "Article": "刘晓庆亮片裙现身皱纹明显笑容“凝固”2018年1月1日讯，上海，近日，刘晓庆出席品牌活动。刘晓庆亮片裙配运动鞋玩混搭，皱纹明显依然笑容灿烂。",
    "Title": "刘晓庆亮片裙现身 皱纹明显笑容“凝固”_网易娱乐",
    "PublishTime": "01/02/201807:16:38",
    "Source": "Netease",
    "Comment": {
        "Content": "不错了，快七十的人了，别装就好 说这个年龄已经不错了的人，你们眼瞎吗？你们睁开眼睛看看身边的阿姨和奶奶，哪个有她恐怖？简直一个僵尸 大家都看到了把不要去整容了 你说的很对，她离美还真是有一段蛮远的距离，充其量只能说对得住观众，吓不着谁那种。但有一点值得肯定就是她离婚后跟那个年轻的谁谁男子在一起后还真是把肥胖的妇女形象给改观了成了时尚少妇。 说实话，虽然是打了针吃了药，但我看她还是比看现在的鲤鱼村何洁之流顺眼 就凭她能够拒绝蛤蟆就值得尊敬 年轻时候也没觉得有多美 不管怎样，这位老人值得我们尊重!60多岁了，仍然在工作，在拼搏，一生为了演艺事业做出了贡献！依稀还能记得小时候看过她主演的电影《神秘的大佛》，那个时候中国的电影还在起步，唐国强先生也还刚刚出道。我们还是给这些老艺术家们应有的尊重吧！ 我以为是金星 这才是我们的刘奶奶 晓庆老了，生命规律真是无法逆转。 1950年生人的刘晓庆，再注些塑料，抹些腻子，耳朵拉到下巴，今年可年轻半个世纪到18岁，续写不老传奇。 真实挺好 吓得我蛋都缩回去了 建议演一些妈妈奶奶角色，也不知道自己整天在云里雾里 方华女主原型杨慧才叫惊艳。年纪跟她差不多 这个年纪已经很好了。说难看的想想自己到这个年纪会什么样子吧 60多岁人的正常状态，所谓什么“冻龄”、“逆生长”都是扯。 那是人家自己的人生啊，为什么老了心态就不能年轻化？或许这是她的本性呢 只有我一个人看她是金星？ 真知灼见 必尽年龄在那，刘奶奶还是一夜八个郎君 是真难看不是因为她老了是整容后遗症她的脸都僵硬了 假牙假嘴假脸 这个就是没在网易、冲钱的后果。 可是她自己却偏偏装嫩。。。。 刘姥姥终于揭下了面膜。至少真实的面貌比装逼装嫩可爱。 这才是年龄该有的痕迹 口下留德吧，过去讲也是老人了，虽然大家都不喜欢。 赋得苍井空回归家庭<br>名伶潇洒现胸怀，不使明艳坠尘埃。<br>童颜一媚千枝起，万花零落一蕊开。<br>不掩流泉汩汩水，人间百态入画来。<br>东渡沧溟来华夏，清歌曼妙舞高台。<br>屌丝相争睹颜色，恨不一揽入心怀。<br>肤似玉，质玲珑，平生磊落一片白。<br>不似中国官家妓，曲曲高歌颂昇平。<br>闻君入厨思柴米，我泣清泪何为情。<br>伴我青葱少年夜，与我中霄舞娉婷。<br>始知从今梦中见，长恨人间再不逢。 没有，我也看成金星了。 这的亏还是打着粉底化着妆，要是一点妆都没有的素颜和在马路上不打光拍，跟同龄的普通老太太没什么区别，甚至还不如同龄老太太都说不准！毕竟演员整天带妆生活和黑白颠倒拍戏工作，皮肤根本早被糟的不成样子！装逼装嫩最服她，五六十的年纪还总演十六七八的小姑娘！也不知道跟她演对手戏的男演员面对近距离打扮成嫩少女的老脸怎一个呕吐了得？！ 金星+倪萍=刘晓庆 和林青霞一个年代的人物，林青霞反正该怎样怎样，刘奶奶真的就有点啥了 对啊，这样一对比我知道什么样的女人会越来越美了。 钱还是没有给到位，哈哈 这样已经不错了，超过了99.9%的同龄人，赞 免费给你们cao你们要不要？ 整容的后遗症便是面部僵硬，不自然。没有整容的老演员，看着都是很慈祥的。这就是巨大的差别。整容是新鲜事物，要看一个完整的生命周期再评价好坏。 作为演员，公众人物，她还是非常在意自己形象的。只要不在演大姑娘，我还是非常支持她的。 60岁这样挺好，如果一直这样出镜反而没人黑她了，而是赞了，都是自找的。 p了图说人家脸假，不p图说人家老。现在的媒体编辑怎么都这么缺心眼呢？天天唯恐天下不乱，带风向带节奏的。 我还以为是金星诶 这是一个能作的女人 她的人生是一个传奇。 文明上网，理性发言 表示很羡慕 整容的后遗症便是面部僵硬，不自然。没有整容的老演员，看着都是很慈祥的。这就是巨大的差别。整容是新鲜事物，要看一个完整的生命周期再评价好坏。 这才是我们的刘奶奶 不说整不整容刘晓庆皮肤紧实身材保持的也不错没有老态真的很不错了 于大毛同志你这一不同寻常，要持保留意见。刘是最顶级的演员，杨洁当年想请她还请不动的。 好油腻 老奶就是不服老！ p了图说人家脸假，不p图说人家老。现在的媒体编辑怎么都这么缺心眼呢？天天唯恐天下不乱，带风向带节奏的。 小花造型是70年代的经典。 说话的大长腿小蛮腰呢 好好的真实的老去，有何不好？ 这个回答你妈太绝了！真是合理的啊！哈哈 真实 真实好多了！本该有的样子！ 和林青霞一个年代的人物，林青霞反正该怎样怎样，刘奶奶真的就有点啥了 那张脸僵硬松垮的都快掉下来 黑山老妖来了 她的胸是真的吗 牙齿也可能全是假的 愿意接受你的老整得尴尬😓了其实没什么好看 哈哈、如果充钱来个VIP效果图就出来了……很明显让她不充钱。 人都会有老的那一天但经过的岁月却是最美好的请不要嫌弃自己老成长成熟慢慢老去挺好的 我以为是金星第一眼看去[疲惫][疲惫][疲惫] 大家都看到了把不要去整容了 保养的算不错了，承认自然规律没什么不好。 连B都不是真的。 这样最好慈和可亲 已经很好了 60多了很正常呀 脸蒙起来，一样干 有点像西游记里，金角银角大王那一集，有个小妖精和她长的一模一样 吓住了 不要整天上头条秀自己，都一把年纪岁数大的老女人了，既然已经成为人妻，为人母为人家庭主妇，人靠衣装美靠靓妆人生如戏，全靠演技经典，不要以为靠化妆就能掩饰自己的容貌和外表，卸妆后那才是你本人真面目难看丑陋，刘晓庆表面上看起来有多么光彩夺目，实际上根本就是做过整形手术玻尿酸美白针等等东西，好好回家养老去吧！哈哈 是说你妈吗？ 年轻的时候不觉得老了就很明显了 这个就是没在网易、冲钱的后果。 多用点润滑液，还是不错哦 刘姥姥终于揭下了面膜。至少真实的面貌比装逼装嫩可爱。 六十几岁你长的如何小编做点有意义的报道以后死了还有点意义 我还以为是金星[狗][狗] 什么年纪了也不看看。。有这样算不错了 人家是一个演员，留了这么多经典形象在银幕上，还想怎么样？成天评人长相，有意思吗？ 终于看到真面目了 这的亏还是打着粉底化着妆，要是一点妆都没有的素颜和在马路上不打光拍，跟同龄的普通老太太没什么区别，甚至还不如同龄老太太都说不准！毕竟演员整天带妆生活和黑白颠倒拍戏工作，皮肤根本早被糟的不成样子！装逼装嫩最服她，五六十的年纪还总演十六七八的小姑娘！也不知道跟她演对手戏的男演员面对近距离打扮成嫩少女的老脸怎一个呕吐了得？！ 哎哟，刘奶奶，不是18岁吗？ 潘虹就很好 笑死我了……肚子疼 说这个年龄已经不错了的人，你们眼瞎吗？你们睁开眼睛看看身边的阿姨和奶奶，哪个有她恐怖？简直一个僵尸 不错，状态好 你说的很对，她离美还真是有一段蛮远的距离，充其量只能说对得住观众，吓不着谁那种。但有一点值得肯定就是她离婚后跟那个年轻的谁谁男子在一起后还真是把肥胖的妇女形象给改观了成了时尚少妇。 没有高光了 整容的后遗症便是面部僵硬，不自然。没有整容的老演员，看着都是很慈祥的。这就是巨大的差别。整容是新鲜事物，要看一个完整的生命周期再评价好坏。 僵尸 石更了！ 比同龄人好 方华女主原型杨慧才叫惊艳。年纪跟她差不多 吓得我蛋都缩回去了 像猪头肉 刘姥姥真是高寿 这个年纪已经很好了。说难看的想想自己到这个年纪会什么样子吧 尊重每个年纪该有的样子 是真难看不是因为她老了是整容后遗症她的脸都僵硬了 惨不忍睹一言难尽 该续费了！ 年轻时候也没觉得有多美 就凭她能够拒绝蛤蟆就值得尊敬 金星+倪萍=刘晓庆 这才像个奶奶嘛 假牙假嘴假脸 画皮3要上映了？ 美容过度了吧 平时都说是少女，这是怎么了呢？ 扯蛋。这照片上的形象比很多62岁的普通人显老。 作为演员，公众人物，她还是非常在意自己形象的。只要不在演大姑娘，我还是非常支持她的。 第一张图我说像女版洪金宝，有没有人顶？ 下面都十八个褶了！ 嘴巴太吓人 说得也是 不管怎样，这位老人值得我们尊重!60多岁了，仍然在工作，在拼搏，一生为了演艺事业做出了贡献！依稀还能记得小时候看过她主演的电影《神秘的大佛》，那个时候中国的电影还在起步，唐国强先生也还刚刚出道。我们还是给这些老艺术家们应有的尊重吧！ 这很正常的状态，同龄里算不错的了 真知灼见 网易：请速度冲钱！这是第一次警告！ 建议演一些妈妈奶奶角色，也不知道自己整天在云里雾里 自然的老去才是最美 女明星圈里超不过99.9%！往上有赵雅芝，往下有米雪 不错了，快七十的人了，别装就好 晓庆老了，生命规律真是无法逆转。 口下留德吧，过去讲也是老人了，虽然大家都不喜欢。 傻丫头，你的脸怎么啦 这已不是素颜了，真实的还不知是啥样 免费给你们cao你们要不要？ 爱美之心人皆有之，不具备条件的就不要心酸了 坐过牢才能混得好！ 对啊，这样一对比我知道什么样的女人会越来越美了。 这样已经不错了，超过了99.9%的同龄人，赞 人家60岁不是精神·就是慈祥·她倒好各种玻尿酸·跟个妖怪似的 支持楼上的，如此侮辱一个老人，你不觉得惭愧吗？你们也有妈妈的！ 这样很好真实 李冰冰以后就这样 正常 这才是我们的刘奶奶 就服网易一个仔都不能欠说翻脸就翻脸 奶奶我要吃糖 這個年紀這樣的模樣就是正常的，有何不妥？小便夜太無聊了！ 奥黑在庄园私会姥姥那下巴都快笑掉下来最记忆犹新 那之前粉嫩的是p图咯，还好，不然我真以为打了针之后真的把皮都打的那么紧致，美容院都是骗人的 0多岁人的正常状态，所谓什么“冻龄”、“逆生长”都是扯。 60多岁人的正常状态，所谓什么“冻龄”、“逆生长”都是扯。 这才是真实的样子 恐怖 花了几十万，上百万做的假脸，如今也就这样了。假的就是假的，伪装应当剥去 拉皮拉得耳垂都没了，正常人耳朵长那样？ 我从心底里佩服刘！ 奔破吧 扯是扯，但同样的60年的破车车况可是不一样的 我想看赵雅芝卸妆后 刘姥姥 60多的人本来就是这样 又不缺钱，又那么在乎自己的外貌，何必出来让人骂呢？回家颐养天年不好吗？ 早就焦了．．． 挺好的了 不得不服老，再怎么整容也没用 可能还是比较难接受整容 60多的人本来就是这样 很正常都60多的人了 60岁这样挺好，如果一直这样出镜反而没人黑她了，而是赞了，都是自找的。 特别好奇，芳华电影中女一号的原型，杨慧，杨老师。 你说，你很难受。<br>你在下头，他在上头。<br>我说，我更难受。<br>你在里头，我在外头。<br>谁扯碎你的衣袖？<br>谁嘬着你的肉？<br>谁在你身上趴着？<br>姿势像狗。<br>你说为了艺术，不管美丑。<br>你说干这一行，不分夜昼。<br>你的哪儿像球！你的哪儿在流！你的什么没放好，说是要丢。<br>凸起的喉，微微的抖。在最后的最后------是什么进了你的口。<br>你说味道有些馊，你说感觉像喝粥，<br>你问这个比喻会不会荒谬？<br>我不置可否。<br>你是神是仙是个诅咒，你像风像雨像杯白酒。<br>谁解过你的衣扣？<br>谁和你玩过六九？<br>谁在你身上当过公狗？<br>谁请你喝过稀粥？<br>多少次你解着衣扣<br>！多少次你扯他裤头！<br>多少个男生曾坚信：“一射解千愁”。<br>五粒花衣扣，两条灰裤头，<br>一渠春江水没命东流！<br>该肥的地方肥，该瘦的地方瘦，<br>该用口的地方绝不用手！<br>你欲叫未还休，便可轻易写春秋。<br>谁说女子要腐朽？<br>且看你名扬神州，迎着狂风嘶吼，不枉做鸡头！<br>女子莫愁，君子何忧。。。。。。<br>六九之后，一醉方休。。。。。。 团里最漂亮的，能和普通人过日子？内定给领导了 60多的人本来就是这样 也已经比普通人好多了 人老了就要接收这个现实，打扮精神一点就行了，打那么多玻尿酸，脸都肿了一样！ [喷水][喷水][喷水]鬼 我觉得刘晓庆这个演员不错，比现在的年轻演员好很多 这样很好真实 这才是我们的刘奶奶 这样已经不错了，超过了99.9%的同龄人，赞 嘴是怎么了 丑的一B 这应该是整容后遗症吧 恐怖😱 好吧 這個年紀這樣的模樣就是正常的，有何不妥？小便夜太無聊了！ 整容的后遗症便是面部僵硬，不自然。没有整容的老演员，看着都是很慈祥的。这就是巨大的差别。整容是新鲜事物，要看一个完整的生命周期再评价好坏。 这才是我们的刘奶奶 …… 正常,比抢座的大妈强多了 这不是金星吗？ 1950年生人的刘晓庆，再注些塑料，抹些腻子，耳朵拉到下巴，今年可年轻半个世纪到18岁，续写不老传奇。 穿这个颜色显得黑也没有搭配好 VIP忘记缴费了吗 这个年纪已经很好了。说难看的想想自己到这个年纪会什么样子吧 你还是要看下她洗过澡的样子再说这话吧。 这才是真实的样子 封面还以为金星 以前上高中经常出去网吧包宿，坐我前面的是一个长发女生，很长的那种。每次上课睡觉她都会把她扎着的头发放开。多年以后同学聚会发现她剪了短发，依然那么漂亮。我很好奇于是我就问她，为什么不留长发了。她说她并不喜欢长发，留长发是为了她后面经常熬夜的少年能够睡个安稳不被老师发现。结果多年不见她已为人妻，原来才知道错过的真的就错过了。 赋得苍井空回归家庭<br>名伶潇洒现胸怀，不使明艳坠尘埃。<br>童颜一媚千枝起，万花零落一蕊开。<br>不掩流泉汩汩水，人间百态入画来。<br>东渡沧溟来华夏，清歌曼妙舞高台。<br>屌丝相争睹颜色，恨不一揽入心怀。<br>肤似玉，质玲珑，平生磊落一片白。<br>不似中国官家妓，曲曲高歌颂昇平。<br>闻君入厨思柴米，我泣清泪何为情。<br>伴我青葱少年夜，与我中霄舞娉婷。<br>始知从今梦中见，长恨人间再不逢。 我觉得真恶心 几年前还扮演一个14的丫头，导演还夸演得好，不知道有没观众愿意看。 戏子不就是供大众茶余发后品头论足的吗？光能捞钱还不能让普罗大众评论评论了！？ 这油都可以炒菜了 脸上打针的坏处就是要时时维护。不然难看得象鬼怪。 我的嘛呀 这才是真实的样子 我也这样觉得该是什么就应该是什么样！ 相思苍井空 长得真年轻 这才是我们的刘奶奶 以前上高中经常出去网吧包宿，坐我前面的是一个长发女生，很长的那种。每次上课睡觉她都会把她扎着的头发放开。多年以后同学聚会发现她剪了短发，依然那么漂亮。我很好奇于是我就问她，为什么不留长发了。她说她并不喜欢长发，留长发是为了她后面经常熬夜的少年能够睡个安稳不被老师发现。结果多年不见她已为人妻，原来才知道错过的真的就错过了。 我以为是金星 把慈禧扯都出来了，那武则天的棺材又盖不住了 这样多好 以前上高中经常出去网吧包宿，坐我前面的是一个长发女生，很长的那种。每次上课睡觉她都会把她扎着的头发放开。多年以后同学聚会发现她剪了短发，依然那么漂亮。我很好奇于是我就问她，为什么不留长发了。她说她并不喜欢长发，留长发是为了她后面经常熬夜的少年能够睡个安稳不被老师发现。结果多年不见她已为人妻，原来才知道错过的真的就错过了。 我以为是金星 有点像洪金宝 好像金星 只有我一个人看她是金星？ 年轻的时候还是很不错的 比正常人都显老 只有我一个人看她是金星？ 这样挺好，让我们看到了老年的武则天。 小编到这个年纪可能早都进小盒了，还特么笑话别人 吓得我蛋都缩回去了 没有，我也看成金星了。 60多的人本来就是这样 口下留德吧，过去讲也是老人了，虽然大家都不喜欢。 钱还是没有给到位，哈哈 免费给你们cao你们要不要？ 这个颂👍👍 2018年要续费了 都这把年纪了，就顺其自然吧！ 人家也是六十多了保养算不错了别那么苛刻了 以前上高中经常出去网吧包宿，坐我前面的是一个长发女生，很长的那种。每次上课睡觉她都会把她扎着的头发放开。多年以后同学聚会发现她剪了短发，依然那么漂亮。我很好奇于是我就问她，为什么不留长发了。她说她并不喜欢长发，留长发是为了她后面经常熬夜的少年能够睡个安稳不被老师发现。结果多年不见她已为人妻，原来才知道错过的真的就错过了。 60多岁人的正常状态，所谓什么“冻龄”、“逆生长”都是扯。 人到了一定年纪，就不需要太多装饰，返璞归真反而更能赢得口碑 还没生过小孩，能比吗 这才是我们的刘奶奶 已经非常不错了 吓得我蛋都缩回去了 这不是金星么 我以为是金星 城中村就有，50一次 以前想上，现在看了，硬不起来了 再看一遍她的武则天还是经典 已经很不错了，这个岁数 这样很正常啊。我觉得这才正常，毕竟年纪在那里放着， 我在吃早饭，吐了 还不续费？ 真正的大湿 赋得苍井空回归家庭<br>名伶潇洒现胸怀，不使明艳坠尘埃。<br>童颜一媚千枝起，万花零落一蕊开。<br>不掩流泉汩汩水，人间百态入画来。<br>东渡沧溟来华夏，清歌曼妙舞高台。<br>屌丝相争睹颜色，恨不一揽入心怀。<br>肤似玉，质玲珑，平生磊落一片白。<br>不似中国官家妓，曲曲高歌颂昇平。<br>闻君入厨思柴米，我泣清泪何为情。<br>伴我青葱少年夜，与我中霄舞娉婷。<br>始知从今梦中见，长恨人间再不逢。 反正我是下不去屌，我在她面前就是个阳痿，可以了吧😄 哥，那是证明你还没修练到收放自如。 这帝王绿的手镯好喜欢 需要长期充值才能保证年轻 真颜，挺好看的 网易：您的超级VIP已过期，请及时充值~~~~~~~~~~过两天，P过的刘奶奶又会和大家见面了 欠费了 真的太少了，以真面目示人太难了。 60多了，你还想怎样 角度问题，有什么奇怪 你要不说是晓庆，我以为是金星 60多岁人的正常状态，所谓什么“冻龄”、“逆生长”都是扯。 吓死 这还画过浓妆的哟…… 刘奶奶好！ 安静优雅的老去不好吗？像林青霞那样。 挺好的啊，60了还保持这样，你们还有啥要求？人家什么样和你们有个毛关系 毕竟这年纪了，算不错了。 平时保养的好罢了，每个人都不一样，有的四十岁的跟个六十岁的一样 口下留德吧，过去讲也是老人了，虽然大家都不喜欢。 正常 像金星 已经60岁了已经保养的很不错了一般六十岁的都没有保养这么好的吧 关键是要-----自重 免费给你们cao你们要不要？ 已撸 绝对不是真人，肯定是蜡像 岁月无情、满目沧桑。 笑眼角没皱纹，不错 看封面还以为是金星。 老态龙钟，打精子都没卵用了！ ",
        "Reply": 274,
        "Link": "http://comment.ent.163.com/ent2_bbs/PHOTJNRF000300AJ.html",
        "Total": 4941
    },
    "KeyWords": "刘晓庆,",
    "URL": "http://ent.163.com/photoview/00AJ0003/647023.html"
}