{
    "Source": "Netease",
    "KeyWords": "手机,中学生,暴力",
    "Title": "中学生被父母没收手机 校园内挥刀威胁奶奶交出来_网易新闻",
    "PublishTime": "12/25/201713:52:02",
    "URL": "http://news.163.com/17/1225/13/D6GO13J70001875P.html",
    "Article": "#endText.video-infoa{text-decoration:none;color:#000;}#endText.video-infoa:hover{color:#d34747;}#endText.video-listli{overflow:hidden;float:left;list-style:none;width:132px;height:118px;position:relative;margin:8px3px0px0px;}#entText.video-lista,#endText.video-lista:visited{text-decoration:none;color:#fff;}#endText.video-list.overlay{text-align:left;padding:0px6px;background-color:#313131;font-size:12px;width:120px;position:absolute;bottom:0px;left:0px;height:26px;line-height:26px;overflow:hidden;color:#fff;}#endText.video-list.on{border-bottom:8pxsolid#c4282b;}#endText.video-list.play{width:20px;height:20px;background:url(http://img1.cache.netease.com/video/img14/zhuzhan/play.png);position:absolute;right:12px;top:62px;opacity:0.7;color:#fff;filter:alpha(opacity=70);_background:none;_filter:progid:DXImageTransform.Microsoft.AlphaImageLoader(src=\"http://img1.cache.netease.com/video/img14/zhuzhan/play.png\");}#endText.video-lista:hover.play{opacity:1;filter:alpha(opacity=100);_filter:progid:DXImageTransform.Microsoft.AlphaImageLoader(src=\"http://img1.cache.netease.com/video/img14/zhuzhan/play.png\");}if(/(iPhone|iPad|iPod|Android|NETEASEBOBO|blackberry|bbd+)/ig.test(navigator.userAgent)||/safari|chrome|firefox/i.test(navigator.userAgent)&&navigator.plugins&&!navigator.plugins[\"ShockwaveFlash\"]){varstr1='<videocontrols=\"controls\"preload=\"auto\"width=\"100%\"poster=\"http://vimg3.ws.126.net/image/snapshot/2017/12/0/S/VU5ISMC0S.jpg\"style=\"max-height:100%\">';varstr2='<sourcetype=\"video/mp4\"src=\"http://flv.bn.netease.com/videolib3/1712/25/QIqXZ9335/SD/QIqXZ9335-mobile.mp4\">您的浏览器暂时无法播放此视频.</video>';document.getElementById(\"FPlayer1404863609673\").parentNode.innerHTML=str1+str2;}中学生校内挥刀，威胁奶奶交出手机（来源：original）window.NTES&&function(d){varf=function(c){varb=c.getAttribute(\"flashvars\"),a=c.getAttribute(\"repovideourl\").replace(\".flv\",\"-mobile.mp4\");h=d(c.parentNode.parentNode.parentNode),g='<embedsrc=\"http://v.163.com/swf/video/NetEaseFlvPlayerV3.swf\"flashvars=\"'+b+'\"allowfullscreen=\"true\"allowscriptaccess=\"always\"quality=\"high\"wmode=\"opaque\"width=\"100%\"height=\"100%\"type=\"application/x-shockwave-flash\"/>';if(/(iPhone|iPad|iPod|Android|NETEASEBOBO|blackberry|bbd+)/ig.test(navigator.userAgent)){g='<videocontrols=\"controls\"preload=\"auto\"width=\"100%\"height=\"100%\"><sourcetype=\"video/mp4\"src=\"'+a+'\">您的浏览器暂时无法播放此视频.</video>';}h.$(\".video\")[0].innerHTML=g;},e=function(b){vara=d(b.parentNode.parentNode.parentNode);a.$(\"li\").removeCss(\"on\"),b.addCss(\"on\"),a.$(\".video-title\")[0].innerHTML=\"string\"==typeofb.textContent?b.textContent:b.innerText,a.$(\".video-title\")[0].setAttribute(\"href\",b.getAttribute(\"url\")),a.$(\".video-from\")[0].innerHTML=\"（来源：\"+b.getAttribute(\"source\")+\"）\",f(b);};window.continuePlay=function(){vara,b=d(d(\".video-list.on\")[0].nextSibling);3==b.nodeType&&(b=d(b.nextSibling));if(b&&d(\".video-innerinput\")[0].checked){e(b);}},function(){vara={init:function(){if(d(\".video-listli\")[0]){d(d(\".video-listli\")[0]).addCss(\"on\"),this.eventBind();}},eventBind:function(){d(\".video-listli\").addEvent(\"click\",function(b){e(d(this)),b.preventDefault();});}};a.init();}();}(NTES);【父母没收手机，男生校内挥刀，威胁奶奶交出来】12月23日，江苏盐城，一中学男生因父母不让带手机到学校，在校内挥舞刀具，威胁奶奶交出手机。围观家长报警后，男生被制服，交由父母教育。本文来源：一手video责任编辑：赵亚萍_NN9005",
    "Comment": {
        "Content": "是啊，为什么不能躺在豪华床上听课的权利？为什么绑着人要40分钟听课，不能休息40分钟？这不是权利？ 会有一群傻逼家长和你探讨人权[狗] 老子真的烦这些边走路边抽烟的人，你说你在咖啡馆餐厅抽烟大不了老子闻到了不进来吃东西就行了，尼玛的比走路抽烟老子跟在后面闻一路的二手烟草尼玛的。真几把没素质！不要说老子也抽烟矫情装高尚什么的，尼玛的比就算抽烟的人也不愿意闻二手烟啊，起码老子没在公共区域祸害你们啊，越戒烟越觉得这些比该死！ 所以说现在应该禁止生育，看看生出来的都是些什么玩意儿！ 马话疼给害的！！！ 烂孩子，这得惯成什么吊样子了？ 估计是个b站爱国废物 注销了重来吧。 就这点出息 前一段大家都支持中小学生在校内禁用手机，某些傻逼就唧唧歪歪上升到人权了。 号废了，建议注销，重新练一个 那是你表弟学校里没有在校园里挥刀的，所以关键是现在有些所谓的学生都是些什么玩意？ 这算什么，以前我们那边还有学生被管得太严就向家长告状，结果家长跑去学校打老师。（小学） 有出息，再大一点就拿两把菜刀去闹那个啥了 麻花藤：家长应该有教育学生不玩游戏的能力、责任和义务 这样的小孩打死拉到 这孩子算是彻底完了 我猜不是王者荣耀打多了 有的我表弟高中生，学校不让带。 自生自灭吧 这种垃圾就该拉去枪毙，目无尊长，不知何为礼义廉耻 这种东西，比较适合过去抓住先胖揍一顿的做法。 没收的不是手机，没收的是王者农药 教育主管部门应作出规定，凡在校学生，一律禁用智能手机，为了孩子的生命与学业。 熊孩子是多少家长与键盘侠和圣母婊惯出来的？ 号练废了！！！ 农药害人不浅啊 那你赶紧上车，到时看争遗产的时候再回来看你的帖子 来得及再练一个吗?这个废了咯，麻蛋的在校园内持刀对祖母，怎不敢在家对父母呢？[不屑] 算小孩18岁，那也就出生5000多天。他父母那么快就把号练废了，也是人才。 这种垃圾不赶紧人道毁灭，难道还要留着过年吗？ 在美国就被一枪撂倒了。 没收的不是手机，没收的是王者农药 谁来执行？老师你敢执行看看! 国家放开二胎政策是有道理的。 高三学生魏罡：我知道与女学生在教室接吻不对，违反了校纪校规。但话说回来，宪法又没有规定未成年人不得在教室接吻，学校凭什么处理我？明显学校违法。水均益：中国学生的法律意识在觉醒，下面观众掌声一片。 这一代的号废的真不少 有些中学生连老师都敢打了 是啊，为什么不能躺在豪华床上听课的权利？为什么绑着人要40分钟听课，不能休息40分钟？这不是权利？ 会有一群傻逼家长和你探讨人权[狗] 这脾气。。。到社会那得被人弄死啊 马话疼给害的！！！ 有出息，好！就这样下去！ 说明这款游戏做得好 就这点出息 前一段大家都支持中小学生在校内禁用手机，某些傻逼就唧唧歪歪上升到人权了。 那是你表弟学校里没有在校园里挥刀的，所以关键是现在有些所谓的学生都是些什么玩意？ 这个可以送那些什么戒瘾中心 那看来领袖的种族计划还真是罪在当代利在千秋啊 有出息，再大一点就拿两把菜刀去闹那个啥了 没收的不是手机，没收的是王者农药 老子真的烦这些边走路边抽烟的人，你说你在咖啡馆餐厅抽烟大不了老子闻到了不进来吃东西就行了，尼玛的比走路抽烟老子跟在后面闻一路的二手烟草尼玛的。真几把没素质！不要说老子也抽烟矫情装高尚什么的，尼玛的比就算抽烟的人也不愿意闻二手烟啊，起码老子没在公共区域祸害你们啊，越戒烟越觉得这些比该死！ 都持刀伤人了还家长教育 注销了重来吧。 高三学生魏罡：我知道与女学生在教室接吻不对，违反了校纪校规。但话说回来，宪法又没有规定未成年人不得在教室接吻，学校凭什么处理我？明显学校违法。水均益：中国学生的法律意识在觉醒，下面观众掌声一片。 自生自灭吧 反正学校又不能管学生。打不了么。打了父母又舍不得。是不是。变成这位做父母的高兴坏了吧[窃笑] 没收的不是手机，没收的是王者农药 教育主管部门应作出规定，凡在校学生，一律禁用智能手机，为了孩子的生命与学业。 熊孩子是多少家长与键盘侠和圣母婊惯出来的？ 谁来执行？老师你敢执行看看! 有些中学生连老师都敢打了 野猫出入对校园存在安全隐患?老鼠学校? 这种垃圾不赶紧人道毁灭，难道还要留着过年吗？ 国家放开二胎政策是有道理的。 这一代的号废的真不少 我最近发现个现象，周围拿手手机玩游戏的，不管男女，基本都是农药 你比大吧，有他有出息没有。一过了18，他保证老老实实。 所以说现在应该禁止生育，看看生出来的都是些什么玩意儿！ 烂孩子，这得惯成什么吊样子了？ 估计是个b站爱国废物 麻花藤：家长应该有教育学生不玩游戏的能力、责任和义务 哈哈 新短大 这种东西，比较适合过去抓住先胖揍一顿的做法。 号废了，建议注销，重新练一个 我猜不是王者荣耀打多了 有的我表弟高中生，学校不让带。 这种垃圾就该拉去枪毙，目无尊长，不知何为礼义廉耻 这算什么，以前我们那边还有学生被管得太严就向家长告状，结果家长跑去学校打老师。（小学） 这孩子算是彻底完了 在注册一个账号吧。 号练废了！！！ 农药害人不浅啊 那你赶紧上车，到时看争遗产的时候再回来看你的帖子 赶紧回收了吧！ 平时不教育，犯错靠暴力…… 算小孩18岁，那也就出生5000多天。他父母那么快就把号练废了，也是人才。 他有条件玩别的了都不会玩手机同情他 在美国就被一枪撂倒了。 这样的小孩打死拉到 来得及再练一个吗?这个废了咯，麻蛋的在校园内持刀对祖母，怎不敢在家对父母呢？[不屑] ",
        "Reply": 54,
        "Link": "http://comment.news.163.com/news_shehui7_bbs/D6GO13J70001875P.html",
        "Total": 892
    }
}