{
    "URL": "http://ent.163.com/photoview/00AJ0003/646992.html",
    "Article": "宋祖儿街边买凉皮不惧镜头热情打招呼上海，日前，在上海街头记者发现了一个熟悉的背影。车子开过路口通过镜头记者确认此人正是童星出道的宋祖儿。当天宋祖儿头顶丸子头，身着T恤短裤似邻家少女，非常接地气的是她独自一人站在一家简陋的凉皮店门口排队。这种街边摊记者也很少见到有明星光顾看来宋祖儿骨子里依旧是个孩子。见到记者在附近拍摄宋祖儿不但没有意外或者生气而是非常友好的挥手打招呼，据悉当天记者身旁的朋友还得到了一份宋祖儿亲子送上的凉皮，实在是非常感谢值得送上一个赞。买完凉皮之后宋祖儿与助理一行人在街边上车回到了下榻的酒店办理入住。",
    "KeyWords": "宋祖儿,",
    "Source": "Netease",
    "Comment": {
        "Reply": 61,
        "Content": "这个宋祖儿是宋太妃的妹妹吗？ 看成容祖儿了，这货是谁？ 不认识 日前多少日前说清楚我保证不打死你 这是夏天的事儿吧，现在发。 白天买凉皮，晚上卖肉。 差点看成宋祖德街边卖凉皮。 日前上海大冬天晚上有那么多人穿短裤骗鬼哦…… 半年前的新闻 就这季节，上海穿短袖短裤……你来试试 难得有人肯拍照，多不容易，还不打招呼？ 别说上海，广东这边也没法穿短袖出门。 不认识 不化妆也是个路人脸啊 她家开肉店吗？ 近期没新闻了没办法 宋祖德的儿子叫宋祖儿 看成英子了 蛤蛤 这货是谁，和宋祖德啥关系[惊讶] 都没人认识，打什么招呼？哈哈 麻痹，这是冲了多少钱啊，真想红拍视频啊！！够骚够浪够开放，就能炮炮得红！ 哈哈哈哈哈哈哈哈哈哈哈哈哈哈哈哈哈哈哈哈哈哈哈哈哈哈哈哈哈哈哈哈哈哈哈哈我爱软妹！ who？ 我看成宋祖英啦[晕][晕] 这是夏天的事儿吧，现在发。 上海现在气温多少度？ 看成宋祖德了 宋祖儿是谁？宋祖英的女儿？容祖儿同母异父妹妹？ 挺好看啊 这谁 上海街头？日前？ 别说上海，广东这边也没法穿短袖出门。 宋祖德的女儿？ 容祖儿的经纪人发了个小红包给网易小编，让她编新闻，小编嫌弃5元红包太小，就翻出夏天的照片开黑，小编得罪不得。 这个宋祖儿是宋太妃的妹妹吗？ 哪吒 反应半天也不知道是谁 不冷吗 不认识，别炒了 白天买凉皮，晚上卖肉。 反正很漂亮非常漂亮 就这季节，上海穿短袖短裤……你来试试 难得有人肯拍照，多不容易，还不打招呼？ 宋太祖的女儿，简称容祖儿 日前多少日前说清楚我保证不打死你 上海这么热？ 大佬是冰狗呀 到底是宋祖德还是容祖儿？ 看成宋祖英了[被黑] 上海现在这天气吗 差点看成宋祖德街边卖凉皮。 这特么是谁？ 日前你妹，现在什么季节？就算这小妹不怕冷，卖凉皮的也不怕？ 哪吒 看成容祖儿了，这货是谁？ 宋祖儿？宋祖德的儿？ 小编，你的日前是日多前？ 在这种地方买吃的，真接地气 难得被记者认出来当然高兴了 冬天上海都穿短袖，小编脑子有💩 看成容祖儿了，这货是谁？ 不认识 宋祖儿非常漂亮，嫩的能掐出水，非常喜欢她🌺🌹 上海真的不冷吗 上海这么热吗[不屑] 容祖儿，宋祖儿，宋祖德，分不清 看成宋祖德了 上海好热，是夏天 别日前了，现在是大冬天，个个都穿短袖短裤？你也不怕说话闪了舌头，真是什么都敢瞎写！ 日前上海大冬天晚上有那么多人穿短裤骗鬼哦…… 半年前的新闻 我TM看成宋祖英了 看成宋祖德，宋祖英，容祖儿，想想都不对啊，宋祖儿是谁，没听说过啊 ",
        "Total": 568,
        "Link": "http://comment.ent.163.com/ent2_bbs/PHOTJNQG000300AJ.html"
    },
    "PublishTime": "12/31/201708:01:02",
    "Title": "宋祖儿街边买凉皮 不惧镜头热情打招呼_网易娱乐"
}