{
    "Title": "在京高校放寒假时间出炉 长短可相差半个多月_网易新闻",
    "URL": "http://news.163.com/17/1226/20/D6JVJK9Q0001899N.html",
    "KeyWords": "寒假,暑假,京高校",
    "PublishTime": "12/26/201720:02:13",
    "Article": "（原标题：在京高校放寒假时间出炉长短可相差半个多月）本报讯对于大学生来说，随着元旦的来临，寒假的脚步也越来越近了。近期在京部分高校已经公布了寒假放假时间，记者梳理发现，一些高校假期长短竟然相差超过了半个月。有至少3所高校的寒假时间超过了50天，分别是中国政法大学、中央戏剧学院和北京师范大学。其中寒假时间最长的是中央戏剧学院，学生从2018年1月15日开始放假，可以一直休息到3月8日，假期足足跨越了3个月份，长达53天。为何寒假时间会长短不一呢？记者咨询了部分高校的教务处负责人。他们告诉记者，学校每学期的时间长短是根据教学计划自主安排的，由教学周和考试周组成，有的学校还有小学期，加上开学新生报到的日期也不同，所以寒假时间也就不一样了。对于那些寒假已经超过了一个半月的高校，老师们提醒学生“不要高兴得太早”，同样因为相对固定的教学周，寒假时间长的高校，明年开学晚，就意味着暑假开始晚了，暑假的时间也很可能就短了，“平均一算四年下来，大家的假期总时间其实是差不多的。”人民大学一位老师对记者说。部分在京高校寒假时间●中戏1月15日至3月8日53天●政法大学1月6日至2月25日51天●北师大1月13日至3月3日50天●北大1月15日至2月25日42天●清华1月22日至2月25日35天●人大1月22日至2月25日35天●城市学院2月5日至3月11日35天●农大(本科生)1月29日至3月4日35天具体以各高校公布为准本文来源：北京晚报责任编辑：张海桐_NN9053",
    "Comment": {
        "Content": "保持平和的心境 这事真没什么毛病，岔开几天放假日期放假其实挺好。 放假时间 不停的雨 ",
        "Total": 4,
        "Link": "http://comment.news.163.com/news2_bbs/D6JVJK9Q0001899N.html",
        "Reply": 4
    },
    "Source": "Netease"
}