{
    "Article": "",
    "KeyWords": "网易订阅、rss、新闻、资讯",
    "Source": "Netease",
    "Title": "猪也能飞上天空？美苏两国曾经研制的升力体航天器_网易订阅",
    "Comment": {
        "Link": "http://comment.war.163.com/news_junshi_bbs/D6OR63E1051593PM.html"
    },
    "URL": "http://dy.163.com/v2/article/detail/D6OR63E1051593PM.html",
    "PublishTime": "12/28/201717:21:12"
}