{
    "URL": "http://ent.163.com/17/1228/05/D6NJUHAI00038FO9.html",
    "Comment": {
        "Reply": 301,
        "Content": "以目前的社会经济环境，如果停止动迁、征地，肯定会影响人民币汇率；土地问题不应该仿照封建王朝土地所有权制度。如果居里夫人的故事能搬上荧屏、居里夫人的著作能够让大家熟知或者我国与居里夫人有关的人或物成为人民币的标志性图案，那也肯定会对人民币汇率产生辐射的。动迁、居里夫人是人民币汇率的相关因素。 人渣缺失道德责任。有脸出来。 你都还只能感觉，人家在一起过了还不比你知道哪个适合，我还感觉你是个傻逼呢！某些旁观者的嘴脸真G8恶心，正常离婚后再找别人生小孩你管人家几个姓关你屁事。 人家怎么就人渣，就道德责任缺失了！你个傻逼都有脸出来人家怎么就没有脸出来了！ 怎么看都是一路人样儿，真不知道记者编辑们是从哪看出来的星味？ 老的泡小妹，小的泡大姐，真够邪的。 是真不知道还是装不知道？别管王菲和李亚鹏因为什么离婚的，至少她离婚时说是一心向佛想出家，就这么出家的？出家后不能“六根清净”“还俗”了？离婚的时候把大女儿窦靖童甩给不是亲生父亲的前夫李亚鹏，这种事情不渣？我也很喜欢她的唱的歌，但是我鄙视她的人品！德艺双馨可不是那么好安在自己脑袋上的。 对王菲来说，谢霆锋确实是王菲最满意的一个男人， 就是啊那谢霆锋和王菲分别离婚后应该找谁你们才满意啊积点口德吧人家在不在一起都没有碍你们的事儿 王婊恶心 这有什么，人家至少每一段都拿得上台面，结束一段感情才开始另一段，孩子也照顾的好好的，比起现在那些偷鸡摸狗，一大片出轨的不知道要干净多少！ 众多古装影视作品过度描写了封建社会的不平等的等级制度以及封建主夸张的物质生活条件，其中自然会折射出封建社会的腐朽王朝土地所有权关系。这些应该被批判，而不是赞美。不应该过度反映封建社会的意识形态和生活方式。 最开始在一起的俩人真的很喜欢，抛弃世俗眼光，可以说是姐弟恋始祖了。但分手后彼此重新组建家庭，最重要是各自都有了孩子…现在抛弃家庭又选择在一起，我不觉得这是所谓的真爱。真爱难道不应该是即便分手，也不会随随便便找别人结婚生子么？祸害了别人，另三个小孩变成单亲家庭的孩子。其实就是自私的两个人凑到了一起！ 又甜又腥[羞羞] 李亚鹏哪差了？我怎么感觉王菲几个男人中，李亚鹏是最适合结婚过日子的男人？反倒是那几个，都不大靠谱。虽然外人不知道详细，但是从公开的东西看来，我觉得是这样。 我也不知道为什么那么多人喷谢和王？都是单身，离婚的人那么多，有什么好喷的？那些不离婚却乱搞男女关系的人才更恶心吧！ 霆锋跟我口味差不多 年轻人希望你明白没有什么东西是永恒的爱只能代表现在曾经他俩真心相爱但分手之后他也是真心的爱张柏芝啊不然怎么会忍那么多年的绿帽？抛弃家庭？怕是被家庭抛弃吧张柏芝那么不检点不给面子谁受得了啊 那个镜头中王大妈丑出了天际，王大妈那一刻成了一个笑话，十几年后谢渣再次找上王大妈，王大妈又一次成了一个笑话，给大家茶余饭后的谈资，笑柄，所以王大妈一生都是在传奇和笑话中度过 学生：老师，您教的都是一些没用的东西，<br><br>老师：我不许侣们这样说记己。 说到张柏芝，我想你应该也只是不明真相的围观群众，艳照门发生在结婚前，哪来的绿帽？飞机合影，流出来的一直都是ps合成照片，香港娱乐周刊那么八卦都没爆出证据来。艳照门刚刚爆发的风头浪尖上，谢霆锋马上选择离婚，和他挺身而出陪老婆一起度过难关，哪个对他来说更有利？背后没有经纪人没有团队左右他的决定么？等风头过了随便找个借口离婚就好了啊，那样人人都谴责张柏芝，他名利双收 可惜现实中的董卿小姐只知道做小三，傍大款，瞧不上李亚鹏这种软饭男 跟贴被火星网友带走啦~ 王菲信仰佛教[狗] 一定有很多人生失意者和女德班的人会骂你们，但你们一定要幸福。自己的感情不用在乎他们的看法。 腥味 太渣 丑逼淫猴，大陆的媒体跟着肛媒瞎吆喝，把许多丑猴捧起来，它们淫荡下流自私排外品质低劣贪婪，几十年来污染了大陆影视及社会风气。 三家姓奴 星味是一种什么样的味道？ 李亚鹏跟董卿倒是天生一对，两人都太假了，假的让人作呕 黑淫猴看到白花花的大白美腿丰乳肥臀，自是把持不住，翔肛的小母猴哪儿比得哪? 人家至少不会放荡,在一起就本本分分爱的彻底 好像他们都没说过互相坏话吧，试问谁能忍受的了自己老婆跟别人发生关系的照片满天飞？不管前后，虽说结婚前发生关系很正常但是公诸于众我可以说绝大多数人是接受不了的，他们各自都不是婚内出轨，即便在一起也是离婚之后，我不觉得这哪里有问题，那些拿别人孩子说事的，可奇怪的是别人孩子自己都不介意，都觉得没什么，倒是你们觉得人家对孩子不好，搞笑了 装逼货最恶心 学生：老师，您教的都是一些没用的东西，<br><br>老师：我不许侣们这样说记己。 一天一日，一日一天，<br>损害健康，<br>请节日以养生！ 小谢这是先绿帽后软饭啊 淫父荡子浪女，肛猴淫荡的一家。王后真丢咱北京人的脸，跟一只淫猴搞来搞去的，污染基因。 弗洛伊德提出，“本我”（完全潜意识）代表欲望，受意识遏抑；“自我”（大部分有意识）负责处理现实世界的事情；“超我”（部分有意识）是良知或内在的道德判断。 想起当年那个视频，王菲坐在那，小谢和冠稀白纸坐一起。小谢领奖后王菲笑容满面目送小谢坐到白纸旁边和冠希有说有笑，然后一脸落寞 你这个下三滥，孩子不同爸，国外平常事，虽然李亚鹏是差了点 他们两个刚刚交配完成，满身的精子和卵子味，还有王大妈的下水道味 李亚鹏是个好男人，但是他们精神上无法契合。个性相差太远，音乐上也根本无法交流。王菲喜欢窦唯和谢霆锋是必然，喜欢李亚鹏是偶然。那个时候经历了窦和谢两次失败，李亚鹏这种理性男人成功俘获了王菲的心。但他俩本质上不是一路人，所以最终还是分。 甜爆了？还是舔爆了？ 都是戏子而已，把社会搞得乌烟瘴气 快点和王菲生一个孩子吧王菲三个孩子三个姓氏的旷世大业才能完成 腥味！ 谢霆锋装逼心机男人渣！ 还是这句最搞 老谢玩小的<br>小谢玩老的 狄波拉被戴绿帽子？哇 等小谢老了<br>老谢玩小的 说到张柏芝，我想你应该也只是不明真相的围观群众，艳照门发生在结婚前，哪来的绿帽？飞机合影，流出来的一直都是ps合成照片，香港娱乐周刊那么八卦都没爆出证据来。艳照门刚刚爆发的风头浪尖上，谢霆锋马上选择离婚，和他挺身而出陪老婆一起度过难关，哪个对他来说更有利？背后没有经纪人没有团队左右他的决定么？等风头过了随便找个借口离婚就好了啊，那样人人都谴责张柏芝，他名利双收 小便家的猫也经常偷腥，好好管教。 今天早上打完飞机，全弄手上了，然后我就去超市，把黄瓜、茄子、连偶摸了个遍，孩子，爹只能帮，你到这里了 她跟谁都本本分分爱的彻底 远观偶像 百度(毛卑零），就明白大幂幂为什么会火，不知道被多少个名导给潜了，那里真的是黑，去瞧瞧 键盘最恶心 无耻的编辑，媚俗的垃圾新闻 天天出来炒作。 超市在楼下才行。 俩人独立个体都喜欢。凑在一起就不喜欢。俩字。不搭 最开始在一起的俩人真的很喜欢，抛弃世俗眼光，可以说是姐弟恋始祖了。但分手后彼此重新组建家庭，最重要是各自都有了孩子…现在抛弃家庭又选择在一起，我不觉得这是所谓的真爱。真爱难道不应该是即便分手，也不会随随便便找别人结婚生子么？祸害了别人，另三个小孩变成单亲家庭的孩子。其实就是自私的两个人凑到了一起！ 百度(毛卑零），就明白大幂幂为什么会火，不知道被多少个名导给潜了，那里真的是黑，去瞧瞧 小编我日你麻痹能不能不把这俩恶心玩意的新闻放头条了？ 年轻人希望你明白没有什么东西是永恒的爱只能代表现在曾经他俩真心相爱但分手之后他也是真心的爱张柏芝啊不然怎么会忍那么多年的绿帽？抛弃家庭？怕是被家庭抛弃吧张柏芝那么不检点不给面子谁受得了啊 痛苦 真恶心...王贱人真是无敌了 这有什么，人家至少每一段都拿得上台面，结束一段感情才开始另一段，孩子也照顾的好好的，比起现在那些偷鸡摸狗，一大片出轨的不知道要干净多少！ 没事 小张那照片是和谢交往前的照的。 血腥味 这家伙有病<br>他爹都知道吃嫩草 王大妈老了，估计在玩几年水也没有了， 天天装逼。 么有垃圾 那是一种什么样的味道？ 人家在超市厕所打的，没有为什么，就是因为近，方便 不是她是你照顾的吗？ 人家至少不会放荡,在一起就本本分分爱的彻底 我出来 星味是一种什么样的味道？ 百度(毛卑零），就明白大幂幂为什么会火，不知道被多少个名导给潜了，那里真的是黑，去瞧瞧 王菲是真爱谢霆锋，，谢霆锋刚和张柏芝离婚，王菲就和李亚鹏离婚，，之后就和谢霆锋复合，我感觉李亚鹏最无辜，结婚多年从媒体以及合影上没看出王有多爱他 呢额就去 [鄙视][鄙视][挨揍] 娶老婆不怕她有前男友，就怕她找前男友随时来拍个照纪念纪念；买二手车不怕有前车主，就怕前车主还有备用钥匙，随时来开一圈还拍个照片发朋友圈；买廉租房不怕有前住户，就怕前住户还有备用钥匙，随时进来玩玩还拍个照发朋友圈。<br>支持小谢不做老实人。张柏芝不过是10年前的马蓉。 腥味 节水节电，这又节日了 好像他们都没说过互相坏话吧，试问谁能忍受的了自己老婆跟别人发生关系的照片满天飞？不管前后，虽说结婚前发生关系很正常但是公诸于众我可以说绝大多数人是接受不了的，他们各自都不是婚内出轨，即便在一起也是离婚之后，我不觉得这哪里有问题，那些拿别人孩子说事的，可奇怪的是别人孩子自己都不介意，都觉得没什么，倒是你们觉得人家对孩子不好，搞笑了 母狗交配还不掩饰呢 [狗][鄙视] 哈哈哈哈，太幽默 恶腥 快点和王菲生一个孩子吧王菲三个孩子三个姓氏的旷世大业才能完成 王菲每次谈恋爱都不去掩饰也不卖什么人设，谈的都是结婚对象，不觉得她有什么错，她比其他女明星单纯干净多了，谢霆锋这么多年对她念念不忘，可见当年的感情是真的，真的很爱，可惜那时候小谢太年轻，对年轻漂亮女孩子都幻想，可好，娶了大美女张才知道女明星都这么不堪这么滥，还是王菲真的爱他 哪个孩子是她照顾的？？？ 不清楚张柏芝是不是马蓉，但李亚鹏绝对是男版翟欣欣，胃口比翟欣欣还要大 股市涨不涨就靠您了 一淫妇+一傻逼。 他们两个刚刚交配完成，满身的精子和卵子味，还有王大妈的下水道味 那又如何谁看了都接受不了，不管婚前婚后 和男票三个月,感觉好像没经历啥热恋期?前几次约会还很心跳,后来就直接老夫老妻了... 人渣。 男人的心思，女人不懂 你可以去拿钱了 天天节日，节日 不是因为人好或人差才离婚，鞋子总隔脚，换一双是最好的办法。 变态 老的泡小妹，小的泡大姐，真够邪的。 现在人的三观好像觉得离婚见不得光，出轨光明正大似的 骚味 甜尼玛勒个比，是舔爆了吧 那地方够骚不味大不 看出一身冷汗来，这里都是姓脏的！ 这有什么，人家至少每一段都拿得上台面，结束一段感情才开始另一段，孩子也照顾的好好的，比起现在那些偷鸡摸狗，一大片出轨的不知道要干净多少！ 齁甜 明星味：一种又咸、又湿、又有点粘、鼻子闻起来刺激，让人欲罢不能的味道。 败没败不清楚，利用阿菲那一堆人脉去挣钱才是致命的。一婚前不入流戏子，婚后敢夸口比她有钱多了，敢到处养情妇+去赌场豪赌钱哪来的？那些说李亚鹏好的祝他们跟李百年好合。聪明的自然会躲远点 这回傻逼真不是3楼，是你自己啊。 其实大家都看出来了，和某人比，王真是好多了，谢也不傻 真的是爱情，整个人都变了 这回傻逼出在3楼 李亚鹏哪差了？我怎么感觉王菲几个男人中，李亚鹏是最适合结婚过日子的男人？反倒是那几个，都不大靠谱。虽然外人不知道详细，但是从公开的东西看来，我觉得是这样。 可惜现实中的董卿小姐只知道做小三，傍大款，瞧不上李亚鹏这种软饭男 努力中。。。 生个孩子就叫谢兜里 强烈建议央视所谓的一姐董卿和李亚鹏立即成婚，这两货太假了，天生一对！！ 不要脸 建议下次不要再登这两人渣的信息了，看着别扭。 难道就想不起来和孩子过节吗？他们爹又没死 老婆不怕她有前男友，就怕她找前男友随时来拍个照纪念纪念；买二手车不怕有前车主，就怕前车主还有备用钥匙，随时来开一圈还拍个照片发朋友圈；买廉租房不怕有前住户，就怕前住户还有备用钥匙，随时进来玩玩还拍个照发朋友圈。<br>支持小谢不做老实人。张柏芝不过是10年前的马蓉。三楼是拿了钱才出来发言的么？为何以小人之心揣度二楼？ ==///......这些人口味都挺重的，王菲哪好呀？ 坐在家里，喝点茶水，看看老电影[地下游击队，伏击战，列宁在十月，铁道卫士，宁死不屈，苦菜花，摘苹果的时候，看不见的战线，冰山上的来客，八个样板戏，卖花姑娘，节振国，英雄虎胆，渡江偵察纪，白毛女，红色娘子军，小兵张嘎，奇袭白虎团，矿灯，地道战，地雷战，].......................等等，在吃点水果，嗑点瓜子，抽根烟，喝点绿茶................. 垃圾怎么洗都洗不白 弗洛伊德的心理学什么都能和性扯上 快赶上六位地王玩了 人家早就在正式离婚前协议离婚了，早就貌合神离了，李亚鹏没离婚前到处沾花惹草，又是牵手门又是激吻门，经常逛夜店，换作别人早离了。现在看来周迅瞿颖还是比较幸运，早早摆脱了这个瘟疫一样的男人，偏偏还是有无良媒体为了博收视，整天邀请李瘟疫到处参加节目圈钱，帮李亚鹏打造好爸爸形象，一个吃软饭到处招摇撞骗人是好爸爸？ 怎么那么多水军？！ 腥味 老子喜欢嫩的儿子喜欢老的。。。嘿这一家子好凌乱~~~ 星味是一种什么样的味道？ “我们天天都是节---日”， 我是一名13岁的女孩，因为我长得比较可爱吧，追我的男生特别多，但是我一个也不喜欢他们，我喜欢比较成熟一点的男性，也许这就是小女生常有的大叔控心理吧。但是那些男人老缠着我特别讨厌，所以有我经常就在百度贴吧里抱怨。有一次一个ID叫被洗刷的大脑的叔叔一直回复我，安慰我，我真的好感动。然后我就加了他的qq和他聊了起来。后来我们聊的非常熟悉了他就约我见面，让我难以置信的是他居然和我在一个地方。那天晚上，他拉了我的手我没有反抗他，我喜欢他这样的男人，他很风趣，不断的赞美我，在我们分开的时候他吻住了我的嘴唇，这是我的初吻，我越想挣脱他越抱紧我，我索性的放弃了抵抗，任凭他尽情的亲吻。他告诉我他爱我。其实我内心也喜欢他。终于在后来的会面中我把我的第一次给了他，那天我的血染红了整个床单，他把我搂在怀里说会好好爱我。就这样，我们一直保持着这样的关系，我们几乎天天都要做。后来我怀孕了，月经几个月没来，然后妈妈带着我去医院检查，然后家人就知道了我有了，他们逼着我说出男的是谁，但是我誓死也没说。我哭着告诉他，他对我说，我们私奔吧，他说他会对我好。我相信他，于是跟着他一起跑来了东莞，他带着我打掉了孩子。但是后来我发现他出轨了，他经常很晚才回来，而且我想要和他做他都拒绝我。我翻他手机发现他叫别人亲爱的，老婆什么的。我的世界一下子就变得灰暗了。我跟他吵了起来，他并不否认他的出轨行为，还打了我。我关在屋里哭了一天一夜，第二天他来给我道歉，说带我去吃好吃的。我心里还爱着他所以也原谅了他，谁知道他居然把我带到了一家按摩店，让我做失足，我不干他就对我拳打脚踢，我在他们威胁下不得不去接客，他们天天让我吃避孕药接客，说客人不带套会多给钱，在不断的摧残下我染上了各种病，昨天我终于忍不住和他们吵了起来，我不断的向他们摔东西，枕头，茶杯，包什么的，但是我包里装有个iphone，不小心把iphone屏幕摔坏了，所以我想问哪儿可以修屏幕？ 什么玩意啊？成天咋都他俩的新闻啊 嘴毒要绝后 快点和王菲生一个孩子吧王菲三个孩子三个姓氏的旷世大业才能完成 这样的状态真的是挺好的😊 弗洛伊德提出，“本我”（完全潜意识）代表欲望，受意识遏抑；“自我”（大部分有意识）负责处理现实世界的事情；“超我”（部分有意识）是良知或内在的道德判断。 哈哈，和其他人的不懂，当年婚前和王菲及张柏芝的这一段其实是脚踩两条船。他的各种绯闻也不少，他和陈冠希一直是好基友，直到艳照门。他和陈的区别是什么？没有摄影的爱好？没有去修电脑？ 你这个下三滥，孩子不同爸，国外平常事，虽然李亚鹏是差了点 先修好你的菊~~~花~~~~~ 他们两个刚刚交配完成，满身的精子和卵子味，还有王大妈的下水道味 傻逼 先修好你的菊花吧！ 不油了 现在全中国只有小泻能日王菲的逼。好像很牛逼。 李亚鹏跟董卿倒是天生一对，两人都太假了，假的让人作呕 以目前的社会经济环境，如果停止动迁、征地，肯定会影响人民币汇率；土地问题不应该仿照封建王朝土地所有权制度。如果居里夫人的故事能搬上荧屏、居里夫人的著作能够让大家熟知或者我国与居里夫人有关的人或物成为人民币的标志性图案，那也肯定会对人民币汇率产生辐射的。动迁、居里夫人是人民币汇率的相关因素。 当然是王婆婆的腥味 年轻人总说看不透爱情，等你看透了你自然发现合适最重要，现在的恋爱欲望是放在前面的，等到激情过后还有什么？ 星味是一种什么样的味道？ 你是说那个一张票千元起步的戏子吗 怎么看都是一路人样儿，真不知道记者编辑们是从哪看出来的星味？ 你可以跪着叫王婊妈 比你妈强！ 你就羡慕吧。 乱七八糟的家庭关系 太混乱了，小谢也是够了。 你的都是骂人的话 这有什么，人家至少每一段都拿得上台面，结束一段感情才开始另一段，孩子也照顾的好好的，比起现在那些偷鸡摸狗，一大片出轨的不知道要干净多少！ 众多古装影视作品过度描写了封建社会的不平等的等级制度以及封建主夸张的物质生活条件，其中自然会折射出封建社会的腐朽王朝土地所有权关系。这些应该被批判，而不是赞美。不应该过度反映封建社会的意识形态和生活方式。 各自的生活 各自转了一圈后又回来了 苍果儿.. 娱乐圈 先是找个带孩子的单身大姐姐弟恋，好不容易找个媳妇还让全国人民瞻仰个透透彻彻，待那大姐让别人用来生了孩子用够了，他再去接盘，我就不明白有什么好甜的？ 广西省嘛 帽子上有个B 支持 跟芝早已缘尽，他给了大十年的爱情是正常，男女平等。 三姓家奴 书店 我想看他俩孩子长啥样。。。 学生：老师，您教的都是一些没用的东西，<br><br>老师：我不许侣们这样说记己。 对的。王菲活得如此洒脱，其实我很羡慕。并不是每个人都需要被婚姻束缚的。但我们这些平凡人又有不同，要懂得珍惜彼此，太洒脱其实是不对自己负责。 学生：老师，您教的都是一些没用的东西，<br><br>老师：我不许侣们这样说记己。 说的太对了！ 王菲信仰佛教[狗] 我以为是有什么过节 腥味 丑逼淫猴，大陆的媒体跟着肛媒瞎吆喝，把许多丑猴捧起来，它们淫荡下流自私排外品质低劣贪婪，几十年来污染了大陆影视及社会风气。 紫葡萄干味道如何 星味是一种什么样的味道？ 漂亮就要了？艳照门怎么说？虽然谁都有过去，但是一旦曝光，他们肯定就过不下去了，谁都不是圣人。加上曝光后，张在飞机上遇到陈老师，居然一笑泯恩仇，愉快的又合照了，她有考虑过谢的感受？ 黑淫猴看到白花花的大白美腿丰乳肥臀，自是把持不住，翔肛的小母猴哪儿比得哪? 大兄弟，广西是自治区，不好简称，怎么显示？ 现在他们出来只能秀赚眼球了。都黔驴技穷了。 是不是开始时候太热情了,一直觉得开始热情得男人,都是来得快去得快 装逼货最恶心 ＂中港台＂ 这2个字精辟精准精炼妥 也不算什么礼物啦，就是给她买了十盒更年丹！ 快点和王菲生一个孩子吧王菲三个孩子三个姓氏的旷世大业才能完成 淫父荡子浪女，肛猴淫荡的一家。王后真丢咱北京人的脸，跟一只淫猴搞来搞去的，污染基因。 很难理解，张那么漂亮你不要，偏偏去选择又老容貌又普通的王<br>何解？<br>有没大神解读下 你这个下三滥，孩子不同爸，国外平常事，虽然李亚鹏是差了点 你是棺材里爬出来的古董僵尸吗 甭管什么信仰，只要法律上没问题就是没问题。 王婊恶心 甜爆了？还是舔爆了？ 我觉得离婚是对的，不然谢霆锋现在产业事业这么大，万一黑道又来搞事，那就麻烦了，这样更好的保护两个孩子。李泽楷也是这样做的，至少他的三个孩子目前保护得比在一起时好得多 那倒也是，这完全就是外国人的做派，结婚之后严守妇道，单身随便玩！ 所以才以博爱之心广布孽缘～ 总觉得他前世是武大........... 最烦这老逼了 婊子配狗，天长地久 王婆和谢渣 大家快看，他头上有个B。 好妈妈敢死队已经占领这个地区！ 尊敬的广大易友，我是一个三岁孩子的单身母亲。现在在一个三线城市的城郊乡镇，住在一间没有暖气的平房里。因为没有钱交电费，不敢用电暖气，也没有厚被子盖。宝宝的奶粉也快喝完了，孩子的爸爸常年在外，现在已经联系不上，把我们抛弃了。恳请广大易友帮帮我们母子。我在这里叩头感谢大家了。编号：znWhrd17aI。先复制本文，然后打开支付宝就可以帮助到我们了！再次叩谢大家。有钱了，我一定先去买被子和奶粉。 谢渣子天天要吃奶，王婆养的鸭子、自己儿子不要天天照顾王婆，狗男女道德沦丧。 生一个丢一个 王菲是一个命中注定刻薄的女人，谁对她好，谁会掉层皮。那些羡慕王菲生活的人，或许是有心但是不敢这样做。<br><br>王菲的生活方式也就在娱乐圈可以存在。所以她是适合这个时代的，但仅此一人而已。<br>不足为道。 人红总是不会被放过，一个是天后，一个是18岁就红遍亚洲乃至世界的少年 窦唯的女儿和李亚鹏女儿合伙欺负谢霆锋女儿，王菲怎么处理。 就不会离这么多次婚了！ 就是啊那谢霆锋和王菲分别离婚后应该找谁你们才满意啊积点口德吧人家在不在一起都没有碍你们的事儿 感情的事谁能说清楚 说实话，好恶心 这人靠谱 二楼是人才 我也不知道为什么那么多人喷谢和王？都是单身，离婚的人那么多，有什么好喷的？那些不离婚却乱搞男女关系的人才更恶心吧！ 霆锋跟我口味差不多 这有什么，人家至少每一段都拿得上台面，结束一段感情才开始另一段，孩子也照顾的好好的，比起现在那些偷鸡摸狗，一大片出轨的不知道要干净多少！ 都写的什么评论，人家只是看重感情。有必要写那么多邪言恶语吗？ 为啥这么多人喷王菲呢？ 多对自己孩子好点 送孩子吉他也是一种关心，对孩子的关爱也并未像媒体传的那么不堪 就是，这一点就秒杀那些脏货 注重感情是好事 王菲信仰佛教[狗] 一定有很多人生失意者和女德班的人会骂你们，但你们一定要幸福。自己的感情不用在乎他们的看法。 腥味 哟哟哟 星味是一种什么样的味道？ 停疯能舔得爆老司机？？？？？？？？ 天道轮回不明白<br>阴差阳错奇了怪<br>老子莉花压海棠<br>儿子反倒吃剩菜 我有个朋友,跟这作者差不多,也是爱编故事去年走的,走的时候并不安详,尸体在太平间抽搐了三天,火化的时候烧得滋滋响,嘴里还在嚎叫,烧了几个钟头才烧完,烧完以后上了灵车,出门就翻车了,骨灰洒了一地,还被风吹走了不少,刚想把剩下的扫起来,迎面来了一辆洒水车,唉…… 真好 哟哟哟 搞不好了 一天一日，一日一天，<br>损害健康，<br>请节日以养生！ 快点和王菲生一个孩子吧王菲三个孩子三个姓氏的旷世大业才能完成 对王菲来说，谢霆锋确实是王菲最满意的一个男人， 王菲估计不敢生了。生了两个，一个同志，一个兔 你这个下三滥，孩子不同爸，国外平常事，虽然李亚鹏是差了点 一疯就想飞，一飞就会更疯，<br>作死节奏，<br>请收看重口疯味！ 李亚鹏是个好男人，但是他们精神上无法契合。个性相差太远，音乐上也根本无法交流。王菲喜欢窦唯和谢霆锋是必然，喜欢李亚鹏是偶然。那个时候经历了窦和谢两次失败，李亚鹏这种理性男人成功俘获了王菲的心。但他俩本质上不是一路人，所以最终还是分。 最烦这老逼了 郭春海 B帽很拉风 挺好的 小谢这是先绿帽后软饭啊 谢霆锋一直都是敢爱敢恨的人<br>这一点没变过<br>现在成熟了，没有20多岁时那种轻狂了 人渣缺失道德责任。有脸出来。 二楼说的有道理。。。合理合法 天天都是节日，天天有节奏的日 海的味道 人家怎么就人渣，就道德责任缺失了！你个傻逼都有脸出来人家怎么就没有脸出来了！ 王菲快和汪峰一样厉害了，仨孩子三个妈，王菲加油，三个孩子三个姓 是真不知道还是装不知道？别管王菲和李亚鹏因为什么离婚的，至少她离婚时说是一心向佛想出家，就这么出家的？出家后不能“六根清净”“还俗”了？离婚的时候把大女儿窦靖童甩给不是亲生父亲的前夫李亚鹏，这种事情不渣？我也很喜欢她的唱的歌，但是我鄙视她的人品！德艺双馨可不是那么好安在自己脑袋上的。 在办事的时候王菲会不会比较哪个大？ 🐶男女 我要吐了 人渣缺失道德责任。有脸出来。 垃圾疯爱装逼 着实撒了一大把狗粮 “我们天天都是节，日！” 王菲升任联合国秘书长 李亚鹏哪差了？我怎么感觉王菲几个男人中，李亚鹏是最适合结婚过日子的男人？反倒是那几个，都不大靠谱。虽然外人不知道详细，但是从公开的东西看来，我觉得是这样。 跟贴被火星网友带走啦~ 你这都哪儿听来的，王菲离婚后第一条微博澄清的事就是“婚是我要离的，大家别乱猜了”，“我是不会出家了”！离婚时窦靖童在美国上学，哪儿来的甩给李亚鹏呢？你是小道儿新闻听多了，呵呵！李亚鹏婚内多次出轨王菲一字不提，这些都有照片，视频，上网搜搜去！非要把这些都抖出来当个怨妇吗？ 就服你 这爷俩真有意思！ 谢霆锋有绿帽子情结 这有什么，人家至少每一段都拿得上台面，结束一段感情才开始另一段，孩子也照顾的好好的，比起现在那些偷鸡摸狗，一大片出轨的不知道要干净多少！ 那个镜头中王大妈丑出了天际，王大妈那一刻成了一个笑话，十几年后谢渣再次找上王大妈，王大妈又一次成了一个笑话，给大家茶余饭后的谈资，笑柄，所以王大妈一生都是在传奇和笑话中度过 好有爱 想起当年那个视频，王菲坐在那，小谢和冠稀白纸坐一起。小谢领奖后王菲笑容满面目送小谢坐到白纸旁边和冠希有说有笑，然后一脸落寞 古有杨过小龙女，今有王菲谢霆锋 我觉得李才是最好的。适合过日子的男人。 这世上不缺俗人，缺的是敢爱敢恨为自己而活的人 腥味 星味是一种什么样的味道？ 美味 天天都是节日，甜爆了。。 人渣<br>人渣中的人渣 都快绝经了还哪有生育能力更年期都快来了 你特么是傻逼吗，这写的是谢霆锋你特么狗眼瞎了逼逼什么王菲，再说王菲人家女儿都没有说她妈的不是轮得到你来逼逼。 一对破鞋耶[鄙视][鄙视][鄙视] 一队狗男女 过节能节日吗？ 好甜 挺无聊的，这俩渣有啥看头，真不明白 不错的 快点和王菲生一个孩子吧王菲三个孩子三个姓氏的旷世大业才能完成 这就是谢贤当年不负责任，草率离婚的后果，养的儿子泄婷疯严重的恋母情结，不对家庭负责任，被一个老婊子迷得七晕八素。婊子配狗，天长地久！ 这些圣母婊们的思维模式我不懂，谢霆锋应该怎么做才能让你们不喷呢？张柏芝艳门照后又和冠希和好拍照，谢霆锋也应该继续包容继续爱她？还是离婚后跟她争孩子的抚养权，争个你死我活，这样才算是个负责人的好男人吗？！ 总觉得他和王菲这种做法让张柏芝很尴尬，而且希望他也多一点关心孩子。 你这个下三滥，孩子不同爸，国外平常事，虽然李亚鹏是差了点 这种过气的脚踏两只船来来去去的人有什么好报道的别教坏了小孩子还是多宣传一些正能量的明星吧 好好好 啧啧 ",
        "Total": 4966,
        "Link": "http://comment.ent.163.com/ent2_bbs/D6NJUHAI00038FO9.html"
    },
    "Title": "热恋！被问和王菲怎么过节？谢霆锋的回答甜爆了_网易娱乐",
    "Source": "Netease",
    "KeyWords": "谢霆锋,王菲,张柏芝",
    "PublishTime": "12/28/201705:55:25",
    "Article": "网易娱乐12月28日报道据台湾媒体报道，艺人谢霆锋出道多年影歌视三栖，如今已是中港台一线娱乐大咖，而他和女友王菲纠葛11年的感情故事，至今仍是话题不断。而他近日似乎是和女友感情稳定，受到爱情滋润连心都软了一点，向来对私人生活守口如瓶的他终于松口透露和情人都怎么过节，尽管回答一样简洁有力，但话一说出口就让众人直呼甜死人了！27日，谢霆锋从北京返回香港。这天，他身穿运动外套搭配牛仔裤与咖啡色短靴，即便脸上戴着蓝色水银墨镜和米色棒球帽，低调却俐落有型的装扮仍掩不住一身星味，才出机场就被团团围住。而他接受港媒访问时态度一派轻松，更难得的是即便有人问到私人领域相关问题，他也难得不摆臭脸几乎有问必答。过程中，谢霆锋先是被问到圣诞节怎么过，表示并没有特别开派对庆祝，之后又被问及和女友王菲都是怎么庆祝节日的，他先是露出腼腆微笑，最竟难得松口正面回答：“我们天天都是节日”，一听到女友的名字，开心神情似乎藏也藏不住，超甜蜜回应立刻就让许多网友看到直呼要被闪瞎了！另外，谢霆锋也被问到81岁父亲谢贤与相差49岁的女友COCO交往12年的感情告吹一事。对此，他表示对爸爸的“爷孙恋”没有多过问，只说“不用啦，他都这么大的人了！”更透露自己除夕夜也会跟往年一样在工作中度过。至于他节日有没有送与前妻张柏芝生的两个儿子礼物，则先是笑言“不告诉你”，接着才说：“也不是什么礼物，是一个吉他。”本文来源：网易娱乐责任编辑：陈少杰_b6952"
}