{
    "Title": "Diss姐妹花！马思纯模仿周冬雨新片奇葩造型_网易娱乐",
    "URL": "http://ent.163.com/17/1228/22/D6PCTEP100038FO9.html",
    "Source": "Netease",
    "Article": "马思纯模仿周冬雨奇葩造型马思纯模仿周冬雨奇葩造型马思纯模仿周冬雨奇葩造型周冬雨表情包网易娱乐12月28日报道周冬雨和马思纯因戏结缘，拍戏拍成好姐妹，两人还不忘互黑，友谊令人羡慕。12月28日，周冬雨通过微博曝光和马思纯聊天记录，从信息看出，马思纯模仿周冬雨新片《奇门遁甲》造型，简直惟妙惟肖。稍后，马思纯斗图还击，再次开启互黑模式。12月28日晚，周冬雨通过微博曝光和马思纯聊天信息，并称：“这是我的圣诞礼物，晒个幸福。”还特意艾特马思纯。照片中，马思纯学周冬雨扎着哪吒一样的头发，有大大的美人痣，脸颊和嘴唇还涂上厚重的口红，村姑味十足，十分的逗趣。马思纯还表示“我答应你来一个一样的！”并哈哈大笑。稍后，马思纯转发此微博并晒周冬雨“大脸”照还击，开启互黑模式，回应道：“这是我送给大家的新年礼物，祝大家幸福！”此微博曝光后，网友纷纷围观并留言称：“哈哈哈哈，黑的最惨的一次。”“塑料姐妹情！”“相爱相杀。”两人互黑已经不是第一次了，之前周冬雨曝光跟马思纯的聊天记录，马思纯给她发了888块的新年红包，却只换来一句“谢谢母亲”……而且周冬雨在社交网站上给马思纯的备注，叫“壮肥宽”，马思纯给周冬雨的红包称她是祖宗……私下互相这样称呼对方看来感情是真不错。本文来源：网易娱乐责任编辑：陈少杰_b6952",
    "PublishTime": "12/28/201722:30:58",
    "Comment": {
        "Total": 260,
        "Content": "丑人多做怪 你这是从哪复制黏贴来的 丑的很啊 唉，马思纯和她姨比还是差太多了，蒋雯丽像她这么大时演霸王别姬，可以说是风情万种，演技棒棒啊。 感觉周冬雨,应该是优雅型,不过她量感太小了,所以少女型也极为适合.但气质方面,还是优雅更多. 周冬雨长得就像给太上老君看炼丹炉的童子 果然是好朋友 厉害 呵呵呵啊 6666 可以 唉，马思纯和她姨比还是差太多了，蒋雯丽像她这么大时演霸王别姬，可以说是风情万种，演技棒棒啊。 电影造型，奇门遁甲里的，很好看，小圆圈，不是扮丑 很奇葩 哈哈哈哈哈 不能看 为什么都喜欢做穿supreme 周冬雨长得就像给太上老君看炼丹炉的童子 感觉周冬雨,应该是优雅型,不过她量感太小了,所以少女型也极为适合.但气质方面,还是优雅更多. 丑人多做怪 唉呀太可爱了，两个人好好笑。 喜欢马思纯童鞋 小丑 唉，马思纯和她姨比还是差太多了，蒋雯丽像她这么大时演霸王别姬，可以说是风情万种，演技棒棒啊。 丑人多作怪 真是恶心到我了 好像潘玮柏 果然是好朋友 我还以为是苍老师 结婚。结婚早点让你男朋友欧豪他迎娶进门吧，早日步入婚姻殿堂呗！马思纯哈哈 丑的很啊 豁出去了 你这是从哪复制黏贴来的 不要整天上头条秀自己，生米煮成熟饭接受事实有本事儿赶紧让你男朋友欧豪他迎娶进门啊，好好回家生小孩儿去哇！马思纯。哈哈 哈哈哈哈 黎吧啦 有意思 ",
        "Reply": 30,
        "Link": "http://comment.ent.163.com/ent2_bbs/D6PCTEP100038FO9.html"
    },
    "KeyWords": "马思纯,周冬雨,互黑"
}