{
    "URL": "http://sports.163.com/17/1228/08/D6NRI3RK00058781.html",
    "Comment": {
        "Reply": 124,
        "Content": "49前要忽悠，要骗，49后就不用了 终于拿下范迪克了，看看能如何，虽然对利物浦和克洛普来说是好事买到想要的人，但是这个价钱能买2-3个成名或表现很出色的高潜力后卫，范迪克这赛季真的一般 老乡你不厚道，作为熟客不打折也就算了，居然问我军要7500万！！！ 老乡，你还有女儿啊！ 对阵曼城的时候就不上场了 圣徒对红军是真爱啊 还有张伯伦也是老乡出品 拜仁――多特二队 小便，你的配图太有血性了 这配图配文字的厉害了 后面的配图 这配图不怕收快递吗 红军：MMP，坑老子这么多钱，联赛碰上了把你往死里揍 我就喜欢网易的这个态度 怕是活不过元旦了 这图有内涵。 这是什么电视剧？ 49后就没红军了 体育新闻藏的深！没事！ 我军新闻请巴狗鸟粪以及其衍生产品离开。 就像红军与游击队，打好了就能转正😂 这电视剧导演胆子真肥 前几天网易一个劲吹曼城买范迪克 南安普顿，南安普顿，南安普顿完利物浦顿 这么有野心，酷鸟怎么跑 是红军对圣徒是真爱 库鸟能不能卖两个半的范 本来夏天就全款6000w买范迪克，只不过没买成，就算冬窗不卖库鸟，这7500万也只是比夏季多1500万，估计这钱是埃姆雷詹的卖出价格 圣徒果然长了一颗红色的心啊！ 圣徒这1.665亿是怎么花的？存银行吃利息吗？ 范是成心摆烂要走，和红军早就谈好了 收藏，看看帖子还在不在 上岗，曾经是恒大二代 预计作者会在派出所过元旦[微笑][微笑][挨揍][窃笑] 拿1.66亿存银行吃利息，0.005亿去招年轻球员来慢慢打怪升级，等老乡来挖。 利物浦——南安普顿2队，巴萨——利物浦2队 车子，曾经是马竞2队 美国老板说，当初眼瞎，直接买南安普顿不就好了嘛。 这么舍得花钱，看来酷鸟是走定了😂 穆里尼奥：拿买前锋的前买后卫！不服气 好图 你军算个jb网易你家开的 买小号接着练级了，要不然哪能保证年年有人参军啊！ 呵呵 还是鸟牛逼，直接买后卫型前锋 49前要忽悠，要骗，49后就不用了 终于拿下范迪克了，看看能如何，虽然对利物浦和克洛普来说是好事买到想要的人，但是这个价钱能买2-3个成名或表现很出色的高潜力后卫，范迪克这赛季真的一般 小编还在吗？最后那张图也敢配？ 老乡，你还有女儿啊！ 对阵曼城的时候就不上场了 呵呵呵 体育新闻藏的深！没事！ 还有张伯伦也是老乡出品 这新闻主角要是拜仁，下面评论区你们懂得。这就是喷子的双标 就冲利物浦这绰号，我也是切尔西球迷 只有你才算jb 拜仁――多特二队 小便，你的配图太有血性了 这配图配文字的厉害了 马内现在值多少钱？谁给估计一下 来来来，曼市双雄你们先抬一抬，我也好下单，别人也好卖！ 后面的配图 这配图不怕收快递吗 预计作者会在派出所过元旦[微笑][微笑][挨揍][窃笑] 买小妖刮彩票练级，回头继续买给红军。 老乡出品，必属精品 我就喜欢网易的这个态度 怕是活不过元旦了 这图有内涵。 是的 范厨师怕在圣徒受伤，我军到时候就不要了，哪敢拼啊 真贵 拜仁----------其他德甲球队 49后就没红军了 我军新闻请巴狗鸟粪以及其衍生产品离开。 这电视剧导演胆子真肥 前几天网易一个劲吹曼城买范迪克 只要马内大腿能卖出1.5亿磅，啥都回来了，啊哈哈 配图是几个意思？？？要搞事情？ 小编吃点好的喝点好的，屁股洗干净了准备进去吧。。。 这么有野心，酷鸟怎么跑 小编还活着吗 图不错 南安普顿本身就是老乡了，应该等红军来挖 投资青训。南安的青训造血和球探体系都很厉害。 图片亮点……抢 厉害加油↖(^ω^)↗↖(^ω^)↗↖(^ω^)↗范迪克加油 范是成心摆烂要走，和红军早就谈好了 上岗，曾经是恒大二代 都反了吧 利物浦——南安普顿2队，巴萨——利物浦2队 车子，曾经是马竞2队 张伯伦开始也是南安普顿出来的吧 这么舍得花钱，看来酷鸟是走定了😂 穆里尼奥：拿买前锋的前买后卫！不服气 拿1.66亿存银行吃利息，0.005亿去招年轻球员来慢慢打怪升级，等老乡来挖。 抢阿森纳的生意…… 好图 小编你的配图很屌，支持你！ 现在圣徒狂补库存。准备超市开张 你军算个jb网易你家开的 圣徒这1.665亿是怎么花的？存银行吃利息吗？ 😂😂😂我们的目标就是挖空圣徒 記得第一次開挖聖徒，一個賽季過了之後，排名還沒聖徒高 欧冠可以用这一点挺重要的来了就即时站力毕竟前三基本订了。还有个争四狂魔跟上赛季第二 美国老板说，当初眼瞎，直接买南安普顿不就好了嘛。 要是我小破仁挖6个，不知道被说成啥。 小编，你还活着吗 这么舍得花钱，看来酷鸟是走定了😂 圣徒对红军是真爱啊 老乡挖老乡？你逗我！ 老乡你不厚道，作为熟客不打折也就算了，居然问我军要7500万！！！ 小编忘了张伯伦这个前南安普顿球员了[大笑] 然后卖了库蒂尼奥？ 库鸟肯定放人，但价格肯定咬的很死，必须1.5亿，没有鄧贝莱那种达成什么才有剩下0.5亿的条件。实打实1.5亿，但肯定可以分期！就看巴萨愿不愿意掏钱了！！！巴萨现在的状态肯定想买库鸟，但不一定肯掏那么多钱！ 真的太贵了 他妈的‼️‼️‼️7500W磅。后卫❓❓❓❓❓想不通～～～～想不通～～～ 用库鸟的钱在搞个门将 南安利物浦队 库鸟能不能卖两个半的范 sb，规则都不懂 南安普顿，南安普顿，南安普顿完利物浦顿 小编，你还活着吗 所以利物浦现在就成了南安普顿的水平了，麻痹 这是什么电视剧？ 利物浦阿森纳，热刺争四。够激烈的😂 圣徒练级还真有一套，很多大牌都是圣徒出身，当年大圣也是圣徒出道的 老板还是中国人呢，的确有可能哈 南安普顿，南安普顿，南安普顿完利物浦顿 劳资是解放军 是红军对圣徒是真爱 本来夏天就全款6000w买范迪克，只不过没买成，就算冬窗不卖库鸟，这7500万也只是比夏季多1500万，估计这钱是埃姆雷詹的卖出价格 登贝莱伤愈复出，状态大佳，不买了，下赛季利物浦有违财政公平竞赛规则，禁止引援😄 小编快递 圣徒果然长了一颗红色的心啊！ 哈哈 圣徒这1.665亿是怎么花的？存银行吃利息吗？ 怎么学会了温老四那套 收藏，看看帖子还在不在 哈哈哈 拿1.66亿存银行吃利息，0.005亿去招年轻球员来慢慢打怪升级，等老乡来挖。 这是要卖酷鸟回血的节奏啊，是去巴萨么？ 很会理财的俱乐部。 howoldareyou？ 张靓引以前也是老乡出来的吧？ 小编，你还活着吗 穆里尼奥：拿买前锋的前买后卫！不服气 小编挺顽皮啊 哈哈！要死！~[喷水][狗] 呵呵 还是鸟牛逼，直接买后卫型前锋 一坑还比一坑深 就像红军与游击队，打好了就能转正😂 傻x了吧 南安的青训真不是盖的 库鸟2亿镑转会巴萨 卧槽，将近1亿欧的后卫！ 存支付宝了 一个苏牙的价格 小编还在不？ 买小号接着练级了，要不然哪能保证年年有人参军啊！ 就像红军与游击队，打好了就能转正😂 太屌了 刺激到你脆弱的心了 草，7500万买个后卫 沙发，钱多到没地方用？ 红军：MMP，坑老子这么多钱，联赛碰上了把你往死里揍 莫名其妙來個六輪不勝，7500萬鎊就出來了。 真是逮着聖徒挖，冬窗買個這麼貴的後衞，好大風險 冬子，等你长大了，我们就带上你。 狗年来了碰碰运道，老板来张彩票，1注单倍，7500百，万，英镑！！ 这标题真是作死 圣徒这1.665亿是怎么花的？存银行吃利息吗？ 作死 ",
        "Total": 3869,
        "Link": "http://comment.sports.163.com/sports2_bbs/D6NRI3RK00058781.html"
    },
    "Title": "老乡开门呐!红军3年\"支援\"圣徒1.6亿镑 狂挖6悍将_网易体育",
    "Source": "Netease",
    "KeyWords": "利物浦,红军,南安普敦",
    "PublishTime": "12/28/201708:08:26",
    "Article": "网易体育12月28日报道：12月28日凌晨，利物浦宣布以7500万镑的高价从南安普敦引进了范迪克，这笔交易一下创造2个纪录：范迪克是利物浦史上最高转会费的引援、他也是足球史上身价最高的后卫。对于这笔交易，不少球迷发出这样的感慨：怎么又是南安普敦的球员？利物浦这是有多喜爱“老乡”的人啊？利物浦对范迪克真是“痴心一片”。过去的1年半时间里，他们已经先后5次向南安普敦提出报价。南安普敦此前一直都不想卖范迪克，今夏，被逼急了的圣徒扬言要把利物浦以私下接触球员的罪名告上法庭。吓得利物浦连忙发声明道歉，并保证再也不接触范迪克。不过，利物浦依然还是得手了。当然了，该交易能够成功不是因为利物浦有多“狡诈”，而是因为利物浦这次真是下血本了。7500万镑的价格，搁谁也受不了。财大气粗的曼城只愿拿6000万镑，而利物浦却肯掏7500万镑，圣徒哪有不卖的道理。足球场，说白了终究是个生意场。在买下范迪克后，利物浦俨然成了半支南安普敦，他们阵中有多达5名前圣徒球员。实际上，利物浦从2014年夏天以来已经从南安普敦买了6名球员之多，分别是兰伯特、拉拉纳、洛夫伦、克莱因、马内、范迪克。这其中，兰伯特已经离队。2014年7月1日，利物浦花2500万镑引进拉拉纳，后者已经为红军在联赛中出场91次，打进17球。2014年7月2日，利物浦花400万镑引进兰伯特。在利物浦，兰伯特表现糟糕，英超出场25次打进2球，2015年夏天就被卖掉。同样是在2014年7月，利物浦还花了2000万镑签下了洛夫伦，这位克罗地亚后卫在红军的表现备受争议，多次成为后防大坑，但有时候又能送出BUG级的发挥。迄今为止，洛夫伦在利物浦出场94次，打进3球。2015年7月1日，利物浦又花了1250万镑签下克莱因。2016年夏天，利物浦则耗费3000万镑签下马内，后者一度成为利物浦的大腿，进攻端有着非常不俗的表现。根据统计，利物浦买这6名南安普敦球员一共花了1.665亿镑。从目前的情况来看，利物浦之前买的5个南安普敦球员中，拉拉纳、马内、克莱因的交易是成功的，而兰伯特和洛夫伦则是失败的。那么，范迪克在利物浦的未来会是怎样的呢？本文来源：网易体育作者：风过乡责任编辑：马鑫_NS4811"
}