{
    "Title": "日本欲部署美国反导系统\"宙斯盾\" 俄罗斯不干了!_网易新闻",
    "PublishTime": "12/31/201716:49:37",
    "URL": "http://news.163.com/17/1231/16/D70GIID20001899N.html",
    "Source": "Netease",
    "KeyWords": "宙斯盾,反导系统,俄罗斯,美国",
    "Comment": {
        "Reply": 21,
        "Content": "无所谓，怕啦吗 美国的反导系统在我们的眼里是垃圾 日本人民应该感谢，正是因为当年的侵略战争为日本争取到了巨大的资源和财富。放弃战争，你们愿意放弃现在的生活么？？？ 双标狗说的！！ 敢吗？就凭俄罗斯那点斤两！ 中国没说 陆基宙斯盾可比什么萨德威胁大多了，不过国人只捏软柿子韩国，对日本可不敢bb 自己可以部署进攻性武器，别人是不应该防御的，只配等着挨打，这是哪门子逻辑？强盗国家的强盗逻辑。支持美日。 美国的反导系统，在中国眼里就是垃圾 666 111 不干了?<br>那又能咋的，摔个石头能砸破天? 最近发现小区附近不太安宁，遂想换把坚固点的锁和安装一套监控，没想到，邻居不干了，各种闹。真苦恼，各位帮我出出主意吧。 别他妈干涉别国内政这是谁说的？ 不知道天高地厚的什么玩意，别在这丢人了？ 不干了?<br>那又能咋的，摔个石头能砸破天? 敢打吗？晾他没有那个胆。 叫停去日本旅游团签咯，号召俄民众抵制日货，砸日本车。 最近发现小区附近不太安宁，遂想换把坚固点的锁和安装一套监控，没想到，邻居不干了，各种闹。真苦恼，各位帮我出出主意吧。 无所谓，怕啦吗 美国的反导系统在我们的眼里是垃圾 日本人民应该感谢，正是因为当年的侵略战争为日本争取到了巨大的资源和财富。放弃战争，你们愿意放弃现在的生活么？？？ 双标狗说的！！ 还苏美条约呢，苏联骨灰都不在了，臭傻逼俄罗斯 中国没说 陆基宙斯盾可比什么萨德威胁大多了，不过国人只捏软柿子韩国，对日本可不敢bb 自己可以部署进攻性武器，别人是不应该防御的，只配等着挨打，这是哪门子逻辑？强盗国家的强盗逻辑。支持美日。 美国的反导系统，在中国眼里就是垃圾 666 111 不干了?<br>那又能咋的，摔个石头能砸破天? 不干了?<br>那又能咋的，摔个石头能砸破天? 别他妈干涉别国内政这是谁说的？ 不知道天高地厚的什么玩意，别在这丢人了？ 敢吗？就凭俄罗斯那点斤两！ 最近发现小区附近不太安宁，遂想换把坚固点的锁和安装一套监控，没想到，邻居不干了，各种闹。真苦恼，各位帮我出出主意吧。 敢打吗？晾他没有那个胆。 一楼老乡 叫停去日本旅游团签咯，号召俄民众抵制日货，砸日本车。 最近发现小区附近不太安宁，遂想换把坚固点的锁和安装一套监控，没想到，邻居不干了，各种闹。真苦恼，各位帮我出出主意吧。 ",
        "Total": 704,
        "Link": "http://comment.news.163.com/news2_bbs/D70GIID20001899N.html"
    },
    "Article": "（原标题：日本部署美国“宙斯盾”俄罗斯不干了）俄罗斯外交部发言人玛丽亚·扎哈罗娃28日说，日本决定从美国引进陆基“宙斯盾”导弹防御系统令人担忧，将给俄日关系、尤其是缔结和平条约的谈判带来消极影响。俄罗斯还指责美国向日出售反导系统违反《苏美两国消除中程和中短程导弹条约》（简称《中导条约》）。扎哈罗娃说：“这些反导系统配备通用的导弹发射装置，可适用于所有类型的导弹。这意味着美方再次违反《中导条约》，而日本在这件事上成了帮凶。”《中导条约》由美国与苏联在1987年12月8日签署，规定双方不再保有、生产或试验射程500公里至5500公里的陆基巡航导弹和弹道导弹。苏联解体后，俄罗斯承诺继续履行这一条约。扎哈罗娃说，日本部署陆基“宙斯盾”非常遗憾、令人担忧，这一做法将导致俄日关系紧张。“日本政府的所作所为与确保地区和平稳定的努力背道而驰，在两国之间制造不信任……会给俄日双边关系带来负面影响，包括两国为缔结和平条约开展的谈判。”美国国防部发言人约翰尼·迈克尔28日接受俄罗斯卫星通讯社采访时回应说，美方向日出售陆基“宙斯盾”严格遵守《中导条约》。美国有线电视新闻网29日援引美国国务院一名发言人的话报道：“面对不断增长的安全挑战，第三方无法阻止我们采取适当防御手段。”日本安倍晋三政府19日通过内阁决议，正式决定从美国引进两套陆基“宙斯盾”系统，计划2023年前后投入使用。日本军事评论家前田哲男说，安倍政府所谓反导防御可能被用作提升日本攻击力的借口。部署陆基“宙斯盾”将开启日本新一轮军备扩张，对地区稳定产生负面影响。本文来源：新华网责任编辑：徐萌_NN7485"
}