{
    "Title": "日媒:安倍政府已开始探讨自卫队应对半岛冲突措施_网易新闻",
    "PublishTime": "12/31/201717:26:38",
    "URL": "http://news.163.com/17/1231/17/D70IMBNP0001899N.html",
    "Source": "Netease",
    "KeyWords": "安倍政府,安倍,日本,美军",
    "Comment": {
        "Reply": 12,
        "Content": "不知你那来的自信 美国让日本去管理亚洲军事？ 一个正常国家都会想建立自己的军队 现在还不会打，因为他还需要这颗棋子来推动修宪。打完了，威胁不在了，还修什么 保护国民，没毛病 日本需要靠一场战争重回军事强国！！！！！ 日本开始嚣张了 自己约的炮，含泪把它打完吧。 彻底打倒小日本! 估计石油事件导致美国铁了心要打了！！！！！！<br><br>美国也知道和谈没戏！！！来场战争较量较量！！！！！！ 不知你那来的自信 日本开始嚣张了 日本需要靠一场战争重回军事强国！！！！！ 一个正常国家都会想建立自己的军队 估计石油事件导致美国铁了心要打了！！！！！！<br><br>美国也知道和谈没戏！！！来场战争较量较量！！！！！！ 因为日本有位神助攻。那个老头叫网易。 美国让日本去管理亚洲军事？ 买买买 现在还不会打，因为他还需要这颗棋子来推动修宪。打完了，威胁不在了，还修什么 保护国民，没毛病 自己约的炮，含泪把它打完吧。 彻底打倒小日本! ",
        "Total": 253,
        "Link": "http://comment.news.163.com/news2_bbs/D70IMBNP0001899N.html"
    },
    "Article": "（原标题：日媒称安倍政府已开始探讨自卫队应对朝鲜半岛突发冲突措施）为防备朝鲜半岛发生军事冲突，安倍政府已开始探讨构建有关自卫队应对举措的情景模拟。考虑到朝鲜半岛未来发生军事冲突的可能，日本政府目前也正着手准备相关应对措施。据日本共同社12月31日报道，日本政府消息人士30日透露，为防备朝鲜半岛发生军事冲突，安倍政府已开始探讨构建有关日本自卫队相关应对举措的情景模拟。安全保障政策的指挥部“国家安全保障会议”（NSC）将主导该工作，基于安全保障相关法，按“事态”不同，分别讨论与美军的合作以及自卫队的具体应对措施。设想了包括美军先发制人攻击朝鲜、朝鲜军队进攻韩国、两军出现偶发性冲突、朝鲜导弹落入日本等情况的应对。据相关人士透露，日本首相安倍晋三、国家安全保障局局长谷内正太郎等参加的21日的NSC会议中，确认日本将瞄准“战时状况”，推进情景模拟。会上也就除了驻日美军外，还将有多少美军部队前来支援交换了意见。据悉，也有人指出朝鲜有可能把化学武器安装在弹道导弹弹头上朝日本发射。据共同社报道中披露，若美军先发制人发动攻击，预计朝鲜军队将对驻韩美军基地实施反击等。若该情况被认定为“重要影响事态”，日本就能实施向美国军机提供燃料补给等后方支援。若朝鲜的军事行动升级，成为“存亡危机事态”，日本就能派遣护卫舰对美国军舰实施防护等。若出现“武力攻击事态”，日本就能够发出“防卫出动”命令。日本政府将根据不同“事态”，梳理美军与自卫队共同应对的动作等，谋求在政府内部实现共享。12月29日，中国外交部发言人华春莹在本年度最后一次外交部例行发布会上回应朝鲜问题时表示，“我愿再次提醒各方，历次安理会相关涉朝决议包括第2397号决议规定的内容非常清楚，其中既包括制裁措施，也包括呼吁以和平、外交和政治方式解决问题、支持恢复六方会谈。我们呼吁有关各方全面、完整执行包括第2397号决议在内的安理会涉朝决议，为维护半岛及地区和平稳定、推进半岛无核化进程及推动通过对话谈判解决问题共同作出努力。”本文来源：澎湃新闻责任编辑：徐萌_NN7485"
}