{
    "Source": "Netease",
    "KeyWords": "二战,炸弹,空军,暴风雨",
    "URL": "http://war.163.com/17/1225/09/D6GABT33000181KT.html",
    "PublishTime": "12/25/201709:53:16",
    "Comment": {
        "Content": "这图片可不是2至5公斤啊小编 猪队友。。。 卖废铁能卖不少吧 这么大一坨才2-5公斤？ 二战真正打败德国的其实是意大利。呵呵 2至5公斤 墨索里尼猪，但是幸好意大利人民聪明 配图是伦敦的。 2到5公斤，只能算是高射炮的子弹，一个小型战防炮的炮弹都上10公斤了的！ 还有日本 他们没有一颗保卫领袖的心，这样的意大利还不如灭亡 配图是伦敦的。 卖废铁能卖不少吧 配图都不对，小编工资真好拿 二战真正打败德国的其实是意大利。呵呵 2至5公斤 墨索里尼猪，但是幸好意大利人民聪明 这图片可不是2至5公斤啊小编 然后几百万人移民到美国。 这么大一坨才2-5公斤？ 猪队友。。。 意大利2战后末期差点爆发某主义但是他们的计划完全破产随着意大利战后的经济复醒某主义也在意大利土崩瓦解毕竟当民众进入一个更好的环境生活进入一个民主国家制度谁还会想那些根本不可能实现的白日梦 ",
        "Total": 82,
        "Link": "http://comment.war.163.com/news_junshi_bbs/D6GABT33000181KT.html",
        "Reply": 14
    },
    "Article": "（原标题：外媒称暴风雨将5枚二战未爆炸弹“冲进”意大利空军基地）参考消息网12月25日报道德新社12月17日报道称，意大利空军16日说，在一夜暴风雨之后，5枚二战时期的炸弹被冲到了罗马附近海边的空军基地。人们在罗马市区西北约55公里处的富尔巴拉空军基地发现了这些炸弹，每枚炸弹的重量在2至5公斤之间。空军说，该基地有一支未爆弹处理部队负责确保该地区安全，该部队目前正在等待安全处理炸弹的授权。（编译/苑欣芳）资料图：在伦敦发现的二战未爆炸弹。本文来源：参考消息网责任编辑：姚文广_NN1682",
    "Title": "暴风雨将5枚二战未爆炸弹“冲进”意大利空军基地_网易军事"
}