{
    "URL": "http://news.163.com/17/1227/21/D6MOA7D60001899N.html",
    "Comment": {
        "Reply": 112,
        "Content": "委内瑞拉 鸟不拉屎 洪都拉斯选了个好总统！ 我们散的比他们多，而且养了一群白眼狼。 据说呆弯护照免签国很多。怎么回事？ 洪都拉斯是台湾在中南美洲的明灯。 哪里哪里？小巫见大巫 先有华为后有天 蔡婊子 抓住一根稻草，看把菜裱笑的 二楼傻逼！知道个华为定律，拿到什么地方都用！ 不许说我蔡公主坏话！ 夫妻離婚後一定要把對方搞爛搞臭，對方交朋友就是亂交，不交朋友就是無能 23弱智 口味很重嘛 自由的空气 不错嘛 妇道人家，不安安稳稳的在家相夫教子，成何体统？来人！拉出去斩了！ 小便松了口气，辛苦了…… 变相的内战，让外夷始终有利可图 华为定律 当年我们朋友少的时候，也是一些杂牌朋友，阿尔巴尼亚，柬埔寨，朝鲜，罗马尼亚，伊拉克蜜枣。。。哎，来个外国人就是贵宾，很难为人啊！洪都拉斯，和阿尔巴尼亚一样遥远！ 阴阳怪气的，傻屌 我们现在朋友多了吗？ 哈哈！投资铁路建设是大陆的强项，就看大陆出不出手了😄😄 悲惨的祝贺 为什么会有种父子吵架了，爸爸看儿子过的并不好那种心塞呢？ 伟大导师霍查同志只有生辰，没有冥日。这墓志铭真他妈膈应人。 哎，拿傻钱办傻事，傻惯了 累不 的确 从蔡英文屁股造型来看还是满圆润的😍 金钱外交——只有永远的金钱，没有永远的友谊。 鹤蚌相争，渔翁得利 这能一样吗？我们的朋友可是西欧社会主义明灯，领袖是伟大的共产主义战士霍查同志！ 而且不轻 反了吧😄 看！看！看！菜阿姨高潮鸟。哈哈哈！ 开票当天，开票突然故障，然后反超！😏😏 海外网 湾湾人也是挺会散财的吗 楼上自我鉴定得很正确 彼此负距离！ 现在呢？ 丢人丢大了 想翻盘做梦吧，局早就做好了。 洪都拉斯换老婆三个月进行一次，市场可以换可以卖，去了之后感觉这个世界就是不一样啊 公鸡生蛋名字叫台湾。 😁 蔡：晚上去你家蹭饭 洪都拉斯选了个好总统！ 要不怎么都叫傻逼二楼呢！我只是不小心拣了手机而已 呵呵 我记得以前我家有个摩托叫洪都摩托 蔡,你的友邦应该比你有更多友邦,人家不一定缺你,可你一定稀罕他。 洪都拉斯是台湾在中南美洲的明灯。 有问题吗？ 楼上自我鉴定得很正确 还不都一样 先有华为后有天 有可比性吗？ 抓住一根稻草，看把菜裱笑的 二楼傻逼！知道个华为定律，拿到什么地方都用！ 不许说我蔡公主坏话！ 据说呆弯护照免签国很多。怎么回事？ 夫妻離婚後一定要把對方搞爛搞臭，對方交朋友就是亂交，不交朋友就是無能 蔡命不久矣 口味很重嘛 还算有钱，人少，给别人免签多 妇道人家，不安安稳稳的在家相夫教子，成何体统？来人！拉出去斩了！ 不错嘛 能不能嫁给他？多努力哈小英！ 然並卵 弯弯要去修铁路了 好一个“也”字！ 华为定律 当年我们朋友少的时候，也是一些杂牌朋友，阿尔巴尼亚，柬埔寨，朝鲜，罗马尼亚，伊拉克蜜枣。。。哎，来个外国人就是贵宾，很难为人啊！洪都拉斯，和阿尔巴尼亚一样遥远！ 阴阳怪气的，傻屌 死蔡英文 这样都让你拍到，牛批大了 蔡婊子 是催命灯吧！ 洪都拉斯是个什么鬼？ 从蔡英文屁股造型来看还是满圆润的😍 逼样！ 傻湾 变相的内战，让外夷始终有利可图 原本票数落后超过5％的埃尔南德斯，在开票系统重新上线后，得票数直接反超 现在台湾当局就靠这个洪都拉斯了 用iPhone的特别有优越感我发现 中国男足什么时候干掉洪都拉斯？ 湾湾人也是挺会散财的吗 老蔡人都是不作不死，有好日过要懂得珍惜 电话这头的痴心人啊 现在台湾当局就靠这个洪都拉斯了 委内瑞拉 臭味相投的一对…… 鸟不拉屎 说老实话，连根稻草都算不上。 友邦总统连任蔡英文忙打电话祝贺:咱要更紧密 哎…… 弹丸之地 潜伏在大陆搞台独倭寇自愿慰安妇子孙怎么会累？ 这能一样吗？我们的朋友可是西欧社会主义明灯，领袖是伟大的共产主义战士霍查同志！ 我们散的比他们多，而且养了一群白眼狼。 天下没有免费的午餐， 湾湾人也是挺会散财的吗 好好的与邪恶作斗争去吧！总统好坏和你毛钱关系都没有，你和蔡英文钩结，小心一年后收拾你罢！ 活该活该 有多紧？ 现在呢？ 哪里哪里？小巫见大巫 没有什么朋友不是1块钱软妹币能买来的，如果有，那就再加1块 巫婆不久矣。 马上拿钱买过来 这个家伙就是事后诸葛亮！ 开票当天，开票突然故障，然后反超！😏😏 自由的空气 是的，挺悲哀。你的东边邻居 花錢買些小朋友唄 小便松了口气，辛苦了…… 傻逼 挟洋自重，崇洋媚外，丑恶的嘴脸暴露无遗……蔡淫文。 可怜的友邦，可怜的蔡英文，可怜的台湾…… 当年我们朋友少的时候，也是一些杂牌朋友，阿尔巴尼亚，柬埔寨，朝鲜，罗马尼亚，伊拉克蜜枣。。。哎，来个外国人就是贵宾，很难为人啊！洪都拉斯，和阿尔巴尼亚一样遥远！ 我们现在朋友多了吗？ 哈哈！投资铁路建设是大陆的强项，就看大陆出不出手了😄😄 悲惨的祝贺 为什么会有种父子吵架了，爸爸看儿子过的并不好那种心塞呢？ 伟大导师霍查同志只有生辰，没有冥日。这墓志铭真他妈膈应人。 哎，拿傻钱办傻事，傻惯了 累不 抓住一根稻草，看把菜裱笑的 金币加十 真是悲哀呀。 现在好多了，飞机也方便，通讯也方便多了！虽然给的钱更多，但是一切都是值得的！只要它们开心就好！ 。。 小米 當年社會主義陣營不垮台，你還笑的出來？一個蘇聯加我們就差不多半個地球了，還要什麼朋友？ 反了吧😄 看！看！看！菜阿姨高潮鸟。哈哈哈！ 僵尸尖叫地诶 这个小蛋泡洪混蛋泡!<br>泡蔡婊!<br>蔡婊″淹死它! 三思而后言！发帖前先看看别的帖子。 蔡逼，别再作死了 蔡个烂婆娘被抓会怎么样 搞笑的湾湾 开展新一轮的撒钱外交，以发展“台洪”传统友谊。 空心蔡自有办法全台公务员停发一年工资用于洪都拉斯铁路建设 这俩货都是玩歪门斜道才当选的，打电话交流一下不要脸的厚！度 湾湾朋友遍天下？ 鹤蚌相争，渔翁得利 打电话内容怎么这么清楚呢 海外网 彼此负距离！ 金钱外交——只有永远的金钱，没有永远的友谊。 ",
        "Total": 1209,
        "Link": "http://comment.news.163.com/news2_bbs/D6MOA7D60001899N.html"
    },
    "Title": "\"友邦\"总统连任 蔡英文忙打电话祝贺:咱要更紧密_网易新闻",
    "Source": "Netease",
    "KeyWords": "蔡英文,台湾,大选",
    "PublishTime": "12/27/201721:52:28",
    "Article": "（原标题：\"友邦\"总统连任蔡英文忙打电话祝贺:咱要更紧密）蔡英文（图片来源：台媒资料图）海外网12月27日电台湾“友邦”洪都拉斯11月26日举行总统大选，让深陷“断交”危机的台当局十分紧张，生怕换了人就“邦谊”不稳。近日，得知埃尔南德斯再次当选洪都拉斯总统的蔡英文当局总算松了口气。27日，蔡英文拨打视频电话，祝贺埃尔南德斯连任，并称“‘台洪关系’要更加紧密”。据台湾东森新闻云报道，洪都拉斯总统大选自“开战”起就纷纷扰扰，原本可以稳操胜券的现任总统埃尔南德斯，意外与左派反对联盟的纳斯拉亚形成拉锯战，双方还各自宣布胜选，也让选情一度陷入危机。据了解，在11月26日开票当天，开票系统却突然故障长达36小时。不过，原本票数落后超过5％的埃尔南德斯，在开票系统重新上线后，得票数直接反超，最终被宣告成功当选洪都拉斯新任总统。由于投票系统故障36小时，洪都拉斯两大在野党掀起反弹，并要求重新验票，但洪都拉斯最高选举法庭只重新计算有落差的1000多张选票，最终还是难以翻转战局。对于埃尔南德斯成功连任，蔡英文27日透过视频通话的方式表达祝贺，并吹捧称：“洪都拉斯在埃尔南德斯的领导下，不断进步发展，台湾跟洪都拉斯之间的关系，也因为他大力支持而持续提升。”蔡英文还称：“鼓励更多的台商投资，积极参与洪都拉斯的基础建设，让两国合作关系更加紧密。”不过，埃尔南德斯当选未必让台当局高枕无忧。据海外网早前报道，台外事部门负责人李大维早前曾透露“无论这次谁当选，台湾都要谨慎以对。”如果埃尔南德斯当选，会加大要求台湾投资洪都拉斯的要求，因为洪都拉斯副总统葛芭拉已向台当局提出投资其境内两洋铁路的计划要求，届时台当局该如何应对？本文来源：海外网责任编辑：张海桐_NN9053"
}