{
    "URL": "http://war.163.com/17/1230/10/D6T8AOS2000181KT.html",
    "Article": "（原标题：国产新舟700飞机正式开工制造预计2019年首飞）“新舟”700是国家民用飞机中长期发展规划中“两干两支”战略的重要组成部分，是新一代涡桨支线飞机。定位于承担800公里以内中等运量市场的区域航空运输业务，追求性能和经济性的完美平衡，通过聚焦支线中短途运输市场，为不同地区的客户提供中低密度流量航线的最佳解决方案。截至2017年8月，“新舟”飞机运送旅客突破1000万人次，累计交付100余架“新舟”飞机。“新舟”700是航空工业研制的新一代70座级涡桨支线飞机，是国家《民用航空工业中长期发展规划》中“两干两支”发展战略的重要组成部分，承载着国家和航空工业加快发展国产民机的光荣使命。本文来源：中国航空报责任编辑：吴龙飞_NBJ9602",
    "KeyWords": "新舟,航空,飞机,涡桨",
    "Source": "Netease",
    "Comment": {
        "Reply": 123,
        "Content": "让领导先坐 B52可是老态龙钟的腐朽了，为何号称世界最涎浸、最蚊冥的你狗主子美国还一直在不断改不断更新呢？！你狗眼瞎了不怪你无知，但你恶意贬损就会显得你这做了美狗汉奸的畜生太不了解中国人稳扎稳打一步一个脚印踏踏实实发展壮大充实自己了！如今中国日益强盛和富庶得让一切美畜日杂及其豢养的小畜们恨酸的牙痒痒，文雅点说就是羡慕嫉妒恨酸，除了吠就是疯咬！尽管如此，试问当今世界上哪个牛逼畜生国家又有狗胆再来侵略掠夺我中国？！所以你们的狂吠只会使我们努力💪工作其中就包括这飞机，为咱中国的发展与不断强盛添砖加瓦！ 知耻而后勇吧。 别笑飞机老掉牙，项目经费全靠它 建议把新舟600都作为中国部级以上官员的专机。 哈哈，您自己看看这里更像是谁在吠？ 60呢，拦腰折断 新舟700很美，赞 新舟600都不靠谱 运营新舟600民航局给巨额补贴，航空公司仍然亏损。 不坐苏联飞机是常识了吧，这个鸟飞机就是抄袭苏联老掉牙飞机，除非强迫否则谁会主动搭乘? 谁家的赶紧领回去，好好看牢了！已经疯了 苏联老掉牙的安24，改成运七，质量太差停产又改成新舟60，谁买谁亏的流鼻血而且起落架有问题频繁出事一直解决不了，现在又改新舟700了。 你在喷吧，新舟60的事故可是不少 出了这么多事后……这牌子居然还在？？ 为什么壳一直要借呢？那个设计是上世纪五十年代的了，你们是吃什么的？！研发经费都喝茅台了？ 新舟60，事故率接近100%[窃笑] 你这个典型的“爱国”贼SB，不要以为讲不好的就是不爱国，因为他们爱之深，才对不好的事情恨之切！这个客机能跟B52比吗？B52是军用的，老美觉得有些功能可用，省钱。而客机是追求安全舒适的，你举个例子出来看看，那家飞机制造厂用上世纪五十年代的壳的？！ 我觉得新舟不错，虽然我不敢做。 哦哟，一召唤果然就跑来了一条，而且还是假冒我第二故乡西安网民的日杂小畜…… 苏联老掉牙的安24，改成运七，质量太差停产又改成新舟60，谁买谁亏的流鼻血而且起落架有问题频繁出事一直解决不了，现在又改新舟700了。 有动物生没娘教的？ 空军一号，国产骄傲 你揭老底干嘛？ 海岛有高铁？高山峻岭有高铁，全中国的3.4线城市都通高铁？ 一看就落后的不行！别搞了，交给民企 你不知道甩帽子是这些蛆的强项么 感觉是一架很老的飞机，没啥技术含量的，这种还要等到2019年首飞，会不会很丢脸 祝福新舟700飞机研制成功！ 浪费人民币，有钱支援贫困山区小学吧。 使劲喷，你们喷的越多就说明人家做对了 美日狗 双螺旋桨支线客机，几乎都长得一样 没舔美没哈日，连IP都在中国，咋就成了个“美日”狗？ 你这小畜不是还苟且在世照常疯啃美狗主子赐给你的狗骨头吗？！哪里碍着你包括你同类那帮子畜生躲在国外虚拟国内手机假冒中国网民并疯狂攻击谩骂贬损中国啦？！不过可笑并事实是，你们这些美狗日杂及其豢养的小畜们越是跳墙越是狗急的羡慕嫉妒恨酸，就越说明我们所选择的路就应如此这般坚定走下去！ 精益求精。 做过新舟60，漠河飞黑河，真的，没把我吓死，太害怕了，就很做过山车一样啊，噪音特别大，永远我也不敢做了 虚拟手机号码可是在高端it层面上轻而易举，但绝对不是一般投资人及it行业的人所能投资并做到的！因此能用如此巨额资金投入并专门用于假冒中国网民来攻击中国并挑拨离间其险恶用心难道你们这帮子美狗日杂及其豢养的小畜们不心知肚明？！吠吧，加劲吠，中国正式在你们这帮畜生的招摇撞骗狂吠疯咬中不断前行且日益强盛！ 800公里以内为毛不坐高铁？！ 加油。 两弹一星，高铁，高速公路，太空站，航母也是浪费人民币，有钱支援贫困山区小学吧。 哪里哪里，哪里敢全部喝茅台？！还得嫖呢！还得落裤兜呢！ 新舟飞机好，不如照片拍的好 你不要诽谤中国人民的智慧了。 你妈一号接客了，快点，别磨蹭 技术水平大不一样，别看一个上单翼挂两发动机，某个型号在地上上人都能翻了，这能一样？ 看把楼上高潮的，你说的这么好不如你天天坐新舟如何？ 是什么动物生的？如此臭不可闻？ 知耻而后勇吧。 你们畜生还会叫娘？！你们小畜窝里的老狗为公狗、母狗，其余都分别叫小赖皮狗或者疯狗哦？！好好再偷学中文后再来此疯吠吧～你这日杂小畜！ 新舟可以野战机场起飞不行瞎联想什么。 别笑飞机老掉牙，项目经费全靠它 建议把新舟600都作为中国部级以上官员的专机。 一看就知道，以后可以改型为预警机 小飞机 不坐苏联飞机是常识了吧，这个鸟飞机就是抄袭苏联老掉牙飞机，除非强迫否则谁会主动搭乘? 阁下证据何在啊？凭空YY、精神胜利的阿Q可不像是对祖国有帮助的人。 我记起来了，就是去年新加坡的那架空客么？在停机坪跪了 苏联老掉牙的安24，改成运七，质量太差停产又改成新舟60，谁买谁亏的流鼻血而且起落架有问题频繁出事一直解决不了，现在又改新舟700了。 再制造几艘大吨位的两栖攻击舰。撸起袖子加油干。 对坐着飞机确实需要点勇气 你在喷吧，新舟60的事故可是不少 最近评论很奇葩，各位小心点吧，打狗也得看主人 连个涡奖发动机也造不好吗?老用外国的好吗？ 新舟飞机比波音好多。 能公布一下新舟600的事故率不？我听说是世界第一。 国产新舟700飞机正式开工制造预计2019年首飞 精益求精。 全球范围来看同级别飞机新舟60事故率中等 又是烂飞机✈️一个 茅台又涨价了。 技术水平大不一样，别看一个上单翼挂两发动机，某个型号在地上上人都能翻了，这能一样？ 出了这么多事后……这牌子居然还在？？ 你这话连你后妈都不信吧？ 你揭老底干嘛？ 骑车好些 海岛有高铁？高山峻岭有高铁，全中国的3.4线城市都通高铁？ 请出数据 哦哟，一召唤果然就跑来了一条，而且还是假冒我第二故乡西安网民的日杂小畜…… 改过来的。。。 感觉是一架很老的飞机，没啥技术含量的，这种还要等到2019年首飞，会不会很丢脸 那起落架改进没 祝福新舟700飞机研制成功！ 伪速萎薆孖鬣狗 浪费人民币，有钱支援贫困山区小学吧。 民航壳子你还要怎么创新？四盆子 美日狗 没舔美没哈日，连IP都在中国，咋就成了个“美日”狗？ 我国开工制造新舟700飞机 做过新舟60，漠河飞黑河，真的，没把我吓死，太害怕了，就很做过山车一样啊，噪音特别大，永远我也不敢做了 为什么觉得后几张图不是新舟啊？看着像冲8呢？ 为什么壳一直要借呢？那个设计是上世纪五十年代的了，你们是吃什么的？！研发经费都喝茅台了？ 800公里以内为毛不坐高铁？！ 你后祖宗麻渴死信么？ 你走吧！ 运营新舟600民航局给巨额补贴，航空公司仍然亏损。 两弹一星，高铁，高速公路，太空站，航母也是浪费人民币，有钱支援贫困山区小学吧。 建设一支强大的现代化海军，是国家发展长远利益的重要保证，坚决支持！ 破机 让领导先坐 你不要诽谤中国人民的智慧了。 说的真好听 是不是特别费油？ 坐过一次，坦白说，感觉极差 看把楼上高潮的，你说的这么好不如你天天坐新舟如何？ 扯淡，好的很，例如幸福航空 600能卖吗 就像给老人整容换钛合金关节， B52可是老态龙钟的腐朽了，为何号称世界最涎浸、最蚊冥的你狗主子美国还一直在不断改不断更新呢？！你狗眼瞎了不怪你无知，但你恶意贬损就会显得你这做了美狗汉奸的畜生太不了解中国人稳扎稳打一步一个脚印踏踏实实发展壮大充实自己了！如今中国日益强盛和富庶得让一切美畜日杂及其豢养的小畜们恨酸的牙痒痒，文雅点说就是羡慕嫉妒恨酸，除了吠就是疯咬！尽管如此，试问当今世界上哪个牛逼畜生国家又有狗胆再来侵略掠夺我中国？！所以你们的狂吠只会使我们努力💪工作其中就包括这飞机，为咱中国的发展与不断强盛添砖加瓦！ 没有就老老实实没有，没人说你，你没有还要牛皮哄哄，在我村里会被怼死 苏联老掉牙的安24，改成运七，质量太差停产又改成新舟60，谁买谁亏的流鼻血而且起落架有问题频繁出事一直解决不了，现在又改新舟700了。 安全性能也模样 ？？？？ 60呢，拦腰折断 新舟700很美，赞 你是俄奴吧 运营新舟600民航局给巨额补贴，航空公司仍然亏损。 哪里哪里，哪里敢全部喝茅台？！还得嫖呢！还得落裤兜呢！ 谁家的赶紧领回去，好好看牢了！已经疯了 好，振兴我中华！ 动力是哪里的 苏联老掉牙的安24，改成运七，质量太差停产又改成新舟60，谁买谁亏的流鼻血而且起落架有问题频繁出事一直解决不了，现在又改新舟700了。 什么国家需要 讲些什么？颠来倒去⋯ 所有内容都的通报你对吧？ 出了这么多事后……这牌子居然还在？？ 开局一条狗，故事全靠编 为什么壳一直要借呢？那个设计是上世纪五十年代的了，你们是吃什么的？！研发经费都喝茅台了？ 气动研究到民航这里已经到达瓶颈，除非有新科技突破，否则回一直延续下去 安24能一直延续到现在还在老瓶装新酒，除了中国，没谁了。 空军一号，国产骄傲 你这个典型的“爱国”贼SB，不要以为讲不好的就是不爱国，因为他们爱之深，才对不好的事情恨之切！这个客机能跟B52比吗？B52是军用的，老美觉得有些功能可用，省钱。而客机是追求安全舒适的，你举个例子出来看看，那家飞机制造厂用上世纪五十年代的壳的？！ 我觉得新舟不错，虽然我不敢做。 解决不了是你说了算的？你是太阳都围你转？ 给东南亚国家 一看就落后的不行！别搞了，交给民企 你不知道甩帽子是这些蛆的强项么 起落架都不是新闻了…… 感觉是一架很老的飞机，没啥技术含量的，这种还要等到2019年首飞，会不会很丢脸 谁说光喝酒了，还开发票了。抬头写科研经费。记得写科研经费，写其他的不能报，现在财经纪律可严了，真的很严，来，大家举杯，一起唱：我们都是神枪手，每一个子弾消灭一个敌人••••••• 自己人不买 新舟60天天在我家楼顶盘旋，下得我坐立不安 旧的呢 起落架修好了吗 美日狗 为啥以前纠结的技术问题，现在迎刃而解<br>开工到出产，能够那么快？<br>难道是技术自己把自己破解了？<br><br>而是敞开了外购了！制壳之路走得越来越坚决了！ 没舔美没哈日，连IP都在中国，咋就成了个“美日”狗？ 有什么会丢脸？世界没有的国家多得是 精益求精。 新舟600都不靠谱 虚拟手机号码可是在高端it层面上轻而易举，但绝对不是一般投资人及it行业的人所能投资并做到的！因此能用如此巨额资金投入并专门用于假冒中国网民来攻击中国并挑拨离间其险恶用心难道你们这帮子美狗日杂及其豢养的小畜们不心知肚明？！吠吧，加劲吠，中国正式在你们这帮畜生的招摇撞骗狂吠疯咬中不断前行且日益强盛！ 首飞只是指制造出样机,并且飞行成功.然后还要经过不断的飞行和实验,发现问题再不断的改进.直至定型、然后投产服役 波音737表示吓尿了 卖给谁 太久了，市场饱和了 800公里以内？我感觉还不如坐高铁 海岛旅游专用 你妈一号接客了，快点，别磨蹭 先把起落架磕头的问题解决了吧 没有国企的全盘民营化，就看不到中国尖端工业产品真正诞生的这一天！ 高铁微微一笑；“眼总能从国内短途支线飞机上，看出跨国干线飞机的高度么。” 这只是你的感觉而已 起落架 加油。 翼型还是运七的！ 感觉是一架很老的飞机，没啥技术含量的，这种还要等到2019年首飞，会不会很丢脸 国内和高铁比没优势呀！ 配图是啥 新舟飞机好，不如照片拍的好 ",
        "Total": 2484,
        "Link": "http://comment.war.163.com/news_junshi_bbs/D6T8AOS2000181KT.html"
    },
    "PublishTime": "12/30/201710:27:50",
    "Title": "国产新舟700飞机正式开工制造 预计2019年首飞_网易军事"
}