{
    "Article": "网易体育12月29日报道：英媒体《太阳报》今日体育版头条指出：穆里尼奥终于找到了球队主力前锋卢卡库低迷的原因。在穆帅看来，卢卡库状态断崖式滑坡的罪魁祸首是身材发福。从外形上看，卢卡库确实胖了不少，但队医称卢卡库这都是肌肉。不过，穆帅不信。据悉，卢卡库在加盟曼联后已经胖了至少6斤。人一旦变胖，动作就会没之前灵活。曼联队医在向穆帅汇报的时候称卢卡库增加的体重不是肥肉，而是肌肉。来到曼联后，卢卡库加强了体能训练，他的身体明显更上去更硬了。不过，穆帅依然认为“胖了一圈”的卢卡库失去了比赛节奏，24岁的比利时锋霸在最近的比赛中跑动变少，而且看上去笨重了很多，这和他在埃弗顿时期的“动若脱兔”有着明显的区别。本赛季初，卢卡库在前10场比赛打进了11个进球，英媒体惊呼英超金靴奖肯定是他的了。然而，卢卡库随后陷入了迷之低迷，12场比赛仅打进1球，让人很是不解。糟糕的状态以及外界的批评也让卢卡库的心态发生了变化。在对阵伯恩茅斯以及西布朗的比赛中取得进球后，卢卡库均没有庆祝，英媒体爆料他和伊布以及穆帅产生了不和。在曼联最近的三场比赛中（对手分别是布里斯托城、莱斯特城、伯恩利），卢卡库都没有进球，很多曼联球迷对他发出嘘声。卢卡库曾被嘲讽为“虐菜小天王”，但他如今连这个最基本的属性也丢了。本赛季多次面对中下游球队，卢卡库均没有进球。卢卡库的低迷直接导致了曼联在联赛积分榜上的颓势，最近5轮联赛，曼联丢了7分，他们已经落后曼城多达15分，提前退出冠军之争。比赛中，穆帅多次对卢卡库的站位表达不满，后者离禁区太远。穆帅在教练席上要求卢卡库往前冲，但卢卡库没有对他的指示给出回应。此前，穆帅曾暗批卢卡库失去太多机会，“犯了小孩子才会犯的错误”。对卢卡库而言，他必须得尽快找回状态，不然有可能成为下一个迪马利亚或者法尔考（都是在曼联待了一个赛季就被扫地出门）。本文来源：网易体育作者：风过乡责任编辑：马鑫_NS4811",
    "URL": "http://sports.163.com/17/1229/13/D6R0FLPH00058781.html",
    "Source": "Netease",
    "KeyWords": "卢卡库,穆帅,曼联,红魔",
    "Comment": {
        "Reply": 151,
        "Link": "http://comment.sports.163.com/sports2_bbs/D6R0FLPH00058781.html",
        "Total": 2436,
        "Content": "頻繁回本方禁區防守肯定不是教練安排的。是他自作主張！ 没看见鲁尼在埃弗顿进的球都比在曼联多吗？很明显的事情！ 鸟粪已经气晕了😁😁😁😁 那在埃弗顿是怎么进球的？ 二号，去年选出了一号姆斯塔良，结果还没正式当上就表现出色被撤了 鸟粪还怕臭？你自己不就是臭的吗😂 卢卡库49次射门，28次射正，进10球。对比哈利凯恩82次射门44次射正进18球，卢卡库在效率上差吗？一直摆大巴创造不出机会，怪不了前锋。曼联以六强中最低的射门数，最低的射正数99次，打进了43球！锋线球员把握机会的能力英超第一，锋线球员不能背这口锅！ 鲁尼进得一样多 都有问题，魔力鸟要的是11个兰帕德，卢卡库也太听话了 曼狗🐶🐶曼联穆鸟🐦都是垃圾废物曼联穆鸟🐦🐦🐦 看过比赛的都看得出来，技术太差，停个球两三米远，看着壮的跟牛一样，背身球都拿不住，判断落点也不行，跳起来也争不到顶。 我太阳报招你惹你了 早说了赫斯基第二，你们就是不信😂 什么意思，内鬼一号吗？ 卢卡库，锅，拿着 不明白。我陷入了森森的思考 太阳报+风过乡，真是臭不可闻的文章😡😡😡 穆鸟:年度背锅侠评选出来了。 鸟黑司全家 讲道理，他一个禁区内的大中锋，没人给喂饼怎么进球？你把他换去大巴黎看看 增重是为了有个好身板，能扛锅。 那么拿卢卡库加钱换鲁尼吧 这么差的人木鸟7500W磅买，是木鸟傻还是一楼傻？ 队医说是肌肉鸟不信🤨熟悉的剧情 郜林和梅西同档次没争议吧 网易喷子文章黄金搭配，熟悉的配方，臭不可闻的味道。 要开始抓内鬼了！ 你一摆大巴战术又不需要太多跑动，能不胖吗？ 每次射门前都要调整半天 一定是埃弗顿中场和边路比曼联强太多，前面是个狗都能进球，一定是这样！ 穆里尼奥到哪都是球员不行 一个中锋为防守背锅 穆鸟批评球员，总能有一些你想像不到的理由！ 穆鸟到处找理由和借口 讲道理卢卡库比C罗高半个档次没争议吧 卢卡库这是要在曼联做本泽马的节奏[微笑][微笑][微笑][微笑] 吃这么胖你还有理了 抓尼玛币 卢卡库这个身材总感觉有些虚胖，体脂太高？看着还有点小肚子，腰跟肩膀差不多宽的感觉，反正就是跟伊布，德罗巴那种强壮不一样。 摆大巴跑动更多吧！没掌握球权的球队就是要多跑动，跟人，补防，关门种种，因为球在对方脚下，防守方被动的跑来跑去更费力气。不行你踢球试试，碰到技术好一点的，各种假动作，你跟着各种急刹车，累的很。 卢卡库就是内鬼😂😂😂 卢卡库：教练。。。你让我当后卫我能不增重? 马塔松了一口气 我第三个 都是球员水平问题啥时讨论讨论教练水平问题 我第一个 关键是涨了肥了对抗也没见优势 卢卡库49次射门，28次射正，进10球。对比哈利凯恩82次射门44次射正进18球，卢卡库在效率上差吗？一直摆大巴创造不出机会，怪不了前锋。曼联以六强中最低的射门数，最低的射正数99次，打进了43球！锋线球员把握机会的能力英超第一，锋线球员不能背这口锅！ 太阳报的新闻和故事会差不多 什么意思，内鬼一号吗？ 那些BB说战术问题的知道为什么赛季前卢卡库能进那么多球？？？ 穆鸟:年度背锅侠评选出来了。 又要抓内鬼了 那在埃弗顿是怎么进球的？ 郜林和梅西同档次没争议吧 我这十斤怎么能瘦回去，求方法？ 全队喂一个你说进球不？在曼联没那么多人喂啊.机会有限，把握能力还是欠缺、真的，看他争顶就没争到过 以后叫卢锅妥妥的 穆帅你忘记了吗切尔西的时候后有一场重要的点球大战，卢卡库给踢飞了，坑了你一次，还买来继续坑自己，真怨不得别人。 这话到底什么意思 看哪方面吧中文郜林还是可以完爆梅西的 一个中锋为防守背锅 卢卡库这是要在曼联做本泽马的节奏[微笑][微笑][微笑][微笑] 抓尼玛币 买那么多老黑你以为人人都是德罗巴那么敬业啊 穆帅啊不满卢卡库……不满姆希塔良 頻繁回本方禁區防守肯定不是教練安排的。是他自作主張！ 来破车，改改阵型，整个黑白双煞 二号，去年选出了一号姆斯塔良，结果还没正式当上就表现出色被撤了 没争议毕竟卢卡库和三票都是中甲水平 去巴黎也不如卡瓦尼 鸟粪已经气晕了😁😁😁😁 绝对的，口臭傻鸟肯定是叫他一直待在前方禁区的， 死胖子滚吧 太阳报说的你也信啊，民进党还说洪秀柱是通共线人呢 穆鸟卖个黑又硬回来，现在说我只喜欢黑不喜欢硬了 太阳报老老实实报道花边新闻多好，非得整大新闻。这倒好，进厕所了吧 一楼这样的煞笔太多，给巴萨梅西招黑没争议吧？ 我第二个 我太阳报招你惹你了 沙币皮克 都有问题，魔力鸟要的是11个兰帕德，卢卡库也太听话了 英超武磊！ 太阳报+风过乡，真是臭不可闻的文章😡😡😡 太阳报是靠意淫过日子的，和故事会差不多 讲道理，他一个禁区内的大中锋，没人给喂饼怎么进球？你把他换去大巴黎看看 我想到了两个字 这货只要参与防守，必失误送礼，说明判断能力很差 队医说是肌肉鸟不信🤨熟悉的剧情 太阳报的新闻小编也当真，为了骗流量也TM是拼了 网易喷子文章黄金搭配，熟悉的配方，臭不可闻的味道。 要开始抓内鬼了！ 上次穆帅说永不会怒对的球员是哪个来着？ 穆鸟到处找理由和借口 讲道理卢卡库比C罗高半个档次没争议吧 看过比赛的都看得出来，技术太差，停个球两三米远，看着壮的跟牛一样，背身球都拿不住，判断落点也不行，跳起来也争不到顶。 抓他妈了 卢卡库就是内鬼😂😂😂 所以教练安排卢卡库回自己禁区让对手喂饼😄 黑的有点过了，梅西像伊斯科 人云亦云不懂装懂，复读机能发点别的声音不？卢卡库一直状态不好，穆还是让他上场了，也确实浪费了好机会，但是没有公开批评自己的球员吧？ 卢员外 鸟粪还怕臭？你自己不就是臭的吗😂 黑勾司全加，你就是黑勾之一了。 愁人啊 范加尔的大圈战术不好吗？ 防守好了 现在曼联除了德赫亚有谁状态好？大家状态都不好是谁的问题？ 黑鬼傻大个 穆里尼奥到哪都是球员不行 你真是无厘头，防定位球如果需要高大前锋协防，前锋就得在禁区站位。你看球不知道？哪个队不是如此？球盲自以为幽默？ 那么拿卢卡库加钱换鲁尼吧 那在埃弗顿是怎么进球的？ 鸟黑司全家 武磊跟马拉多纳同是球王，我想这点一定没争议 你一摆大巴战术又不需要太多跑动，能不胖吗？ 很。 穆鸟批评球员，总能有一些你想像不到的理由！ 原来卢卡库就是内鬼 摆大巴跑动更多吧！没掌握球权的球队就是要多跑动，跟人，补防，关门种种，因为球在对方脚下，防守方被动的跑来跑去更费力气。不行你踢球试试，碰到技术好一点的，各种假动作，你跟着各种急刹车，累的很。 你侮辱郜林？ 抓尼玛币 鸟粪已经气晕了😁😁😁😁 要是去夏过来的是格子曼,效果肯定不一样. 看过比赛的都看得出来，技术太差，停个球两三米远，看着壮的跟牛一样，背身球都拿不住，判断落点也不行，跳起来也争不到顶。 百度(毛卑零），就明白大幂幂为什么会火，不知道被多少个名导给潜了，那里真的是黑，去瞧瞧 现在的曼联打反击真是半吊子，基本就是中路一条，大家都知道你会走中路，卢卡库站着打当然施展不开了；试想下两条边如果经常有突破口，人家的防线自然能拉开，跑起来肯定有空间了。再说一句，范加尔那2年真的把曼联搅的一团糟 如果真这样，那魔力鸟就更无能了！！ 让你接锅，你就得接 增重是为了背锅 頻繁回本方禁區防守肯定不是教練安排的。是他自作主張！ 每次射门前都要调整半天 确实心态问题，多向凯恩学学 咦，这么快找出了内鬼？ 看来户卡库就是内鬼 鲁尼进得一样多 一楼黑C罗你就给梅西，是什么逻辑？又要强行双娇？ 你这就在黑鸟啊 郜林和梅西同档次没争议吧 泥螺抡空传中才几天？黄狗又出来了？ 配不上曼联，赶紧换C罗上 卢卡库，锅，拿着 太阳报+风过乡，真是臭不可闻的文章😡😡😡 增重是为了有个好身板，能扛锅。 卢卡库：教练。。。你让我当后卫我能不增重? 这么差的人木鸟7500W磅买，是木鸟傻还是一楼傻？ 确实，一个前锋没事往己方禁区跑是何居心？[微笑] 郜林斯曼黑色红炸鸡早就超越梅西了 要开始抓内鬼了！ 内心这么恶毒阴暗折阳寿会年纪轻轻就得怪病的 鸟也是看了网易才知道自己对卢卡库不满的 锅背好，小库库 托雷斯那个小身板儿让他在本方防守定位球时协防高空球那不是扯淡嘛。 不用调整那他就是阿德里亚诺了😁 卢卡库这肌肉真发达 壮汉 卢卡库这个身材总感觉有些虚胖，体脂太高？看着还有点小肚子，腰跟肩膀差不多宽的感觉，反正就是跟伊布，德罗巴那种强壮不一样。 高大的前锋防守定位球，考虑到现在没几个球队双箭头，所以边锋就是去反击了，然后边锋由于射术不如前锋单刀不进，妥妥又有人背锅。其实吧，切尔西才是真正防守反击的战术，可以看看欧冠经典一幕，托雷斯单枪灭巴萨那个球，经典的代表作，那才是一个前锋因该出现的位置。 我已经改打后卫了 讲道理卢卡库比C罗高半个档次没争议吧 最近那场2:2是对手摆大巴，他们整场压着人家踢，就是破不开防线，踢不出一次像样的机会球来，唯一算套路的就是尼克杨边路能起脚像样的球，球员个人能力哪里差？这票人给佛阁森玩踢不赢皇马巴萨拜仁也不会差多少，这种输球就摔锅给球员的教练多少好材料给他废了 中后卫防守时要抗人挤人必须要这么多肌肉啊。木鸟改造成功后就不用再花前锋的钱买后卫了，因为这个就是7500万的前锋。 那为什么要买回来 曼狗🐶🐶曼联穆鸟🐦都是垃圾废物曼联穆鸟🐦🐦🐦 你一摆大巴战术又不需要太多跑动，能不胖吗？ 早说了赫斯基第二，你们就是不信😂 一个大中锋能要多细的技术？能抗会跑人家还肯经常回防到自己禁区你还要怎么样？虽然卢卡库不是我喜欢的类型球员，但这种锅让人家一个人背好吗？ 特么的让一个中锋踢后腰也就你穆鸟能做出来了，听说过后腰有后排插上的能力没听说过前锋还点具备后腰防守能力的 胡说郜林比梅西高半头 那在埃弗顿是怎么进球的？ 郜林和梅西同档次没争议吧 网易喷子文章黄金搭配，熟悉的配方，臭不可闻的味道。 你脑残吧 根据一楼的描述只能说穆里尼奥傻逼？这么废材花那么多钱买？ 哦，这又是真的了哦 埃弗顿他是大哥，整个球队围着他打 场均一球才叫虐菜吗？那只有苏牙这个级别的才能做到，明显钱没花够。<br>建议还是客观评价，别因为3次助攻就往死里怼 自己重金钦点的中锋都难逃一锅，你怕不怕 典型的网易小编的玩物，锅锅锅，让他背了？什么时候让他背的？小编发一下选择性的观点就给你当成真理了。 以前标题消费皇马巴萨梅西C罗，现在穆鸟成了新闻焦点，天天消费。[窃笑]中国人，使劲的骂，骂到国外报道为止！[窃笑] 这锅甩得...穆婊子还要点脸么？没有卢卡库尼玛早就卷铺盖滚蛋了 争高空球的时候球都快砸脸上了他缩头是什么操作？上一场踢伯恩利光我看到这样的情况至少就有两次，真的是体型欺骗型前锋 胖10斤 果然 吃这么胖你还有理了 没有，你说了算！ 狗屁，梅西至少是和武磊一个级别的 他在对方禁区里啊！停两三米能滚进去了…… 找到内鬼了啊 难道又要找叛徒了？ 还记得联赛前几轮这黑鬼进了不少球曼狗叫唤那狗样现在又一张嘴脸做人不能太曼狗 摆大巴跑动更多吧！没掌握球权的球队就是要多跑动，跟人，补防，关门种种，因为球在对方脚下，防守方被动的跑来跑去更费力气。不行你踢球试试，碰到技术好一点的，各种假动作，你跟着各种急刹车，累的很。 太阳报+风过乡，真是臭不可闻的文章😡😡😡 前几轮还是挺牛的，感觉不该让他回防，真的，全是助攻不说，到了自己方进攻了他又不灵了。 吃的胖点以后可以不用回防。。。然后给对方助攻啊 要开始抓内鬼了！ 你和女人比长短一个档次没毛病吧 卢卡库就算少这6斤也不灵活啊也是个大糙哥啊 看你们两第一时间就跑来闻了每次风过乡的帖子都有你们捧场 从外形上看，卢卡库确实胖了不少，但队医称卢卡库这都是肌肉。不过，穆帅不信---这队医太不识趣了。。。没看明白鸟的心思啊，估计要拿他做文章了吧。 看过比赛的都看得出来，技术太差，停个球两三米远，看着壮的跟牛一样，背身球都拿不住，判断落点也不行，跳起来也争不到顶。 一个是在对方禁区，一个是在本方禁区。。。。 不是我吹牛逼，鸟这两个月我们编辑部的奖金就大过去年一年[大笑] 内鬼找到了 讲道理卢卡库比C罗高半个档次没争议吧 "
    },
    "Title": "穆帅不满卢卡库发福 胖6斤+虐菜失灵成红魔罪魁_网易体育",
    "PublishTime": "12/29/201713:32:13"
}