{
    "Source": "Netease",
    "Title": "蔡英文接见日本议员 重提日方协助台湾进CPTPP_网易新闻",
    "Comment": {
        "Link": "http://comment.news.163.com/news2_bbs/D6JL3P170001899N.html",
        "Content": "老母猪🐷 打吧 武统台湾，生铁6000斤铸李登辉、陈水扁、蔡英文跪像，如秦桧故事！宣布民进党等台独势力团体为非法，追究其重要人物罪责！严惩台独势力的经济团体及文化！！ 蔡走狗，杀之为快。 你口味真重 这个蔡走狗，贼心不死 以伤害台湾民众为代价，换取自己的政治利益，台湾民众真是可怜😣 作死 奴颜婢膝 支持武力统一台湾，脸给多了，让你个蔡婊子知道啥叫中国力量 好好的人不做，非得做🐶 小日本不能和台湾发生官方关系！ 见她亲爹，就原形毕露了 继续作死 秋后的蚂蚱 终于看见漂亮的照片了 菜应该是日本种 明明是条死路，可是你就是既不要脸，又贱到滥的去干，当你落到民间的时候，口水和滥白菜会淹死你生命最后的喘息。 封神演义有句台词:人无心必死，菜无心能活。看你能活多久？ 蔡🐶，人人得而诛之！ 不引领正确的道路，是很危险的，毕将成为历史的罪人！ 怎么还没有人去收拾这老妖婆 狗汉奸 一副奴才样 中国应该与台湾勾搭的国家断交！包括美国，日本🇯🇵！！！ 蔡英文会跟陈水扁一样坐牢的！等着看好戏 小菜，，乃井底之娃 千刀万剐蔡英文 贼心不死，一心想拉美日落水求保 连我都不下去了，领导真是忍耐无敌 她还真作妖啊 赶紧武统吧不然统一不了啦 蔡英文就是畜牲 你日本爹会理你吗？天真的很 台湾人瞎了 只要能跪舔日美，蔡英文哪条路都要走，哪怕此路不通。 不要脸，你的日本爹迟早卖了你 这个蔡走狗，贼心不死 贱人就是矫情！ 这个泼妇就该游街示众五马分尸千古罪人。 欧盟不为加入CPTTP也放开了核食进口，关键是否达到标准。 你名字就不应该用中国字，你得列祖列宗都能忘。 欧盟不为加入CPTTP也放开了核食进口，关键是否达到标准。 其实说真的，真正理解的台湾的只有日本，因为他们看到美国爹也是这样没下限 不引领正确的道路，是很危险的，毕将成为历史的罪人！ 驱杀倭狗，收复台湾！没什么好说的，台湾倭狗只能靠武力清除！ 你口味真重 狗日的都是日本种 金币加十 卖国贼蔡婊 卖国贼该千刀万剐难解我心头之恨给中国人民顶上去。 这是要炸啊 自作自受 这样就叫漂亮？你是多久没见过女人了？刚放出来是吗？ 老美的一个中国是不是指台湾省啊卖武器给台湾不卖给大陆 tpp有美国在还能转悠下，美国退出后，就剩下一堆小国家和空壳子了，台湾这是往世界的边缘走啊？ 以前觉得可能就是纯民粹的人，现在看蔡英文笑的真恶心 红颜祸水，已经不年青了吧，还干祸国秧民的的事，台湾人民的悲哀！ 不要脸，你的日本爹迟早卖了你 哈哈，你不如蔡英文 老逼找打 什么时候宝岛回归祖国！按对台湾现政策！再有50年也回归不了！寒心啊！ 蔡英文是日本鬼子的种子！ 日杂日谍 终于看见漂亮的照片了 有朝一日必需剐了这个汉奸！ 女人当权真的很可怕！！！ 奴性 好像不关你的事吧，最起码台湾百姓没大陆辛苦 蔡B下台吧 欧盟不为加入CPTTP也放开了核食进口，关键是否达到标准。 蔡英文就是日本人的私生子，对她别报希望 蔡逼已是历史罪人。 此女已忘国耻 这个协定是不是美国退出的时候要邀请中国加入嘞？ 一副贱骚货样子 欧盟不为加入也放开了核食进口，关键是否达到标准。 蔡英文就是畜牲 老母猪🐷 打吧 蔡寡母见日本议员，想日本议员捎信她想去安倍的榻榻米上玩。 贼心不死，一心想拉美日落水求保 蔡走狗，杀之为快。 中国应该与台湾勾搭的国家断交！包括美国，日本🇯🇵！！！ 菜离死不远了。 这女人是日本人日出的吗？ 呵呵 以伤害台湾民众为代价，换取自己的政治利益，台湾民众真是可怜😣 作死 奴颜婢膝 支持武力统一台湾，脸给多了，让你个蔡婊子知道啥叫中国力量 好好的人不做，非得做🐶 小日本不能和台湾发生官方关系！ 见她亲爹，就原形毕露了 希望蔡早日把台湾搞进日本，加油 在内外交困的当今，蔡淫蚊此举，进一步证实了她就是当年倭寇的余孽！快将她驱逐出境！ 继续作死 秋后的蚂蚱 茅厮头打灯笼… 找死 菜应该是日本种 明明是条死路，可是你就是既不要脸，又贱到滥的去干，当你落到民间的时候，口水和滥白菜会淹死你生命最后的喘息。 她还真作妖啊 蔡🐶，人人得而诛之！ 怎么还没有人去收拾这老妖婆 一副奴才样 支持武力统一台湾，把蔡饱子领导的一小撮台独份子一网打尽 蔡英文会跟陈水扁一样坐牢的！等着看好戏 小菜，，乃井底之娃 封神演义有句台词:人无心必死，菜无心能活。看你能活多久？ 千刀万剐蔡英文 这老娼妇胆子是越来越大啦！ 故事:日施不公得让“禽”给尼挂帅给尼T<br>按常理说是劳有所得，给谁做事吃谁饭谁谁话，而尼小日子不是喜欢好吃懒做，不做作的。尼小日子要是钱多非养那些，没人有意见，只是别谤他人，尤其是艾不欠尼什么 武统台湾，生铁6000斤铸李登辉、陈水扁、蔡英文跪像，如秦桧故事！宣布民进党等台独势力团体为非法，追究其重要人物罪责！严惩台独势力的经济团体及文化！！ 连我都不下去了，领导真是忍耐无敌 狗汉奸 赶紧武统吧不然统一不了啦 你日本爹会理你吗？天真的很 ",
        "Reply": 84,
        "Total": 869
    },
    "URL": "http://news.163.com/17/1226/16/D6JL3P170001899N.html",
    "PublishTime": "12/26/201716:58:47",
    "Article": "（原标题：蔡英文接见日本议员重提日方协助台湾进CPTPP）海外网12月26日电据台媒报道，台湾地区领导人蔡英文今日（26日）接见日本自民党参议员泷波宏文一行。蔡英文称，希望访宾们返日后“能够给予台湾更多支持”，协助台湾加入《跨太平洋伙伴全面进展协议》(CPTPP)；更称要尽快与台湾展开“双边经贸协商”，让“台日合作关系”更加稳固。蔡英文接见日本参议员要求协助加入CPTPP据台湾亲绿媒体报道，蔡英文26日接见日本自由民主党参议员泷波宏文及其夫人泷波史织、参议员吉川有美、小鑓隆史及小野田纪美。蔡英文在致词时称，“非常欢迎日本自民党参议员访宾来台”，尤其是台湾女婿泷波宏文参议员多年来热心推动“台日交流”，称其在外事上也为台湾“仗义执言”。据报道，蔡英文称，“东亚是世界经济发展的重心，维护亚太地区的安全和稳定，我们责无旁贷。”蔡英文还称，她希望未来“台日双方”也可以加强“安全战略上的合作关系”，“共同维护区域的和平稳定”。蔡英文曾用日语发推感谢日本称对加入TPP有信心此前，日本官房长官菅义伟在6月26日下午的记者招待会上公开就台湾地区谋求加入TPP表态，他声称对于台湾等有兴趣加入TPP的举动表示欢迎，并将提供必要的信息。当时日本放送协会（NHK）报道称，日本政府欲实现除美国之外的11国促成TPP生效。面对记者团提出的台湾地区加入可能性的问题，他声称，“TPP是自由公正的经济圈，对包括台湾在内的国家和地区表现出加入TPP的兴趣表示欢迎”，并称“将向以台湾为首的有兴趣加入TPP的国家和地区提供必要的信息。”随后，蔡英文于6月27日晚上在社交媒体发文，称台湾盼望加入TPP一事获得日方支持，对日方表示感谢，并在推文下方链入了日本经济新闻的报道。据台湾“中央社”报道，蔡英文6月27日晚上8点左右用日语在推特上写道：“台湾想要加入TPP（跨太平洋伙伴关系协议）一事，获得日本官房长官菅义伟正面发言支持，让台湾更加有信心。此外，对于日方的支持，再次表达感谢。”2015年10月，美国与11个亚太经济体签署了TPP框架协议。不过，今年1月，美国总统特朗普宣布美国退出TPP。11月11日，TPP11个签约国的部长们达成框架协议，同时发布联合声明，将美国退出后的TPP更名为CPTPP，即“跨太平洋伙伴全面进展协议”。蔡当局为加入CPTPP，拟开放日本核食进口日本媒体11月报道称，日本千叶县知事宣称，台当局高层认为可以科学依据为基础判断，放宽日本核灾区食品输台相关法规。对此，国民党副主席郝龙斌11月28日发布声明稿表示，台湾民众绝不接受这类“丧权辱台”的黑箱协议。据台媒报道，郝龙斌称，民进党一再牺牲台湾民众的健康，以此满足自身的政治意识形态。因为反核，只好增加火力发电比例，造成严重空气污染，让民众“用肺换电”；因为“反中”，所以“亲美媚日”，用尽各种方式企图开放日本核灾区食品输台。郝龙斌质疑，对于争议如此之大的政策，蔡当局高层竟然能私下与日本官员达成共识，并且还由日本官员片面向媒体宣布，由日本官员来告知台湾民众，这简直就是黑箱与“丧权”的最高境界。郝办发言人游淑慧还放话称，去年已经完成的12万余份反核食公投联署书，目前仍然有效力，蔡当局如果执意开放，就会立即送交公投联署书，发动公投。关于日本核灾区食品进口议题，多数台湾民众持反对态度。据早前报道，11月22日，台湾政策基金会发表的“日本福岛周边地区食品应否进口”民调显示，非常不支持进口者达37.5%、不太支持者共32.7%，总计有70.2%的民众不支持，而仅有17.7%民众表示支持。进一步分析显示，高达82.1%民众担心开放福岛核灾区食品进口会对健康造成影响，甚至有79.4%民众称会减少购买日本食品，即使是泛绿支持者，也有高达6成不支持开放。对于岛内盛传蔡英文当局有可能以开放日本受核辐射污染地区的食品进口为敲门砖，争取加入CPTPP第二轮谈判，国台办发言人马晓光在11月29日的例行发布会上回应表示，我们坚决反对我建交国与台湾方面发展官方往来，签署具有主权意涵和官方性质的协议。至于说台湾岛内在经济政策上发生的一些事情，我们不予评论。我想，台湾民众和舆论自有评论。本文来源：海外网作者：姜舒译责任编辑：李杭_BJS4645",
    "KeyWords": "蔡英文,台湾,议员"
}