{
    "Title": "南京22.5平米学区房单价16万？中介:房产已被冻结_网易新闻",
    "PublishTime": "01/01/201810:55:26",
    "URL": "http://news.163.com/18/0101/10/D72EMONL0001875P.html",
    "Source": "Netease",
    "KeyWords": "学区房,房产,房源,二手房",
    "Comment": {
        "Reply": 134,
        "Content": "北京笑而不语 出事的钱宝网好像就是南京的炒房客集体套现，导致资金链断了 在天安门广场吧？ 南京的学区房有毛用？参考江苏省高考和中考政策。 或许吧，但是这22平一平炒到16万，把周边100多平的也能带到一平16万？ 再炒就糊了。 教育本是国之根本被你们用来各种玩赚 在作死的道路上越走越远 干实业不如买房子 开公司两年不如存两套房挣的多畸形 中介的套路，给一套诱人的房源。等你真正去看的时候各种原因没有，要么就是房东不买了，要么就是加钱，玩了这么多年还是有傻逼信 原来又是南京 我是江苏人可真想说一句南京究竟是怎么了 炒房最简单，用贷款的钱炒更没风险，国家兜底，房地产只涨不跌，跌了会去库存，棚户区改造，放心炒 全民建房！全民炒房！把中国大地全部建上房产！有房就有一切！ 现在的环境做生意没破产算成功了吧 煞笔，北京上地学区房一平20多万，你还是买不起， 现在才觉悟，就是去年初买房都能大赚一笔 还是太便宜，这么重要拉动经济的唯一方法应该更大，更强。 看出猫腻来了，公开的价格与实际成交价相差甚远。高价不许挂牌。这tm就叫降房价? 中国的实业就应该往外跑，等中国的土地上全部盖满房子！ 中介一看自己没钱赚眼红了赶紧曝光 妈<br>的<br>！<br>把炒房的都杀了！<br>看哪个狗日还敢炒房！ 槽，是中哥 这不是中哥吗？好久不见 炒高一套房，能带动周边整个楼市，中介高兴还来不及！！！！ 等到实业都跑光了，那就得动手杀猪了 只有炒房才能赚钱，其他的都是浮云[不屑] 卧槽，是中哥 国人很幸福[微笑] 畸形的产业新闻出了什么都还没开始建设房价先上去了 17年亏了二十多万做生意这年头做生意真难 干啥都不如买一套房。实体经济差到极点了 1楼的确煞笔。 我把唯一的房子卖了，厂也关了，租了个房子1500元，房子卖了500万，关厂剩余200多万，什么也不干，就样过完下辈子 真不如炒房 搞什么都不如多年前买一套房子！ 学区就是一个怪胎！这就是极端不公平下的产物。公立学校就应该均衡公平。 开什么玩笑耶[大笑][大笑][大笑] 有个朋友父母十八年前把江心洲的房子卖掉去外地做生意，做了十几年生意为了给儿子在仁恒买房付首发把一辈子的积蓄都掏空了。去看房的时候和他儿子说他们家原来就在这边，被朋友直呼败家。 我家二手房挂牌100万一平米 利息够你花的了，财务自由了 即便如此，还是有很多明明醒了却不敢睁眼的人在自欺欺人的告诉自己：看我们经济发展多好，大国崛起了 十年以后，哭你都找不到地方。 学区就是一个怪胎！这就是极端不公平下的产物。公立学校就应该均衡公平。 南京的学区房有毛用？参考江苏省高考和中考政策。 17年亏了二十多万做生意这年头做生意真难 再炒就糊了。 不好住，那地方挂了相片，住的不会很舒服。 熊大和光头强表示这种现象可以继续！ 带到8万一平中介都会睡觉笑醒的 武侯双流🈶房子吗？？？便宜卖我一套呗 他说错了？同样是用华为，差别怎么这么大啊？ 学区房买的不是房。 我是江苏人可真想说一句南京究竟是怎么了 🐶 妈<br>的<br>！<br>把炒房的都杀了！<br>看哪个狗日还敢炒房！ 现在的环境做生意没破产算成功了吧 厦门一学区房15万一平卖过！ 还是炒房吧 首都就是首都啊！ 为什么冻结？ 这不是中哥吗？好久不见 傻B 基地皮水分太大 一楼我帮你分担一点吧，给我几套 教育程度与學校距離越近越能手可摘星辰？ 干啥都不如买一套房。实体经济差到极点了 看来房价还有上升空间 在天安门广场吧？ 中介打电话给媒体？？他妈的这事想想都不靠谱？ 西双版纳的房子也贵的夸张，和南京学区房有得一拼，请上58同城一搜就知道了 北京笑而不语 中介可以帮我们解释,有时候很多地方我们都不懂通过中介买房还是非常不错的,你去房爸房妈看看吧 那地方有钱也买不到 多年前买十万个比特币多好 或许吧，但是这22平一平炒到16万，把周边100多平的也能带到一平16万？ 卧槽。消失的时间干嘛去了 来来来，合个影咔嚓📷 为了孩子，能上好小学也值。 开了政府高房价政策的玩笑！<br>你懂！ 呜呜呜，辛辛苦苦大半辈子，屯了十几套房，结果却发现是一堆无法变现的钢筋混泥土，现在老美加息，后面又要收税，更卖不掉了，也不好租，愁死我了！ 还真是好久没见 太便宜了，这就是我不买的原因 看出猫腻来了，公开的价格与实际成交价相差甚远。高价不许挂牌。这tm就叫降房价? 换美元换的没钱买裤子出门，没法见人呗。 搞什么都不如多年前买一套房子！ 做什麽鸡吧生意亏这么多？ 中介一看自己没钱赚眼红了赶紧曝光 槽，是中哥 有个朋友父母十八年前把江心洲的房子卖掉去外地做生意，做了十几年生意为了给儿子在仁恒买房付首发把一辈子的积蓄都掏空了。去看房的时候和他儿子说他们家原来就在这边，被朋友直呼败家。 卧槽，是中哥 南京，大兄弟 炒高一套房，能带动周边整个楼市，中介高兴还来不及！！！！ 恶搞， 我把唯一的房子卖了，厂也关了，租了个房子1500元，房子卖了500万，关厂剩余200多万，什么也不干，就样过完下辈子 真不如炒房 开什么玩笑耶[大笑][大笑][大笑] 利息够你花的了，财务自由了 我家二手房挂牌100万一平米 南京能比北京吗 你的意思是这房价还得涨十年咯 全民建房！全民炒房！把中国大地全部建上房产！有房就有一切！ 畸形的产业新闻出了什么都还没开始建设房价先上去了 北京是真正的学区房南京学区房？ 怎么回事？一楼没错，二楼夜没错啊。 开公司两年不如存两套房挣的多畸形 中介的套路，给一套诱人的房源。等你真正去看的时候各种原因没有，要么就是房东不买了，要么就是加钱，玩了这么多年还是有傻逼信 原来又是南京 二楼吃屎……一楼错了吗？ 看来还是太便宜[微笑]现在依然有人抢 中介能作这么大也就只有中国了，包括电商，不可思议，他们是实体经济么?缺了他们不行么?中国现在除了电商房产还有毛啊? 煞笔，北京上地学区房一平20多万，你还是买不起， 现在才觉悟，就是去年初买房都能大赚一笔 国人很幸福[微笑] 干实业不如买房子 中哥用华为了 这不是中哥吗？好久不见 现在买一套房子特别贵。 连中哥都不认识，小伙子你才混网易没几天吧？ 1楼的确煞笔。 出事的钱宝网好像就是南京的炒房客集体套现，导致资金链断了 17年亏了二十多万做生意这年头做生意真难 新年第一天，房价涨上天，快炒了， 十年之后，继续关注学区房的孩子考到了哪里‼‼ 不过现在房子涨价也卖不动了，银行严控信贷了 中国的实业就应该往外跑，等中国的土地上全部盖满房子！ 十年之后，继续关注学区房的孩子考到了哪里‼‼ 什么叫又是南京？你们那不也是这样么？全国都是这样好吗？ 老美连续4到5年加息，2年内国内税就出台，抗不住啊 通常会依据有关规定，对价格进行严格审核，10万元/㎡以上的房源都需要层层核实，“查了我们自家的后台系统，无论是官网，还是外网，都没有发现单价超过10万的房子在发布”。 北京笑而不语 中哥出来了？ 或许是看风头不对 深圳笑而不语 中哥总是高屋建瓴，一语中的 学区房，才16万，卖了不可惜啊！ 教育本是国之根本被你们用来各种玩赚 在作死的道路上越走越远 搞什么都不如多年前买一套房子！ 开局一套房，内容全靠编 呜呜呜，辛辛苦苦大半辈子，屯了十几套房，结果却发现是一堆无法变现的钢筋混泥土，现在老美加息，后面又要收税，更卖不掉了，也不好租，愁死我了！ 为啥房子涨价才卖的动，跌了就卖不动呢 中哥菊花残，满腚伤 十年之后，继续关注学区房的孩子考到了哪里‼‼ 十年之后，继续关注学区房的孩子考到了哪里‼‼ 炒房最简单，用贷款的钱炒更没风险，国家兜底，房地产只涨不跌，跌了会去库存，棚户区改造，放心炒 学区房。更贵。 培养尖端人才的地方？！ 等到实业都跑光了，那就得动手杀猪了 南京地王倒闭了，难道是因为便宜才没卖出去？？？ 十年之后，继续关注学区房的孩子考到了哪里‼‼ 小学 病态 已经开始杀了，和股票一样，割韭菜的手法不同罢了 这个中岛很出名吗？ 活该落后，围绕孩子教育挣钱？ 哈哈。。觉悟了？ 没事的，房价要降，来一波拆违建，再来一波旧城改造，再来一波限购， 南京都16万了😱😱😱 真的过去买的人真是钱多没地方花吗？表示无法理解 不会喝茶去了吧 不是一直在杀，各种放水，肉都割没了 什么朝代的蛐蛐罐 [刷卡][刷卡][刷卡] 对头 宇宙的探索是离不开我的话的，只有把围绕地球公转的一切物质包括气体计算在地球体积之内才能找到地球真正的边和角，那是反引力汇聚地，是真正的真空隧道，宇宙高速路，太阳系内的动脉!把围绕太阳公转的一切物质包括气体计算在太阳体积之内才能找到恒星与恒星的边和角，那是恒星与恒星之间的真空高速隧道，找到真空隧道以近光速超光速飞行那不是个事!宇宙飞行器也不能按照飞机的二维结构原理制造，飞机是不能高速自转的，但只有高速自转才能产生真空电磁场，以近光速飞行，未来的宇宙飞行器必须按地球原理制造，八层以上结构，你看地球高速自转着前进，我们人坐在地球上有啥不适感觉吗？ 还是太便宜，这么重要拉动经济的唯一方法应该更大，更强。 水亦载舟 现在谁还能买起，普通百姓 搞什么都不如多年前买一套房子！ 都是套路！！ 中介一看自己没钱赚眼红了赶紧曝光 双一流就靠学区房来创造了 我家二手房挂牌100万一平米 等到实业都跑光了，那就得动手杀猪了 只有炒房才能赚钱，其他的都是浮云[不屑] 房价涨这么多，中介功不可没，赞哦！ 枪打出头鸟 别买千万别买求你们了，别买，别买 真他妈的受不了 我家还有个猪圈 哈哈，中哥终于长大了 这是一套热爱学习的房子，所以这个价 ",
        "Total": 1812,
        "Link": "http://comment.news.163.com/news_shehui7_bbs/D72EMONL0001875P.html"
    },
    "Article": "（原标题：22.5平方米学区房单价16万？中介：房产已被冻结）南京22.5平方米学区房单价16万？中介回应：房产已被司法冻结朋友圈里的相关信息。中国江苏网1月1日讯学区房一直是南京二手房市场的焦点话题，一套重点小学与重点中学的双学区房能卖到多少钱呢？最近这两天，位于汉口西路小区的一套双学区房“引爆”了朋友圈，有人发文称，这套仅22.5平方米的房源单价被炒到了16万，数十位求购者甚至坐在快餐店里竞价。爆料电话40多组客户正在谈12月27日晚上，一位自称房产中介的工作人员拨通了本报“96096”的热线电话，他称，当晚有一套学区房的销售出现了非常火爆的场面：“我们有一间房源，在汉口西路小区，属于力学小学和29中的学区，面积22.5平方米，因为总价不高，竟然有40多组客户带着现金当场跟房东谈价格，单价都炒到16万了！”他还特别强调，这应该是南京二手房交易史上的最高价。扬子晚报记者立即跟这位工作人员取得了联系，他表示自己是我爱我家的员工，并发来几张据称是当晚买家在快餐店里谈价格的图片给记者。“这是买房人在叫价吗？”记者问道，对方并没有否认，他说当时的场面很热闹，房价一路飙升，总价刚开始时只有225万，后来被买房人喊到了350万，单价近16万元。当记者提出是否可以到现场看看这套房子时，对方再次拒绝，称“现在不方便”。中介解释房子已被司法冻结扬子晚报记者随后打开了我爱我家的官网，在南京二手房板块里，输入“汉口西路小区”，屏幕上跳出14套房源，然而其中面积最小的也有50多平方米。记者继续在南京各大房产平台上搜索，结果在365淘房的二手房板块中找到了这套户型。从描述上看，跟之前网上爆料的信息基本一致，面积为22.5平方米，位于6楼的顶楼，一室一厅一卫，属于力小和29中的双学区，报价225万。同样的户型在该平台上共有10条房源信息，不过点进去一看，全都是同一套，挂牌机构均来自我爱我家，分属不同的门店和经纪人。扬子晚报记者联系了其中一家门店的经纪人，他直截了当地告诉记者，这套房子已经被司法冻结了，是无法交易的。“有可能是房主因欠了外债，故意拿出来炒作，16万的单价是不可能的”，他表示，因为不能交易，他们正在将这套房源撤回。我爱我家南京公司相关人士表示，在房源发布时，通常会依据有关规定，对价格进行严格审核，10万元/㎡以上的房源都需要层层核实，“查了我们自家的后台系统，无论是官网，还是外网，都没有发现单价超过10万的房子在发布”。相关新闻江北一楼盘遭3000余组弃选作为南京楼市2017年的热门板块，江北新区楼盘的开盘秀一向被视为南京房地产市场的风向标之一，然而上周推出1000余套新房源的华润国际社区却遭遇部分买房人的冷遇，选房顺序号在4000号开外的购房者竟“意外”受邀选房。华润国际社区此次总共领取了5幢楼、共计1145套房源的预售许可证，这次推出的全部为装修房源，房价涨至28000元-29000元/㎡，而在上一批推出的房源中，毛坯均价只有21000元/㎡。1145套房源吸引了7248组购房者报名。不过，扬子晚报记者在采访中发现，这次选房不像以往那么火爆，不少人报名参与了选房，但到了现场之后却放弃了。记者在南京网上房地产看到，截至昨天上午10点，这5幢住宅楼的可售套数显示为112套，认购率超过了9成。本文来源：中国江苏网责任编辑：谷莹_NN6577"
}