{
    "URL": "http://news.163.com/17/1228/12/D6OC2G7D0001875P.html",
    "Comment": {
        "Reply": 29,
        "Content": "每到冬天，诊所里都是满满的。 烧煤如果只污染你们那里空气随便你们怎么烧，在屋里不冷不就可以了，非得像过夏天一样吗？ 供暖不足 找一千个感冒症状轻的，较为年轻的人，每天给大家吃一个肉夹馍，你信不信有很大一部分，感冒会好。那能不能说肉夹馍能治感冒？ 现在孩子免疫力越来越差了。 说到点子上了，为了上面下达的文件烧煤不让了，天然气不够了，东北室内达到18°就算合格了 这个主要要用中药治疗，目前我家开除的中药，对一部分人群效果较为显著， 疾控部门应该拉出去枪毙！不作为，我家6口人，全部发高烧，还总是好不了，我现在发烧39.5度发帖！手脚都是麻的 别当医生啦，治不好中国人的 空气污染，抗生素滥用 每到冬天，诊所里都是满满的！ 又得食堂喝板蓝根了？ 擦……怪不得，我几年没感冒了。这几天咳嗽了几天 [不屑][不屑] 又得食堂喝板蓝根了？ 烧煤如果只污染你们那里空气随便你们怎么烧，在屋里不冷不就可以了，非得像过夏天一样吗？ [可怜][可怜] 找一千个感冒症状轻的，较为年轻的人，每天给大家吃一个肉夹馍，你信不信有很大一部分，感冒会好。那能不能说肉夹馍能治感冒？ 扯淡，没供暖的地方你怎么说？ 终于报了 现在孩子免疫力越来越差了。 再高发，也要控制耗材，守住医保红线 病毒都从河北带到珠海了。我也被传染感冒了。 18度的室温……可以来中部地区的室内感受一下瑟瑟发抖的冰爽畅快。 这个主要要用中药治疗，目前我家开除的中药，对一部分人群效果较为显著， 说到点子上了，为了上面下达的文件烧煤不让了，天然气不够了，东北室内达到18°就算合格了 别当医生啦，治不好中国人的 不要吓唬人 注意身体 [疲惫][疲惫] [微笑][微笑] 孩子发烧的很多。 每到冬天，诊所里都是满满的！ 每到冬天，诊所里都是满满的。 吖[微笑] 流感用中药？板蓝根吗？ 疾控部门应该拉出去枪毙！不作为，我家6口人，全部发高烧，还总是好不了，我现在发烧39.5度发帖！手脚都是麻的 供暖不足 空气污染，抗生素滥用 一天一个不够饱啊 [疑问] ",
        "Total": 215,
        "Link": "http://comment.news.163.com/news_shehui7_bbs/D6OC2G7D0001875P.html"
    },
    "Title": "全国流感疫情处于高发状态 儿童老年人为高危人群_网易新闻",
    "Source": "Netease",
    "KeyWords": "流感,病毒,疾控,疫苗",
    "PublishTime": "12/28/201712:57:01",
    "Article": "（原标题：北京流感病毒活动呈上升趋势近期以乙流为主）新京报快讯记者今日(12月28日)从北京市疾控中心了解到，目前北京进入了季节性流感等呼吸道传染病高发季，全国流感疫情也处于高发状态。市疾控中心的监测结果显示，近期北京流感病毒活动度呈上升趋势，乙型流感病毒、甲型H3N2和甲型H1N1流感病毒共同流行，近期以乙型流感病毒为主。北京市疾控中心副主任庞星火介绍，这三种病毒感染后的症状相似，没有孰强孰弱的区别。这三类病毒都不是新变异的病毒，及时注射流感疫苗之后，可以获得较好的防御能力。2017年第51周(12月18日至12月24日)，北京144家二级及以上医疗机构累计监测门、急诊就诊流感样病例占3%，高于第50周的2.35%，高于去年同期的1.54%。12月份以来，医疗机构报告的儿童病例数上升幅度较为明显，疫情大部分出现在小学一、二年级和托幼机构。疾控中心传染病与地方病防控所相关负责人介绍，对流感门诊监测显示，历年来流感病例升高都以0-14岁儿童为主，因为儿童密集程度超过成人。儿童从6个月之后就开始有可以接种的流感疫苗，但幼儿园儿童接种率很低，建议家长加强预防意识。北京市疾控介绍，因天气干燥，气温较低，冬季历来是北京流感高发季，12月至次年1月为发病高峰期，预计在今后一段时间内流感病毒活动水平仍将不断增强，由流感病毒导致中小学校及托幼机构等集体单位集中发热疫情可能会进一步增多，不排除发生危重症和死亡病例的可能，尤其容易出现在儿童、老年人及患有慢性基础病等流感高危人群中。本文来源：新京报责任编辑：范姜国一_NN9138"
}