{
    "Comment": {
        "Total": 3163,
        "Reply": 159,
        "Link": "http://comment.news.163.com/news2_bbs/D754EAQT000187VE.html",
        "Content": "有些去公职单位的都有关系，坐着拿高薪，跟白拿钱没什么区别，父母有权势，子母不是有钱就有权，要不就是公职的好位置，一人得道全家沾光。 学学顺丰，把质疑和不配合的人加入黑名单，世代不能加入。 这还用如果…… 至于质疑招聘只招“官二代”，可能造成“萝卜招聘”等，我们真诚地表示，在主观上我们没有这样的故意，在实际操作中也没有这样的现象。 不想当银行职员的行政专业毕业生不是好政治老师 我们这还招过必须姓赵的，妈妈姓王的，打过三年英雄联盟的呢 呵呵，在这里，真想都是超出你的想象的！ 市直单位工作的都是官么？市直单位没有一般工作人员么？ 那把一下永定区户口就行了，为何还强调父母至少一方在市直机关，是这样做习惯了吧，一不小心嘟噜真话了！ “我们启动了本次“少民”研究生的定向招聘安置工作，此次招聘安置是在特定范围内（指“少民”研究生）的定向安置，不是事业单位面向社会的公开招聘”但鉴于压力，给你们说个感谢致歉，希望赢得喝彩 我们这里找一个某大学行政管理专业的有三年银行工作经历的政治老师，群众不一样情绪稳定[不屑] 公务员都是万里挑一选拔的，在写招聘条件时就会考虑过于简单？我看是考虑过于复杂造成的。 你们那的老百姓不行，没有湘西人民传统的天不怕地不怕性格。奴性重。湘西人民在建国时就不服解放军，打输了才服。 哈哈，你们就知足吧，以前都直接弄进去，也没见你们说什么！现在好歹还走个过场是不是？[微笑][微笑][微笑] 裙带企业 阶级固化不好吗？龙生龙凤生凤，老鼠生来就打洞。不说了，工头喊我搬砖了。 对，不招聘了，直接安置了算了。<br>再问？<br>我们这个岗位暂时不要人了。 现在太多地方都这样了。太多官家联姻，谁也查不了，毕竟都是亲家 全中国都一样，没有后台想进事业编无异痴人说梦。记住：天下乌鸦一般黑 都说要父母一方是市值单位的了还什么主观上没有这样，说的多明确，就是要官二代 活了四十年这种情况有什么不对吗？！很中国式！肥水不流外人田！ 2楼SB。纯的。 还是没有解释为什么有“且其父母双方或者一方在市直单位工作”这条。这批人渣！ 少数民族查八辈祖宗不？9几年时候不少少数民族都是为了小升初+5分改的，少数民族咋了可NB啊？ 不用追责，上下一片黑 裙带企业 你就不怕被抓？讲这样的笑话？假的吧！ 走了旧社会大地主，来了新社会更大更黑的! 放你妈的狗臭屁！一帮丧尽天良厚颜无耻的龟孙子！你们不死天理不容！ 有些事的确 每个字都认识放在一起就看不懂了💁🏻 考虑过于简单，确实存在瑕疵。<br>你们一个个都是人精了，说这些谦虚的话[微笑] 太不要逼脸 从头到尾，都是集体世席 新说法、主观上、客观上、欢迎造句 知道东北某国为什么不让用网络了吧？知道为什么谷歌非死不可进不来了吧？ 有关单位恨死网络了 他们就不要脸了又能怎么样…… 比娼妓还赖就是没娼妓会说 就是，没指名道姓只招某某局长的儿子就不算萝卜招聘！ 举个例子，公安局警犬饲养员要求通过雅思 你们怎么还醒着，该睡觉该做梦了 现在的中国，全国各地上到中央下到乡镇，哪里不是这样萝卜招聘？寒门子弟想进体制内真心非常非常非常艰难，心好凉，还天天宣传中国发生战争怎样怎样，我想说“那是你们自己的战争”关普通老百姓屁事。 就这不要脸的解释糊弄百姓！日你妹 如果在选人用人方面腐败，那国家就不中了 垃圾就这德性 如果做错事情，就立马下岗，估计他们什么事情都不会做错 [FIRE]<br>去🍵你想🍵的人吧<br>趁阳光正好、趁微风不燥<br>趁你还年轻、趁她还未老 对，有希望了 我觉的和琴💩黄年代差不多 噗～ 近些年发明了多少名词啊，搞的文化程度低了，都看不懂 人精这个词，刻画的入木三分，这些人拉去打靶+次也不多! 我们这还招过必须姓赵的，妈妈姓王的，打过三年英雄联盟的呢 诚聘王者农药铂金以上段位的研究生，必须有王者农药三年经验。 咋不说招父母都是卖菜的那，压力更小！ [FIRE]<br>去🍵你想🍵的人吧<br>趁阳光正好、趁微风不燥<br>趁你还年轻、趁她还未老 这秘书水平可以 [FIRE]<br>去🍵你想🍵的人吧<br>趁阳光正好、趁微风不燥<br>趁你还年轻、趁她还未老 [FIRE]<br>去🍵你想🍵的人吧<br>趁阳光正好、趁微风不燥<br>趁你还年轻、趁她还未老 很猪国 我们这里找一个某大学行政管理专业的有三年银行工作经历的政治老师，群众不一样情绪稳定[不屑] 其父母双方或者一方在市直单位工作。无耻成这样了？ 都客观了，主观怎么想，管用吗。 要是信你就奇他妈逼的怪了 几十年前打江山的时候说：我们要建立一个没有剥削，没有特权，人人平等的…… 垃圾就这德性 看不明白 阶级固化不好吗？龙生龙凤生凤，老鼠生来就打洞。不说了，工头喊我搬砖了。 哈哈，你们就知足吧，以前都直接弄进去，也没见你们说什么！现在好歹还走个过场是不是？[微笑][微笑][微笑] 你们怎么还醒着，该睡觉该做梦了 发现暂停继续 有些去公职单位的都有关系，坐着拿高薪，跟白拿钱没什么区别，父母有权势，子母不是有钱就有权，要不就是公职的好位置，一人得道全家沾光。 暂停有啥用？结果还是萝卜招聘，全国都这样，敢全国性的查处吗 [FIRE]<br>去🍵你想🍵的人吧<br>趁阳光正好、趁微风不燥<br>趁你还年轻、趁她还未老 原来萝卜招聘从上学的时候就安排好了，你看人家叫定向培养 天真，以为曝光了就不安排了？它们只是觉得招聘过程太长，那么多人报名，所以弄个精简版的走过场。 裙带企业 哔哔哔 走了旧社会大地主，来了新社会更大更黑的! 跟少民屁关系。。。。 有些事的确 考虑过于简单，确实存在瑕疵。<br>你们一个个都是人精了，说这些谦虚的话[微笑] 从头到尾，都是集体世席 你们说，那个梦能实现吗 还是没有解释为什么有“且其父母双方或者一方在市直单位工作”这条。这批人渣！ 攻读研究生之前户籍在永定区，且其父母双方或者一方在市直单位工作，并且还是少数民族身份。这样的“人才”在这个小小的区域怕是屈指可数吧…… 打江山坐江山 这从来不是个案 到底是谁主持发布这个招聘呢？ 现在的中国，全国各地上到中央下到乡镇，哪里不是这样萝卜招聘？寒门子弟想进体制内真心非常非常非常艰难，心好凉，还天天宣传中国发生战争怎样怎样，我想说“那是你们自己的战争”关普通老百姓屁事。 那个地方都一样 这个段子😣 草尼玛的逼，招尼玛的逼。 希望加快多点这事就好了，这样重新系统 唉……要是没网上曝光这事儿就成了。 哈哈哈哈，确实这是它们最谦虚的时候 内斗而已 草尼玛的逼，招尼玛的逼。 他们就不要脸了又能怎么样…… 呵呵，在这里，真想都是超出你的想象的！ 且其父母双方或者一方在市直单位工作 是的，公仆翻一倍就好了，2000万！不够4000万，我们有钱任性养的起！ 至于质疑招聘只招“官二代”，可能造成“萝卜招聘”等，我们真诚地表示，在主观上我们没有这样的故意，在实际操作中也没有这样的现象。 合着跟警犬交流用的？ 权力真好 新说法、主观上、客观上、欢迎造句 公职没高薪 这都能成新闻？这种事在神州大地，任何时候，率土之滨，不都是常态么？电力，铁路，石油，化工，哪个行业有例外？ 定向尼玛 权力又不是你们群众的，操心太多了 1万多是不算高薪，但比百姓工薪层要强很多， XXX，出来洗地了。 哈哈，最搞笑的是必须父母一方在市直机关单位，这是按照国家政策招聘吗？！ 草尼玛的逼，招尼玛的逼。 这还用如果…… 现在太多地方都这样了。太多官家联姻，谁也查不了，毕竟都是亲家 就是，没指名道姓只招某某局长的儿子就不算萝卜招聘！ 有些去公职单位的都有关系，坐着拿高薪，跟白拿钱没什么区别，父母有权势，子母不是有钱就有权，要不就是公职的好位置，一人得道全家沾光。 做了坏事却把自己说的一脸无辜，脸厚黑啊！ 2:01分，尿完默默的问一句<br>人民税收为人民么？ 曾经隔壁南方电网他表哥来面试的，问题是平时喜欢听什么歌曲，喜欢什么体育活动 不用追责，上下一片黑 我们这里找一个某大学行政管理专业的有三年银行工作经历的政治老师，群众不一样情绪稳定[不屑] 草尼玛的逼，招尼玛的逼。 你就不怕被抓？讲这样的笑话？假的吧！ 公开透明招聘，公开透明招标。 。。。 放你妈的狗臭屁！一帮丧尽天良厚颜无耻的龟孙子！你们不死天理不容！ 转脸恨得咬牙切齿。 说的差点我都信了 每个字都认识放在一起就看不懂了💁🏻 少见多怪了不是 考虑过于简单，确实存在瑕疵。<br>你们一个个都是人精了，说这些谦虚的话[微笑] 安置压力过大了还一定要安置？难怪人浮于事！ 太不要逼脸 这个坑坑得有点明显，不过，银行的为啥去当一个政治老师？ 中国这种卑鄙的行径何时休？ 尼玛一个比一个有才，舅服你！ 量身定做。。。。 知道东北某国为什么不让用网络了吧？知道为什么谷歌非死不可进不来了吧？ 有关单位恨死网络了 我们这县里安置转业军官，都是三四十岁的大老爷们了，竟然还要求本人是独生子……现在国家都放开二胎了，真无语 我们这还招过必须姓赵的，妈妈姓王的，打过三年英雄联盟的呢 草尼玛的逼，招尼玛的逼。 又出来了？ 举个例子，公安局警犬饲养员要求通过雅思 假不假我不知道反正我玩游戏认识一北京的家挺有钱qq签名写着马上转正了<br>时间快一点吧以前在公路局高速上工作现在当警察了？呵呵 就这不要脸的解释糊弄百姓！日你妹 如果在选人用人方面腐败，那国家就不中了 999纯sb 这是雄才大略。 那把一下永定区户口就行了，为何还强调父母至少一方在市直机关，是这样做习惯了吧，一不小心嘟噜真话了！ 刚才政府部门还顶住舆论压力牵强附会作出解释，怎么一下又暂停了呢？ 就是在给官二代准备的岗位 你们咋说都行！ 2楼SB。纯的。 不想当银行职员的行政专业毕业生不是好政治老师 为何让曝光了才停止，如果没有被曝光了呢，是不是就顺理成章了？ 宇宙的探索是离不开我的话的，只有把围绕地球公转的一切物质包括气体计算在地球体积之内才能找到地球真正的边和角，那是反引力汇聚地，是真正的真空隧道，宇宙高速路，太阳系内的动脉!把围绕太阳公转的一切物质包括气体计算在太阳体积之内才能找到恒星与恒星的边和角，那是恒星与恒星之间的真空高速隧道，找到真空隧道以近光速超光速飞行那不是个事!宇宙飞行器也不能按照飞机的二维结构原理制造，飞机是不能高速自转的，但只有高速自转才能产生真空电磁场，以近光速飞行，未来的宇宙飞行器必须按地球原理制造，八层以上结构，你看地球高速自转着前进，我们人坐在地球上有啥不适感觉吗？ 得道的人死亡，全家就低调。 真厉害，这也能园回来，你去给出轨明星代言吧 市直单位工作的都是官么？市直单位没有一般工作人员么？ 是你们的父母官 患，一点小瑕疵，瑕不掩瑜 应该追责 还在招人? 咳咳，不能说脏话啊 停尼玛币都是贪官污吏子女准备的岗位， 我们这里找一个某大学行政管理专业的有三年银行工作经历的政治老师，群众不一样情绪稳定[不屑] [不屑] 你们那的老百姓不行，没有湘西人民传统的天不怕地不怕性格。奴性重。湘西人民在建国时就不服解放军，打输了才服。 哈哈，你们就知足吧，以前都直接弄进去，也没见你们说什么！现在好歹还走个过场是不是？[微笑][微笑][微笑] 三疤子？四秃子？钻山豹？四丫头？ 我们怎么没有定向培育研究生？还包分配就业？ 少民有这待遇？我们班的那个怎么没有 硕士，博士，高级职称 比娼妓还赖就是没娼妓会说 这帮死官僚 全中国都一样，没有后台想进事业编无异痴人说梦。记住：天下乌鸦一般黑 都说要父母一方是市值单位的了还什么主观上没有这样，说的多明确，就是要官二代 就是哦，半夜公告，就招领导家属 有些去公职单位的都有关系，坐着拿高薪，跟白拿钱没什么区别，父母有权势，子母不是有钱就有权，要不就是公职的好位置，一人得道全家沾光。 学学顺丰，把质疑和不配合的人加入黑名单，世代不能加入。 质疑什么？本来就是。 而且转变方向了，不与人民为敌了 千千万万没有曝光的 攻读研究生之前户籍在永定区，且其父母双方或者一方在市直单位工作<br>这要不是萝卜招聘，劳资直播吃翔 其中必存在腐败 处理相关人员！ 要是允许人民自由持枪…… 每个字都认识放在一起就看不懂了💁🏻 活了四十年这种情况有什么不对吗？！很中国式！肥水不流外人田！ 湘西土匪多出名 不要逼脸！ 攻读研究生之前户籍在永定区，且其父母双方或者一方在市直单位工作 就差没按姓名筛选了 这种不要脸的勾当干出来，几句话就完了？当初是哪个傻逼的主意，滚出来吃屎 那是太大了， 好少见到了 新年了，好多鬼鬼回魂了 对，不招聘了，直接安置了算了。<br>再问？<br>我们这个岗位暂时不要人了。 白纸黑字都相当于寻人启事了，特么也能否认？<br><br>本次招聘对象必须同时符合以下三项条件：<br>1.在攻读研究生之前，与市人民政府、省教育厅签订了《湖南省国家定向培养计划少数民族高层次骨干人才攻读硕士学位研究生（非在职考生）定向协议书》,且属于2014年之前（不含2014年）招录定向培养对象；<br>2.2017年度应届研究生毕业，并依照《张家界市“少数民族高层次骨干人才”研究生就业安置实施办法》在2017年9月30日之前到市教育局报到后通过了资格审查;<br>3.攻读研究生之前户籍在永定区，且其父母双方或者一方在市直单位工作。 真无耻 56个民族，56种政策 都这样 太不要逼脸 少数民族查八辈祖宗不？9几年时候不少少数民族都是为了小升初+5分改的，少数民族咋了可NB啊？ “我们启动了本次“少民”研究生的定向招聘安置工作，此次招聘安置是在特定范围内（指“少民”研究生）的定向安置，不是事业单位面向社会的公开招聘”但鉴于压力，给你们说个感谢致歉，希望赢得喝彩 裙带企业 公务员都是万里挑一选拔的，在写招聘条件时就会考虑过于简单？我看是考虑过于复杂造成的。 这还用疑问？ "
    },
    "Title": "张家界人社局致歉\"萝卜招聘\"：暂停本次定向招聘_网易新闻",
    "KeyWords": "招聘,研究生,就业,少数民族",
    "Article": "（原标题：张家界人社局致歉“萝卜招聘”：暂停本次定向招聘安置工作）关于张家界市“少数民族高层次骨干人才”研究生定向招聘安置问题相关网帖的回复尊敬的各位网民朋友和有关媒体：衷心感谢各位网民朋友和有关媒体对我们工作的关注和监督，顺致大家2018年元旦佳节快乐！2017年12月5日，中共张家界市委组织部、张家界市人力资源和社会保障局在市人力资源和社会保障局门户网站发布了《张家界市市直事业单位在“少数民族高层次骨干人才”研究生中招聘人员公告》（以下简称《公告》）。2017年12月29日，微信公众号“法律观察”发帖提出质疑。之后，有关网络媒体对此予以转载或评论。我们真诚地接受网民朋友和舆论的监督，经过深刻反思，深入调查和认真研究，我们认为，虽然执行的是国家政策，但在结合具体市情理解上和执行国家政策上有所偏差，网民提出的合理意见和建议应予采纳。至于质疑招聘只招“官二代”，可能造成“萝卜招聘”等，我们真诚地表示，在主观上我们没有这样的故意，在实际操作中也没有这样的现象。但无论怎样，客观上我们在《公告》中没有把相关政策表述清楚，在具体安置考虑上也确有不妥之处。在此，对于工作中出现的疏忽和偏差，我们真诚地表示歉意。经慎重研究，决定暂停本次定向招聘安置工作，待进一步完善相关安置办法后再组织实施。张家界市是少数民族聚居区和革命老区，为加大少数民族高层次人才培养力度，自2008年起开始实施国家定向培养“少数民族高层次骨干人才”研究生（以下简称“少民”研究生）专项计划。根据教育部、国家发展改革委、国家民委、财政部、人事部《关于大力培养少数民族高层次骨干人才的意见》（教民〔2004〕5号）中“定向招生、定向培养、定向就业”和“毕业生一律按定向培养和就业协议到定向地区和单位就业”的规定，按照教育部办公厅《关于做好“少数民族高层次骨干人才”研究生就业工作的意见》（教民厅〔2008〕10号）的有关要求，定向生本人与市人民政府、省教育厅签订了《湖南省国家定向培养计划少数民族高层次骨干人才攻读硕士学位研究生（非在职考生）定向协议书》。协议规定，政府负责在辖区内指导和安排定向生就业。因此，“少民”研究生就业应由政府进行政策性安置。为切实履行好协议，根据用人单位的需求和岗位专业要求，我们启动了本次“少民”研究生的定向招聘安置工作，此次招聘安置是在特定范围内（指“少民”研究生）的定向安置，不是事业单位面向社会的公开招聘，凡与政府签订安置协议的“少民”研究生按政策规定应全部予以安置。《公告》中定向招聘安置对象在条件上设置了“攻读研究生之前户籍在永定区，且其父母双方或者一方在市直单位工作”的条款，是因为“少民”研究生就业安置应采取“生源归口”原则，安置对象毕业后由本人入学前户籍所在地人民政府负责安置。鉴于永定区系市人民政府所在地，就业安置人员相对较多、安置压力相对较大，我们在统筹安置就业时把市直单位比照区县作为“生源归口”单独安置主体，以减轻永定区安置压力，故设置了上述条款，考虑过于简单，确实存在瑕疵。再次感谢各位网民朋友和有关媒体对我市“少民”研究生定向招聘安置工作的关注和监督。今后，我们将认真汲取教训，加强管理，完善制度，提高工作水平。敬请大家继续对我们的工作进行监督。中共张家界市委组织部张家界市人力资源和社会保障局2018年1月1日张家界直属单位被质疑\"萝卜招聘\"回应:政策性安置近日，张家界市人社局在官网发布的一则招聘公告引发关注。公告要求招聘对象在攻读研究生之前户籍在张家界市永定区，且父母双方或一方在市直单位工作。不少网友质疑这个招聘为“萝卜招聘”，甚至是“招聘官二代”。本文来源：澎湃新闻责任编辑：王征_NN7526",
    "URL": "http://news.163.com/18/0102/11/D754EAQT000187VE.html",
    "PublishTime": "01/02/201811:38:00",
    "Source": "Netease"
}