{
    "Article": "（原标题：惊！内地车竟从珠海冲关，飙到澳门机场！警方多方追堵如大片…）南都讯持内地车牌私家车不仅未经许可擅自闯入澳门，而且还试图翻越围栏闯入机场禁区范围，这是去年12月31日发生的一幕。记者获悉，澳门特区政府发布信息称，涉事车辆及司机均已被擒获，其有关行为已涉嫌触犯\"违令\"、\"侵入限制公众进入之地方\"及\"危险驾驶交通工具\"等罪，将于今日移送检察院作进一步处理。据澳门特区政府官网发布信息称，当日早上约8时30分，澳门海关及治安警察局，透过与内地公安部门的联络机制，接到横琴口岸通知，一辆内地车牌白色房车在未经许可下擅自闯过上述口岸，并要求澳方协助拦截。接到通知后，澳门警方及海关人员发现涉事车辆已迅速经有关口岸车道栏之间的间隙强行闯过，警方及海关人员马上试图拦截未果，涉事车辆沿莲花路方向驶去。随后，澳门警方等部门迅速展开追查，包括通知各前线部门留意可疑车辆，并在市区及三条跨海大桥等区域设立路障截查车辆。同时，通过天眼系统锁定车辆下落，于当日8时45分左右在澳门国际机场上层外发现涉事车辆。记者获悉，当时司机已离开车辆现场，澳门警方随即通过录像监控系统，发现该名司机曾行经机场离境及入境大堂，最后更是爬越围板进入机场禁区范围，被警员及机场保安人员迅速将其截获。据澳门方面透露，事件没有造成任何人受伤或财物损毁，且透过天眼系统调查，初步显示车辆在行驶期间并没有上落任何人或货物，只有一名司机在车内。据了解，该司机姓熊，男性，中国籍，三十多岁，身上发现一本中国护照及已逾期的通行证，经调查其车辆及其身上并没有其他可疑物品。据其供述，自己是由湖南家中驾车来到澳门机场欲乘坐飞机离开，并没有购买机票。记者了解到，由于其有关行为已涉嫌触犯\"违令\"、\"侵入限制公众进入之地方\"及\"危险驾驶交通工具\"等罪，今日将被移送检察院作进一步处理。对于上述事件，内地联检部门表示目前正在调查当中，同时澳门海关与治安警察局也表示，已即时进行详细检讨及采取相应措施，包括加长车道栏及设置围栏等，并完善车道管理工作。本文来源：南方都市报作者：者李京责任编辑：邵小波_NN2479",
    "PublishTime": "01/03/201809:51:06",
    "URL": "http://news.163.com/18/0103/09/D77FQCTT0001875P.html",
    "Source": "Netease",
    "Comment": {
        "Content": "陈冠吸张柏汁谢霆疯<br>批基望李小露假奶亮 抓海龟做什么？ 没入境记录没可能让他离境，这事没那么简单吧 广东的车也可以到香港啊，挂港牌，见过多了 广东的车也可以到香港啊，挂港牌，见过多了 厉害了我的哥[窃笑] 应该放行，都是在中华大地 可以啊，挂Fv 一国两智 也算是到水深火热的资本主义走了一遭 资金链断了。跑路。<br>再不走来不及了。 这位大哥认为飞机是招手停，只要跑到飞机跟前招手就能搭上飞机吗？ 多出来看看，没离开过台湾吧 人家都用上p9啦 从湖南能够开车直接到澳门机场吗? 笨死了，晚上花5百就过去了 你太年轻了，这是要跑的节奏。。。会有人接应的，你不懂 跑路跑的这么暴露的还是第一次见到 特工！？ 其实吧，就没有敢告诉你全部问题。。。 澳门是中国的么，还要通行证！ 湘C，是毛大爷家里的人，所以🐂 这哥们赌场输了多少钱要这么逃命，被警察逮住是最好的出路了吧 你见过只有港牌的车入大陆？ 为什么香港的车可以开到大陆，我们的车不能开过去？ 多出来看看，大陆人可以吃茶叶蛋了 这是要逃离社会主义国家吗？ 脑子坏 有什么好想不通的，因为你是中国pig 多出来看看，大陆人的动车是真的 哪位大官人脑袋发卡了？ 这人是看港片看多了吧 放心吧不久以后就是一个市了，大家的相信中央 没入境记录没可能让他离境，这事没那么简单吧 厉害了我的哥[窃笑] 应该放行，都是在中华大地 可以啊，挂Fv 一锅两痔 急着跑路？ 也算是到水深火热的资本主义走了一遭 这位大哥认为飞机是招手停，只要跑到飞机跟前招手就能搭上飞机吗？ 多出来看看，没离开过台湾吧 广东的车也可以到香港啊，挂港牌，见过多了 从湖南能够开车直接到澳门机场吗? 一国两智 “因为香港地方小容不下那么多车啊，万一用车从🇭🇰走私呢？”我乱说的[窃笑] 特工！？ 以后那个世界第一的港珠澳跨海大桥怎么用呢？ 其实吧，就没有敢告诉你全部问题。。。 湘C，是毛大爷家里的人，所以🐂 房车呢！ 你见过只有港牌的车入大陆？ 跑路 这是要逃离社会主义国家吗？ 有什么好想不通的，因为你是中国pig 多出来看看，大陆人的动车是真的 哪位大官人脑袋发卡了？ 内地是否具体指出？广东省出入境、珠海公安、珠海安检…… 广东的车也可以到香港啊，挂港牌，见过多了 笨死了，晚上花5百就过去了 资金链断了。跑路。<br>再不走来不及了。 多出来看看，大陆人可以吃茶叶蛋了 广东的车也可以到香港啊，挂港牌，见过多了 你太年轻了，这是要跑的节奏。。。会有人接应的，你不懂 跑路跑的这么暴露的还是第一次见到 内地2字应该消失了吧…… 就是图上的车，有车顶的好多都称为房车。 陈冠吸张柏汁谢霆疯<br>批基望李小露假奶亮 这哥们赌场输了多少钱要这么逃命，被警察逮住是最好的出路了吧 人家都用上p9啦 为什么香港的车可以开到大陆，我们的车不能开过去？ 嘿嘿嘿 抓海龟做什么？ 脑子坏 澳门是中国的么，还要通行证！ 这人是看港片看多了吧 ",
        "Reply": 44,
        "Total": 432,
        "Link": "http://comment.news.163.com/news_shehui7_bbs/D77FQCTT0001875P.html"
    },
    "Title": "内地车从珠海冲关飙到澳门机场 警方追堵如大片_网易新闻",
    "KeyWords": "澳门,机场,海关,追堵"
}