{
    "Article": "相关阅读：贾跃亭回复北京证监局：会对债务问题尽责到底网易科技讯1月2日消息，甘薇今日在微博表示，将负责贾跃亭在国内的债务问题。同时她澄清称，贾跃亭套现和质疑贷款没用于个人及家庭使用，还替公司担保100多亿，个人及家庭两套房产和资产都被冻结，负债累累。甘薇称，将与债务小组全力以赴解决债务问题。此前贾跃亭声明称，已委托甘薇、贾跃民全权代理其行使上市公司股东权利和履行股东责任。包括资产处置等相关工作，也由甘薇、贾跃民全权负责处理。贾跃亭再次向社会公开郑重承诺，针对债务问题，会尽责到底。2017年的最后一天，甘薇发布微博，显示地点在北京首都国际机场，从美国洛杉矶归来。甘薇称，“2017最后一天，使命归来。2018新年伊始，任重道远……早安，北京”。同时甘薇在评论中承诺，会妥善处理好乐视网的问题。以下是甘薇声明全文：受老贾委托，我将负责贾跃亭在国内的债务问题。顺便澄清：老贾减持股票的钱（减持所得97亿，缴税20亿）和质押股票的贷款（质押贷款余额69亿，2014年至今利息支出17.4亿），股权投资约16亿，经营投入约152亿。不但没用于个人及家庭使用，还替公司担保100多亿，个人及家庭两套房产和资产都被冻结，负债累累。我将与债务小组全力以赴解决债务问题。本文来源：网易科技报道责任编辑：王凤枝_NT2541",
    "Title": "甘薇：贾跃亭套现资金没有用于个人 如今负债累累_网易科技",
    "PublishTime": "01/02/201812:38:34",
    "Source": "Netease",
    "Comment": {
        "Content": "投资需谨慎，你妈没教你？ 回国这事，回国是不可能回国的。。。 中国社会讲究痛打落水狗，在你落难之时，每个人都恨不得在你身上踩一脚，唾一口唾沫，其实，除了那二十六万名投资者以及遭到欠款的供货商以外，剩下和乐视没有丝毫利益关联的人只是凑热闹，想体会一下把曾经眼里的强者肆意污蔑攻击的快感。希望贾总能东山再起，作为一个爷们儿最终还上所有欠款，把所有现在骂你的人狠狠打一个响亮的嘴巴，让他们知道臭屌丝永远都是只会网上放嘴炮的臭屌丝。 美国买的几套豪宅如何解释 根源还不是贾跃亭？自己看情况不好提出钱赶紧跑路了自己拿着钱去国外吃好喝好留着国内供应商倾家荡产 都给你了？？[狗] 要老贾赔偿所有债务不是不可能，乐视还是有价值的，老贾本来是个可以写入励志小说的人物。那些想一口吃掉老贾并没那么容易。老贾现在只是在某些x在抗争而已。列位看官，只要条件谈好、妥协好，各种风投、贷款分分钟就可以让老贾重回巅峰。 一码归一码，乐视欠供应商，供应商欠包工头与乐视无关，法院就是这么判的。开发商欠建筑商，建筑商欠工头，法院不会判开发商付款，合作主体都不一样 甘薇为什么能去美国？根源在贾吗？你太瞧得起贾了。贾是骗子？那他拿了钱为<br>啥继续在美国折腾？为啥不享受人生去呢？他为啥要让他老婆回国当人质呢？他为啥在锤子手机快不行的时候伸出援手呢？钱在自己口袋，跑路不就完了吗？用你们脑子想想。 傻逼，多少人被这个骗子骗得家破人亡，他们还可以出国团聚？ 13楼，顶峰个毛线，如果没报道还好，报道出来了这种全国都知道的无赖情况，人家不是傻逼，回不去了，现在社会越来越讲究信用了，也是社会发展的未来趋势，中国也逃避不来了，他走不远的，一个这么大的污点终身伴随了 麻辣隔壁，100多亿，你说的话自己信吗？ 假总安逸了 [微笑]替公司担保了100亿？说的可是借钱给乐视30亿然后出事前全还回去了对外骗大家说一百亿那件事？ 支持假总 说得好。现在远没到出戏时候。 就算没侵吞，难道挪用资金去造车不是罪么？从上市公司通过公众慕来的资金，拿去私人创业？ 谁买乐视手机，电视，都是傻逼，不是送你们几年的会员吗 创业难，难免几起几落，经过的人，不多不多 傻逼乐视，看电视有广告，就是他的罪魁祸首。 希望老贾的未来能越来越好，早日重新起复 那史玉柱呢，楼上是傻逼玩意？ 这对骗子夫妻 纳税20亿不知道退不退？ 不远万里送去放几炮，然后回来继续 脑残，人家是夫妻，不该团聚吗？ 一个骗子你把却他当爷一样供着，脑子有病吧？有人起哄曹德旺宗庆后吗？起哄李嘉诚任正非吗？ 说明白点，有人想吃下老贾和他背后人的资产，就这么简单。看看这种穷追猛打的架势，还不明白是某人的手法吗。呵呵，有点资产的，自求多福吧。 现在欠钱的都是爷 支持贾总 当然需要打点什么呀 人家带了贾总几十亿精兵回来咯 我就知道，我就知道，小薇的内裤都在京东买了，还是特惠的，都太不容易了！ 某银行是哪家？这个垃圾！银行TMD喝人血的畜牲！！那些骂贾总的，你们怎么不去把这家银行弄死！ 水太深，继续看戏。 6楼的沙壁，你知道欠供应商的钱会连带多少公司倒闭破产吗？多少小包工头血本无归，多少工人拿不到应得的工资回家过年，有本事去骗有钱人的钱去，骗穷人钱连狗都不如！ 看来这次去美国应该带了钱回来，水军又开始反攻了 基本上在网易上瞎嚷嚷的都是跟贾跃亭没有关联的，只是看到一只落水狗，大家都在踩，所以也上前踩几脚，如果真有关联上的，要不大不大贵，要不没有心情在这里叽歪，我也没有买贾的股票，也没有欠我的钱，我只是上来挣点金币的！ 老贾确实好可怜啊，所有的责任都要他一个人承担 97亿，20亿税，最黑的是谁 贾跃亭所有的钱都出给了公司，结果自己的财产还都被清零了 全部都是国家的，包括你的命 可悲可叹，社会风气都是骗纸当道。 想都别想 为啥他不自己说，还要你来说？那在美国住的是谁的房子？我们纳税人的吗？我们可以去美国住吗 比电影好看多了。 回国这事，回国是不可能回国的。。。 20亿税，也是够吓人了 现在是这种趋势了，不白即黑，只要倒下，不管你是好是坏，只要鱼论被上面一拔，大粪接着而来。 打工又不会 乐视当初怎么上市的？心里没点逼数吗？还想洗白？ 怎么双马没有到这一步，可能是站对了阵营 一个诉讼，就可以把一个企业家整进黑名单，让企业家成为“老赖”，企业家是这个神奇的国度最低贱的人！几百万个企业家已经成为“老赖”，还有上千万个企业家正在往“老赖”的路上！法律无视最基本的人权！这是全球商业社会、现代经济的耻辱！经济生活、法律正在演变成一场“经济文革”！谁他妈的再做实业，谁就是十足的傻B！ 一个诉讼，就可以把一个企业家整进黑名单，让企业家成为“老赖”，企业家是这个神奇的国度最低贱的人！几百万个企业家已经成为“老赖”，还有上千万个企业家正在往“老赖”的路上！法律无视最基本的人权！这是全球商业社会、现代经济的耻辱！经济生活、法律正在演变成一场“经济文革”！谁他妈的再做实业，谁就是十足的傻B！ 最近贾的水军突然多了 一个诉讼，就可以把一个企业家整进黑名单，让企业家成为“老赖”，企业家是这个神奇的国度最低贱的人！几百万个企业家已经成为“老赖”，还有上千万个企业家正在往“老赖”的路上！法律无视最基本的人权！这是全球商业社会、现代经济的耻辱！经济生活、法律正在演变成一场“经济文革”！谁他妈的再做实业，谁就是十足的傻B！ 他自己的公司骗子不说美国别墅🇺🇸说代理商供应商乐啪店被他害的！你该同情他？你帮他把我店面装修少还给我😊 把资全转稳美国造厂了，呵呵！. 有事咱们电话里说…… 没有那金刚钻，就别揽瓷器活 好好的一本万利的房地产不干，去搞什么尸体经济，活该饿死啊，呵呵 他的钱是怎么赚来的……？ 中国社会讲究痛打落水狗，在你落难之时，每个人都恨不得在你身上踩一脚，唾一口唾沫，其实，除了那二十六万名投资者以及遭到欠款的供货商以外，剩下和乐视没有丝毫利益关联的人只是凑热闹，想体会一下把曾经眼里的强者肆意污蔑攻击的快感。希望贾总能东山再起，作为一个爷们儿最终还上所有欠款，把所有现在骂你的人狠狠打一个响亮的嘴巴，让他们知道臭屌丝永远都是只会网上放嘴炮的臭屌丝。 贾总，看到我的信息请与我联系！我是一名国内知名汽车厂商工作人员，从事质量管理售后管理工作，有着多年的工作经验！我愿助你一臂之力！让你媳妇给我联系，帮我办护照，我去美国，我住房公积金有4万多，我取出来都投给你！人如果没有梦想，和咸鱼有什么区别，贾总，我支持你！我相信有朝一日，我们可以开着我们造出来的车，从大洋彼岸回到祖国的怀抱！加油，共勉！ 千万不能让甘薇出去了。 钱去哪里啦？ 首先申明，我是超底层人士。老贾的事不关我啥事。我也较经如楼上所想。但是他不回国，老忽悠，你怎么想？现在都不是底层人士说他了。央视年前朝闻天下就以“造成恶劣社会影响”谴责他的行为了，证监会都点名了 脑残，人家是夫妻，不该团聚吗？ 纳税20亿不知道退不退？ 呵呵 一个诉讼，就可以把一个企业家整进黑名单，让企业家成为“老赖”，企业家是这个神奇的国度最低贱的人！几百万个企业家已经成为“老赖”，还有上千万个企业家正在往“老赖”的路上！法律无视最基本的人权！这是全球商业社会、现代经济的耻辱！经济生活、法律正在演变成一场“经济文革”！谁他妈的再做实业，谁就是十足的傻B！ 一个诉讼，就可以把一个企业家整进黑名单，让企业家成为“老赖”，企业家是这个神奇的国度最低贱的人！几百万个企业家已经成为“老赖”，还有上千万个企业家正在往“老赖”的路上！法律无视最基本的人权！这是全球商业社会、现代经济的耻辱！经济生活、法律正在演变成一场“经济文革”！谁他妈的再做实业，谁就是十足的傻B！ 一个诉讼，就可以把一个企业家整进黑名单，让企业家成为“老赖”，企业家是这个神奇的国度最低贱的人！几百万个企业家已经成为“老赖”，还有上千万个企业家正在往“老赖”的路上！法律无视最基本的人权！这是全球商业社会、现代经济的耻辱！经济生活、法律正在演变成一场“经济文革”！谁他妈的再做实业，谁就是十足的傻B！ 骗子 问题在于贾先生说的做的全是套路，做生意从来都是亏钱，钱TMD没有一分钱净资产，钱都是融的、借的、套的、骗的！ 一个诉讼，就可以把一个企业家整进黑名单，让企业家成为“老赖”，企业家是这个神奇的国度最低贱的人！几百万个企业家已经成为“老赖”，还有上千万个企业家正在往“老赖”的路上！法律无视最基本的人权！这是全球商业社会、现代经济的耻辱！经济生活、法律正在演变成一场“经济文革”！谁他妈的再做实业，谁就是十足的傻B！ 看评论，个个都上当受骗了呀 乐视怎么上市的？他贾布斯是个正经商人吗？他后台没倒的话，现在贾布斯绝对比牛云都牛逼，一个破傀儡，政治的牺牲品有什么可崇拜的，而且还是个卖友求荣（举报快播）的小人。 A股散户投资者巨额亏损，精准跌停！总得有背锅对吧？！你跑了，如何让天下人心服口服？......其实，这锅背与不背，股市都已经失去了群众基础…… 出去很明智，至少目前没有更好的办法，当局是不会承认错误的 贾总的后台呢？出来走两步呗 关键是贾的做法，失信了，几乎没有人会相信他了 一个诉讼，就可以把一个企业家整进黑名单，让企业家成为“老赖”，企业家是这个神奇的国度最低贱的人！几百万个企业家已经成为“老赖”，还有上千万个企业家正在往“老赖”的路上！法律无视最基本的人权！这是全球商业社会、现代经济的耻辱！经济生活、法律正在演变成一场“经济文革”！谁他妈的再做实业，谁就是十足的傻B！ 别墅不是钱💰你信贾公公是好人吗😊 中国的富豪为什么都去万恶的美帝了呢？想不通 他那两年太盛，后台又不够硬。。随随便便就套现百亿，有人眼红，想摘桃子，他不从。。。 12和13楼发言比较理性，支持 具体细节咱不是当事人不了解。但是乐视被银行这么一整，还能坚持这么久，我觉得乐视的资金的情况应该比国内不少企业，尤其是国有大型企业和某些上市公司的企业资金要乐观吧。 一楼真幽默，进了我口袋的钱怎么可能还能算你的 一副好牌打成这样，还有脸说 老贾确实好可怜啊，所有的责任都要他一个人承担 不远万里送去放几炮，然后回来继续 1千多亿…… 下周回国 呵呵 呵呵，首先先不说融资做企业再正常不过了，有几家扩张的公司不融资的？再者，就没人觉得首富的事也很蹊跷吗？ 贾跃亭所有的钱都出给了公司，结果自己的财产还都被清零了 全部都是国家的，包括你的命 生意有风险，他没欠的一分钱，你留躲在角落里痛骂一个敢冒险敢拼的有梦想就行动的人，中国社会就是爱看失败者的笑话顺便嫉妒成功者，不过还好，痛骂的大多底层人士，但凡有点成就的都会理性看待老贾的得意和失意 想都别想 就乐视那种做生意的方式，不用摘桃子自己都得赔死。没有生产工厂，没有研发实验室。全是代工。哪有倒贴钱做生意的。卖一部手机配200，卖一台电视配100。中超版权买的比五大联赛还贵。还真是个奇人。 娶她一定很贵的。 回国这事，回国是不可能回国的。。。 别装了，，老假走之前还收购了他老婆的影视公司 贾似好人 一个中专毕业的小县城会计，现在在美国加利福尼亚住别墅，可以了，还想怎么样。 傻逼 华为定律 套现有很多种,简单说一下,比例,把所有的房地产,股票什么的全部变为现金,帮别人的信用卡刷现金,收取刷卡手续费等等都是套现. 100亿又送到乐视去了 我惦记央视刘建宏去乐视主管体育频道了，这NM坑狠了，乐视视频现在基本就瘫痪了<br><br>但是，乐视还在双蛋快乐，欢迎充费，也没人管 继续演 两个戏精 高手，总能在迷茫和唾骂总给你一丝亮光。 呵呵！ 通过这件事我发现郭嘉已成最大赢家[狗] 你是明白人😊 哎，看了你和11楼的观点才知道，只有身在美国的人才敢说实话 王诚拿走了，在米国做大保健 这个郭佳的人民幸福吗？ 薇薇抖奶欢乐开怀2.0上演 这对骗子夫妻 不远万里送去放几炮，然后回来继续 脑残，人家是夫妻，不该团聚吗？ 当年身无分文到如今负债累累 世界上最大的物管公司，超级大蚂蟥~ 下周回国 我去银行套现几十万拿去扔，银行是不是不能怪我？ 哈哈哈哈哈哈哈哈…… 大家好我是贾跃亭[微笑]我下周回国！ 放屁，我下周就他妈回国？ 转移美国了！ 我靠，套现100+亿，又不是100+万，钱去了哪里会查不清？我的智商好像不够用了，楼下可以帮我分析一下吗？ 你跑出去，说的再好也没人信。 骗你妹！自己股票亏了就怪到别人头上？要是股票赚了你不用拿？？ 某银行是哪家？这个垃圾！银行TMD喝人血的畜牲！！那些骂贾总的，你们怎么不去把这家银行弄死！ 税收取之于民，用之于民。20亿你也有份，原来你也是套现群的受益者。皆大欢喜，洗洗睡。 别装了，，老假走之前还收购了他老婆的影视公司 要老贾赔偿所有债务不是不可能，乐视还是有价值的，老贾本来是个可以写入励志小说的人物。那些想一口吃掉老贾并没那么容易。老贾现在只是在某些x在抗争而已。列位看官，只要条件谈好、妥协好，各种风投、贷款分分钟就可以让老贾重回巅峰。 我真的<br>不可能不可能回国<br>不可能不可能回国<br>在美国的感觉<br>比家里好多了<br>要回国真的是不可能<br>不可能不可能 欠着别人的钱，却住着豪宅、享受着富足的生活，还好意思说没用于个人，总算知道赖是啥意思了。 你哪只眼睛看见别人住豪宅？破船三斤钉，基本的生活再奢靡能花几个钱 套现干嘛？居然不用于个人！ 没用于个人，那当初套现为何不说套现用途呢？用在哪里了？没诚信就是欺骗。 戏精 對的，沒有用於個人，實情是用於兩人 不会说话你就别放屁 甘薇大卖，需要顶我 （多做好事，必有好报）美攻朝中收台战略对冲平衡（加快发展繁重工作替代性智能机器，不用延迟退休）公司上市后业绩异常下降，依法赔偿遏制骗钱（当务之急大小限减持和再融资要挂钩分红或回购，违则重罚，促进长期良好经营，缓解套现压力）尽快开征股指期货的印花税，才能降低杠杆及高频风险，限制其乱影响股市（基金只有盈利才收管理费，真正为投资者服务）连续2天涨跌停就限仓交易，共同受益，利国利民！ 甘薇可以大卖了，慢慢还吧 这淌水不知道能淹死多少人，估计后续报道会更精彩，期待老贾与某些人的撕B 老子天天等着马云三毛的红包，你们已经在讨论多少多少亿了。。。。 不管别人信不信，反正我是不信。 错，曹丞相是最大的赢家，郭嘉是他的某事。 宁愿相信世上有鬼，都不愿相信他们夫妻俩的话。一对骗子。 对，都不在自己名下但是却都是自己在享用实际控制嘛 你觉得他一个人有这么大的胃口吗 楼上水军设备挺专业啊[狗]地址换的挺勤快[狗]不知道你母亲身上的男人们换的是不是也这样勤[喷水] 投资需谨慎，你妈没教你？ 在中国就这样！后台倒立马倒！ 没有用于个人，都用在家庭了[微笑] 美国买的几套豪宅如何解释 这辈子都不可能回国 不是为了本人，是为了家人嘛。。。 华为定律 这里的都是喷子！换你们试试，绝对比老贾差劲👎👎👎，个人觉得他已是中国良心企业家！为了自己的梦想步子夸太大了而已！ 只有圈钱才能维持生活这样子 傻缺，被人卖了还帮数钱 墙倒众人推啊，贾跃亭肯定有私心，也肯定有套利行为，但不至于能被定性成大骗子吧，做企业不为赚💰干嘛要做？？ 不是一家人不进一家门 回国这事，回国是不可能回国的。。。 生活经验告诉我们不要看一个人说了什么，要看他做了什么！ 老兄，股票停牌是被银行查封资产之后吧。 这是挪用公款投资ff的意思咯 甘薇这名字起得好 是不是给靠山吃山的，老贾也就是一个傀儡 首先申明，我是超底层人士。老贾的事不关我啥事。我也较经如楼上所想。但是他不回国，老忽悠，你怎么想？现在都不是底层人士说他了。央视年前朝闻天下就以“造成恶劣社会影响”谴责他的行为了，证监会都点名了 脑残，人家是夫妻，不该团聚吗？ 不远万里送去放几炮，然后回来继续 脑子进了水的人才会相信钱到多时境自高。 一个骗子你把却他当爷一样供着，脑子有病吧？有人起哄曹德旺宗庆后吗？起哄李嘉诚任正非吗？ 说明白点，有人想吃下老贾和他背后人的资产，就这么简单。看看这种穷追猛打的架势，还不明白是某人的手法吗。呵呵，有点资产的，自求多福吧。 底层的根本犯不上跟贾跃亭有利益纠葛，都是幸灾乐祸而已，他们恨不能所有比自己有钱的人都倒霉 为啥高手都跑了，公安死那去了 爱女落户，叫罗菲尔还是罗贤菲尔，大家帮我投投票吧，求求大家了，都纠结一天了，绝对没有坑，放心回复，回复3或者4吧，3就是前一个名，4就是后一个，真的求求大家了！！ 而且，下游有客户，上游有供应商不是很正常吗？公司破产了就清算公司财产呗 所有福也都他一个人享了 老贾好可怜啊，国外那五套别墅才两个亿而已 我就问，老贾，你还算个爷们吗？烂摊子直接甩给女人,你到潇洒了! 呵呵，我觉得公司债务和个人财产是两回事，公司破产后和个人财产无关，除非你能证明他贪污了 乐视骗你钱，你可以不投了乐视股票或送钱给乐视用。 那就不要说乐视骗子，愿赌服输！ 某银行是哪家？这个垃圾！银行TMD喝人血的畜牲！！那些骂贾总的，你们怎么不去把这家银行弄死！ 贾跃亭所有的钱都出给了公司，结果自己的财产还都被清零了 错。虽然分得不均匀，但他妈的这个社会还是要能人来转动。 五毛拿好 这辈子都不可能回国的美国这旮旯个个都是人才说话又好听 因为你更是一个龌龊的告密者，所以吃瓜群众对你恨之入骨、人人喊打~~ 不及时将骗子公司拆穿，让他骗更多人，然后去美国逍遥造车。他能造出个几把 嗯，豪车、豪宅、名牌手表⋯⋯⋯没用套现的钱。 苍天饶过谁？坐等报应到来 兄弟，明白人啊 减持乐视股票时就说的他们姐弟减持获得的资金全部用于乐视网的但既没有全部投入同时又提前把钱抽走，这还不是骗？大股东买卖股票是要对其负责的 老贾确实好可怜啊，所有的责任都要他一个人承担 一对狗男女 回国是不可能回国了，这辈子都不可能回国了 既然这样的话。。。夫债妻还。。。你赶紧去卖屁股来还债吧！ 这要是回国，得让多少官老爷睡不着觉 乐视说没有收到钱，他出给哪家公司了？ 能说的这么不要脸！也是美谁了 能人个JB靠得是权利和狠毒！那个得权不清洗一遍？ 难怪某部门不真正解决大小非减持问题，这个税收的真爽。。 你只是一个妻子身份有什么资格代表假药停？还是让假药停回国吧别把自己搭进去了 生意有风险，他没欠的一分钱，你留躲在角落里痛骂一个敢冒险敢拼的有梦想就行动的人，中国社会就是爱看失败者的笑话顺便嫉妒成功者，不过还好，痛骂的大多底层人士，但凡有点成就的都会理性看待老贾的得意和失意 而且，200多亿是股权，然而你的股票停牌了，复牌了值不值12亿就不清楚了，感觉成了厕纸[微笑] 看不懂了。收钱发帖的那些水军，祝你们新年嘴里得痔疮。 美国个个都是人才，说话又好听. 找他姐，他姐年轻 就不能海外通缉吗 新闻说他们一家都在失信名单上，是不可以出国的，新闻还说官方有公函让贾限期回来，也已经过了期限，请水军解释下这两条然后在捧他可以吗 呵呵呵 美国的几套豪宅和银行资金是天上掉下来的还有一百多亿及现在所谓汽车资产都亲戚名下代持⋯只要贾不死就会死里骗！ 美国买的几套豪宅如何解释 乐视在正常运营时有人起哄吗？可以试一下阿里倒了马上起哄一大批的弱智喷子！都是你们这些人！ 在美帝炒房，赚了钱回国还债，赚不够不回国[窃笑] 还是老老实实做个小老百姓吧玩什么资本运作 甘薇为什么能去美国？根源在贾吗？你太瞧得起贾了。贾是骗子？那他拿了钱为<br>啥继续在美国折腾？为啥不享受人生去呢？他为啥要让他老婆回国当人质呢？他为啥在锤子手机快不行的时候伸出援手呢？钱在自己口袋，跑路不就完了吗？用你们脑子想想。 老贾，加油！ 如果欠了银行的钱，只要不抓我，我保证也不还，但承诺对债务负责终身。 从这份声明中我只看到了老贾或者老贾的后台得罪了不该得罪的人！！！ 自媒体无下限不喜欢乐视的产品但为乐视感到遗憾。我觉得有人整贾，事情肯定不简单，贾也不敢往明了说。乐视好可惜的。 你们夫妻受苦了，操 别乱讲，人家是靠工资买彩票中的~ 回国这事，回国是不可能回国的。。。 尼玛，靠本事骗来的钱💰，凭什么要还？🤔🤔🤔 投资和被骗是2回事，你买股票赔了国家不会管，但欺诈上市或者上市中间有欺诈行为的国家也不管？这你妈没有教你？ 什么时候离婚？ 最牛逼的事套现后，把一部分钱借给自己的公司。 那贾跃亭的姐姐套现的几亿怎么说？？ 回来吧、回来吧……这是一首歌 脑残，人家是夫妻，不该团聚吗？ 有意思，是水军还是喷子，还是投资了乐视。表面的东西没有那么清楚，背地里的钱权交易，都理智一些。做生意哪有不会亏的。既然你想做这个生意，不是人家逼着你做的。去想下，这么大的公司，为什么没有倒闭，这块肉谁盯着？ 没想到贾跃亭老板还是个苦主。地主家也没有余粮了 保命。 一个骗子你把却他当爷一样供着，脑子有病吧？有人起哄曹德旺宗庆后吗？起哄李嘉诚任正非吗？ 骗你什么了？你们可以不投资乐视，可以不买乐视的股票！讲骗子的都是没有脑子的喷子儿子！ 你也说了，这是国家的责任不是吗？如果国家负起责任了，那他老婆为什么还能去美国？ 老贾加油 人就是一个能量体，能量高，就不容易生病，能量低，就会染上各种疾病。中医讲精少则病，肾精就是人体最宝贵的能量，《摄生三要》有云：“元精在体，犹木之有脂，神倚之如鱼得水，气依之如雾覆渊。然此精既泄之后，则真体已亏，元形已鏧，不知持满，不知保啬，所生有限，所耗无穷，未至中年，五脏衰尽，百脉俱枯矣。”吕祖曰：“啬精宜及早，接命莫教迟。”保精要诀，首在戒淫戒漏。须知精为命宝，不可妄泄，泄即成傻逼矣!有一句名言是这样说的，“要毁掉一个人，就满足他的欲望。”欲望是一个无底洞，永远不会满足，在一次次疯狂手淫中不断消耗自己宝贵的肾精资源，到最后必然就是症状缠身。手淫属于邪淫，每一次手淫都是在积累负能量，积累到最后就是症状大爆发，很多人在连续手淫后都会出现濒死感，当能量下降到一个低值，身体就可能会突然死机，新闻也有报道在手淫时或者手淫后猝死的，很多动物都会在交配后死亡，因为活命的能量被它射掉了!<br><br>动物交配后死亡有一个特点，那就是“连续”，动物是连续交配后死亡，人是连续手淫后出现濒死感，连续两字太狠了，连续有两个含义，一是连续两次或者多次，掏一次不过瘾，再来一次，连续狠掏两次，身体能量暴脱，弄不好就挂了，连续还有一个含义，就是连续数小时，这样消耗也比较大，就像马拉松一样，跑马拉松时猝死的新闻也比较多见，能量消耗过大就会导致猝死的发生。手淫、意淫都会导致能量的下降，任何性行为都会导致能量的下降，熬夜久坐也会导致能量的下降，下降到临界点就会症状缠身，反之，不手淫，不意淫，不熬夜久坐，积极锻炼，注重养生之道，这样能量值又会慢慢提升，当提升到一个高值，你就会获得纯净的大快乐，身心就会进入一种不可思议的状态。戒色说到底，就是要学会管理自己的能量，千万不可滥撸滥泄，随意糟蹋和浪费自己宝贵的肾精资源。<br><br>在此忏悔我所犯的一切恶念恶口恶行;愿分享此文的一切功德，皆悉回向给文章原作者及各位读者;此文若有错谬，我皆忏悔，若有功德，普皆回向，愿共修善法，得大自在! 加油，人生不易，做到问心有愧就好， 听说上老赖榜了，能不能回国 美国这边超好，他们都超有素质 问题是如何出境的？中yamg批准了吗？ 带了几十亿精兵 在我看来，乐视报假财务上市，这是最根本的问题 看来这次去美国应该带了钱回来，水军又开始反攻了 你怎么还不复牌啊！垃圾！ 12楼，有人要吃他，可以说分分钟的事，还能让他跑出国吗？ 什么是对的?我猜不透 不远万里送去打几炮，然后回来继续忽悠 风光66 横竖都是个人的错。成者王败者寇。创业者真的很难。交的税能退点给个馒头吃吗？ 风光66 人家几百亿的大老板买几个房子正常 那钱呢？钱哪去了？ 那么钱到底去哪里了 负债是事实吧 不远万里送去放几炮，然后回来继续 尼玛，假如是你呢？装* 找他姐，他姐年轻 这个新闻里一帮乐视的傻逼水军 回国这事，回国是不可能回国的。。。 被土匪控制的骗子而已 美国买的几套豪宅如何解释 税才是幕后的赢家 正常工作日隔天就可到账,周末顺延 天天都是负面新闻，但老贾一直在澄清自己，他一直在努力，希望他好挺过来吧，他需要鼓励 傻逼，多少人被这个骗子骗得家破人亡，他们还可以出国团聚？ 劫匪说：我抢银行是为了把钱分给需要的人！居然还有人站出来说：他抢的是银行，跟你老百姓什么事？ 看到，转100。给我。我买个火车票。 华为手机问题处理<br>本人于11月2日，在华为商城购买了一台荣耀8手机，使用一个多月后，发现电话卡坏掉，手机卡坏掉这种亿万几率，我居然能中奖？<br>去附近华为手机服务站检测一下手机，我把手机留在服务站等待两天没有接到华为手机服务站的任何回馈信息，于是我再次来到服务站询问检测结果，工作人员查询后告知我检查结果是手机确实有问题，目前正在进行维修处理。<br>可是我这是才买了不到两个月的手机啊，只能维修处理不能退换货，这种处理方式我实在难以接受，我打电话咨询华为客服，客服告诉我他们会向上级反应，经过几天的等待，华为客服给我的结果是，由于我的手机已经过了退换货的15天限制，只能进行维修处理，我强烈要求退换货，后来每天的结果永恒不变，直到今天，我实在无法忍受华为公司对我这个普通小老百姓的处理方式。因此我决定让大家来评评理。<br>手机出现这种问题，对于我这个普通用户来说真的是难以发现，就好像人得了癌症一样，有几个是在早起就能发现的呢？检测出手机有问题，就说明我买的就是一个坏的手机，只是这个坏手机它隐藏的太深了，不经过专业机器和技术人员的检查，很难发现，这种情况华为公司还在继续使用他们的华为规则处理，深深的伤害着我这个华为手机用户的心。 真心希望贾总能够挺过去，毕竟我的乐视会员还有一年多到期。 永远下周回国！ 都信托了是没用于个人，臭流氓 真是有良心的骗纸，难得啊! 我操你吗 穷得都跑美国造汽车了。 支持老贾，支持6楼。<br>只有继续烧钱才能救乐视，救大家。现在痛打落水贾吃亏的是群众。 甘小姐说没用于个人，买5套豪宅不是用于个人吗？智商太低 有国才有家心中有国国能给你个家出去了还能有家 华为手机问题处理<br>本人于11月2日，在华为商城购买了一台荣耀8手机，使用一个多月后，发现电话卡坏掉，手机卡坏掉这种亿万几率，我居然能中奖？<br>去附近华为手机服务站检测一下手机，我把手机留在服务站等待两天没有接到华为手机服务站的任何回馈信息，于是我再次来到服务站询问检测结果，工作人员查询后告知我检查结果是手机确实有问题，目前正在进行维修处理。<br>可是我这是才买了不到两个月的手机啊，只能维修处理不能退换货，这种处理方式我实在难以接受，我打电话咨询华为客服，客服告诉我他们会向上级反应，经过几天的等待，华为客服给我的结果是，由于我的手机已经过了退换货的15天限制，只能进行维修处理，我强烈要求退换货，后来每天的结果永恒不变，直到今天，我实在无法忍受华为公司对我这个普通小老百姓的处理方式。因此我决定让大家来评评理。<br>手机出现这种问题，对于我这个普通用户来说真的是难以发现，就好像人得了癌症一样，有几个是在早起就能发现的呢？检测出手机有问题，就说明我买的就是一个坏的手机，只是这个坏手机它隐藏的太深了，不经过专业机器和技术人员的检查，很难发现，这种情况华为公司还在继续使用他们的华为规则处理，深深的伤害着我这个华为手机用户的心。 不找董事长，找你麻麻吗？ 恐怖分子！ 首先声明，我没有拿贾跃亭一分钱，不信的可以来查账。然后再说问题，关于贾跃亭的核心问题不应该是有没有违法吗？为什么老是有人往乐视公司欠款上扯呢？公司经营出现问题，法律有相关规定，该怎么处理就怎么处理。这事儿就完了！还有人被他美国那几套房子的问题牵着鼻子走，我们就假设这房子就是他自己用的，但是对于贾跃亭这样的人来说，几套房子的事情能算作事儿吗？相较于是否违法的核心问题，房子问题算什么？不抵九头牛身上的一根毛！ 骗你麻痹吗？ 脑残，人家是夫妻，不该团聚吗？ 真是嫁夫虫夫啊😂😂 不远万里送去放几炮，然后回来继续 确实水深，不能片面的说贾就是骗子，我们看看戏就好。 看来快开盘了，开始网络反攻了。 我就纳闷，为什么要解释？ 做了家族基金 成功了就是马云，或许在美国还有机会翻盘，老王差点都被干掉，可想而知。 都散了吧人家欠几百亿也比咱们强万倍 白纸黑字写了，“融资取得重大进展”，真的假的？！ 中国社会讲究痛打落水狗，在你落难之时，每个人都恨不得在你身上踩一脚，唾一口唾沫，其实，除了那二十六万名投资者以及遭到欠款的供货商以外，剩下和乐视没有丝毫利益关联的人只是凑热闹，想体会一下把曾经眼里的强者肆意污蔑攻击的快感。希望贾总能东山再起，作为一个爷们儿最终还上所有欠款，把所有现在骂你的人狠狠打一个响亮的嘴巴，让他们知道臭屌丝永远都是只会网上放嘴炮的臭屌丝。 还说乐视要破产，请水军还是挺有钱嘛。 造车又不会造，就是做PPT这种东西，才可以维持得了生活这样子 6楼去死吧！死骗子！ 这辈子都不可能回国 往好处想，也许贾确实是有难处！世人笑我太疯癫，我笑他人看不穿。还是期望乐视汽车把中国制造搅搅局 邪恶的资本主义家，你没种 是贾太好心了，套了现就转身走人就行了，给乐视当担保人还惹了一身骚，不值得！ 墙倒众人推 姓假 就是不回来 所以钱就消失了 只要银行断贷国内至少超过80％的公司都会倒闭。 除了他举报快播这事，我还是支持他的，但是想到他卑鄙的害死快播，现在也是活该 。。。。。 全部都是国家的，包括你的命 人家套现合理合法，你管的人家咋花钱！就是贾太好心了，套了现就转身走人就行了，给乐视当担保人还惹了一身骚，不值得！ ",
        "Reply": 883,
        "Link": "http://comment.tech.163.com/tech_bbs/D7570A9B00097U7R.html",
        "Total": 18090
    },
    "KeyWords": "贾跃亭,甘薇,贷款",
    "URL": "http://tech.163.com/18/0102/12/D7570A9B00097U7R.html"
}