{
    "Title": "美媒:澳大利亚提供情报 促使FBI展开\"通俄门\"调查_网易新闻",
    "PublishTime": "12/31/201716:13:43",
    "URL": "http://news.163.com/17/1231/16/D70EGQV20001899N.html",
    "Source": "Netease",
    "KeyWords": "fbi,澳大利亚,特朗普,美国,通俄门",
    "Comment": {
        "Reply": 8,
        "Content": "你死了，人家都毛发无损，你就气急败坏吧 黑死你川普同学，就黑你 要想人不知，除非己没为，普京想掩盖犯罪事实，没门！ 扑风捉影 别炒了搞来搞去都只能是希拉里失败的哀嚎罢了 绞死通俄贼 当初和干爹一起颠着脸使劲捧川普，现在川普翻脸不认情，干爹屁股也擦不干净了，就开始各种黑了！ 黑死你川普同学，就黑你 你死了，人家都毛发无损，你就气急败坏吧 要想人不知，除非己没为，普京想掩盖犯罪事实，没门！ 扑风捉影 别炒了搞来搞去都只能是希拉里失败的哀嚎罢了 绞死通俄贼 当初和干爹一起颠着脸使劲捧川普，现在川普翻脸不认情，干爹屁股也擦不干净了，就开始各种黑了！ 我没气急败坏我只希望叛徒早点死 ",
        "Total": 47,
        "Link": "http://comment.news.163.com/news2_bbs/D70EGQV20001899N.html"
    },
    "Article": "（原标题：美媒:澳大利亚提供情报促使FBI展开\"通俄门\"调查）帕帕佐普洛斯2016年3月成为特朗普竞选团队顾问。（来源：纽约时报）海外网12月31日电美国《纽约时报》30日报道称，澳大利亚外交官向美国官员透露关键情报，促使美国联邦调查局（FBI）针对特朗普竞选团队展开“通俄门”调查。据《纽约时报》报道，2016年5月，当时特朗普竞选团队中一名年轻的外交政策顾问乔治·帕帕佐普洛斯（GeorgePapadopoulos）在伦敦一家酒吧，向澳大利亚驻英国高级专员亚历山大·唐纳（AlexanderDowner）透露了一项重要信息，即俄罗斯方面掌握希拉里·克林顿的“政治黑料”。就在此前三个星期，帕帕佐普洛斯得知莫斯科方面握有数千封“会使希拉里难堪的邮件”。报道称，当天晚上，帕帕佐普洛斯究竟向唐纳透露了多少信息，目前尚不明确。根据了解该事件的四名现任及前任美国和外国官员消息，两个月之后，当关于民主党人的邮件开始出现在网络上时，这位澳大利亚外交官将从帕帕佐普洛斯处得到的信息告知了美国对口官员。据报道，邮件遭黑客泄露，特朗普竞选团队一员又被曝可能获知“内部消息”，这是促使美国联邦调查局（FBI）2016年7月决定开展“通俄门”调查的驱动因素。报道称，尽管一些特朗普顾问嘲讽帕帕佐普洛斯为“微不足道的竞选志愿者”，甚至称他为“咖啡男孩”，但诸多访谈和文件显示他在竞选活动中发挥了重要作用。例如，就在大选之前两个月，他还帮特朗普安排了一场与埃及总统阿卜杜勒·法塔赫·塞西的会晤。据称，帕帕佐普洛斯向澳大利亚外交官透露消息一事，解答了“通俄门”调查中一个挥之不去的谜团：是什么提醒了美国官员在大选前几个月，就促使FBI对特朗普竞选团队展开“反情报调查”？这个消息不是来自特朗普及其他政客所声称的、由竞争团队雇佣的前英国间谍所汇编的证据材料，而是来自美国“最亲密盟友之一”的第一手信息。据报道，帕帕佐普洛斯，来自芝加哥，特朗普竞选团队当时急于组建一支外交政策团队，于2016年3月提名他成为一名顾问，当时他在伦敦担任一名能源顾问，年仅28岁。在此之前，他只参与过本·卡尔森的总统竞选活动，政治经验仅有2个月。报道称，目前尚不明确澳大利亚外交官唐纳当时是否为了“钓取”信息。两人在酒吧的那次会见出于一系列复杂的联系，起初是一名以色列大使馆官员将帕帕佐普洛斯引介给身处伦敦的另一名澳大利亚外交官。此外，澳大利亚政府5月获得该信息后，为什么等了两个月才告知FBI，目前同样不得而知。澳大利亚驻美国大使馆在一份声明中拒绝证实该次会见、或提供相关细节，声明中称，“出于原则和实践问题，澳大利亚政府不对正在调查中的事情做评论。”FBI同样拒绝评论。报道称，除了澳大利亚提供的信息，英国、荷兰政府提供的情报，以及另一名顾问卡特尔·佩奇的一趟莫斯科之行，都促使FBI展开调查。亚历山大·唐纳曾于1996至2007年间担任澳大利亚外交部长，2014年担任澳大利亚驻英国高级专员。本文来源：海外网作者：姜舒译责任编辑：李杭_BJS4645"
}