{
    "URL": "http://ent.163.com/17/1228/16/D6OO6ICF00038FO9.html",
    "Comment": {
        "Reply": 48,
        "Content": "那也要看是谁，姚笛的话，秀一亿次都觉得好看。顺便告诉你们一个秘密，姚笛是草莓味的。 这也算马甲线，我的都比她明显🙄 会长好！今儿回来<br>是办交接手续的么？ 大美妞，不是说好要离开姚笛了吗？还是舍不得姚笛？ 啪啪啪 第一个秀的人，人家会觉得眼前一亮，自然有好感，比如袁姗姗，第二个人还这样的话，就是东施效颦了。 撒感觉 这么粗的腰就别秀了 你他妈的昨天不是到处发帖自己已经退出姚笛国际后援会了吗？今天又出来诈尸啊！ 乳环没带吗？ 你这个沙比，居然没被封号 马甲线呢? 😨 娱乐圈SM第一人 冯轲好性福 这大粗腰肥肉一堆！吸口气就是马甲线了？哎呀！天 会长好！今儿回来<br>是办交接手续的么？ 第一个秀的人，人家会觉得眼前一亮，自然有好感，比如袁姗姗，第二个人还这样的话，就是东施效颦了。 🛴🚑快上车 肚子挺平坦，可这腰围够大的 看个人体质吧,有的人怎么吃都不胖有的人怎么吃都胖冬天都是吃火锅,通常看的话,是会的 这个真不是炫耀，这个像要平时没吃很多的时候. 你不是辞职了 necklace 乳环那 这里能看到你[大笑]来错地方了吧[大笑][大笑] 没了 大美妞，不是说好要离开姚笛了吗？还是舍不得姚笛？ 啪啪啪 这么粗的腰就别秀了 在中国所谓好身材＝瘦？<br>都是飞机场！ 你他妈不是辞职了嘛！ 平淡无奇 是大美妞的粉丝就顶我，坚决反对大美妞辞职不当会长了[微笑] 其实我想说的是阴⭕ 👭👼 你又回来爱笛了吗？太好了好喜欢你 特技 这大粗腰肥肉一堆！吸口气就是马甲线了？哎呀！天 主要进来看环的 😨 你这傻逼，我看你都看腻了！ 这也算马甲线，我的都比她明显🙄 你他妈的昨天不是到处发帖自己已经退出姚笛国际后援会了吗？今天又出来诈尸啊！ 真高级 你不是退了吗 这种真的很难看 就知道你们会说乳⭕。。。 也就算了 大美妞我爱你，你存在我深深的脑海里，我草，词穷了 那也要看是谁，姚笛的话，秀一亿次都觉得好看。顺便告诉你们一个秘密，姚笛是草莓味的。 环了？ 哈哈，好久不见！ 你这个沙比，居然没被封号 乳环，想想都疼 撒感觉 乳环没带吗？ 😀😀😀 可能是新人到岗了 是不是你的前一个人用了🍓味的，还没来得及清理啊 马甲线呢? 娱乐圈SM第一人 冯轲好性福 啥玩意？什么好？哪呢？ ",
        "Total": 377,
        "Link": "http://comment.ent.163.com/ent2_bbs/D6OO6ICF00038FO9.html"
    },
    "Title": "张靓颖大秀马甲线好身材 竟还自称大吃火锅发胖了_网易娱乐",
    "Source": "Netease",
    "KeyWords": "张靓颖,马甲线,小蛮腰,健身房",
    "PublishTime": "12/28/201716:28:57",
    "Article": "网易娱乐12月28日报道12月28日，张靓颖晒出一张自己好身材的照片，发文称：“大半个月没进健身房加上一顿嗨吃火锅之后略微发胖。”照片中张靓颖大秀马甲线和小蛮腰。随后，不少网友评论：“好的好的知道你很棒了。”、“现在都这么炫耀了吗？”本文来源：网易娱乐责任编辑：陈恺_NK4686"
}