{
    "Article": "",
    "KeyWords": "网易订阅、rss、新闻、资讯",
    "Source": "Netease",
    "Title": "这国制大炮猛烈开火让巴军损失惨重 中国送一利器雪中送炭_网易订阅",
    "Comment": {
        "Link": "http://comment.war.163.com/news_junshi_bbs/D6O78JUS0515DV50.html"
    },
    "URL": "http://dy.163.com/v2/article/detail/D6O78JUS0515DV50.html",
    "PublishTime": "12/28/201711:33:01"
}