{
    "PublishTime": "12/27/201712:12:00",
    "Source": "Netease",
    "Comment": {
        "Link": "http://comment.news.163.com/news2_bbs/D6LO1LHF000187VE.html",
        "Total": 251,
        "Reply": 16,
        "Content": "土耳其买S400防的是谁？ 都是“同盟国” 饿不是好东西 比儿子强，儿子都倒贴钱求卖 我弟弟信上帝.他认为他的存在就是在帮助上帝拯救人类.每次打完电话他都会说愿上帝保佑你,各种为我祈祷.他很乐意与我谈论信上帝的好处.并全身心投入工作和关爱家人,只因他觉得主耶稣是他学习的榜样--我不认为他们的信仰会造成交流障碍.即使我认真问他:上帝是否存在?而他总会回答:若爱存在,上帝就存在.因为上帝就是创造爱的源头上帝永远住在爱里，上帝爱世界上所有人包括想悔改的罪人想要信耶稣的可以到本地教堂买一本圣经看看每个地方都有教堂的信耶稣此生平安来世得永生有所信仰就会有所敬畏，有所敬畏就会知何事可为与何事不可为，知道了什么事可为什么事不可为，就不会干出背理天意人伦的逆天大错，遵从了天意人伦的法则就会一生安宁幸福这就是大道之法则，也就是爱的法则，神之道！ 土耳其一点也不浪漫，甚至还有点蠢 比儿子强，儿子都倒贴钱求卖 有人说,从最初土耳其就在玩胁迫降价的把戏,又不是第一次. 我们又买了几个营的呢？ 想要带你去浪漫的土耳其 想要带你去浪漫的土耳其 这是为什么涅? 土耳其一点也不浪漫，甚至还有点蠢 土耳其买S400防的是谁？ 为什么不用软妹子结算呢？ 国家之间有永远的利益，无永恒的朋友，亦无永远的敌人。俄向土出售武器很正常。 可以嘛 土耳其血腥起家，啥时浪漫过？ 都是“同盟国” 差点被美推反了正权，当年利用钟国要买红九想让美帮他。。。。。。。。现在中美都不吊它了 我弟弟信上帝.他认为他的存在就是在帮助上帝拯救人类.每次打完电话他都会说愿上帝保佑你,各种为我祈祷.他很乐意与我谈论信上帝的好处.并全身心投入工作和关爱家人,只因他觉得主耶稣是他学习的榜样--我不认为他们的信仰会造成交流障碍.即使我认真问他:上帝是否存在?而他总会回答:若爱存在,上帝就存在.因为上帝就是创造爱的源头上帝永远住在爱里，上帝爱世界上所有人包括想悔改的罪人想要信耶稣的可以到本地教堂买一本圣经看看每个地方都有教堂的信耶稣此生平安来世得永生有所信仰就会有所敬畏，有所敬畏就会知何事可为与何事不可为，知道了什么事可为什么事不可为，就不会干出背理天意人伦的逆天大错，遵从了天意人伦的法则就会一生安宁幸福这就是大道之法则，也就是爱的法则，神之道！ 饿不是好东西 "
    },
    "Article": "（原标题：土耳其已向俄购买4个营S-400系统，总价25亿美元）俄罗斯S-400防空导弹系统。东方IC资料土耳其购买了4个营的S-400防空导弹系统，总价值25亿美元，装备部队后将大幅提高空军的远程防空能力。据俄罗斯卫星通讯社12月27日消息，俄罗斯技术集团总经理谢尔盖·切梅佐夫表示，土耳其向俄罗斯购买了4个营S-400系统，总价25亿美元，合同金额的55%为俄提供的贷款资金。在谈到俄方贷款时他表示，俄土两国财政部已经完成了谈判。他补充说：“目前正等待最终文件的批准，土耳其支付合同总价的45%作为预付款，剩下的55%为俄贷款资金。按计划，俄罗斯将于2020年3月开始供应首批S-400防空导弹系统。”根据公开资料，一个S-400防空导弹营一般编有4个防空导弹连，每个防空导弹连有3辆导弹发射车，每部导弹发射车备有4枚地对空导弹，除此之外还有制导雷达、搜索雷达和通信指挥车等。除了向土耳其出售S-400防空导弹系统，俄罗斯还正向沙特出售这种防空导弹系统。俄罗斯总统军事技术合作问题助理科任12月21日向媒体表示，俄罗斯将同沙特在年底前解决所有供应S-400以及其他武器的问题。他表示，“已经同沙特签署了一揽子协议，包括S-400和卡拉什尼科夫冲锋枪，正在审议在沙特其生产的组织问题。至于更复杂的系统，现在正讨论技术和财务方面的问题。希望在年底前我们能获得所有留存问题的答案。”本文来源：澎湃新闻责任编辑：何雨芳_NN5632",
    "Title": "土耳其已向俄购买4个营S-400系统 总价25亿美元_网易新闻",
    "URL": "http://news.163.com/17/1227/12/D6LO1LHF000187VE.html",
    "KeyWords": "s-400,土耳其,俄罗斯,防空导弹"
}