{
    "Comment": {
        "Content": "姚笛也算国民天后？ 为什么是卓伟出来否认？ 尧帝是它奶奶 你这个逼怎么还不去死 大美妞不是解散了吗？ 卓伟估计下场悲哀，虽然他大部分报的是事实。 尼操这么多，还要不要水军，姐姐有时间 简单啊，想干掉他的明星肯定是有过事情的，然后又被卓敲了一笔，再告诉他们，如果我出了事，这些东西就全出去了。没被他敲过的明星自然不会去干掉他 S1赛季吸毒队以微弱的优势获得冠军，嫖娼队获得第二名，出轨队吊车尾。S2赛季在以马为首，以万绝杀，出轨以绝对优势获得冠军，嫖娼队失去了王，海两名主力坐实了第三名，吸毒毕竟是上届冠军实力还是有的，不过今年出轨队势头过猛，吸毒终究还是敌不过出轨队，荣获第二名。2018已然来临S3赛季悄然开场，各队正在摩拳擦掌吸毒却斩下首分，不愧是老牌战队，这份实力实在是吊打嫖娼队的脸。不知今年嫖娼队能不能拿下冠军，吸毒队，出轨队都获得过冠军。让我们拭目以待吧！ 怎么洗也洗不干净 一天贾乃亮出门，pgone溜到李小璐的卧室，把她的裤子一脱就插进去了。李小璐说，你这样对得起你哥哥吗？pgone只好又拔了出来！李小璐又说，你这样对得起你嫂嫂吗？pgone一下抓狂了，不知道怎么才是好，只好一直大叫：对不起哥哥，对不起嫂嫂，对不起哥哥，对不起嫂嫂…… 黄渤一季《极限挑战》6000万，这是一线，孙红雷一集300万，《中国好歌曲》一季那英拿3000万，就连马上要出来的我是歌手中的过气张韶涵一集都150万，而pgone现在是当红炸子鸡，参加一个综艺就可能回收1400万。真搞不懂你们怎么看娱乐的，就连黄安这种只跑二三四线城市剪彩，婚礼，山寨服装品牌代理，一年都能弄回一亿，萧亚轩也是这个路数，不信自己搜 为啥没有人敢动卓伟呢？ 确实，如果是假的为什么还花钱买公关，应该是真的 很怀疑这位嘻哈歌手能拿出1400万吗？[喷水] 李小璐真是个十足渣女，她出轨就出轨了嘛，为什么还要拉那么多无辜的人下水？这不是在增加自己的罪行，真是一恶心的婊子，贱！！！ 卓伟就是明星之间互相制衡的工具。。。懂不。。。明星之间也有竞争的。。。懂不。。。 姚笛给她发工资估计 璐真是天下第一兵器……贱（箭）；亮真是天下第一暗器……彪（镖）。 应该是他后妈 不是他妈，姚笛是她本人 家庭是家庭，约炮是约炮嘛，也许发现还是奶亮器粗活好，公私分明的好演员 就屁几万那天天哼哼哈嘿的能挣尼玛的1400万？肯定是李小璐给的吧，但是自己又不能出面，出面等于认了！ 李拿得出 你这个人是真的烦，整天姚迪🤢🤮，姚迪是你吗啊？ 你说对了 有这么金贵吗？一炮而已 卓伟就是靠这个赚钱养家的，无利不起早 很多人不知道pgone是谁，pg控球后卫的意思，one第一的意思，pgone意思就是控球第一人，技术最娴熟，技巧最全面，经验最丰富，被他掌控过的，球会越来越大 卓伟连姚笛那样的国民天后都敢黑，何况是这些十八线的小明星！我只有一句话：打倒卓伟，拥护姚笛！ 你的对手被卓伟放倒了，你还觉得卓伟该宰吗 不用你怀疑，他北京的住房就值3000万 为什么一定他拿？李小璐不想解决事情？ 我也在考虑这个问题，以他这个程度，我感觉明星们都想宰了他 自古以来这种人手上都肯定存有保命的猛料，估计还不止一两份。 贱骨头 你这个人是真的烦，整天姚迪🤢🤮，姚迪是你吗啊？ 周三都快过完了。卓伟也学贾老师，下周三？ 這逼就是姚笛 小璐移情屁鸡万，<br>乃亮绿林做好汉。<br>不如三屁传九夭，<br>快快乐乐把钱赚。 如果一楼不说这种话，我们易友会很不习惯的 你们想过为什么要花钱请公关吗？？就是因为是真的，懂吗？？不信的自己百度（孔赏贞故事），自己去瞧瞧李小璐干了什么，你就相信是实锤了 相互利用而已，十八线明星也要靠炒作蹭热度啊，这就需要卓伟了 你这个人是真的烦，整天姚迪🤢🤮，姚迪是你吗啊？ 为什么是卓伟出来否认？ 李小璐拿的钱吧 大家都是成年人[疲惫]跟男人过夜，还能做什么啊…… 饿死胆小的，撑死胆大的，富贵险中求！ 国字号背景的才可以这样做。 微博最高兴，活跃度，热搜榜公关费上升 1400w，你怎么不直接疏通腾讯、网易等主流媒体，不准报有关此事件的所有文章，截流自媒体。 上联：贾在哭，万在笑，小璐在挨炮下联：宋在操，马在叫，宝宝在咆哮横批指璐为马。 這逼就是姚笛 确实，如果是假的为什么还花钱买公关，应该是真的 很怀疑这位嘻哈歌手能拿出1400万吗？[喷水] 上联：贾在哭，万在笑，小璐在挨炮下联：宋在操，马在叫，宝宝在咆哮横批指璐为马。 夏天就成名了哥一个代言几百万不是很正常？你也太小看中国的粉丝了 那腾讯网易不被人骂死，那些别的网不使劲发赚流量啊 狗仔的话也能信？收了别人会承认吗？ 他出事了大家就有眼福了整个娱乐圈得老热闹了 好久没看到你了，上几次看到有姚笛的新闻等了你半天 他哪有这么多钱。。。 上联：贾在哭，万在笑，小璐在挨炮，下联：宋在操，马在叫，宝强在咆哮。横批，指璐为马。 李拿得出 你说，你很难受，<br>你在下头，他在上头。<br>我说，我更难受，<br>你在里头，我在外头。<br>谁扯开了你的扣，谁嘬着你的肉？<br>谁在你身上趴着？姿势像狗。<br>你为了艺术，不管美丑，不分夜昼。<br>你哪里像球！你哪里在流！<br>凸起的喉，微微在抖……<br>最后，是什么进了你的口。<br>你说味道有些馊，感觉有点像粥。<br>你是神是仙是个咒<br>你像风像雨像杯酒<br>该肥的地方肥，该瘦的地方瘦，<br>该用口的地方绝不用手！<br>你欲叫未还休，便可轻易写春秋。<br>谁说女子腐朽？且看你名扬神州。<br>女子莫愁，君子何忧。。。。。。<br>六九之后，一醉方休。。。。。。 不是退团了啊 赵薇 拿人钱财，替人消灾 卓伟连姚笛那样的国民天后都敢黑，何况是这些十八线的小明星！我只有一句话：打倒卓伟，拥护姚笛！ 明显都是李小璐主动勾引，她不出钱谁出钱。这事之前谁特么知道pgone，我都怀疑是pgone故意爆料给卓伟，炒作出名，反正男的不吃亏。李小璐名声是臭了 我也在考虑这个问题，以他这个程度，我感觉明星们都想宰了他 自古以来这种人手上都肯定存有保命的猛料，估计还不止一两份。 不是他吗，是他的 军旗是谁？ 亮哥出得起！ 手上料多 那只一炮，光扒出来的有证据图片的就三跑了 亮哥这年不好过了。 小笛大美妞你来了……好想你 姚晓迪这个人居然还他妈在啊。。。这都多少年了啊。。。。。 1400万是假的，140万是真的 1400万能铸个金人不？ 为啥没有人敢动卓伟呢？ 大家好，我是PGONE，请大家欣赏我的新rap《好吃不过饺子》：<br>comeon！<br>乃亮大哥，有些话不能多说。<br>你家的饺子味道真不错！<br>你的头顶有点绿。<br>你的眼神有点忧郁。<br>你的人生就像言情剧。<br>哦，爸爸去哪儿了。<br>哦，嫂子去哪儿了。<br>嫂子和兄弟一起去哪儿了。<br>她挽着我的手。<br>她搂着我的头。<br>她把白白的饺子塞到我的口。<br>她在我的身下尽情的嘶吼。<br>one！two！three！four！<br>two！two！three！four！<br>three！two！three！four！<br>onceagainoh～yeah～<br>和我一起说唱！<br>嘿，乃亮！<br>不仅你的奶亮，你的头也亮！<br>嫂嫂说去做头发，我的小名就叫头发！<br>你天天喊我弟弟，嫂嫂也喊我弟弟，我还有个弟弟！<br>嫂嫂玩着你的弟弟，还玩着我的弟弟！<br>就问你刺不刺激！yeah！ 之前看那个尼基塔那个电视的时候。那个组织的头目不是掌握很多秘密吗？不是没人敢动他，可能这个卓伟掌握的秘密。也有点像那个尼基塔那个组织头目一样，个人看法，不妥之处敬请指正 上联：贾在哭，万在笑，小璐在挨炮下联：宋在骑，马在叫，宝宝在咆哮横批指璐为马。 军旗跟谁的绯闻，难道是🐴☁。要不然谁能封卓伟的号 窦唯动过放火烧了他车 我估计卓伟上厕所都有保镖跟着 赵军旗啊 西游记主题曲宋喆唱：你挑着单，我骑着马。王宝强：迎来日出，宋喆我家。贾乃亮：敢问璐在何方？pgone：璐在跨下。出轨门又得一分，嫖娼门和吸毒门要加油了￼￼别怪小弟不是人，嫂子确实太迷人！打个新年炮搞的几亿人都知道了一杯敬宝强一杯敬乃亮守着你的善良选择了原谅所以羽凡的绿从此不再漫长帽子不在无处安放～贾，宝，羽、草原三结义，大哥王宝强，二哥陈羽凡，三弟假奶亮—————PGone:呦呦，切克闹，好吃不过饺子，好玩不过嫂子，一边吃嫂子包的饺子，一边玩包饺子的嫂子。。吃着滚烫的饺子，玩着最浪的嫂子！！呦呦，来来来，我说亮哥，你说绿，亮哥，绿，亮哥，绿！！ 估计也是有背景。还有一个原因估计是动他的人。犯罪嫌疑就那么几个被他黑过的明星。范围很小。估计查起来也容易。 佩服佩服！！[惊讶][惊讶][惊讶] 明星的配偶欢迎吧！ 一杯敬宝强一杯敬乃亮守着你的善良选择了原谅所以羽凡的绿从此不再漫长帽子不在无处安放[窃笑][窃笑][窃笑] 就这种在北京玩地下的十八线嘻哈如果不是家里有钱，自己能有50w算我输！整天在这在那酒吧打碟的你告诉我1400w？哈哈 既然是假的，那咱们说好的周三见呢？ 成了他这样的公众人物更没人敢动，只要不去得罪权贵，戏子没事 怎么拿不出 璐宿一晚，贾装没事，万没想到，卓实厉害。只因嫂子太美，弟会饶舌啊。贾乃亮:敢问璐在何方～pgone:璐在档下 你们想过为什么要花钱请公关吗？？就是因为是真的，懂吗？？不信的自己百度（孔赏贞故事），自己去瞧瞧李小璐干了什么，你就相信是实锤了 你这个人是真的烦，整天姚迪🤢🤮，姚迪是你吗啊？ 有1400万还泡老娘们 李小璐真是个十足渣女，她出轨就出轨了嘛，为什么还要拉那么多无辜的人下水？这不是在增加自己的罪行，真是一恶心的婊子，贱！！！ 大家好，我是PGONE，请大家欣赏我的新rap《好吃不过饺子》：<br>comeon！<br>乃亮大哥，有些话不能多说。<br>你家的饺子味道真不错！<br>你的头顶有点绿。<br>你的眼神有点忧郁。<br>你的人生就像言情剧。<br>哦，爸爸去哪儿了。<br>哦，嫂子去哪儿了。<br>嫂子和兄弟一起去哪儿了。<br>她挽着我的手。<br>她搂着我的头。<br>她把白白的饺子塞到我的口。<br>她在我的身下尽情的嘶吼。<br>one！two！three！four！<br>two！two！three！four！<br>three！two！three！four！<br>onceagainoh～yeah～<br>和我一起说唱！<br>嘿，乃亮！<br>不仅你的奶亮，你的头也亮！<br>嫂嫂说去做头发，我的小名就叫头发！<br>你天天喊我弟弟，嫂嫂也喊我弟弟，我还有个弟弟！<br>嫂嫂玩着你的弟弟，还玩着我的弟弟！<br>就问你刺不刺激！yeah！ 娱乐圈果盘是狗链蛋 楼上一针见血。 有人恨他就有人需要他 收钱了，阳痿了 娱乐圈和狗仔队，没有好饼！ 确实，如果是假的为什么还花钱买公关，应该是真的 很怀疑这位嘻哈歌手能拿出1400万吗？[喷水] 因为卓伟是在网络上，而不是政府机关 连车都没有的人会出1400万买公关？ 赵五儿（娱乐给我五）明天九点又有一波瓜等着，周三见失望的朋友们，可以期待一下周四了！收起全文<br>我擦这是轮着敲李小璐的竹杠啊吼吼吼<br>你看情报有人偷不 此车车龄36年左右，车长大概1米65左右。车况保持一般，内饰较好，车前后保险杠脱落，疑似经常被追尾，排气管黝黑，烧机油严重。发动机巅峰状态，但拉缸严重。30分钟后下排气出水，缸内直喷。新手不建议入手，老司机方可一战，由于使用频率太高，磨损太大，建议要换大号加长加粗活塞，否则油耗高，感觉不到动力，老手能吃苦耐劳的尚可驾驶，新手看看尚可，滤芯儿更换不及时，造成通风不畅，有异味，千万不要轻易去碰，否则遗憾终身，根据我开车20年经验！两大灯少许下垂！打着后发动机噪音过大！缸筒活塞间隙过大！做过全车划痕处理！喷过全车漆！总结：此车长期被人野蛮驾驶，事故车！谨慎！谨慎！！！ 大家好，我是PGONE，请大家欣赏我的新rap《好吃不过饺子》：<br>comeon！<br>乃亮大哥，有些话不能多说。<br>你家的饺子味道真不错！<br>你的头发有点绿。<br>你的眼神有点忧郁。<br>你的人生就像言情剧。<br>哦，爸爸去哪儿了。<br>哦，嫂子去哪儿了。<br>嫂子和兄弟一起去哪儿了。<br>她挽着我的手。<br>她搂着我的头。<br>她把白白的饺子塞到我的口。<br>她在我的身下尽情的嘶吼。<br>one！two！three！four！<br>two！two！three！four！<br>three！two！three！four！<br>onceagainoh～yeah～<br>和我一起说唱！<br>嘿，乃亮！<br>不仅你的奶亮，你的头也亮！<br>嫂嫂说去做头发，我的小名就叫头发！<br>你天天喊我弟弟，嫂嫂也喊我弟弟，我还有个弟弟！<br>嫂嫂玩着你的弟弟，还玩着我的弟弟！<br>就问你刺不刺激！yeah！ 我也在考虑这个问题，以他这个程度，我感觉明星们都想宰了他 打个折吧 很为卓伟担心，后半生哪天人头落地都不知道，多少明星恨他恨得要死 李现在至少7亿的身家！外国超市开了几十年了 李拿得出 唱嘻哈这么有钱？那大家都别唱其他的了，这种快板来钱快。 百度了，啥也没有。 我去我去去。那么多钱 报个料屁股万和夫妻两都玩 很想知道这个傻逼唱过什么歌？ 卓伟连姚笛那样的国民天后都敢黑，何况是这些十八线的小明星！我只有一句话：打倒卓伟，拥护姚笛！ 狗逼有那么多钱么 我恰恰就喜欢卓伟，喜欢看那些高高在上的明星是怎么跌下所谓的神坛。 你说错了，她是姚迪的妈！ 有公关的必要吗？！再怎么洗白也没用，真当我们老百姓有傻子吗 玛德以前我还看看姚笛电视剧，被一楼烦的现在看姚笛就想吐 好久不见 姚笛已被我干 为啥卓伟的情报没人偷呢…… 娱乐圈的鸡鸭好多 把卓伟逼了谁知道还有多少料 1400万可以做掉阿卓了 此车车龄36年左右，车长大概1米65左右。车况保持一般，内饰较好，车前后保险杠脱落，疑似经常被追尾，排气管黝黑，烧机油严重。发动机巅峰状态，但拉缸严重。30分钟后下排气出水，缸内直喷。新手不建议入手，老司机方可一战，由于使用频率太高，磨损太大，建议要换大号加长加粗活塞，否则油耗高，感觉不到动力，老手能吃苦耐劳的尚可驾驶，新手看看尚可，滤芯儿更换不及时，造成通风不畅，有异味，千万不要轻易去碰，否则遗憾终身，根据我开车20年经验！两大灯少许下垂！打着后发动机噪音过大！缸筒活塞间隙过大！做过全车划痕处理！喷过全车漆！总结：此车长期被人野蛮驾驶，事故车！谨慎！谨慎！！！ 为啥没有人敢动卓伟呢？ 走了一个还有其他的只要有名人，就会一直有很多卓伟 废话他死了所有料都给你抖出来 孔赏贞？？？？？百度搜不到啊[疑问] 桌伟既然敢做狗子，就有一定的实力，一般戏子动不了他！ 估计就是姚笛自己吧，哈哈 想你，大美妞！ 不会吧 曝光王思聪的绯闻？ 1400万成都公关公司？成都有这么屌的公关公司？我也是信了你的邪…… 下半场就是第二天早上在另外一个拍摄车里拍到了LP吻别的实证！被高价和谐了！ PGone:白天叫嫂子，夜里嫂子叫。李小璐:白天亲弟弟，晚上亲弟弟贾乃亮:璐出马脚，贾装没事。上联：贾在哭，万在笑，小璐在挨炮下联：宋在操，马在叫，宝宝在咆哮横批：指璐为马。 东北男人就是讲究，一人做事一人担 周三都快过完了。卓伟也学贾老师，下周三？ 你们想过为什么要花钱请公关吗？？就是因为是真的，懂吗？？不信的自己百度（孔赏贞故事），自己去瞧瞧李小璐干了什么，你就相信是实锤了 你这个人是真的烦，整天姚迪🤢🤮，姚迪是你吗啊？ 为什么是卓伟出来否认？ 微博上水水的怎么不来网易评控？瞧不起网1的吃瓜群众？？MMP火了 被公关了收钱办事 一楼这可是网易名人啊。多少易友天天等他。 少打了个0 不止1400卓伟在等最新报价！这个狗逼！要么就爆出来！要么就拿钱赶紧滚蛋！这事肯定是实锤了，再锤也锤不出什么了！ 名人个毛，整天那几句话，逼逼叨叨个没完，也不知道哪里来的几个傻逼整天捧臭脚 手里应该不少料。投鼠忌器。 这个卵就用的贵了？ 很怀疑这位嘻哈歌手能拿出1400万吗？[喷水] 后面有大哥喽势力大到明星也无奈，就是敲竹杠，懂不 卓伟已收钱，好戏已下台，吃瓜群众都洗洗睡吧，天色不早了。 否認你妹！讓我們看王思聰？ 姚笛啥时候成了后了… 我也在考虑这个问题，以他这个程度，我感觉明星们都想宰了他 他没有，嫂子和马大姐可以给他啊。 你牛，除了腾讯新闻那边专黑张柏芝的桃源我就服你了 这是一种执着的精神[大笑]在网易，大美妞属于网红[大笑] 就算有这事，卓伟敢认吗？一认就是妥妥的敲诈罪，还数额特别巨大。 周三见呢，真是太垃圾了，卓伟 皮几万的水军怎么不来网易评控？瞧不起网1的吃瓜群众？？太把我们不当回事？MMP火了 卓伟就是靠这个赚钱养家的，无利不起早 璐宿一宿贾装没事 卓伟连姚笛那样的国民天后都敢黑，何况是这些十八线的小明星！我只有一句话：打倒卓伟，拥护姚笛！ 西游记主题曲宋喆唱：你挑着单，我骑着马。王宝强：迎来日出，宋喆我家。贾乃亮：敢问璐在何方？pgone：璐在跨下。出轨门又得一分，嫖娼门和吸毒门要加油了￼￼别怪小弟不是人，嫂子确实太迷人！打个新年炮搞的几亿人都知道了一杯敬宝强一杯敬乃亮守着你的善良选择了原谅所以羽凡的绿从此不再漫长帽子不在无处安放～贾，宝，羽、草原三结义，大哥王宝强，二哥陈羽凡，三弟假奶亮—————PGone:呦呦，切克闹，好吃不过饺子，好玩不过嫂子，一边吃嫂子包的饺子，一边玩包饺子的嫂子。。吃着滚烫的饺子，玩着最浪的嫂子！！呦呦，来来来，我说亮哥，你说绿，亮哥，绿，亮哥，绿！！ 因为有把柄啊 手里有太多人的把柄了 贱骨头 我想问一下，桌伟收到的1400万国家要求交税不? 因为网易喷子秒天秒地 返聘了你不知道啊 你这个逼怎么还不去死 不是退休了吗 你不是辞职了么…… 3号周三都过了。伟哥遗精沦陷了。 众人拾柴火焰高，屁几万这次死定了。 拿的贾乃亮倒二手车的钱吧 收钱了呗 杀了桌伟还会有黄伟李伟 大家好，我是PGONE，请大家欣赏我的新rap《好吃不过饺子》：<br>comeon！<br>乃亮大哥，有些话不能多说。<br>你家的饺子味道真不错！<br>你的头发有点绿。<br>你的眼神有点忧郁。<br>你的人生就像言情剧。<br>哦，爸爸去哪儿了。<br>哦，嫂子去哪儿了。<br>嫂子和兄弟一起去哪儿了。<br>她挽着我的手。<br>她搂着我的头。<br>她把白白的饺子塞到我的口。<br>她在我的身下尽情的嘶吼。<br>one！two！three！four！<br>two！two！three！four！<br>three！two！three！four！<br>onceagainoh～yeah～<br>和我一起说唱！<br>嘿，乃亮！<br>不仅你的奶亮，你的头也亮！<br>嫂嫂说去做头发，我的小名就叫头发！<br>你天天喊我弟弟，嫂嫂也喊我弟弟，我还有个弟弟！<br>嫂嫂玩着你的弟弟，还玩着我的弟弟！<br>就问你刺不刺激！yeah！ 你以为这钱他们拿啊归根结底是咱们老百姓拿的。 李拿得出 因为卓伟收了屁肛的140w钱了呗~~~ 赵五儿（娱乐给我五）明天九点又有一波瓜等着，周三见失望的朋友们，可以期待一下周四了！收起全文<br>我擦这是轮着敲李小璐的竹杠啊吼吼吼 大家好，我是PGONE，请大家欣赏我的新rap《好吃不过饺子》：<br>comeon！<br>乃亮大哥，有些话不能多说。<br>你家的饺子味道真不错！<br>你的头发有点绿。<br>你的眼神有点忧郁。<br>你的人生就像言情剧。<br>哦，爸爸去哪儿了。<br>哦，嫂子去哪儿了。<br>嫂子和兄弟一起去哪儿了。<br>她挽着我的手。<br>她搂着我的头。<br>她把白白的饺子塞到我的口。<br>她在我的身下尽情的嘶吼。<br>one！two！three！four！<br>two！two！three！four！<br>three！two！three！four！<br>onceagainoh～yeah～<br>和我一起说唱！<br>嘿，乃亮！<br>不仅你的奶亮，你的头也亮！<br>嫂嫂说去做头发，我的小名就叫头发！<br>你天天喊我弟弟，嫂嫂也喊我弟弟，我还有个弟弟！<br>嫂嫂玩着你的弟弟，还玩着我的弟弟！<br>就问你刺不刺激！yeah！ 卧槽！大美妞你又活过来了！！怒挺你 耶耶耶 为啥没有人敢动卓伟呢？ 21:43了，说好的周三呢？ 姚笛是谁？ 周三都快过完了。卓伟也学贾老师，下周三？ 我是卓伟，打死我也不会承认 他后面绝对还有大boss。就是吃这种饭的。 如果一楼不说这种话，我们易友会很不习惯的 没有后续的爆料，那前面说的那些全是屁话啊！！！ 姚笛也算国民天后？ 确实如此，谁想搞他，他把事情闹大，那是真的别在娱乐圈混了 卓伟手里的证据太多了.动了他就全曝光了.如果他把赚的钱给有实力的后台就更稳了. 你这个人是真的烦，整天姚迪🤢🤮，姚迪是你吗啊？ 一天贾乃亮出门，pgone溜到李小璐的卧室，把她的裤子一脱就插进去了。李小璐说，你这样对得起你哥哥吗？pgone只好又拔了出来！李小璐又说，你这样对得起你嫂嫂吗？pgone一下抓狂了，不知道怎么才是好，只好一直大叫：对不起哥哥，对不起嫂嫂，对不起哥哥，对不起嫂嫂…… 有经济公司出钱的，洗白以后还能赚 一天贾乃亮出门，pgone溜到李小璐的卧室，把她的裤子一脱就插进去了。李小璐说，你这样对得起你哥哥吗？pgone只好又拔了出来！李小璐又说，你这样对得起你嫂嫂吗？pgone一下抓狂了，不知道怎么才是好，只好一直大叫：对不起哥哥，对不起嫂嫂，对不起哥哥，对不起嫂嫂…… 黄渤一季《极限挑战》6000万，这是一线，孙红雷一集300万，《中国好歌曲》一季那英拿3000万，就连马上要出来的我是歌手中的过气张韶涵一集都150万，而pgone现在是当红炸子鸡，参加一个综艺就可能回收1400万。真搞不懂你们怎么看娱乐的，就连黄安这种只跑二三四线城市剪彩，婚礼，山寨服装品牌代理，一年都能弄回一亿，萧亚轩也是这个路数，不信自己搜 确实，如果是假的为什么还花钱买公关，应该是真的 很怀疑这位嘻哈歌手能拿出1400万吗？[喷水] 璐出马脚、贾装没事、万没想到、卓有成效 卓伟快点爆下半场啊，不然都说你收钱了 手上黑料太多，没人敢动 跟锦衣卫似的手里攥着大把的黑资料，竟然没人敢动。可见被爆料的都是后台不够的 工作人员的意思是，是收钱了，就是没那么多 李拿得出 你说对了 应该是他后妈 亲爱的陌生人，晚上少熬夜，躺在床上也不要来回刷手机。胃不好就少吃辣少喝冷饮，受了委屈就哭出来，学会珍惜身边的人，如果还没有人牵你的手，自己要照顾好自己。陌生人从来不给我点赞，希望下一个陌生人给我点赞 PG还真拿得出 这货没人敢弄他？ 很久不见[大笑] 卓伟连姚笛那样的国民天后都敢黑，何况是这些十八线的小明星！我只有一句话：打倒卓伟，拥护姚笛！ 动的后果想过么？我怕你不乱，就怕你有钱搞不定乱 哈哈哈哈，现在广告沦落到这种地步了？🤣🤣😂😂😂 坐等明天爆料，要不是李小璐和那个啥鬼名字不会打的料，就日卓狗先人板板 有句话什么来着，杀了夏明翰。。 卓伟这b背景也不赖，不然要被人收拾了 感觉卓伟出事是迟早的，做事太高调，圈子里不管是谁他都要得罪，这些人背后的金主哪个不想弄死他？还要明目张胆的爆料勒索。之前爆料毒食品的那些记者都横死了，他敢把整个娱乐圈得罪个遍。 pg是富二代。你看看照片里面他在北京的房子。 那也是巨款了 谁他吗信1400万，还有明码标价？ pg3也拿的出 尧帝是它奶奶 意思是没给这么多咯？ 就屁几万那天天哼哼哈嘿的能挣尼玛的1400万？肯定是李小璐给的吧，但是自己又不能出面，出面等于认了！ 1400万，这么有钱 1400万对戏子来说算什么？天佑这种傻逼都有500万一场，蔡依林唱10分钟350万，王珂都说了，戏子赚钱太容易，1400万对戏子真不算什么 这炮打得！1400万啊！ 卓伟号称第一狗仔队，并且是专业的，你们认为可能会要这1400W吗，那成什么了…勒索~，不脑残的话不可能才会拿这种钱。 蓉易出轨，宝受委屈，凡是男人，何必深陷，全因好色，绮实不该，璐出马脚，贾装没事 终于上了头条，还要请公关？[微笑] 为啥没有人敢动卓伟呢？ 只要狠狠的查一定捉到，这笔钱估计兜了很多路才进入他口袋 你们不要黑网易之宝。对吧，美妞 好像很久没见了啊 我是猪爸爸 傻逼卓伟，利用舆论。他赚钱。王八蛋。 关系肯定坐实了 我也在考虑这个问题，以他这个程度，我感觉明星们都想宰了他 一楼你说你买个药都小心成这个地步了，谁还敢买你的药，你这个套路不对啊 它就一狗仔头，手下一帮马仔，还有一大群给马仔卖消息的各类人士，你怎么动呢，稍微有点风吹草动，这种泼皮无赖很快就知道了，就他们这煽风点火的本事，恐怕瞬间就满城风雨了 去看了，啥也没有啊 明星而已，哪那么大背景？没有ga的关系哪敢杀人 你们想过为什么要花钱请公关吗？？就是因为是真的，懂吗？？不信的自己百度（孔赏贞故事），自己去瞧瞧李小璐干了什么，你就相信是实锤了 你这个人是真的烦，整天姚迪🤢🤮，姚迪是你吗啊？ 热度过去不出半年应该就离婚了 怎么洗也洗不干净 姚迪那会那么红吗？ 卓伟第二个贾药停？ 黄渤一季《极限挑战》6000万，这是一线，孙红雷一集300万，《中国好歌曲》一季那英拿3000万，就连马上要出来的我是歌手中的过气张韶涵一集都150万，而pgone现在是当红炸子鸡，参加一个综艺就可能回收1400万。真搞不懂你们怎么看娱乐的，就连黄安这种只跑二三四线城市剪彩，婚礼，山寨服装品牌代理，一年都能弄回一亿，萧亚轩也是这个路数，不信自己搜 确实，如果是假的为什么还花钱买公关，应该是真的 这特么一楼就是做广告的。鄙视 可以歇歇了兄弟，姚笛都怀孕了，你没希望了。😄 朋友你这个逻辑有问题啊 我也在考虑这个问题，以他这个程度，我感觉明星们都想宰了他 你还在 谁能告诉我pgone是谁吗？😂😂 家庭是家庭，约炮是约炮嘛，也许发现还是奶亮器粗活好，公私分明的好演员 璐宿一夜，贾装没事，万没想到，卓实厉害，只因嫂子太骚，弟会饶舌。贾：敢问璐在何方？璐在裆下！ 不要拿一线影星和多年的歌星做比较吧，现在至少还没有这个量级的真人秀或综艺请pgone吧？能拿1400w做公关资产怎么也得上亿了吧，光他一个人难，说李帮忙我信 太小瞧这些人了。。。没见刘涛这几年给她老公还了几个亿的债。。。。 这钱真好赚 美国的那位拿的出 你太小看他这下半身了 卓伟连姚笛那样的国民天后都敢黑，何况是这些十八线的小明星！我只有一句话：打倒卓伟，拥护姚笛！ 当年窦唯烧了他的车，换何勇，估计直接捅死了 卓伟，这次事办得不漂亮啊 问这个不否认难不成还承认不成，成不成 大美妞是你配黑的？ 大家每人凑一块钱，把卓伟的料买下来……李小表 你又活了 卓伟个傻逼，刚刚回归就如此的吃香难看。🙄拉屎拉半截你他妈不怕被人买手买脚？ 那傻逼有钱吗？都是嫂子出血吧！ 不是他妈，姚笛是她本人 就是这个道理，你可以买通卓伟去爆你对手的料啊 马苏跟秦岚拿，李已经洗不白了，那俩还有大好前程，怎么地也不止1400万 这么出名，出点事，全名关注，除非你能量通天 卓伟这次办事办一半， 你太小看他这下半年了 有谁知道卓伟的底牌 我觉得你是凤姐 这个人应该是马伊琍高价雇来的黑手把 为啥没有人敢动卓伟呢？ 如果洗白了以后还有赚不完的钱，锤死了可就真死了 你们想过为什么要花钱请公关吗？？就是因为是真的，懂吗？？不信的自己百度（孔赏贞故事），自己去瞧瞧李小璐干了什么，你就相信是实锤了 好久不见了！ 贾拿得出 没动到有后台的人而已 李拿得出 你的对手被卓伟放倒了，你还觉得卓伟该宰吗 卓伟这次办事办一半， 让他再火几天，他一天能挣5000万 我发现这两年婊子特别多……光新闻报道热议的都好几个 zjbxl 渣渣说唱歌手，什么狗屁红花会，唱的什么玩意儿！吓得我赶紧翻出RageAgainstTheMachine、LMF大懒堂听一遍压一压恶心！[喷水] 很怀疑这位嘻哈歌手能拿出1400万吗？[喷水] 周三都快过完了。卓伟也学贾老师，下周三？ 这家一看就是女强<br>傻逼 一个小三啥时候成天后了？连胸都没有 ",
        "Link": "http://comment.ent.163.com/ent2_bbs/D78BT0P500038FO9.html",
        "Reply": 432,
        "Total": 6757
    },
    "KeyWords": "卓伟,pg one,公关,王思聪",
    "PublishTime": "01/03/201818:01:52",
    "Title": "PG One花1400万请公关？卓伟方否认_网易娱乐",
    "Source": "Netease",
    "Article": "网易娱乐1月3日报道1月3日，PGOne和李小璐“夜宿”风波引起的出轨风波持续发酵。有网友在爆料，PGOne花了1400万请成都的公关公司引热分流，同时也取消了3月份前所有商演。对此，卓伟全明星探（现娱姬小妖）否认该传言。爆料人称，pgone花费1400万请公关公司，去李小冉等名字相近的明星微博分流，同时还买通曝光王思聪的绯闻来挡子弹，1400万只是今天的料的价格，后续的价格还在谈。联想到今天王思聪发的“我今天生日，居然被人买热搜挡子弹”上微博热搜，似乎为传闻增加了可信度。但是这个传闻遭到了卓伟全明星探团队辟谣，其工作人员称：“1400万赶紧去立案吧求求了。”本文来源：网易娱乐责任编辑：杨明_NV5736",
    "URL": "http://ent.163.com/18/0103/18/D78BT0P500038FO9.html"
}