{
    "URL": "http://sports.163.com/17/1228/15/D6OJF38100058781.html",
    "Comment": {
        "Reply": 23,
        "Content": "关c罗卵事，是笨马，莫拉塔和笨马一个位置！ 恭喜莫拉塔，人生赢家！ 三条腿顶不上一个脑袋 双胞胎,基本上大多是要有遗传因素的;很少的几率也是能怀上的. 吉格斯：难道你也。。。。。。 人品球品俱佳！皇马培养了他，尤文使他成材，切尔西终于迎来爆发 特里：不用谢 去年<br>c罗商业价值大，而且表现确实也可以，老佛爷没有办法当机立断扶正莫拉塔 这射术精湛的没谁了 莫拉塔真是三条腿神射手，哪条腿都能GOAL 事实证明。齐祖放走莫拉塔大错特错，相同位置的笨马一次一次错过杀机，让人失望 主要还是关系户，齐达内也后悔了 人品球品俱佳！皇马培养了他，尤文使他成材，切尔西终于迎来爆发 恭喜莫拉塔，人生赢家！ 事实证明。齐祖放走莫拉塔大错特错，相同位置的笨马一次一次错过杀机，让人失望 幸福的让人羡慕呀呀. 关c罗卵事，是笨马，莫拉塔和笨马一个位置！ 特里：不用谢 双胞胎,基本上大多是要有遗传因素的;很少的几率也是能怀上的. 祝福 happyChristmas?不是merryChristmas? 莫拉塔真是三条腿神射手，哪条腿都能GOAL 怀念莫拉塔在我大皇马的日子 三条腿顶不上一个脑袋 吉格斯：难道你也。。。。。。 皇马都爆发了，只是机会不多 这射术精湛的没谁了 邋遢一次射门梅开二度 孔老二当外公了，哈哈。 生出来发现长得像西罗 莫拉塔年輕又帥氣 那么到底是妻子还是女友？ 科比：沙克也干了 去年<br>c罗商业价值大，而且表现确实也可以，老佛爷没有办法当机立断扶正莫拉塔 ",
        "Total": 183,
        "Link": "http://comment.sports.163.com/sports2_bbs/D6OJF38100058781.html"
    },
    "Title": "好事成双!莫拉塔妻子怀上双胞胎 幸福的让人羡慕_网易体育",
    "Source": "Netease",
    "KeyWords": "莫拉塔,双胞胎,英超联赛,西班牙",
    "PublishTime": "12/28/201715:06:13",
    "Article": "网易体育12月28日报道:今年12月11日，莫拉塔和妻子在Ins上宣布，他们将迎来他们的第一个孩子，在他们的婚礼仅半年后，便再度传来了喜讯，但这还不是最令人感到兴奋的。西班牙媒体《阿斯报》的消息称，据一位和莫拉塔关系亲近的朋友证实，莫拉塔的妻子怀的是双胞胎！但是，莫拉塔还并未对外正式公布这一消息，不过双方好友都已得知，在圣诞节假期，由于英超联赛没有休赛期，莫拉塔和女友就在伦敦度假，他们也通过社交网络向所有的粉丝表示祝贺。最近，莫拉塔的状态非常出色，上轮比赛刚刚完成了破门。在此前的一场比赛中，莫拉塔就已经在进球后，有了特殊的庆祝动作，来庆祝自己的孩子即将诞生。在此前的一场比赛中，莫拉塔在进球后将球塞入了球衣内，并含住了大拇指。这正是对自己妻子和未来孩子的祝福。目前，西班牙前锋本赛季已经出战17场联赛，打入10粒进球，成为了队内的第一射手。也希望这样的好消息，能够让莫拉塔在赛场上继续保持出色的状态，有着更多的进球。本文来源：网易体育责任编辑：郑鑫桐_BJS5086"
}