{
    "Comment": {
        "Reply": 744,
        "Total": 14285,
        "Link": "http://comment.news.163.com/news_shehui7_bbs/D6UN064J0001875P.html",
        "Content": ""
    },
    "Title": "乘客飞机上昏厥抢救无效身亡 家属:航空延误时间_网易新闻",
    "Article": "（原标题：女子飞机上昏厥抢救无效家属质疑：航空公司延误抢救时间海南航空：正在协助后续处理）▲通过手机购买机票的信息▲死者的病历记录12月17日，厦门市民小符的母亲符明云女士，在搭乘海南航空HU7440航班的途中昏厥，最终不幸去世。小符难以接受这样的事实，“从此以后，我再也没有妈妈了”。小符等家属认为航空公司延误了抢救时间。海南航空则回应，正在和家属沟通并协助后续处理，对恶意诋毁将追责。意外发生乘客飞机上昏厥抢救无效12月28日，小符向导报记者公布了海航公司南昌区域负责人程先生和他的通话录音。这段通话，发生在12月20日17点48分。当时，程先生向小符宣读了事件发生经过：“符明云女士于12月17日（周日）下午独自出行，乘坐海南航空公司航班号为HU7440的飞机从哈尔滨出发飞往厦门，经停南昌，其座位号为35C。该航班于17日15：47左右进行旅客登机，符明云女士在登机前一切正常，意识清醒。”程先生介绍，在哈尔滨飞往南昌的途中，乘务员发现了异样：“17：00乘务员发现符明云女士晕倒在座位上，乘务组立即广播寻找医生，并报告机长，同行的38H和54C的两位旅客分别是护士和医生，他们过来为符明云女士进行查看，并给其服用了5颗速效救心丸，2分钟左右符明云女士意识恢复正常。经机长同意，乘务员将其调换到头等舱的2C座位就座，54C的旅客在其身边照看。机组人员曾询问过符明云女士是否需要紧急停降进行救治，又或者在经停南昌的时候进行救护治疗，而当时符明云女士告诉乘务员自身已经好转。”经停南昌期间，符明云并未被送下飞机。“19：44航班在南昌正常落地。乘务员观察符明云女士身体状况比较虚弱，所以没有要求她下飞机，并且询问其是否需要联系家人。符明云女士表示自己能够联系家人，故而乘务员没有帮助联系。”“20：42航班正常起飞。20：52飞机达到安全高度，乘务员经过2C座位发现符明云女士昏倒，并立即叫38H的护士旅客前来查看，并广播询问有没有医生，但没有找到。38H的乘客当时判断符明云女士已经无意识、无心跳、无呼吸，需要立即展开急救，乘务组立即组成急救小组，协助38H的旅客对符明云女士进行心肺复苏，吸氧，并注射了1ml的肾上腺素。同时将情况汇报给机长，机长立即决定返航。21：17航班返航到南昌，21：25航班开舱，机场急救人员已经在等候。21：33急救人员将符明云女士抬下飞机，并由救护车在22：00到达医院，并对符明云女士进行急救。”当晚10：00时，失去意识的符明云被120送进了江西省人民医院，但回天乏术。家属质疑机组是否延误了抢救时间？在江西省人民医院的这份病历上，抢救医生记录：“患者符明云，女，55岁，因心脏呼吸骤停1小时，120送入院。120人员述患者1小时前于飞机上突发心跳呼吸停止……”根据病历记录，小符认为，“妈妈在飞机从南昌飞往厦门起飞时就已经停止了心跳”。对此，家属提出三点疑问：“一、作为机长，对飞机上一切突发事情有决定权，但是在第一段飞行发生意外情况后，只实施了在飞机上的急救应急措施，并没有通知地面做相应的后续应急措施，是否把病危乘客的生命安全放在心上？二、空乘人员如何对已经吃了5颗速效救心丸的乘客进行病情判断的？在南昌降落后，乘务员本应通知地面工作人员，将乘客送往医院，但是他们没有这么做，反而把昏迷的乘客留在了飞机上。这样的做法，是否延误了宝贵的抢救时间？三、家属通过飞机着陆时间，以及医院病历报告才得知她猝死于飞机第二次起飞期间，而海航公司对于这一情况是否存在隐瞒？”海航回应正在沟通，协助后续处理昨天下午，导报记者致电海航公司南昌区域负责人程先生。他表示：“我们正在和家属保持着沟通，协助本事件的后续处理，但我个人不能接受你的采访，会有我们品牌部门的工作人员对接媒体采访。”昨晚截稿前，导报记者没有接到海航方面关于此事的回复。律师说法病发后是否最快时间送医？北京东元（厦门）律师事务所陈奇斌律师认为，本案双方当事人争议焦点在于乘客死亡结果与航空公司是否有关。根据我国侵权责任法、民用航空法的相关规定，海南航空公司必须提供与符明云相关的在飞机上及上下飞机过程中的所有证据，包括飞机是否适航；空调、舱压是否调试合适；机组人员抢救是否及时、适当、规范；各方面协调包括通知地面人员来解决问题是否及时、安排全面与否等，举证证明其对符明云的死亡结果没有责任。如果证明不了，乘客不需要去证明航空公司有责任。同时，根据我国合同法第三百零一条之规定，承运人在运输过程中，应当尽力救助患有急病、分娩、遇险的旅客。救助措施包括了当乘务人员得知乘客情况后，是否对其积极采取了心肺复苏等一系列急救措施；在病发后，通过机组人员积极的协调，是否在最快时间内送医，等等。对此，航空公司应举证，否则应承担不利后果。女子发现丈夫出轨飞机上大打出手致航班被迫降落航班起飞后，机上一名伊朗女乘客喝酒后，趁丈夫睡着时用他的手指指纹将其手机解锁，结果发现丈夫不忠的证据，在飞机上大打出手，吓坏旅客与机组人员，同时和劝阻的机组人员发生冲突。机组人员的劝阻未能平息女乘客的冲天怒火。最终，卡塔尔航空被迫迫降印度，伊朗籍女乘客及她的丈夫和小孩被“请”下飞机，飞机则继续飞往巴厘岛。本文来源：海峡导报责任编辑：赵亚萍_NN9005",
    "URL": "http://news.163.com/17/1231/00/D6UN064J0001875P.html",
    "Source": "Netease",
    "KeyWords": "航空公司,身亡,飞机,旅客",
    "PublishTime": "12/31/201700:03:26"
}