{
    "URL": "http://sports.163.com/17/1228/09/D6O0VMKC00058781.html",
    "Comment": {
        "Reply": 150,
        "Content": "卢卡库黑又硬，连续三个助攻，舅问你们服不服 每个强队都得有个大祭司？阵眼？ 三楼笑死我了！ 吸伤型球员？全队的福星[窃笑][窃笑] 你说的观赏性是比谁失误多吧 这上场还不到2小时，刚付出的 再补个中卫，完美 然而现在英超是头名领先最多的，比德甲还德甲[狗][狗][狗] 菜鸡互啄的英超，来了一只鸵鸟！ 充电五个月上场两小时。 3楼你太认真了😄 现在门将也算阵型里了吗 3楼很识数，而且很有素质 这阵形，得多怕曼城啊。 围观3楼懂球帝识数男素质🐶 谁防守谁孙子！ 充电五个月上场两小时。 100吧 瓜秃真的是在玩足球而不是踢 纽卡这种英超中下游球队就是甘当孙子啊。老实说以前英超的观赏性是建立在都喜欢打快节奏攻防，这样弱队也有很多打反击的机会。现在强队都玩技术流了，弱队的机会变得少得可怜。强弱对话就是半场攻防，和西甲差不多了，观赏性也变得很糟糕。 也该腾位置了… 瓜：反正也是半场攻防演练，上毛后卫。 啊啊啊，第二张图，曼城两个前锋都越位了，裁判都不吹....[惊讶][惊讶] 维尔马伦把祭师身份让给孔帕尼了。 二楼，你的半个月10分钟，换算成5个月就是100分钟，和一楼说的120分钟有很大差别吗？就20分钟的电量你俩有啥好争的… 你识数么?你妈是不是911被恐怖分子打成筛子，幢楼，你脸着地生的? 献祭型中卫？？？ 第一张图，这特么就是244阵型啊[喷水] 现在是10-0-0了卢卡库智商真的是硬伤 孔帕尼，维尔马伦，贝尔到底谁的身板更强 第一张图，这特么就是244阵型啊[喷水] 没有鸟的901完美 献祭型中卫？？？ 相比之下英超算最好的，你看看德甲、法甲、西甲、意甲；英超至少有7到8只队伍实力接近。谁都可能赢，重头戏也多。西甲你就看个国家德比就行了。德甲你不用看都知道结局。 曼城下半赛季难了，已经打完了一轮了，都知道对攻打不过，都开始摆大巴了。搞不好平局多。 孔帕尼:多踢一场，算我输[微笑] 如果算门将的话也应该1901才对吧 可以卖了，看着闹心 你开玩笑！充电半个月上场10分钟好不。 谁防守谁孙子！ 怪瓜迪奥拉咯？ 这才是神操作 看了控球率。。真特么恐怖。。八成。。 垃圾废物曼城垃圾废物瓜不群 笑死我了！[喷水] 献祭型国家队 西甲的床单、蝙蝠、潜水艇表示不服、还有个塞维利亚 充电五个月上场两小时。 很好 攻击时变244，退守时又迅速变成424。 然而现在英超是头名领先最多的，比德甲还德甲[狗][狗][狗] 孔帕尼，维尔马伦，贝尔到底谁的身板更强 上场4分钟[喷水] 瓜秃真的是在玩足球而不是踢 谁防守谁孙子！ 是910 鸟的是101 还以为两个后卫是前锋 有点大祭司的光环了 队友甚至都不敢和孔帕尼打招呼，生怕刺激孔帕尼拉伤 不不不下赛季冠军是木鸟的 也该腾位置了… 明年世界杯比利时首发中卫组合维尔马伦，孔帕尼 德布劳内不如张稀哲 献祭型中卫？？？ 阵眼达尼洛,到那个队哪个队得欧冠联赛 维尔马伦：乌木弟弟？你伤好了没？我都替了好几场首发了，快点伤好了换我，我要下去做法了！ 敢说，瓜三年又不是穆三年，又不用抓内鬼 可以卖了，看着闹心 迪亚比笑而不语 谁防守谁孙子！ 第三年嘛，天师就该换东家啦 不懂了吧，进攻的时候，2个边后卫上前，2边锋上前。4-4-2，就变成2-4-4。其实打的还是4-4-2。 这难道是在北京被穿心脚所伤后遗症？ 菜鸡互啄冒出只火鸡[暴怒] 这逼吹的，欧冠都开始了，看看这赛季先行不行再说。 孔帕尼的大祭司从业资格证什么时候考 这还是依靠两个攻击型边后卫才行吧。要是鸟选人，肯定是进攻622（2拖后后腰）防守1000。 菜鸡互啄的英超，来了一只鸵鸟！ 无证操作已经很多年了。 没有鸟的901完美 吓死鸟也不敢摆两个中场 特么的又是斯特林？？？ 德甲的比赛还是挺好看的 充电五个月上场两小时。 100吧 纽卡这种英超中下游球队就是甘当孙子啊。老实说以前英超的观赏性是建立在都喜欢打快节奏攻防，这样弱队也有很多打反击的机会。现在强队都玩技术流了，弱队的机会变得少得可怜。强弱对话就是半场攻防，和西甲差不多了，观赏性也变得很糟糕。 是该腾位置了 祝福类型的后卫 都是比利时的 献祭型中卫？？？ 第一张图，这特么就是244阵型啊[喷水] 第一张图，这特么就是244阵型啊[喷水] 第一次听到这种名词[微笑] 所以母鸟的进攻不行，不会操作后腰 222222222 我特以为442、一看黑色曼加拉卧槽244 孔帕尼:多踢一场，算我输[微笑] 维尔马伦把祭师身份让给孔帕尼了。 孔帕尼还是稳 每个强队都得有个大祭司？阵眼？ 三楼笑死我了！ 244 踢的一坨狗屎，喜欢瞎几把带，还老丢球的玻璃队长，图雷比他强多了 贝帅不敢对攻，他要面子 分享一个领红包的码，复制后面的红包码，打开支付宝就可以领取，哈哈我刚才中了188元，mhb6D86311 献祭型中卫？？？ 玻璃人该走了 卢卡库黑又硬，连续三个助攻，舅问你们服不服 不是不差钱吗？怎么给红军截胡了 这个比也是受伤专业户，一年得休息37场 領先分數這麼多，還是值得賭的，賭對了又拉開2分，沒對最多給追1分。怎麼想都划算 巴萨也有两个 这阵形，得多怕曼城啊。 木鸟：孙子兵法[挨揍] 年纪大了，别酸了 他们队还有个阵眼达尼洛哈哈哈 啊啊啊，第二张图，曼城两个前锋都越位了，裁判都不吹....[惊讶][惊讶] 孔帕尼是祭品，达尼洛是大祭司 这是244阵型 卢卡库：鸟你要玩死我啊？ 木鸟：孙子兵法[挨揍] 太刺激了。。 达尼洛这个人恐怕没那么简单。 那买谁呢？会不会是冯潇霆 看来是该考虑买来巴萨的大祭司维尔马伦了 也该腾位置了… 玩实况一直用244 424阵容两个边后卫上去了 曼加拉可以走了 不能这样说吸伤大法师啊 但是曼城有两个过分了啊… 瓜的两个边后卫从来都是压到对方边后卫旁边的，两个边前卫都是内收。 漏哥是阵眼[大笑] 曼城前场经常变136，跟巅峰巴萨差不多 鸟粪智障，丢你爸妈的逼脸 你说的观赏性是比谁失误多吧 当年的10-0-0更牛 开玩笑，差别大了，20分钟又要充电1个月呢，都够我城再打一波4连胜了。[大笑] 没有鸟的901完美 防守的时候那8个人都在前场没回来 穆：谁不坐大巴谁是孙子 又伤了！ 对面550 充电五个月上场两小时。 2314阵型 纽卡这种英超中下游球队就是甘当孙子啊。老实说以前英超的观赏性是建立在都喜欢打快节奏攻防，这样弱队也有很多打反击的机会。现在强队都玩技术流了，弱队的机会变得少得可怜。强弱对话就是半场攻防，和西甲差不多了，观赏性也变得很糟糕。 吸伤型球员？全队的福星[窃笑][窃笑] 你想过隔壁卢卡库的感受吗？4个助攻了他 关键是曼城又有大祭司又有阵眼，这是最可怕的 玄学这些东西，自我献祭，全队最少进一球 第一张图，这特么就是244阵型啊[喷水] 谁防守谁孙子！ 3楼你太认真了😄 应该是910 孔帕尼:多踢一场，算我输[微笑] 你开玩笑！充电半个月上场10分钟好不。 别巴萨也需要大祭司呀 维尔马伦把祭师身份让给孔帕尼了。 这图，这他妈是你说的442？ 每个强队都得有个大祭司？阵眼？ 可以 这上场还不到2小时，刚付出的 你看反了，曼城从左往右攻，阵型变成2-4-4了两个边后卫跑到中场了 联赛还有后半程，还有欧冠，切不可掉以轻心 应该是本方拿球，边后卫上提了 这句话。每次看我都想笑 以攻为守，决战对方半场呵 曼城下半赛季难了，已经打完了一轮了，都知道对攻打不过，都开始摆大巴了。搞不好平局多。 我一直觉得孔帕尼完全是个靠身体的后卫，防守技术上算不上顶级，以前年轻可以跟人硬钢身体，老了身体吃不消了 传控打法一直是这样啊进攻时候双边后前提防守归位变回四后卫很多球队进攻也都这样啊 黑色玻璃人，太脆了，曼城踢后卫都没什么活干也能受伤 孔帕尼不行了 孔帕尼估计要被卖了 也比不上901铁血。 回去接球吧 没有鸟的901完美 纽卡这种英超中下游球队就是甘当孙子啊。老实说以前英超的观赏性是建立在都喜欢打快节奏攻防，这样弱队也有很多打反击的机会。现在强队都玩技术流了，弱队的机会变得少得可怜。强弱对话就是半场攻防，和西甲差不多了，观赏性也变得很糟糕。 瓜：反正也是半场攻防演练，上毛后卫。 充电五个月上场两小时。 算是彻底废了，800万都不一定有人要 该卖了。 是我看你的回复错了 两个边后卫适时插上… 献祭型中卫？？？ 第一张图，这特么就是244阵型啊[喷水] qs价，还是很划算的 孔帕尼真是牛，伤好了之后一般比赛不敢让上，关键比赛打曼联才半场就下来了，这场更厉害，就踢了十分钟？这货到底还能用不？ 确认是的，位置感比较差，特别是对肋部位置的保护！ 再补个中卫，完美 我擦，曼城有一个大祭司，一个阵眼，不得了 斯通斯快复出了吧？中卫可能要补充一个，目前蓬蓬头最好，只是切尔西肯定多一千万也不卖给曼城，瓜眼光独到，给个惊喜吧，1月？ 孔帕尼:多踢一场，算我输[微笑] 多踢一分钟，算我输 阵眼？我城有俩[车珠子] 曼城对热刺，那不勒斯对曼城的强强对话就很好看啊，而且，技术流球队拿冠军也会推动其竞争对手往技术流派走，慢慢比赛观赏性就上来了 谁防守谁孙子！ ",
        "Total": 2876,
        "Link": "http://comment.sports.163.com/sports2_bbs/D6O0VMKC00058781.html"
    },
    "Title": "瓜帅再秀神操作!孔帕尼复出1场伤退 直接换上前锋_网易体育",
    "Source": "Netease",
    "KeyWords": "孔帕尼,瓜迪奥拉,曼城",
    "PublishTime": "12/28/201709:43:15",
    "Article": "网易体育12月28日报道：北京时间今天凌晨，曼城在英超20轮比赛中客场1-0击败纽卡斯尔，继续扩大着自己在英超的连胜纪录。比赛中，曼城队长孔帕尼再一次受伤离场，而瓜迪奥拉却没有选择对位换人，而是用前锋热苏斯换下了孔帕尼。曼城队长孔帕尼上一场对阵伯恩茅斯的比赛中刚刚从肌肉伤势中复出并打满全场，但本场比赛比利时人就再一次遭到伤病侵袭。开场仅仅4分钟，瓜迪奥拉就命令替补中卫曼加拉前去热身。第12分钟，孔帕尼被替换下场，但令人惊讶的一幕发生了，替换下孔帕尼的并非此前热身的替补中卫曼加拉，而是巴西前锋热苏斯。随后巴西后腰费尔南迪尼奥回撤到后防线，曼城变出了类似424的阵型。本场比赛纽卡斯尔祭出了541的铁桶阵，瓜迪奥拉也接着孔帕尼受伤的机会顺势增加一名攻击手给予对手更大的压迫。最终在第30分钟时，斯特林接到德布劳内的绝妙挑传抢点得分，帮助蓝月亮继续扩大着积分榜的领先优势。此外，本次受伤已经是孔帕尼本赛季第3次遭遇伤病困扰，而他的曼城生涯中，已经先后遭到了多达39次伤病侵袭。此前瓜迪奥拉也曾表示曼城需要继续补强中卫位置，在范迪克被利物浦以创纪录的7500万英镑的价格签下之后，瓜帅不得不去寻找下一个转会目标了。本文来源：网易体育作者：托宝责任编辑：马鑫_NS4811"
}