{
    "Source": "Netease",
    "PublishTime": "12/26/201713:22:35",
    "KeyWords": "华为,bg,反腐,诺基亚",
    "Title": "华为消费者业务高管被调查 该部门6名前领导已被捕_网易新闻",
    "Comment": {
        "Link": "http://comment.news.163.com/news_guonei8_bbs/D6J8NSTS0001875N.html",
        "Total": 2943,
        "Content": "朋友刚从华为总部离职总结八个字顺我者昌逆我者亡看样子不是没有道理的 有权有势的不一定是国家工作人员 喷子都是社会低层，生活工作不如意，就希望国家动乱，重新洗牌，可以理解 哦，三姓家奴？ 等结果 为什么要行贿呢？ 华为网宣机出事了吧？ 华为手机作假骗钱。 任何企业官僚作风盛行精力全花在请客送礼溜须拍马举报内斗上，哪有时间和精力搞发明创新?层层都是在完成上靣安排的任务，而上面的都是五六十年代出生的，请问那个年代有几个读书的?我认识一个工程师监理，小学毕业，现如今己退休居然连电脑智能手机都不会玩!文凭就是买来的! 最后一句话很有含金量哦 出你爹 楼上闭嘴，含着 很好 华为海军应该如何回复？鼓吹华为的纯净啦？ 菊花手机不敢用啊，怕怕 看来高薪养廉就是扯淡 没有中间商赚差价，自己把差价赚了，低配零件拿去充高配零件， 中国就是因为你这种傻逼太多了，华为才敢明目张胆的骗，偷工减料给你们这帮傻逼补偿了嘛 华为公开抄袭和剽窃了别人多少技术？法办过吗？做婊子的骂别人卖淫，呵呵 自古二楼 三楼野种，杂的。 你支持？你以为你是谁？你妈贵姓？！ 大大D有👍 你看不惯，但又干不掉华为的样子让我看得很爽 华为水军是华为里最优秀的团队！ 他爸姓華為 每个华为手机里，都住着一位老大哥。 何其相似 销售高管，高危职业，7个全部进监狱了 坐看神仙打架～ 有什么新鲜的？尤其是采购方吃回扣，被送上法庭的我已经见过俩了，一个外企的，一个民企的 “非国家工作人员受贿罪”这个罪名比较新鲜 他是你爹啊 有免费手机领我也支持 出三楼他爹 我就想知道非国家公务人员怎么个腐败法 你们都这么不待见华为吗？这怎么说华为是个很好的中国企业，产品质量过硬，也没有欺骗过消费者啊！我就不明白那些国内的喷子们是怎么回事？难道是别的公司的水军？别喷啦！华为确实是个很好的大公司在世界上那都是出了名的，怎么到了你们口中就一文不值呢？醒醒吧你们这些水军，好坏不是你们说了算的，而是由广大的消费者说了算，我由衷的支持华为 到底谁是水军 华为的狼性注定了为了利益不择手段，折了几个将军再正常不过了。在电子产品领域我们以小博大以弱拼强，如果再按照行业领军者制定的规则玩，别说打赢、活着都难！ 楼上傻x，纯的 跟贴被火星网友带走啦~ 二楼还不知道，华为的消费终端总部已经搬到东莞松山湖了吧 拔啊，拔啊，拔萝卜，<br>拨出了萝卜带出了泥。 没有没有事的，只有不出事的 搬就搬，关我鸟事关你鸟事啊，深圳没了华为关你鸟事，东莞有了华为关我鸟事！ 大数据 华为就那样 这个人在华为受贿，被批捕没啥，但“该部门6名前中高层领导，带了内部资料到乐视、酷派...这些人员目前已被警方查实并批捕”，把跳槽的也抓了，这就不地道了。 立正！向左看齐！*＊*＊你你你站好了没？！ 流星月亮地球太阳系有发动机么？没有!他们却高速在宇宙中运行!为什么？因为他们的运行轨道本身就是太空高速时空隧道!他们的运行路线一半为去路一半为来路，周而复始地运行着!地球自转公转着，本就没有东西南北上下左右等方位!谁定的？我们的天父啊!目的只有一个，告诉人类我们天父的星座方位!所以九曲桥的方向始终对着东北方!在宇宙一切物质中，永远是子体围绕母体运动，这是恒定的!所以地球自转并围绕太阳公转!因地球是自转公转的，所以根据地球的东西南北是找不到星外文明的星座方位的!只有找到太阳的上下前后东西南北才能准确地给天父星座方位定位!我们天父星座方位在太阳系东北上方第九颗恒星那里!那里以双伴恒星为中心带动周围108颗恒星运动着! 想在华为搞搞震，那也得看菲哥心情！ sb，华为不卖手机也不会倒，知道思科怎么没落的吗?你可以不喜欢，但别造谣。 以前支持，自从华为p10闪存问题，呵呵，感觉花钱撞大运来了。自测从电脑考文件速度不如2.1，华为不承认。他们认为能接打电话发短信上网就是没有质量问题。 有权有势的不一定是国家工作人员 喷子都是社会低层，生活工作不如意，就希望国家动乱，重新洗牌，可以理解 出三楼他爹 华为这种靠骗忽悠的大奸商就该让它倒闭 二楼纯loser，看不得自己好！越能喷的，自己越能能力 哪那么简单，怎么取证的？怎么立案的？取证合法吗？那么多公司，为啥华为同业竞争就会被抓？统计学上合理吗？ 我是一楼爹，我姓中名出 华为哈哈 我们公司也需要 每个华为手机里，都住着一位老大哥。 华为手机作假骗钱。 受贿，损害企业利益。私企民企都是企业，受国家法律保护。不过非国家公职人员受贿只有企业举报才会调查。显然这是华为举报的。 中国就是因为你这种傻逼太多了，华为才敢明目张胆的骗，偷工减料给你们这帮傻逼补偿了嘛 这几位到底是行贿还是受贿？ 我觉得多买国产东西就是支持啊 傻逼！你不累吗？ 你是没读过书吧 要不是机关定制机，华为早倒闭了 他爸姓赵 动不动就问侯人家妈，你没妈吗?素质真差! 看来高薪养廉就是扯淡 没有中间商赚差价，自己把差价赚了，低配零件拿去充高配零件， 他叫中毒，你叫中伤，你看公安局让他妈叫这名字不，你连着打这两个字你看让你显示出来不，你们啊，图样图森破。。。 你看不惯，但又干不掉华为的样子让我看得很爽 像这种大公司高管受贿不比国家工作人员少 我在天猫商城合情合理的投诉万象物流的配送员，居然遭到了配送员的人身威胁以及恐吓。在家人的劝说下我只能取消投诉吃哑巴亏。请问社会功德何在社会公义何在。没人管老百姓的投诉只能让更多的恐吓和威胁发生。希望有正义感的人或部门严惩这样的黑社会方式处理投诉的事情。好让社会可以有正义和公义存在 我顶你个肺 跟贴被火星网友带走啦~ 三楼野种，杂的。 你支持？你以为你是谁？你妈贵姓？！ 华为兄弟，人家带的是苹果x，惹得起吗 华为水军是华为里最优秀的团队！ 有💰的老大哥 喷子都是一群没有知识，没有上过学的社会底层。 【支付宝】邀您瓜分10亿现金红包啦·最大888元直接抵现！复制本条消息Guh0o730fe打开支付宝·每天能领1个，分享长期有效！ 华为狗动怒了？哈哈哈。 服务器一样国企定制的，你才sb 实话而已，不如你造谣！ “非国家工作人员受贿罪”这个罪名比较新鲜 这接受客户意见的态度不敢说全世界第一,国内第一必须了吧? 例如私营企业的管理人员受贿，就是这个罪。不新鲜啊？ 我就想知道非国家公务人员怎么个腐败法 你们都这么不待见华为吗？这怎么说华为是个很好的中国企业，产品质量过硬，也没有欺骗过消费者啊！我就不明白那些国内的喷子们是怎么回事？难道是别的公司的水军？别喷啦！华为确实是个很好的大公司在世界上那都是出了名的，怎么到了你们口中就一文不值呢？醒醒吧你们这些水军，好坏不是你们说了算的，而是由广大的消费者说了算，我由衷的支持华为 大公司都死于内耗 到底谁是水军 市场经济，怎么受贿？谁行贿？ 大环境如此，洁身自好不易。 哈哈哈哈哈哈，三楼你这是在黑谁啊。。。 楼上傻x，纯的 肆无忌惮的依靠蒸府的补贴和订购，粗暴压榨低价人力，满世界行讳拿订单，最终打败了思科 华为定律 刚买了个华为来网易不会被喷吧 错买苹果国家得的税更多 告诉你黑华为的。，没有几个中国人，都他妈外国杂种。 跟贴被火星网友带走啦~ 拿原单位的知识产权去卖，当然该抓。 自古二楼 大数据 华为就那样 这个人在华为受贿，被批捕没啥，但“该部门6名前中高层领导，带了内部资料到乐视、酷派...这些人员目前已被警方查实并批捕”，把跳槽的也抓了，这就不地道了。 [喷水]卵味都没有 朋友刚从华为总部离职总结八个字顺我者昌逆我者亡看样子不是没有道理的 大嘴呢 华为公开抄袭和剽窃了别人多少技术？法办过吗？做婊子的骂别人卖淫，呵呵 看样子，評的蓝血十杰还真有道理，像十杰里的麦克纳马拉，人生起伏，只是他从国防部掉下来，这逼从华为掉下来，哈哈 他爸姓華為 为什么要行贿呢？ 国有“企業腐敗”……？ 哦，三姓家奴？ 华为手机作假骗钱。 任何企业官僚作风盛行精力全花在请客送礼溜须拍马举报内斗上，哪有时间和精力搞发明创新?层层都是在完成上靣安排的任务，而上面的都是五六十年代出生的，请问那个年代有几个读书的?我认识一个工程师监理，小学毕业，现如今己退休居然连电脑智能手机都不会玩!文凭就是买来的! 最后一句话很有含金量哦 作为一个能把吃回扣看成受贿的私企还是很有前途的 李一男出来多久了。[被黑] 拔啊，拔啊，拔萝卜，<br>拨出了萝卜带出了泥。 😄 华为海军应该如何回复？鼓吹华为的纯净啦？ 菊花手机不敢用啊，怕怕 就情况来看更可能是因为要跳槽所以被灭了口，事做过了，会不会终有还时？ 流星月亮地球太阳系有发动机么？没有!他们却高速在宇宙中运行!为什么？因为他们的运行轨道本身就是太空高速时空隧道!他们的运行路线一半为去路一半为来路，周而复始地运行着!地球自转公转着，本就没有东西南北上下左右等方位!谁定的？我们的天父啊!目的只有一个，告诉人类我们天父的星座方位!所以九曲桥的方向始终对着东北方!在宇宙一切物质中，永远是子体围绕母体运动，这是恒定的!所以地球自转并围绕太阳公转!因地球是自转公转的，所以根据地球的东西南北是找不到星外文明的星座方位的!只有找到太阳的上下前后东西南北才能准确地给天父星座方位定位!我们天父星座方位在太阳系东北上方第九颗恒星那里!那里以双伴恒星为中心带动周围108颗恒星运动着! 不喜欢华为的管理 每一位苹果手机住着一群大爷 没有没有事的，只有不出事的 知乎搜一下华为两个字你就不这么认为了 你支持？你以为你是谁？你妈贵姓？！ 大大D有👍 是吃相太难看了捞的太多了吗？ 每个华为手机里，都住着一位老大哥。 一楼的妈妈姓孟。傻子二楼能懂？ 抓的好，还有。 销售高管，高危职业，7个全部进监狱了 各行各业各介层皆如此，办公室潜规则嘛，如此能有发明创新么 坐看神仙打架～ 有什么新鲜的？尤其是采购方吃回扣，被送上法庭的我已经见过俩了，一个外企的，一个民企的 “非国家工作人员受贿罪”这个罪名比较新鲜 有免费手机领我也支持 你们都这么不待见华为吗？这怎么说华为是个很好的中国企业，产品质量过硬，也没有欺骗过消费者啊！我就不明白那些国内的喷子们是怎么回事？难道是别的公司的水军？别喷啦！华为确实是个很好的大公司在世界上那都是出了名的，怎么到了你们口中就一文不值呢？醒醒吧你们这些水军，好坏不是你们说了算的，而是由广大的消费者说了算，我由衷的支持华为 林子越大，鸟越多 当年毕业写了封万言书给任总，名字叫《千里赴华为》。其实人各有志，小编叛徒俩字用得太失水准！莫非一定要像祁同伟那样给领导哭坟才是忠烈？ 华为的狼性注定了为了利益不择手段，折了几个将军再正常不过了。在电子产品领域我们以小博大以弱拼强，如果再按照行业领军者制定的规则玩，别说打赢、活着都难！ 水深！开始了！ 何其相似 说一千道一万，还是给的少 不错 二楼还不知道，华为的消费终端总部已经搬到东莞松山湖了吧 😄😄😄 搬就搬，关我鸟事关你鸟事啊，深圳没了华为关你鸟事，东莞有了华为关我鸟事！ 六七十岁的人几乎都不会玩智能手机，他们出生时代木有人读书，小学，初中己经是好的了 大数据 立正！向左看齐！*＊*＊你你你站好了没？！ 华而不实。楼下接 只服你这坚持不懈的精神 哈哈 华为网宣机出事了吧？ 这很华为 没有没有事的，只有不出事的 华为太赞了比政府强万倍！ 很好 等结果 有点权力就算计着贪污腐败 ",
        "Reply": 124
    },
    "Article": "（原标题：华为内部反腐保持高压消费者BG原高管被带走调查）相关媒体12月25日援引知情人士消息称，华为消费者BG大中华区执行副总裁腾鸿飞已被带走调查。华为公司相关人士12月26日上午告诉《中国经营报》记者，“原消费者业务中国区销售主管腾鸿飞日前因涉嫌非国家工作人员受贿罪，已经被公安机关采取强制措施。”至于腾鸿飞涉嫌犯罪的细节，华为方面表示，“警方正在侦查中，一切请以警方披露信息为准。”记者获悉，腾鸿飞曾获得2017年华为内部管理奖项“蓝血十杰”，在华为消费者BG颇受内部高管重视。但自12月19日开始，腾鸿飞的微博和微信朋友圈已停止更新。公开资料显示，腾鸿飞毕业于南京炮兵学院，最早是在诺基亚工作，陆续出任过诺基亚西区、南区的总经理，是诺基亚中国区几员大将之一。此后，腾鸿飞曾从诺基亚跳槽至三星，担任三星华南区总经理。2014年5月，腾鸿飞跳槽至华为，担任华为消费者BG主管销售工作的大中华区执行副总裁一职。知情人士告诉记者，随着华为消费者业务销量及营收的急剧放大，腾鸿飞在华为消费者BG的位置和职权越发重要。华为公布的2017年前三季度智能手机销售情况显示，截至今年9月底华为手机发货量1.12亿台、同比增长19%，营收同比增长则大于30%。在全球市场上，华为手机市场份额排名第二，当时甚至已经超过苹果。最近几年，华为内部反腐一直保持高压，其中影响最大的要数2014年的反腐案。公开资料显示，2014年9月，华为企业BG经销商反腐大会通报称，华为已经查实企业内部116名员工涉嫌腐败，并追回了3.7亿元资金。2014年8月，已经查实的116名涉嫌腐败的员工当中，4名员工被移交司法处理，涉及69家经销商。2014年7月，华为消费者业务CEO余承东曾经发过一封内部信件专门提及反腐。在这封内部信件的开头部分，余承东表示，“每起被查处腐败的当事员工，其人生轨迹、家庭生活完全颠覆，法办坐牢，失去自由再忏悔为时已晚。因此，这次的半年总结，我想重点和大家谈：如何自律、抵制诱惑，防腐败、反腐败，在我们实现事业梦想的道路上我不希望大家掉队。”2014年之后，华为内部反腐也未停止。据华为消费者业务此前的相关通报，该部门6名前中高层领导，带了内部资料到乐视、酷派，其中包括华为一些明星产品的设计师和消费者业务的老将，如华为P6总架构师张慧敏、华为终端架构设计部部长吴彬等。这些人员目前已被警方查实并批捕。业内人士在接受《中国经营报》记者采访时表示，很多企业都有内部反腐，但是由于很多是窝案，注定了这种内部反腐是运动式的、一时的，像华为这样多年来一直在内部反腐上保持高压的国内企业并不多见，这需要在企业内部打造廉洁的环境，才不至于“拔出萝卜带出泥”。本文来源：中国经营报作者：李正豪责任编辑：韩佳鹏_NN9841",
    "URL": "http://news.163.com/17/1226/13/D6J8NSTS0001875N.html"
}