{
    "Source": "Netease",
    "PublishTime": "12/26/201717:26:49",
    "KeyWords": "考研,辅导,大连理工大学,考研数学",
    "Title": "大连理工大学：将严肃处理\"押题名师\"李林_网易新闻",
    "Comment": {
        "Link": "http://comment.news.163.com/news2_bbs/D6JMN37L0001899N.html",
        "Total": 28768,
        "Content": "太逗了 那我不管，我嘴大 直接辞职，明年开辅导班。 按照三楼逻辑，没艹过三楼妈，就不能是他爸了？ 估计是得罪人了，还没调查就处理？人家早就递了举报信了吧 然而教育部说他没泄题啊，你这不是打了教育部的脸么 3楼这种人就特么喜欢乱比喻，都特妈的不是一回事，还自以为口才好。就是傻逼 考研数学如果能做到3小时的课程容量，讲出80/100的原题，那就得关起来查了，破坏考试就是摧毁这个世界最基本的公平。 跟贴被火星网友带走啦~ 人家都没参与出题何来的泄题？ 有病吧 树大招风，同行不容你 如果李林没有参与命题，没有通过非法手段窃取机密试题，参与社会考研辅导班无可厚非，押题命中是本事，不违规违法。如果是非法手段窃取命题并泄题，那就是违法犯罪。目前信息不全面，不做判断。 数学，逻辑学，中医，统统不算科学！ 树大招风，同行不容你 二楼明显刚出社会，比如出题的是自己人呢 王老师：同学们翻到一百四十二页,第三题，必考题,头两年没考，今年肯定考，十五分摆在这，爱背不背。怎么地？张扬，不信是吧？那老师和你赌个面包机。 一名没有参与考研命题的老师，能压中题目，也算厉害了，处理个啥，明年都去找他报班吧 问题的关键在于，他到底是否泄题 有点像辛普森杀人，大家都知道怎么回事，但是没办法 不参与出题，押题没错误。说明对专业熟悉…… 看通报就知道有问题了，没问题不会通报。顺便借排名中国第一经济学家邹恒甫的话说一句：中国99.99%的教授专家不合格 搞笑，没参与制毒就不能参与贩毒了？ 人家押题准何错之有？ 这是个庞大的产业，他不命题不会找别人漏吗？傻 你制过毒运过毒是吧？内行人？ 数学不是科学，哈哈哈哈哈哈哈哈哈 擦，一战成名，还在乎这点工资。 下一个俞敏洪 圈子透露 估计学校肯定会开除你，你不如先发制人主动辞职，然后一大波考研机构高薪聘请你……，你信吗？ 普通讲师，然后他能接得起这么大的锅呀？ 跟贴被火星网友带走啦~ 他肯定窃取机密试题了，你看了他视频就知道了，各种说自己不能说太多点到为止，明眼人都知道怎么回事 跟贴被火星网友带走啦~ 猜题准没办法，以前考研的一道英语选择题和复习资料的一模一样… 一看都知道没考过研的文盲，专业课试卷学校出题，内容都离不开自己学校教的那些内容，都是课本上的题，年年循环考，去掉近年考过的，一对比就出来了，有什么难的，这叫什么泄题！ 数学科学学院?数学是研究科学不可或缺的工具，但数学本身又不是科学啊！ 这个处分我觉得有点搞笑了，如果没有泄题，只能说明人家厉害，如果泄题了，则应该是违法行为了 楼上脑残吧 肯定是神灵赐予了他智慧<br>我就经常这样梦里梦到未来发生的事而且应验<br>就拿最近的一次来说吧<br>我梦到了期末考试第二场高数的考题<br>梦里全是答案兴奋的我不要不要的<br>到了考场打开卷子看着满卷的英文我笑了 这里评论的人没有几个知道事情真想的，竟然还口气很大，带节奏，喷人。他们为什么要这样？ 3楼的比喻其实很精准，你们这群傻逼外行无法理解罢了 9-----23全被抓了？别乱说话了，小心下一个是你！ 靠，没有直接证据证明别人泄题，就不能妄下结论。 问题的关键在于，他到底是否泄题 再深的怀疑，也得靠证据说话 3楼这种人就特么喜欢乱比喻，都特妈的不是一回事，还自以为口才好。就是傻逼 很正常啊，以前我学校每年考试都有泄题的，勤工俭学的学生偷拍出来卖给打印社。<br>出题人管的严，反而出问题的不多。。。<br>最后我觉得你智商有点问题。。。。 如果真是押题押中的，那是真本事 参加的需要本人出马吗？脑残 是的中彩票更难，不能说中了大奖就是违法 那学校眼红？没分赃？ 有没有国外的同学说说，国外有没有考研考博的辅导班专门押题猜题辅导的？我觉得我们的教育有问题，考试是检验知识掌握水平，靠押题猜题考试通过检验，这有什么意义？ 虽然他没参与出题，但是可能有人告诉他题目，然后他泄露题目，这是说得通的吧[狗] 有病吧 特么这是早泄啊 如果不是命题老师，押题押对了是他的本事 如果李林没有参与命题，没有通过非法手段窃取机密试题，参与社会考研辅导班无可厚非，押题命中是本事，不违规违法。如果是非法手段窃取命题并泄题，那就是违法犯罪。目前信息不全面，不做判断。 哪有那么神，肯定是通关某种渠道获得了考题。。。。要是这样，就是泄露国家机密罪，是要判刑的。 友人出的复习题中含百分之三十的考试题算不算违规？ 牛逼 貌似真的是本事。否则就不是辞退这么简单了 悄悄告诉你，每年都这样，我是09年的考研论坛宝馨，有人知道我的传说吗 傻逼，考特殊数据，80%一样，[喷水] 这广告打得不错 三楼说的没错呀，怎么就脑残了？ 压题这事挺邪乎 自己没命题，买别人的泄密的试题泄密就不算泄密，网友好理论。 也就是只有他合格？ 竟然有3888个智障顶2楼。。。命题的人往往不会泄题。 将要毁灭一个国家和民族的10种事：1、没人性的政治。2、没思想的崇拜。3、没人文的科学。4、没道德的商业。5、没良知的知识。6、没真实的历史。7、没独立的精神。8、没自由的幸福。9、没劳动的富裕。10、没制约的权力。 理性，不错 好的，那让中国99.99%的教授专家下课，让那些他认为合格的人上去，利国利民，皆大欢喜 这个国家有病 这个人是个大才，应该考虑怎么用他，鼠肚鸡肠的就想着严肃处理 卧槽，真服你，你告诉没参与出题怎么泄密？如果是他泄的密那也是出题者中有人泄密给他了，不还是间接有参与出题的人泄密嘛。 就知道穷逼买不起视频！没看视频在这bb！他压对数据的只有一道题，其他都是类似题！ 不是啊，虽然不是他出题，但是他有渠道获得别人泄的题目，他当然也可能泄题咯。 看通报就知道有问题了，没问题不会通报。顺便借排名中国第一经济学家邹恒甫的话说一句：中国99.99%的教授专家不合格 赞同[微笑] 说啥你都信，还要脑子干啥？ 沙比。没看懂老子是回答这个问题的一个应用？弱智东西。 口令“鸡肋”。 看最后结局 友人出的复习题中含百分之三十的考试题算不算违规？ 排队报名的学生环绕地球一圈 3楼比喻没问题啊，难道只有出题人才能泄题？3楼后面怎么那么多傻子啊 数学那一类型题不是考特殊数据？难道随便给你个数据让你满草稿纸去算？这么多年学上狗身上去了！ 乌烟瘴气 出完卷子又要经历那些环节谁知道。15年英语确实不是出题人泄的，但最后还是泄了。 他不命题，何来泄题?直接辞职，赚钱比这多多了 教育部贼喊抓贼有可能吗？一条船上的，谁敢说自己没问题 直接辞职，明年开辅导班。 按照三楼这种自鸣得意的脑残说法：没参与过做饭，就不能吃饭了？ 你拿出证据好吗？这么大的事教育部自己泄题。你当玩呢？不要主观臆断了。在编的老师基本都不可能泄题。这是砸饭碗毁名声的事。我倒是觉得这个老师的押题出题思路可以调查。思维是不可能抄袭出来的。 友人出的复习题中含百分之三十的考试题算不算违规？ 搞笑不是他出题他就不会泄题吗？什么逻辑难道出题老师是唯一知道题目的人吗？ 其实题库就那么多，基本原理都差不多，压中也很正常。 教育部明确说明没有泄题。 人家都没参与出题何来的泄题？ 命题人泄露，印刷厂泄露，都有可能，去年不就是监狱里的印刷厂泄露的嘛 怎么可能不是泄题，像数学这种连数据什么都压对了，你说不是泄题，谁信 经济学家不合格率100% 问题的关键在于，他到底是否泄题 直接辞职，明年开辅导班。 有几个有本事的人是靠工资活的。挣工资的，都是没出息的。 3楼这种人就特么喜欢乱比喻，都特妈的不是一回事，还自以为口才好。就是傻逼 不作评论，容易反转的！ 你以为他真会押题？泄题挣钱而已。哥在10年前就见过一段路。出题组的办辅导班。 三楼的脑残世界你永远不懂 人怕出名，猪恨你 三楼好形象，只是其中的一环 这广告打得不错 有水平就不一样 此处不留爷 恐怕是要蹲几年了 如果李林没有参与命题，没有通过非法手段窃取机密试题，参与社会考研辅导班无可厚非，押题命中是本事，不违规违法。如果是非法手段窃取命题并泄题，那就是违法犯罪。目前信息不全面，不做判断。 我工从来不轻易上新闻，哎... 完全不是一回事。买彩票的人数以千万，涵盖了所有号码的可能性。培训老师才多少个啊？ 那买彩票中了，是不是得枪毙了 也不知谁脑残？这个押题是押大小啊，还百分之80%的胜率，没有内幕交易谁信，他顶多只能算个小喽喽，而且9到23楼到哪去了 中几亿彩票的是不是都该枪毙？因为他也押中了，还投注那么多 名师确实不一般 没有法制。他犯法就依法处理，没犯法，就没理由处理。学校为什么要严肃处理？ 就特么服你 考试泄题，就不是通报了，应该判刑的，这说明人家是靠本事押题命中了，这下有名了，还上什么班，直接辞职专门干辅导班 恶心人的。 辅导出两个世界第一的科学家藐视他们 押题这么牛逼还在乎你那点破工资傻逼学校有这么牛逼的老师还严肃处理应该好好烧香供起来或者直接给个副校长干 新闻都不看YY什么，学校规定，按校规严肃处理。 不是你理解的这样。<br>教师押题，破坏了考试的规则。学生本应全面的学习变成了考试赌博，背离了考试的初衷，教育部门一直以来都是不允许的。我当年上学时，学校就一直强调考试不允许教师押题。<br>他违不违法不知道，违规是肯定的！ 看通报就知道有问题了，没问题不会通报。顺便借排名中国第一经济学家邹恒甫的话说一句：中国99.99%的教授专家不合格 现在就不知道高考漏题不 我觉得是真高手，不如直接开班，肯定火爆 处理吧 这是不是就叫文人相轻？ 有的老师确实会压题 擦，一战成名，还在乎这点工资。 风光66 超纲的题都押准了数学题目简直一摸一样没鬼是要笑掉大牙么 凭本事押中的题，只能说是出题人的蠢！但人家偏又不肯承认自己愚蠢！ 这羊宰的利索 3楼163洗地狗 难说，唯一因三鹿被判死刑的是一养猪农妇！你不信，上网查 当年考研上的电子科大曾哥班，当年曾哥也压对了三道压对的可能性的确有。 普通讲师，然后他能接得起这么大的锅呀？ 既然否认泄题，那他压中就是本事，为什么要处理?如果承认泄题，那该处理的就不是一两个了 有人背锅就可以了 韩红 是不是该判刑？就严肃处理？ 二楼就算嫌疑很大也要有证据支持谁都明白他有嫌疑但能不能排除他就是运气好押中了的嫌疑不能排除就要找证据这是法律思维依法治国的基础不能单纯依结果定罪医生把病人治死了你不能百分百确定一定是医生的责任一定要有证据一楼只是说信息不全不能定论话没毛病证据证明他犯罪了再收拾也没毛病 这些年出现泄题的基本不是出题环节 擦，一战成名，还在乎这点工资。 按照三楼这种自鸣得意的脑残说法：没参与过做饭，就不能吃饭了？ 记得以前上学考试的时候老师都会说我把重点画一下，都是往年的必考题，老师是不是要完蛋了？ 人家都没参与出题何来的泄题？ 80%命中你知道是啥意思不？考研受时间所限，进入试题的知识点1%都不到。这种不可思议的几率只有一个可能：有人泄题。至于说他没有参加命题，他就不能是同伙吗？ 问题的关键在于，他到底是否泄题 他泄题会有什么好处？至少现在没看出来！反而承担了巨大的风险！所以他有可能泄题么？我觉得不可能！ 像一楼这样明显就是吃瓜群众的保守观点，虽然没错，但是真正亲历者就知道肯定是泄题 请问他押题犯了什么法？为什么要严肃处理，那我买彩票中了是不是也犯罪了 万一人家出题的呢 没错什么都要有证据要有调查机构的确定在没定罪的情况下就划清关系对学校声誉也不好虽说有校方规定但也有是否符合法律精神的疑问当然如果是参与泄题那没说的该怎么处理就怎么处理否则凭自己手艺挣点钱没对学校和社会有不良影响凭什么处理警方只是启动调查涉嫌犯罪你严肃处理啥你比法院还厉害？就是什么引导先定罪再找证据？这学校没有法学院吗？一切处理必须要有定论以后校方可以表态积极配合调查但不能处理 如果李林没有参与命题，没有通过非法手段窃取机密试题，参与社会考研辅导班无可厚非，押题命中是本事，不违规违法。如果是非法手段窃取命题并泄题，那就是违法犯罪。目前信息不全面，不做判断。 二楼明显刚出社会，比如出题的是自己人呢 放屁，饭桌上不能泄题? 然后变成第二个新东方？ 他的导师是命题组成员 理智 呵呵 他讲的题和真题都有对比，这特么还不是故意泄题？ 意思就是承认泄题了 直接辞职，明年开辅导班。 你今年考了吗？考了几年了？就你这脑子我觉得还是算了吧别挣扎了 还是补习班赚钱 擦，考过的人都能一眼看出这就是原题，略微改了一点而已！ 有神仙存在的意思吗？ 人家押题是本事，大不了辞职了明年再压准一次 算了我不笑了， 照这样说，高中老师也是泄题了 卧槽，那啥被驴踢了才会让普通讲师去命题？你让教授专家情何以堪！[狗] 人家押题准何错之有？ 不参与出题，押题没错误。说明对专业熟悉…… 脑子是好东西 嘿嘿超纲的题都押的准题目简直一模一样说没鬼简直是笑掉打牙 你认为这个世上有神仙？ 擦，一战成名，还在乎这点工资。 二楼明显刚出社会，比如出题的是自己人呢 明天联合国判令：太阳不合规。禁示升起 压着了处份，没压着的怎么办 大爷！名师就是名师！就是割下名师的头也是名师的头！事实证明李林老师不普通！事实证明李林老师是名师！希望事实证明李林老师抄了大连理工 本科时候还上过他的课，大工的数学本来就不错 出题都是70岁以上的老头，他还不够格 韩红 李林，直接辞职单干！ 是校友的给点个赞 1楼学过概率论吗 貌似考研泄密每年都有吧 80%命中你知道是啥意思不？考研受时间所限，进入试题的知识点1%都不到。这种不可思议的几率只有一个可能：有人泄题。至于说他没有参加命题，他就不能是同伙吗？ 直接辞职，明年开辅导班。 本来也不错 这里评论的人没有几个知道事情真想的，竟然还口气很大，带节奏，喷人。他们为什么要这样？ 有道理，普通讲师还没有资格去参与命题工作，命题至少是副教授级别吧 没有中间商赚差价！ 这个学校要火 人家都没参与出题何来的泄题？ 木秀于林，风必催之。 是押中的还是偷中的，这很关键。 问题的关键在于，他到底是否泄题 言我所想言，完全赞同！ 按照三楼逻辑，没艹过三楼妈，就不能是他爸了？ 没事干了， 如果真凭本事押题命中，很棒啊 教育部否认泄题。<br>大连理工大学：将严肃处理押题名师李林<br>[喷水][喷水][喷水][喷水] 你没参与出题吧，你给我泄一个看看。 傻逼 带上眼睛看文章 我来给楼上们捋一捋，3楼的意思是可能是出题的人或者内部的人泄露给李林的，ok？懂了吗？借李林之口泄题，出事找李林小喽啰背锅或者以此逃避责任？清楚了吗？喷子们？ 如果李林没有参与命题，没有通过非法手段窃取机密试题，参与社会考研辅导班无可厚非，押题命中是本事，不违规违法。如果是非法手段窃取命题并泄题，那就是违法犯罪。目前信息不全面，不做判断。 你真他们傻逼 大连理工，呵呵，我河北工程大学，16土木保送研究生过去的，好几个要么关系户，要么平时考试总是作弊的 可能真是瞎猫碰上死耗子 只服你 没联手打造 all哦 能涉及命题的就不会说开就开了 狗屁，以后被学校处理了，接触不到题库了，哪个考研机构还稀罕他？ 在校老师本来就明文规定不允许私办课堂 他没参与出题，但是不见得他就没其他途径知道题目啊。<br>谁还没个朋友圈子啊。 教育部都说没有泄题了，这傻逼学校还严肃处理，不就间接承认泄题了吗？真是傻逼！ 别人押得准是好事，为什么要处理呢 里外勾结，太正常了， 年年都有押中高考题的，只是已知条件不同而已.... 有人眼红了 微博官方澄清了没有泄题，为什么又要开除 那叫做本事，这样处理不公正 恐怕没那么简单 也不会是百分八十了，而且是好多人出了再抽了，有几题押中了就了不起了 搞笑，没参与制毒就不能参与贩毒了？ 带着眼睛把文章看完 你制过毒运过毒是吧？内行人？ 实话！👍👍👍 呵呵，他也不用接触到题库啊，他只要买通知道题库的也一样啊 带着眼睛看文章 擦，一战成名，还在乎这点工资。 呵呵 也可以认识出题的人 你们这群傻逼好好看看他押中的都是什么题，再来说事情 人家都没参与出题何来的泄题？ 都是同行的衬托 那社会辅导班不是教师？ 这话说的没毛病，不能妄下定论 普通讲师，然后他能接得起这么大的锅呀？ 教育部否认泄题，那就是没押中！没违法违规啊！那就是学校处理的违法违规了吧！有毛病么？ 你好像和三楼一个逻辑吧 按你的意思那老师完了虽然没制毒但了解制毒过程啊。 还是五楼厉害。应该是:只有操过他妈的才能当他爸！ 带上眼睛看文章 命题老师，十年内没有从事学校教师行列里面，所以他应该不是 李林这名字霸气看过eva的都懂 教师就不应该参与社会辅导班，人人都开公司搞副业，谁还安心教学搞科研？想挣钱就辞职，别打着学校名师的名义去开公司挣钱 凡事认为必须参与出题才能泄题的，我只能说你们的智商还是别考研了，会拉低我国整体智力标准 只能说这个老师太牛了 流星月亮地球太阳系有发动机么？没有!他们却高速在宇宙中运行!为什么？因为他们的运行轨道本身就是太空高速时空隧道!他们的运行路线一半为去路一半为来路，周而复始地运行着!地球自转公转着，本就没有东西南北上下左右等方位!谁定的？我们的天父啊!目的只有一个，告诉人类我们天父的星座方位!所以九曲桥的方向始终对着东北方!在宇宙一切物质中，永远是子体围绕母体运动，这是恒定的!所以地球自转并围绕太阳公转!因地球是自转公转的，所以根据地球的东西南北是找不到星外文明的星座方位的!只有找到太阳的上下前后东西南北才能准确地给天父星座方位定位!我们天父星座方位在太阳系东北上方第九颗恒星那里!那里以双伴恒星为中心带动周围108颗恒星运动着! 捉人 是吗，今年考研政治的5道主观大题，老肖压中了4道。 也可能他只是个泄题的终端 问题的关键在于，他到底是否泄题 你参与出题，告诉我，我泄题，我就是神？ 我觉得吧，和彩票原理一样的，考研辅导那么多，总有概率都押对吧… 如果李林没有参与命题，没有通过非法手段窃取机密试题，参与社会考研辅导班无可厚非，押题命中是本事，不违规违法。如果是非法手段窃取命题并泄题，那就是违法犯罪。目前信息不全面，不做判断。 不是同一个概念，制毒的可以贩毒，贩毒的也可以制毒，严格说只有命题人才有资格泄题！非命题人就是想泄题也没有这个本事！ 现在高三的老师都在押高考题，押上了算是本事，是否也要给处分啊 一个大连理工大学的普通讲师，想必他也没机会接触全国性研究生考试命题。既如此，能大面积压中考题绝对是人才。有什么理由处理别人？ 制度和贩毒没有先考题那样绝对的一对一的关系。我没看题不好发表太多的看法，不过看网上说10题里有8题大致相同，这个概率确实挺高的。不过现在考研的命题组里的每个人都能看到最终试卷的全部试题吗？而不是分成几个小组，每个小组各命几题，然后再拼在一起的？如果这次真的是泄题的话，估计和高层会有干系吧。另外，如果那个老师真的知道这会是真题，为何不提前放风多招人赚一票啊，感觉也有蹊跷。 儿子学校的老师！ 那我们现在还是张宇，李永乐，汤家凤比较推崇 处分他的理由是“教师不得以任何形势参与考研辅导活动” 人啊！太高调了不行！ 抢了人家的风头肯定办他啊 辅导班比上课挣钱，卖教辅比出题挣钱……是不是说漏了 本人当年考研的时候，学长第一推荐的就是李林高数，考过研的童鞋们怕是没人不知道，他压中题目也奇怪 狗屁，以后被学校处理了，接触不到题库了，哪个考研机构还稀罕他？ 出题人真的想卖题也不会傻到卖这么真实吧？ 厉害了 三楼话糙理不糙啊，没参与出题，就不能伙同内部人员泄题了？ 不然怎么赚大钱？ 只有同行才是学海深仇，郭德纲说的 说的 假设~假设<br>都是他押对了，那么这种人不简单呀，按理该诏安，毕竟我们可以预测其他国家最近准备干嘛，另外不知道他预计股票、足彩、六合彩怎么样。 他的哥们参与命题的话，就两说了。 一个讲师基本上没有资格泄密…… 实事求是才是真 找个刚好撞枪口的把锅背走，不然猿心惶惶的 没错！ 看通报就知道有问题了，没问题不会通报。顺便借排名中国第一经济学家邹恒甫的话说一句：中国99.99%的教授专家不合格 无语了 刚才了解一下他的学生，人家没参与出题，就是押题押的准，何罪之有？！！ 跟贴被火星网友带走啦~ 我就是剩下的那0.01%。 擦，一战成名，还在乎这点工资。 凭真本事的人情何以堪 那如果是出題人中有熟人，給他泄題呢 押题是猜对了 学霸及人物，迟早会发光的！自己另起炉灶，收入可观、 分工不同。 卧槽老兄你这个牛逼了 呵呵哒，你爱怎么想就怎么想，还正面回答，你给自己加戏关我屁事，还正面回答 你看看他都押了什么？你没有经历过考研就不要下结论 为什么我觉得大连理工大学的老师更有前途，是我眼界太窄了吗[骷髅][骷髅] 直接辞职，明年开辅导班。 怎么严肃处理？灌半斤白酒？ 你只值2分 调查一下参与出题的有没有跟李林接触联系过不就知道了。 一战成名 我去，兄弟你也太幼稚了吧，还没步入社会？？？？？ 人家都没参与出题何来的泄题？ 这本身就是违法！ 神奇的土地 现在的人咋了，小时候向老师打小报告，长大了还不分青红皂白打报告。教育悲哀！ 人怕出名猪怕壮，在中过就是这样子。 ",
        "Reply": 1147
    },
    "Article": "（原标题：“数学名师”押中80%考研真题？大连理工：将严肃处理涉事教师）12月25日，2018年全国硕士研究生招生考试结束后，有多名网友举报称，考研数学疑似泄题。举报内容均指向南京中试考研“命题专家”李林。红星新闻证实，李林系大连理工大学数学科学学院教师。26日下午16：52，@大连理工大学官方微博发布情况通报称，该校已在《关于严禁举办考研辅导班的通知》中明确，教师不得以任何形式参与考研辅导活动，包括社会上的考研辅导活动。“对教师李林参与社会考研辅导活动的行为，学校将作出严肃处理。”红星新闻注意到，李林系大连理工大学数学科学学院普通讲师，但近年曾在多个考研辅导机构中以“数学名师”的身份出现。本文来源：红星新闻责任编辑：李杭_BJS4645",
    "URL": "http://news.163.com/17/1226/17/D6JMN37L0001899N.html"
}