{
    "URL": "http://war.163.com/photoview/4T8E0001/2287246.html#p=D6T9QALO4T8E0001NOS",
    "Article": "盘点2017中国十大航天新闻",
    "KeyWords": "中国,航天,新闻,",
    "Source": "Netease",
    "Comment": {
        "Reply": 56,
        "Content": "5个航天鸟人 嗯，有道理，那长五应该算大新闻。 无知当有趣，长5的失败绝对是重大事件，而且在很长期之内的影响都很深远，原因至今未明，影响了中国在太空站，登月，探火星等太空活动，而这周期对中国2，3十年之内的计划都是有影响的。从环保燃料和推重比方面来说，长5的失败，让我们仍然远远落后于美国，俄罗斯，乌克兰，欧洲，日本，甚至印度。这么说吧，长5的目标就是为了解决我们在大推力清洁便宜火箭上的劣势而立项的，长5的失败，证明我们既要更加的努力，中国火箭补课还需要很多。 无知当有趣，长5的失败绝对是重大事件，而且在很长期之内的影响都很深远，原因至今未明，影响了中国在太空站，登月，探火星等太空活动，而这周期对中国2，3十年之内的计划都是有影响的。从环保燃料和推重比方面来说，长5的失败，让我们仍然远远落后于美国，俄罗斯，乌克兰，欧洲，日本，甚至印度。这么说吧，长5的目标就是为了解决我们在大推力清洁便宜火箭上的劣势而立项的，长5的失败，证明我们既要更加的努力，中国火箭补课还需要很多。 2次火箭发射失败不算？ 长5应该算上重大事件了，是影响中国航天的大事件，<br><br>但是吧，十几次发射成功不算大事件，一次失败算大事件，这个也确实是不公平。<br><br>至于怎么看，各位见仁见智吧， 2楼满嘴嘴喷粪，自。。 骂畜生不是骂人，你是美国的狗不是人，怎么就成骂人的呢 你跟我说说看有哪个国家的航天发射是百分百成功？航天飞机都摔了两架呢！ 关键人家正视了失败，而不是遮遮掩掩。 好好说话行不？怎么上来就骂人嗫？------我这上面帖子有骂你的意思吗？有话说话，你吃屎了吗？！ 落后于美国，俄罗斯，乌克兰，欧洲，日本。我都还相信，因为这几个国家都有比中国强的地方。但是你要是说落后于三个，我真不信了，落后于他们往太空撒了一把垃圾？还是落后于他们的神乎其技？听过哈美的哈日的，哈欧的，第一次看到信三哥的，哥们你最牛！！！ 明年更好 你总挠人家痒痒肉 美帝航天飞机都有过大事故，长5拿出来说也无所谓了，本身航天科技就不能说次次都可以成功。 你也就是一个喷子，我已经回应你太多字了。 说好年底公布长征5故障原因，还有最后一天。 马航失事两架飞机就是轰动世界的大新闻，哪怕他安全运营了几十年 长征五号呢？ 你爸当初射入你妈就是失败 呵呵～啥叫“精工”？跟战机组装、维护、保养是一个道理：一颗螺钉、一根管线、一条焊缝、一个开关、一处接点、一块积碳就让你坠机。 再接再厉 事故不算大事件？ 邯郸学步 加油中华 5个航天鸟人 很牛逼的团队 无知当有趣，长5的失败绝对是重大事件，而且在很长期之内的影响都很深远，原因至今未明，影响了中国在太空站，登月，探火星等太空活动，而这周期对中国2，3十年之内的计划都是有影响的。从环保燃料和推重比方面来说，长5的失败，让我们仍然远远落后于美国，俄罗斯，乌克兰，欧洲，日本，甚至印度。这么说吧，长5的目标就是为了解决我们在大推力清洁便宜火箭上的劣势而立项的，长5的失败，证明我们既要更加的努力，中国火箭补课还需要很多。 2次火箭发射失败不算？ 长5应该算上重大事件了，是影响中国航天的大事件，<br><br>但是吧，十几次发射成功不算大事件，一次失败算大事件，这个也确实是不公平。<br><br>至于怎么看，各位见仁见智吧， 自行马斯克的公司横空出世后，天朝的航天低调了[窃笑] 2楼满嘴嘴喷粪，自。。 成功和失败是看比例。 你总挠人家痒痒肉 嗯，有道理，那长五应该算大新闻。 落后于美国，俄罗斯，乌克兰，欧洲，日本。我都还相信，因为这几个国家都有比中国强的地方。但是你要是说落后于三个，我真不信了，落后于他们往太空撒了一把垃圾？还是落后于他们的神乎其技？听过哈美的哈日的，哈欧的，第一次看到信三哥的，哥们你最牛！！！ 马航失事两架飞机就是轰动世界的大新闻，哪怕他安全运营了几十年 人强，国强 长征五号呢？ 呵呵～啥叫“精工”？跟战机组装、维护、保养是一个道理：一颗螺钉、一根管线、一条焊缝、一个开关、一处接点、一块积碳就让你坠机。 再接再厉 厉害了，我的祖国。 支持巴基斯坦的航天员成为中国航空空间站第一位外籍航天员！中巴友谊万岁！但是2020年会不会太久了？能不能加快进度？还有注意专业和安全！ 复兴中华 早点上月球 骄傲 阿三一箭多星技术的确超过🐔国 你这脑残，办理社会救济了吗？------嫌弃救济少，也不能自己拉屎自己吃啊。真可怜～ 帅！ 支持巴铁发展航天技术巴铁航天员登上中国空间站再正常不过了。 要是印度的<br>就是全球第一大新闻<br>自欺欺人 骂畜生不是骂人，你是美国的狗不是人，怎么就成骂人的呢 发展得不错 事故不算大事件？ 朋友中国航天运载能力世界强国同时发射100多颗卫星 二楼，你的无知显得你是多么的可笑，你自己可以查查有关资料，总体领先不等于全面领先。就比如，总体领先的美国，在液体火箭上的第一级还得向俄罗斯购买，你要么去补补知识，要么去补补脑，再不补，你就是废人一个了。你就查，主要型号的液体发动机中，中国长5的冲压比排第几？ 说好年底公布长征5故障原因，还有最后一天。 争取登月 你也一样会吃屎啊？！ 美帝航天飞机都有过大事故，长5拿出来说也无所谓了，本身航天科技就不能说次次都可以成功。 加油中华 没办法太优秀了，盯着的人忒多😄 光荣 好吧我觉得确实是个大事，<br>尽管2017很亮眼还是出了事情，<br>唯有砥砺前行，方能对得起曾经的苦难 明年再接再厉 你爸当初射入你妈就是失败 小鹰号一弹六星，第一节还能回收多次利用，引擎推重比是长征的两倍。 也不能哪壶不开提那。 报道一下 说到你这只美国狗的痛处了吧，谁叫你有人不做专做畜生呢 明年更好 邯郸学步 ",
        "Total": 304,
        "Link": "http://comment.news.163.com/photoview_bbs/PHOT25PKE00014T8.html"
    },
    "PublishTime": "12/30/201710:53:33",
    "Title": "盘点2017中国十大航天新闻_网易军事"
}