{
    "URL": "http://ent.163.com/17/1227/09/D6LEAGF300038FO9.html",
    "Comment": {
        "Total": 409,
        "Reply": 26,
        "Link": "http://comment.ent.163.com/ent2_bbs/D6LEAGF300038FO9.html",
        "Content": "除了秀智，其他都是炮灰了 第二个人大肚子是什么鬼 秀智和她的伴舞们 可惜了王菲菲也是不温不火的 解散一年多了还在说 韩国女团告诉我还剩下谁？ 本来秀智也一直在单独发展，解约是早就知道的事了 她们的那首Hush，还是可以的 就只有秀智了吧 那是衣服……… 想打中国市场的，一纸限韩令，一次萨德，只能解散了 本来秀智也一直在单独发展，解约是早就知道的事了 fei至少靠做菜出名了~~~~ 秀智和她的伴舞们 哈哈哈 那是衣服……… 除了秀智，其他都是炮灰了 真想干几次韩国女团！ 韩国女团告诉我还剩下谁？ 体重控制不住 想打中国市场的，一纸限韩令，一次萨德，只能解散了 是合约到期-.- 可惜了王菲菲也是不温不火的 这种团体，韩国多得跟米一样吧 第二个人大肚子是什么鬼 两个中国妹子菲和佳回国也发展的不好，没有什么名气 美美美 解散一年多了还在说 有个孕妇 可惜了 是赞他sa 没有、ss501不会解散!我们要相信他们 啧啧啧 兔兔 衣服啊，居然还有这么多人赞你也是服 就只有秀智了吧 她们的那首Hush，还是可以的 "
    },
    "Article": "MissA网易娱乐12月27日报道12月27日，JYP娱乐发布官方立场：MissA合约到期，正式解散。missA组合是韩国JYPEntertainment于2010年推出的女子组合，由两名中国成员孟佳、王霏霏，以及两名韩国成员裴秀智、李玟暎组成。2010年7月1日正式出道，发行首张EP《BadButGood》。2010年9月27发行第二张EP《StepUp》。2011年7月18日发行首张正规专辑《AClass》。2012年2月20日发行第四张EP《Touch》，2012年10月15日推出第五张EP《IndependentWomenpt。Ⅲ》。2013年11月6日发行正规二辑《Hush》。2015年3月30日发行第七张EP《Colors》。2016年5月20日，成员孟佳与JYPEntertainment合约到期，正式离队。2017年11月9日，成员李玟暎与JYPEntertainment合约到期，正式离队。本文来源：网易娱乐责任编辑：李彤_NK4455",
    "KeyWords": "韩国女团,jyp,missa",
    "Source": "Netease",
    "Title": "韩国女团MissA宣布解散 JYP：合约到期_网易娱乐",
    "PublishTime": "12/27/201709:38:37"
}