{
    "Comment": {
        "Content": "比我国大部分地区都高！ 如果不是因为经济不好和汇率低了那么巴西妥妥的比所有中国城市都好，可惜太多黑鬼啦 看来浑水摸鱼还是不如稀饭那一套 台湾刚法定最低基本工资12000新台币，合人民币六千多元。 台湾法定月基本工资是22000新台币，加其它收入，最底月工资合人民币六千元以上。 比我国大部分地区都高！ 如果不是因为经济不好和汇率低了那么巴西妥妥的比所有中国城市都好，可惜太多黑鬼啦 ",
        "Link": "http://comment.news.163.com/news2_bbs/D77IRS7I00018AOQ.html",
        "Reply": 5,
        "Total": 12
    },
    "KeyWords": "巴西,人民币,工资,雷亚尔",
    "PublishTime": "01/03/201810:37:00",
    "Title": "外媒：巴西元旦起正式实行新最低工资标准_网易新闻",
    "Source": "Netease",
    "Article": "（原标题：外媒：巴西元旦起正式实行新最低工资标准）中新网1月3日电南美侨报网1月2日刊文称，巴西财政部部长恩里克·梅雷莱斯(HenriqueMeirelles)指出，从2018年元旦起，巴西已经正式开始实行米歇尔·特梅尔(MichelTemer)总统在2017年12月29日签署的最新的最低工资标准。文章摘编如下：巴西媒体1月1日报道，梅雷莱斯指出，这是近24年以来，巴西政府首次提高国家最低工资标准。本次调薪后，巴西的最低工资标准已经涨到了954雷亚尔(约1904元人民币)，与原来的937雷亚尔相比，上涨了17雷亚尔，但这个数字也低于政府以前提出的965雷亚尔(约1926元人民币)。巴西国家地理研究所指出，本次最低工资的调整，借鉴了2017年的全国消费者物价指数(INPC)的变化，以及2016年的国内生产总值(GDP)增长幅度。“最低工资标准的制定，是依据法律规定计算出来的，但我们面对的问题在于如何准确计算出通货膨胀指数，并将其应用在最低工资标准的增长上。”梅雷莱斯说道。在巴西约有4500万人领取最低工资，其中包括退休人员。法令中还规定，日最低工资为31.8雷亚尔(约63元人民币)，时薪最低为4.34雷亚尔(约9元人民币)。由于本次最低工资调整低于此前的预测，巴西政府预计将节省33亿雷亚尔(约66亿元人民币)的开支。本文来源：中国新闻网责任编辑：苏泓珵_NBJ9980",
    "URL": "http://news.163.com/18/0103/10/D77IRS7I00018AOQ.html"
}