{
    "Comment": {
        "Reply": 11,
        "Link": "http://comment.tech.163.com/tech_bbs/D6KIQNIC00097U86.html",
        "Content": "看笑话啊，还能做什么 严重谴责 派战狼去抓回来！ 本周回国？行吧，本周八回国 贾从融创套现的一百多亿去了哪里？不受监管？ 谴责 贾从融创套现的一百多亿去了哪里？不受监管？ 看笑话啊，还能做什么 当然是原谅它啦 捉回来啊 要他回国不是没有可能，在美国起诉他，公司的股东或他的债主可以到美国起诉他 本周回国？行吧，本周八回国 谴责 严重谴责 假如说他创业成功了，这些会成为谈资假如说他还是失败的话，那这些将会成为他的罪证感觉世界就是这样看结果吧失败和成功，多数人对这两个结果的看法很不相同由此引发的对这个人的看法也不同 我现在做的是营销,但是我会回归到设计上去.如果,不能做设计,我就选择好好生活,去旅行. 派战狼去抓回来！ ",
        "Total": 81
    },
    "KeyWords": "贾跃亭,上市,证监局,乐视",
    "Source": "Netease",
    "Article": "（原标题：如果贾跃亭不回来，我们还能做什么？）公司观察乐视系创始人贾跃亭曾多次表示“下周回国”，现在有监管机构要他本周回国。12月25日北京证监局通告责令乐视网贾跃亭于2017年12月31日（周日）前回国。北京证监局全称中国证监会北京监管局，是证监会的派出机构。其此番出手，是基于属地管辖对住所地在北京的乐视网的治理问题予以监管。作为上市公司，乐视网及相关公司近期深陷债务泥潭，股票长期停牌，几乎成了一个“假的”上市公司。贾跃亭2015年5月曾经承诺将减持所得资金全部借给上市公司作为无息借款，却一直未能兑现。在证券市场中，大股东承诺对公司做什么，也是一种能推动股价上涨的利好消息。当时正值股价震荡前不久，控股股东高位减持时作此承诺，也起到了安定市场、便于脱身的作用。故而乐视网中小股东有权对大股东的言出必诺产生期待，而大股东若全无诚意，则形同虚假陈述。此外，贾跃亭控制的相关公司对上市公司存在巨额欠款，至今尚未归还；“乐视网融资来的几百亿元钱，和贾跃亭高价套现得来的钱去哪了”一直是财经圈的神秘事件之一。所以，乐视网盛衰的见证人，海外归来的贾跃亭不管是带回来真金，还是带回来真相，对乐视网眼下未了局的风险化解都颇有价值。怎奈北京证监局权力有限，即便是中国证监会，也只能对证券市场参与方依法采取监管措施，既不能直接拘传贾跃亭回国，也不能对贾跃亭拒绝回国的行为采取惩罚措施。毕竟承诺不兑现、借款不归还尚非法定的证券违法行为，还不够立案处罚。此前，北京证监局已于9月13日、12月7日向贾跃亭下发了监管关注函，要求他见文后立即回国处置公司的各种风险，此后也通过上市公司多次向贾跃亭传达了回国履责的要求，但至今未见其采取相关行动，估计在一周内忽然幡然悔悟的可能性不大。但北京证监局的这份通告还是值得肯定。这可谓是监管者在权限内积极作为的一项表现，表达了自身对此投资者危机事件的关切，也令公众对乐视的关注再次聚焦。毕竟贾跃亭并非销声匿迹，而是在大洋彼岸活跃汽车圈。中国政府部门对他的问责之声，也能通过财经传媒等渠道传递到美国，对这位“企业家”造成压力。此外，乐视网自4月17日以来已经停牌大半年。理由是一直在重组。25日乐视网公告称融创系公司拟取代乐视控制成为乐视影业第一大股东。希望这是重组提速和落实的重要契机。证监机构的一项重要本职工作就是监督上市公司重组的进展，特别是在停牌重组已经严重损害股东的流动性权利时，北京证监局也不妨和乐视网、深圳证券交易所就复牌的可能性保持阶段性沟通。乐视网价值的实体贬损已成大概率事件，股东买卖的程序性权利不能再被“套牢”。除了证监系统外，法院对贾跃亭的法律问责也在继续。北京第三中级法院就已经不止一次把贾跃亭两次列为“失信被执行人”，即俗称的“老赖”，并已经开始在一些案件判决的执行中扣划贾跃亭的银行存款、查封贾跃亭持有的股份和房产。而上市公司能否谋求在美国起诉在彼处有房产、工作等真实联结点的贾跃亭，也可以考虑。缪因知（中央财经大学法学院副教授）本文来源：新京报责任编辑：白鑫_NT4464",
    "Title": "如果贾跃亭留在美国不回来了，我们还能做什么？_网易科技",
    "URL": "http://tech.163.com/17/1227/01/D6KIQNIC00097U86.html",
    "PublishTime": "12/27/201701:37:58"
}