{
    "PublishTime": "12/27/201702:13:38",
    "Source": "Netease",
    "Comment": {
        "Link": "http://comment.sports.163.com/sports2_bbs/D6KKRNGV00058781.html",
        "Total": 1332,
        "Reply": 93,
        "Content": "莫耶斯饭桶时代是教练太傻逼，臭嘴鸟时代是球员傻逼。鸟粪还把臭嘴鸟的抱怨美其名曰：心理战。 赞一个[不屑] 在瓜狗眼中，范加尔，莫耶斯才曼联的真命天子！以前这些瓜狗不来曼联版块，现在天天在曼联版块喊穆里尼奥下课！！ 德赫亚瑟瑟发抖 说明天赋不高也能当大腿，该学的是鸟和鸟粪，别整天这个球员不行，那个球员不行的。 弃用伊布扶正林加德是战术倒退。伊布需要队友围绕他跑位，他负责回撤分球。上林加德显然是放弃组织，大家都一股脑吓跑，能懵进一个是一个。进攻完全没有章法，也很不稳定。 然而还是被某群体喷出翔，说是配不上曼联。[鄙视] 佩德罗的跑位不差，但他的比赛态度比跑位更突出 卢卡库对狐狸城的比赛，分球做得很好。 曼联能打出地面配合的只有姆希塔良，博格巴两人，马蒂奇拿球也可以，这个b拉什福德，太他妈独了，倒不如给马夏尔机会，马夏尔拿球能力一流，要是能无球多跑动就好了 卢卡库、马蒂奇就特么没轮换过。开局状态那么好，又不是找不到人轮换，是头牛这么用也会疲！ 鲁尼哪里是卖的，明明就是买卢卡库送的。 用伊布有章法？狗屁章法 仔细想想曼联这帮球员：林加德、博格巴、姆希塔良、马塔、卢卡库、马夏尔、拉斯福德、埃雷拉、卢克肖、伊布、罗霍。。。这些人谁没被鸟粪喷过 大巴鸟：我不想赢的比赛绝对输不了<br>林加德：懂了。。。。。。 点赞。还记得很多人那时候的冷嘲热讽。生姜头应该考虑执教。 这么牛逼，说的佩德罗不会跑位一样，佩德罗的跑位是顶级的好吧。 最起码他努力了！不像卢大爷等着吃饼 这种球员比那些有天赋不努力的强多了 一个搅和性球员的运气还真好，不过说起来林加德的射门方式真不像马夏尔那么死板，带球能力差也不会像拉师傅的那么毒，感觉他有点像佩德罗和小豌豆的结合，踢球拼命，还会跑位 关键是听话，教练让咋踢就咋踢。 伊布真不能用了，马蒂奇真心没觉得有多好！ 马夏尔伤停，姆希塔良状态不佳，林加德目前的定位是前腰，马塔叔叔占据一个边锋位，另一个边锋位只剩下拉师傅一个选择了。不过有一说一，本场状态最差的是伊布，其次是卢卡库，然后才是拉师傅。 小胖在大巴队还是被用得一无是处，现在得到久违的前锋感觉爽歪歪 没有德赫亚，就这支曼联只有跟破厂争4！ 勤奋的林加德终于得到回报了 有点感觉后湖卖鲁尼了！！！！ 以后曼联球员评价只看斯科尔斯的，其他内维尔坎通纳什么的就当小道消息看看就好，生姜头看人真的奇准无比：在林加德低潮期时说中了林加德只要找准定位不输姆希塔良，在赛季初大胜阶段说中了卢卡库还是有问题不够成熟的，博格巴、马蒂奇、埃雷拉、费莱尼的后腰位置分配问题全中，也委婉的告诫过马夏尔和拉师傅需要继续提高自己，还在别人说林德漏夫的时候表示肯给时间他还是个非常好的出球型中卫。所以，生姜头觉得补强要购入边锋和左边卫，这个冬窗期三德子要加油了。PS：多一句嘴，斯科尔斯认为姆希塔良还有希望....... 林加德这场比赛就很完美的诠释了他为什么能拿10万英镑的周薪，虽然天赋和技术没有马夏尔、拉师傅他们高，可是勤奋，并且努力。古人云，勤能补拙，林加德就是依靠他不停的奔跑来为队友拉扯空档，来串联中前场。<br>拉师傅和马夏尔真该好好学学林加德的态度了 当初一直觉得林加德能力不行，不过最近这家伙状态和运气好的出奇。感觉曼联还是确实萨拉赫，马内，阿扎尔，斯特林等这样的右路突破手，比赛左边全靠拉师傅，右边没人只好用杨教授，马塔打右前卫但是特别喜欢在中路。所以买个右前卫突破下底或者内切，拉开对面防守，会多很多空挡，包括反击时 还有之前对阵莱斯特城的比赛，球场上理应拿下两场比赛的球队都是我们……大湿你要这么说，教授表示有话要讲😂 卢卡库老给我一种感觉，孤立无援，跑位很是问题，一个目标中锋不能很好的跟中场边路衔接起来，那就只有吸引防守这一种作用！ 配不上只因为曼联的高贵历史！林加德天赋有限，努力感人！目前这支曼联还是可以的，若放在92时代，你觉得他有资格成为吉格斯替补么！希望小伙子能像C罗一样，用努力获得成就，当然，如果天赋能跟欧文一样就完美了，可以穿7号了，可惜了！ 马夏尔没毛病，应该让马夏尔踢10号位，论渗透，突破整个曼联谁能有马夏尔强！？ 穆帅我没你电话，听听我的建议。1卢卡库不能在禁区内防守，头球是他的弱点，在禁区外可以打反击。2少打下底传中，不要迷信长得高就狂轰乱炸，要多打地面直塞，曼城和利记的中前场无球跑动就很出色。3冬窗再买个中场和前锋，辅助博格吧，现有前锋还是嫩了点，球商不太高，少卖黑人，多买白人。总之，每次落后才想起进攻，但是缺乏配合自信再加上不给点球时间越来越少等，心态就出了问题。总之，穆帅再不求变就真的只能来中超了。我是在救你！ 现在知道为什么俱乐部和国家队都总要带上林加德了吧？ 这家伙不是被穆犬养喷得一无是处吗？ 穆里尼奥也很固执，英联杯伊布上场已经明显力不从心，步履沉重，虽说伤愈很快，但能达到比赛水准是两个概念。<br>还有博格巴，位置经常比马蒂奇还靠后，也不上抢也不跑位，比比隔壁丁丁不知疲倦的奔跑，差的不是一点。<br>卢卡库技术意识不错，身体强壮但有些笨重，动作的敏捷协调，差了很多，在禁区协防就真有风险，德比战一脚半转身凌空解围，打到队友身上造成失球，很说明问题。 拉师傅德上场表现那么差为什么还能首发 傻不傻，你试试没有马蒂奇看 且不讨论林加德技术，起码他在场或者上场时我才觉得这个队伍像曼联，这家伙是真的继承了最纯正的红魔精神。要是天赋能再高一点必然是下一个7号，可惜。 记得有句话大概意思是：只要够勤奋，不能成为齐达内，也可以成为内德维德。 卢卡库对狐狸城的比赛，分球做得很好。 在瓜狗眼中，范加尔，莫耶斯才曼联的真命天子！以前这些瓜狗不来曼联版块，现在天天在曼联版块喊穆里尼奥下课！！ 马夏尔伤停，姆希塔良状态不佳，林加德目前的定位是前腰，马塔叔叔占据一个边锋位，另一个边锋位只剩下拉师傅一个选择了。不过有一说一，本场状态最差的是伊布，其次是卢卡库，然后才是拉师傅。 点赞。还记得很多人那时候的冷嘲热讽。生姜头应该考虑执教。 三楼评价精准。 然而还是被某群体喷出翔，说是配不上曼联。[鄙视] 最起码他努力了！不像卢大爷等着吃饼 这种球员比那些有天赋不努力的强多了 垃圾废物曼联穆鸟🐦🐦🐦曼狗🐶都是垃圾废物曼联穆 一个搅和性球员的运气还真好，不过说起来林加德的射门方式真不像马夏尔那么死板，带球能力差也不会像拉师傅的那么毒，感觉他有点像佩德罗和小豌豆的结合，踢球拼命，还会跑位 小林子预备队就是打十号位，什么范加尔调教？ 现在知道为什么俱乐部和国家队都总要带上林加德了吧？ 伊布真不能用了，马蒂奇真心没觉得有多好！ 小胖在大巴队还是被用得一无是处，现在得到久违的前锋感觉爽歪歪 没有德赫亚，就这支曼联只有跟破厂争4！ 又可以吹神换人 马夏尔是一直久瞎j8带，而拉师傅是膨胀了，所以更多时候更想自己呆，自己射门，而非以前更多的想着是配合和传球 穆帅，你少说点与比赛无关的话行吗？前几轮还说追赶曼城的只有曼联，这下抱应了吧？ 以后曼联球员评价只看斯科尔斯的，其他内维尔坎通纳什么的就当小道消息看看就好，生姜头看人真的奇准无比：在林加德低潮期时说中了林加德只要找准定位不输姆希塔良，在赛季初大胜阶段说中了卢卡库还是有问题不够成熟的，博格巴、马蒂奇、埃雷拉、费莱尼的后腰位置分配问题全中，也委婉的告诫过马夏尔和拉师傅需要继续提高自己，还在别人说林德漏夫的时候表示肯给时间他还是个非常好的出球型中卫。所以，生姜头觉得补强要购入边锋和左边卫，这个冬窗期三德子要加油了。PS：多一句嘴，斯科尔斯认为姆希塔良还有希望....... 林加德这场比赛就很完美的诠释了他为什么能拿10万英镑的周薪，虽然天赋和技术没有马夏尔、拉师傅他们高，可是勤奋，并且努力。古人云，勤能补拙，林加德就是依靠他不停的奔跑来为队友拉扯空档，来串联中前场。<br>拉师傅和马夏尔真该好好学学林加德的态度了 妈的，我也笑了，为什么总是他？让我想起巴神那个背心，哈哈！ 林加德有激情！曼联需要这种特点，这支曼联没有刀没有神，不成体系 拉师傅是无脑撞，又会撞死的球员 配不上只因为曼联的高贵历史！林加德天赋有限，努力感人！目前这支曼联还是可以的，若放在92时代，你觉得他有资格成为吉格斯替补么！希望小伙子能像C罗一样，用努力获得成就，当然，如果天赋能跟欧文一样就完美了，可以穿7号了，可惜了！ 关键是听话，教练让咋踢就咋踢。 这家伙不是被穆犬养喷得一无是处吗？ 鲁尼去了埃弗顿被当成核心，留在曼联出场机会肯定不多也踢不出现在的效果的 傻不傻，你试试没有马蒂奇看 同感，现在曼联的进攻感觉没什么套路，都是靠球员自由发挥 以前被喷 莫耶斯饭桶时代是教练太傻逼，臭嘴鸟时代是球员傻逼。鸟粪还把臭嘴鸟的抱怨美其名曰：心理战。 赞一个[不屑] 仔细想想曼联这帮球员：林加德、博格巴、姆希塔良、马塔、卢卡库、马夏尔、拉斯福德、埃雷拉、卢克肖、伊布、罗霍。。。这些人谁没被鸟粪喷过 德赫亚瑟瑟发抖 说明天赋不高也能当大腿，该学的是鸟和鸟粪，别整天这个球员不行，那个球员不行的。 佩德罗的跑位不差，但他的比赛态度比跑位更突出 弃用伊布扶正林加德是战术倒退。伊布需要队友围绕他跑位，他负责回撤分球。上林加德显然是放弃组织，大家都一股脑吓跑，能懵进一个是一个。进攻完全没有章法，也很不稳定。 曼联能打出地面配合的只有姆希塔良，博格巴两人，马蒂奇拿球也可以，这个b拉什福德，太他妈独了，倒不如给马夏尔机会，马夏尔拿球能力一流，要是能无球多跑动就好了 鲁尼哪里是卖的，明明就是买卢卡库送的。 卢卡库老给我一种感觉，孤立无援，跑位很是问题，一个目标中锋不能很好的跟中场边路衔接起来，那就只有吸引防守这一种作用！ 有点感觉后湖卖鲁尼了！！！！ 楼上的可知道林加德就是🐦当年车子的威廉，瞎几把跑，毫无组织纪律性😂 这么牛逼，说的佩德罗不会跑位一样，佩德罗的跑位是顶级的好吧。 勤能补拙 自从穆里尼奥宣布圣诞节不休息的时候，我就隐隐的觉得要出问题，我个人觉得穆里尼奥最主要的问题就是对手底下巨星的管理问题，很多巨星不喜欢穆里尼奥的铁血管理，这圣诞节不休息肯定是导火索 卧底，在自己禁区助攻对手、在对方禁区化解危机。 且不讨论林加德技术，起码他在场或者上场时我才觉得这个队伍像曼联，这家伙是真的继承了最纯正的红魔精神。要是天赋能再高一点必然是下一个7号，可惜。 加油 现在好像不管是不是曼联的还是别的谁，都喜欢一遍一遍的抽脸 当初一直觉得林加德能力不行，不过最近这家伙状态和运气好的出奇。感觉曼联还是确实萨拉赫，马内，阿扎尔，斯特林等这样的右路突破手，比赛左边全靠拉师傅，右边没人只好用杨教授，马塔打右前卫但是特别喜欢在中路。所以买个右前卫突破下底或者内切，拉开对面防守，会多很多空挡，包括反击时 穆里尼奥也很固执，英联杯伊布上场已经明显力不从心，步履沉重，虽说伤愈很快，但能达到比赛水准是两个概念。<br>还有博格巴，位置经常比马蒂奇还靠后，也不上抢也不跑位，比比隔壁丁丁不知疲倦的奔跑，差的不是一点。<br>卢卡库技术意识不错，身体强壮但有些笨重，动作的敏捷协调，差了很多，在禁区协防就真有风险，德比战一脚半转身凌空解围，打到队友身上造成失球，很说明问题。 这个小伙子的劲头很像曼联名宿朴智星 马夏尔没毛病，应该让马夏尔踢10号位，论渗透，突破整个曼联谁能有马夏尔强！？ 不是伊布没章法，是进攻没章法。上伊布得需要细腻的进攻套路，伊布踢得难受还是战术问题。 穆帅我没你电话，听听我的建议。1卢卡库不能在禁区内防守，头球是他的弱点，在禁区外可以打反击。2少打下底传中，不要迷信长得高就狂轰乱炸，要多打地面直塞，曼城和利记的中前场无球跑动就很出色。3冬窗再买个中场和前锋，辅助博格吧，现有前锋还是嫩了点，球商不太高，少卖黑人，多买白人。总之，每次落后才想起进攻，但是缺乏配合自信再加上不给点球时间越来越少等，心态就出了问题。总之，穆帅再不求变就真的只能来中超了。我是在救你！ 廖化 鸟粪：谁能替我鸟爹拿到分数，谁就是我们的第二个爹！ 哈哈，不过有道理。卢卡库球商堪忧，不会变通。拉师傅也是。他娘好水，地面没配合……高球和地面配合还是需要结合。另外卢卡库和杨真是大神，场均1助 拉师傅德上场表现那么差为什么还能首发 勤奋的林加德终于得到回报了 记得有句话大概意思是：只要够勤奋，不能成为齐达内，也可以成为内德维德。 小子加油 是谁替补不重要重要的是替补 弃用伊布扶正林加德是战术倒退。伊布需要队友围绕他跑位，他负责回撤分球。上林加德显然是放弃组织，大家都一股脑吓跑，能懵进一个是一个。进攻完全没有章法，也很不稳定。 大巴鸟：我不想赢的比赛绝对输不了<br>林加德：懂了。。。。。。 唉！！！踢得慢，无章法，不过运气也差了哪么一点点 卢卡库、马蒂奇就特么没轮换过。开局状态那么好，又不是找不到人轮换，是头牛这么用也会疲！ 争冠？这赛季曼城那状态英超其他的客观讲只能争二英超早就失去冠军悬念了 曼联士气完蛋了 马蒂奇这一场在后场拿球向前分球，而且失误率很低，怎么叫没多好？ VLOOKUP 加油 咯fox 伊布真不能用了，马蒂奇真心没觉得有多好！ 可是没有摆大巴啊 还有马蒂奇太累了，还有点小伤。 瓜的足球是技术足球的标准，鸟的足球是大巴车的技术标准，同样的标准，没有孰高孰低 替我乐急驴 绝对没有,是鸟黑在喊把名字里带林的都卖了。 加油 问题不是球员好不好，是曼联就没定下进攻战术。如果真打跑轰，那就林加德，拉师傅，马夏尔加卢卡库，参照利物浦和那不勒斯的前场。如果打长传，那就费莱尼，卢卡库，马夏尔，马塔，不过这个只能当b计划，如果中路渗透，恕我直言，从教练到球员，都不是这风格。所以关键问题还在教练，到底想打什么进攻模式，从这场上伊布就看出来，还在试错，没有定型。 哎，脑子完全没有进攻的概念，真不知道有什么底气要求加薪续约 伊布可以退休了！ 马季奇三十岁了，不可能一直高光。 还有之前对阵莱斯特城的比赛，球场上理应拿下两场比赛的球队都是我们……大湿你要这么说，教授表示有话要讲😂 替我乐 馬蒂奇還是重要的 什么情况，前段不是被黑的一无是处吗 这家伙不是被穆犬养喷得一无是处吗？ 隔壁丁丁也没下过 好冷 有鸟的地方，必有吃粪狗<br><br>一一瓜瓜 唉！！！踢得慢，无章法，不过运气也差了哪么一点点 "
    },
    "Article": "网易体育12月27日报道：曼联主场被伯恩利2-2逼平，大部分首发球员的表现都比较糟糕，这导致曼联上半场就0-2落后且没什么有威胁进攻。中场休息后，穆里尼奥换上了林加德，曼联进攻才有改观，替补上场的林加德打入两个进球，避免了曼联主场输给伯恩利。自从姆希塔良状态低迷后，在一番竞争后，林加德成为了曼联10号位的首选，但本场比赛穆里尼奥不知道什么原因让伊布踢10号位让林加德替补，结果只是45分钟的时间穆里尼奥就后悔了，中场休息后赶紧换上了林加德。论脚下技术、盘带和传球能力，或许林加德是曼联能踢10号位球员里最差的，但林加德也有自己的特点，他速度快能跑，可以冲击对方的防线，而且他在禁区内的嗅觉不错，这使得他经常有灵光一现的射门，本场替补上场后，林加德的特点就完全发挥了出来。第50分钟林加德就获得机会，阿什利-扬右路低平球传中，林加德插上4码处抢点射门，因为距离伯恩利门将波普太近，球打在波普身上再打在横梁上弹出，颇不走运。但这次进攻就能看出林加德和本场首发的伊布的不同，伊布几乎没有这样的前插射门。3分钟之后，林加德卷土重来，这次还是阿什利-扬右路低平球传中，林加德10码处右脚脚后跟射门，球飞入左下角。这是一次充满想象力的射门，本场比赛发挥出色的波普根本没想到，等看到射门时已经来不及扑救了。第91分钟林加德梅开二度扳平比分，这次进球看起来有些运气：阿什利-扬16码处射门被伯恩利后卫挡到林加德面前，林加德立刻在14码处射门，球飞入右下角。虽然获得机会有些运气，但林加德经常能得到这样的运气射门机会，这样的运气射门是对他勤奋的奖励，而这脚射门林加德的脚法是世界级，体现了很好的状态。林加德替补上场两球拯救了曼联，替补上场后打入两球这在穆里尼奥的曼联还是第一次出现，上一次曼联替补打入两球的是斯莫林，那是在2015年2月，巧合的是对手也是伯恩利。近期林加德似乎开了窍连续有出色表现，对阵沃特福德一传一射帮助球队4-2取胜，对阵阿森纳梅开二度帮助球队取胜，对阵西布朗进球帮助球队取胜，本场又梅开二度。林加德近9场英超打入6个进球并有4次助攻，制造了10个进球，而他在这9场前的51场英超，仅仅制造了8个进球。林加德看起来天赋比起拉什福德、马夏尔等人差，但他很受教练的器重，除了穆里尼奥外，曼联前任主教练范加尔和英格兰主教练索斯盖特也都看重林加德。把林加德从边路球员改造成中路球员，就是范加尔的发明。虽然范加尔的改造只能算是成功了一半，但现在在穆里尼奥麾下，林加德踢中路终于完全成功了。就现在看来，林加德是曼联10号位的最好选择，近期林加德的发挥一点都不比热刺的阿里差，如果林加德能够把现在的状态保持整个赛季，那明年世界杯他或许会成为英格兰的主力。",
    "Title": "GIF-红魔\"励志哥\"替补救主 9场造10球化身第1大腿_网易体育",
    "URL": "http://sports.163.com/17/1227/02/D6KKRNGV00058781.html",
    "KeyWords": "曼联,伯恩利,红魔"
}