{
    "PublishTime": "12/27/201705:40:10",
    "Source": "Netease",
    "Comment": {
        "Link": "http://comment.news.163.com/news_guoji2_bbs/D6L0LSJK0001875O.html",
        "Total": 428,
        "Reply": 25,
        "Content": "我是外地的，刚来苏州，不小心被蜈蚣虫咬了口，不久伤口开始肿胀。吃药打针都没得用，看到没办法了，正好遇到个道士。道士说：我遇到的乃是百年蜈蚣精，要治好的话还得要去寻找它的天敌。所以问大家，苏州木渎附近哪里有鸡？ 捡的！满意了吗？万八的东西都买不起？你活着有什么意义？ 是呀，克了老美那么多年。结果就是自己在亚洲、非洲的传统势力范围都消失了。欧洲更是堵到家门口了。克了那么多年，自身都衰成广东省的鸡滴屁了，妄图克体量是它几十倍的北月，那是自不量力。 华为脑子都有病 生命不息，流血不止 美国又傻眼了，优柔寡断，积重难返 美帝克星。 拉倒吧，你的肾呢？ ，冰箱和雪糕是情侣，<br>有天，<br>冰箱和雪糕吵架了，<br>雪糕生气的离家出走了………..<br>可是，<br>离开了冰箱的雪糕才走了几步就浑身湿滑，<br>雪糕害怕自己要化了，<br>就向冰箱认错，<br>冰箱打开门，<br>冷冷的说：知道错了？？上来吧，自己冻~ 你是好东西吗？没有点B数？ 不是说撤军了吗 拖住霉里奸，功劳不小。但主要还是霉里奸愿意上钩，弱智 彻底粉碎老美的霸权 你能有初一，就别怨人家有十五。 鹅毛真是阴魂不散，唯恐世界不乱，真是邪恶的代表呀！ 田园全的道理就是没有人性，有数了嘛[疑问] 在地中海保持军事存在，扩展俄罗斯的影响力。 你是苹果？你确定你买的起？还是领的？ 俄不是好东西 俄不是好东西 拖住霉里奸，功劳不小。但主要还是霉里奸愿意上钩，弱智 美国又傻眼了，优柔寡断，积重难返 俄不是好东西 ，冰箱和雪糕是情侣，<br>有天，<br>冰箱和雪糕吵架了，<br>雪糕生气的离家出走了………..<br>可是，<br>离开了冰箱的雪糕才走了几步就浑身湿滑，<br>雪糕害怕自己要化了，<br>就向冰箱认错，<br>冰箱打开门，<br>冷冷的说：知道错了？？上来吧，自己冻~ 你是好东西吗？没有点B数？ 彻底粉碎老美的霸权 你能有初一，就别怨人家有十五。 鹅毛真是阴魂不散，唯恐世界不乱，真是邪恶的代表呀！ 在地中海保持军事存在，扩展俄罗斯的影响力。 俄不是好东西 我是外地的，刚来苏州，不小心被蜈蚣虫咬了口，不久伤口开始肿胀。吃药打针都没得用，看到没办法了，正好遇到个道士。道士说：我遇到的乃是百年蜈蚣精，要治好的话还得要去寻找它的天敌。所以问大家，苏州木渎附近哪里有鸡？ ？？ 华为脑子都有病 美帝克星。 拉倒吧，你的肾呢？ 美国的核武器，随时存在在地球任意位置。说半岛无核化，那不是屁眼出气，纯属放屁吗。 生命不息，流血不止 田园全的道理就是没有人性，有数了嘛[疑问] 以退为进？ 是呀，克了老美那么多年。结果就是自己在亚洲、非洲的传统势力范围都消失了。欧洲更是堵到家门口了。克了那么多年，自身都衰成广东省的鸡滴屁了，妄图克体量是它几十倍的北月，那是自不量力。 额。。 买个破手机，你们竟然想到肾？服 不是说撤军了吗 "
    },
    "Article": "（原标题：俄罗斯着手在驻叙利亚军事基地组建常驻部队）新华社莫斯科12月26日电俄罗斯国防部长绍伊古26日说，俄罗斯着手在俄驻叙利亚赫迈米姆和塔尔图斯军事基地组建常驻部队。据俄罗斯国防部网站发布的消息，绍伊古当天在俄军方电话会议上说，总统普京上周批准了俄驻叙利亚赫迈米姆和塔尔图斯军事基地部队主要驻扎点的结构和编制，国防部随后开始着手组建常驻部队。俄罗斯联邦委员会（议会上院）26日批准俄叙两国政府今年1月18日签署的有关使用和扩建塔尔图斯海军基地的协议。根据协议，俄方可无偿使用该基地及其附近海域，可在基地附近海域最多同时停泊11艘军舰等。协议有效期49年，在协议到期前如俄叙双方均未提出停止履行该协议，协议将自动延期25年。12月11日，普京宣布开始从叙利亚撤军。俄罗斯驻叙利亚赫迈米姆空军基地和塔尔图斯海军基地仍将保留。本文来源：新华网责任编辑：乔敬_NN6607",
    "Title": "俄罗斯着手在驻叙利亚军事基地组建常驻部队 _网易新闻",
    "URL": "http://news.163.com/17/1227/05/D6L0LSJK0001875O.html",
    "KeyWords": "军事基地,俄罗斯,叙利亚"
}