{
    "URL": "http://sports.163.com/17/1228/06/D6NLJOPD00058781.html",
    "Article": "网易体育12月28日报道：北京时间12月28日凌晨，意大利杯1/4决赛一场焦点战在AC米兰和国际米兰之间展开。上半场比赛佩里西奇的射门被大多纳鲁马碰进球门但国米进攻时越位在先进球无效，下半场比赛苏索的射门击中球门横梁，两队始终未能取得进球。加时赛中库特罗内攻入本场比赛唯一进球，帮助米兰1-0淘汰国米，晋级4强。",
    "Source": "Netease",
    "PublishTime": "12/28/201706:24:29",
    "KeyWords": "库特罗内,国米,米兰,苏索",
    "Comment": {
        "Content": "尤婊司全家 还是习惯叫肥料了 我看是你这傻逼跟狗一样上蹿下跳才对 赛季初我说买了一大堆刮刮乐，被喷惨了🙄 实力加运气，足球的魅力 有买足菜的弟兄们注意了，米兰本季肯定排名靠后，不打贾球赚不回来，但杯赛起码进决赛。 大马表现不比小马差，卖了钱多多把他哥扶正吧 我鸡何去何从动不动贴吧被封我常谈笑风生吹牛比狗屁不通我IN明星阵容大国际赛季又崩我ter一场春梦又无冠终究成空来也汹汹去也熊熊恨不能重生早也输穷晚也输穷都TM赖阿囧狂笑一声长叹一声惨死一生悲哀一生谁与鸡生死与共我哭泪洒心中蓝与黑苍天捉弄 一堆三流球员而已只有肥料当个宝儿 压了一万人民币米兰1:0国米（加时进球）搏一搏🚴变🏍️ 成功个屌，法索内和米拉贝利能干出像样的事！ 🐶🐔又是两手空空的赛季了 比格➕洛卡中场硬度加强了，联赛拿出这个态度何至于沦落至此 我鸡快使用金表呵呵哈嘿 明年今日，斯帕莱蒂下课，拿着违约金，电视机前看着，已沦落到第九的狗鸡，打着电话给皮奥利。<br><br>明年今日，苏宁要放手，输光了所有，无奈难以脱手，只见一个猥琐的印尼猴，开心的撬开了一瓶XO。<br><br>明年狗鸡注定又是酱油，不需要任何理由，这是你的所受，也是我的享受。 狗鸡肥料互咬踢得真难看一场水平很低的比赛 叫米兰...孩子给家里省点电吧<br>#Forzamilan 赢一场垃圾杯赛肥料又像打鸡血跳出来吹牛逼了 瞎说什么大实话 可以 我鸡快使用金表呵呵哈嘿 鸡崽子大金表断货了啊，目测下场比赛又要上演老鹰捉小鸡了，看好我🐔四连败，佛砸阴大🤣🤣 会唱的一起唱我鸡何去何从动不动贴吧被封我常谈笑风生吹牛比狗屁不通我IN明星阵容大国际赛季又崩我ter一场春梦又无冠终究成空来也汹汹去也熊熊恨不能重生早也输穷晚也输穷都TM赖阿囧狂笑一声长叹一声惨死一生悲哀一生谁与鸡生死与共我哭泪洒心中蓝与黑苍天捉弄 意大利杯要变成保加杯了 赌一赌，🏍变🚙 R罗和小孔蒂，凯西，卡利尼奇都是不错的引援。性价比也很高，但问题是这么多引援，让老队员怎么看？很容易失人心。就像中甲球队球员不愿意冲超一样，冲超意味着要买新球员，也意味着自己要下岗。 菜鸡互啄[窃笑] 叫a米 鸡肋杯赛而已，全力以赴拼联赛吧。 鸡崽子全家螺旋升天🤣 米吊撑住，等老夫在🐶🐔拿到违约金就来解救你们🤣 米兰城永远只有AC 我鸡快使用金表呵呵哈嘿 尤文球迷亡全家 你鸡基本上就这个逼样了水平到这了 大连还有这种傻逼玩意儿？ 这国米，又是高开低走的节奏。 都说今年米兰引援是意甲最成功的，怎么就到了现在的地步 跟贴被火星网友带走啦~ 联赛要是能这样赢国米就好了。 哈哈哈哈，果然是这样。狗鸡进攻单调，还不如米兰的套路多 三连败，好蛋疼！突然间啥啦？ 引援是为做而做，更多是取悦老板和球迷。。。真正能打的球员，就那一个R罗。 跟贴被火星网友带走啦~ 自从在媒体上公开声明要夺冠就没赢过，果然是见光呀。看来以后没捧起奖杯前都要说是保级了。 国米令人失望 输给萨索洛说是要留力意杯，输给米屌又要留力联赛了？我鸡牛逼🤣🤣 🐶🐔🐶🐔，勇夺第一！帅气帅气，真会放屁…… 跟贴被火星网友带走啦~ 我鸡何去何从动不动贴吧被封我常谈笑风生吹牛比狗屁不通我IN明星阵容大国际赛季又崩我ter一场春梦又无冠终究成空来也汹汹去也熊熊恨不能重生早也输穷晚也输穷都TM赖阿囧狂笑一声长叹一声惨死一生悲哀一生谁与鸡生死与共我哭泪洒心中蓝与黑苍天捉弄 尤婊司全家 本赛季至今米兰坑了我两次，其中有一次是打欧联杯！ 鸡崽子全家螺旋升天🤣 常规时间0比0，加时赛的比分不算的吧 裤头可以！！！ g关键是你没有大清洗！新老都在一个队，人心惶惶，前途不明朗 居然，尼玛，赢了。不过意杯不拿冠军就没意义。接下来两场够呛能赢啊 国🐔又在为下半程联赛打尤文蓄力了！ 触底反弹 博努奇禁区手球，🐶🐔不抗议么。 我也说，要是不买滚盘，加时不算 卡利尼奇真是废材，双前锋有人帮他牵制后防还可以单箭头可以去中超了 加时赛还算？？你淫意呢？ 你妈都被我玩这逼样了你还有心情笑真是个孝子啊 压了一万人民币米兰1:0国米（加时进球）搏一搏🚴变🏍️ 成功个屌，法索内和米拉贝利能干出像样的事！ 还能压加时赛？国内一般不都90分钟吗 这狗鸡，夺两冠不是非法所得都对不起中国人这张脸。 有买足菜的弟兄们注意了，米兰本季肯定排名靠后，不打贾球赚不回来，但杯赛起码进决赛。 明年今日，斯帕莱蒂下课，拿着违约金，电视机前看着，已沦落到第九的狗鸡，打着电话给皮奥利。<br><br>明年今日，苏宁要放手，输光了所有，无奈难以脱手，只见一个猥琐的印尼猴，开心的撬开了一瓶XO。<br><br>明年狗鸡注定又是酱油，不需要任何理由，这是你的所受，也是我的享受。 不上蒙托利沃和博里尼就是不一样 柏太阳神晋级.加时赛攻入的制胜球. 这赛季期望不大 有能做球也愿意做球的A席和把握机会单兵也极强的哭特洛内不用，却一直让独到没朋友利物浦替补都轮不到的苏索+极度依赖队友支援的卡利尼奇...自己作死怪谁？ 真不如亚特兰大的戈麦斯，有个戈麦斯，前场就活了 如果是赛前，压1：0，那么没有中的。在比赛过程中，最多会开出有没有加时赛的盘。只有常规时间完打平，才会开加时的各项盘口，那时买1：0的赔率也不会太高。而且主队占优，估计不过3.5.你还不如买小球要好点。当然不买最好。 加时4.5，可以了。 我鸡快使用金表呵呵哈嘿 呵呵，我去年买了个登山包 有能做球也愿意做球的A席和把握机会单兵也极强的哭特洛内不用，却一直让独到没朋友利物浦替补都轮不到的苏索+极度依赖队友支援的卡利尼奇...自己作死怪谁？ 赌一赌，🏍变🚙 问题爆发在冬歇期之前也是好事，有时间调整 完了，我小国鸡又熟悉的节奏 踢的挺好。<br>李哥，关于多那鲁马的问题，我建议卖掉弟弟，用哥哥，又有钱又省钱又实用。 库特罗内真的是目前米兰唯一的看点 米吊撑住，等老夫在🐶🐔拿到违约金就来解救你们🤣 有买足菜的弟兄们注意了，米兰本季肯定排名靠后，不打贾球赚不回来，但杯赛起码进决赛。 干的漂亮！米兰加油！ 我鸡何去何从动不动贴吧被封我常谈笑风生吹牛比狗屁不通我IN明星阵容大国际赛季又崩我ter一场春梦又无冠终究成空来也汹汹去也熊熊恨不能重生早也输穷晚也输穷都TM赖阿囧狂笑一声长叹一声惨死一生悲哀一生谁与鸡生死与共我哭泪洒心中蓝与黑苍天捉弄 我鸡何去何从动不动贴吧被封我常谈笑风生吹牛比狗屁不通我IN明星阵容大国际赛季又崩我ter一场春梦又无冠终究成空来也汹汹去也熊熊恨不能重生早也输穷晚也输穷都TM赖阿囧狂笑一声长叹一声惨死一生悲哀一生谁与鸡生死与共我哭泪洒心中蓝与黑苍天捉弄 本赛季至今米兰坑了我两次，其中有一次是打欧联杯！ 你鸡基本上就这个逼样了水平到这了 买比分还算加时的？你买的走地盘？ 意大利杯冠军也和我们的足协杯一样，可以直接进欧冠吗？ 都说今年米兰引援是意甲最成功的，怎么就到了现在的地步 米兰又有了复苏迹象 又打起来了。 老哥好词，复制收藏了🤣 🐶🐔🐶🐔，勇夺第一！帅气帅气，真会放屁…… 卡利尼奇亏楼上好意思说 🐶🐔死八辈[大笑] 哼哼哈嘿，快使用大金表。 国米令人失望 会唱的一起唱 续一杯 SB 可能管理层有要求，现在伤病太多 洗洗不出去。。。中超都不要。。。 尤文球迷亡全家 🐶鸡心理真变态，输球了也怪尤文。🐶🐶鸡如同被冻死妈一样在哀嚎！ 尤婊司全家 对的，常规90分钟，看来这位吹大了 大马表现不比小马差，卖了钱多多把他哥扶正吧 国米，虎头🐍尾的往时节奏…… 手机哥还在隔壁呢 说实话往往就会被喷的很惨你应该说买了一堆世界级他们会拿你当爹夸你懂球 还是习惯叫肥料了 米兰青训是自己人，米兰需要米兰血统的球员和本土球员才能重新崛起！ 油表进来攻击国际和米兰..怎么不去死 哦落落哦 国米被打回原形了 意杯冠军可以直接晋级欧冠吧！ 米兰城永远只有AC 压了一万人民币米兰1:0国米（加时进球）搏一搏🚴变🏍️ 成功个屌，法索内和米拉贝利能干出像样的事！ 小裤子是米兰的希望 🐶🐔又是两手空空的赛季了 比格➕洛卡中场硬度加强了，联赛拿出这个态度何至于沦落至此 叫米兰...孩子给家里省点电吧<br>#Forzamilan OK了了 瞎说什么大实话 其实米兰的青年军不比买的雇佣军差多少锻炼2年就好了可惜高层急功近利 现在的米兰就是缺少一个名帅 现在名帅会看得上肥料 会唱的一起唱我鸡何去何从动不动贴吧被封我常谈笑风生吹牛比狗屁不通我IN明星阵容大国际赛季又崩我ter一场春梦又无冠终究成空来也汹汹去也熊熊恨不能重生早也输穷晚也输穷都TM赖阿囧狂笑一声长叹一声惨死一生悲哀一生谁与鸡生死与共我哭泪洒心中蓝与黑苍天捉弄 常规时间才算，这就有点尴尬了。。。 加时赛不计算的吧 说过了：上佳丽必输！斯帕莱蒂无间道，苏宁忘了里皮的教训啦？ 国际喜迎三连败[大笑] 赛季初我说买了一大堆刮刮乐，被喷惨了🙄 千万别用蒙脱理我 菜鸡互啄[窃笑] 叫a米 鸡肋杯赛而已，全力以赴拼联赛吧。 鸡崽子全家螺旋升天🤣 好姐妹，拉了一把。[大哭] 现在两个米兰都是什么人听都没听过 兄弟，醒醒，买球不是不算加时吗？别做梦了 土豆？豌豆？扁豆 ………… 你是哪条狗红🐶 两个糜烂比谁更烂三八威武 就是这么纯洁 零封绝杀，慢慢来 欧联 米兰德比都没味了 李哥的司机不会玩，这个都是计算正常90分钟时间内的结果的 都说今年米兰引援是意甲最成功的，怎么就到了现在的地步 库特罗内就是不能打首发，他的样板就是曼联的那个小土豆。。。拿球和处理球一般，又扛不住对方中卫，但是门前嗅觉，摆脱能力都是一流的。。。另外洛卡特利可以给多一点时间，强度上来了，但是技术却粗糙了。。加油！米兰！ 销魂一传 三连败，好蛋疼！突然间啥啦？ 米兰最需要的是一个好的俱乐部管理层！ 米兰硬气啊 墨迹了啊 二楼这个大傻逼的母亲是被轮了吗？大清早就犬吠形吠声！ 加时进球关你鸟事，你买的波胆的话，这一万已经打水飘了 输给萨索洛说是要留力意杯，输给米屌又要留力联赛了？我鸡牛逼🤣🤣 太燃了 狗鸡原形毕露 苏真大腿！ 现在🚴‍♀️都没了吧 这国米，又是高开低走的节奏。 加时不算吧？ 尤婊司全家 大哥，醒醒，波胆是算90分钟的 亏大了，没得买 厉害了米兰，杀狗鸡玩一养 好的 场场丢球？这场比赛90分钟没丢球好吧，现在主要问题不是防守而是进攻，进不了球 哈哈哈哈哈哈 现在就怕内部闹矛盾，场场丢球！！ 算了吧，斯帕莱蒂的教练生涯到目前为自己重要赛事的冠军什么都没有，还是去其他队混吧！ 会唱的一起唱我鸡何去何从动不动贴吧被封我常谈笑风生吹牛比狗屁不通我IN明星阵容大国际赛季又崩我ter一场春梦又无冠终究成空来也汹汹去也熊熊恨不能重生早也输穷晚也输穷都TM赖阿囧狂笑一声长叹一声惨死一生悲哀一生谁与鸡生死与共我哭泪洒心中蓝与黑苍天捉弄 鸡肋杯赛而已，全力以赴拼联赛吧。 i8尼e.net/60尼y 盘了 有意思 国米最近干嘛了 会唱的一起唱我鸡何去何从动不动贴吧被封我常谈笑风生吹牛比狗屁不通我IN明星阵容大国际赛季又崩我ter一场春梦又无冠终究成空来也汹汹去也熊熊恨不能重生早也输穷晚也输穷都TM赖阿囧狂笑一声长叹一声惨死一生悲哀一生谁与鸡生死与共我哭泪洒心中蓝与黑苍天捉弄 压了一万人民币米兰1:0国米（加时进球）搏一搏🚴变🏍️ 放好你的羊吧蒙古逼 比格➕洛卡中场硬度加强了，联赛拿出这个态度何至于沦落至此 不看酷居然真的赢了 实力加运气，足球的魅力 赢一场垃圾杯赛肥料又像打鸡血跳出来吹牛逼了 米兰今年实在是看不懂啊，能输平垫底的球队，也能赢曾经的排行榜第一！这是什么景？？？ 不容易 注意你的素质 可以 洛卡特利早该打主力了。 我鸡何去何从动不动贴吧被封我常谈笑风生吹牛比狗屁不通我IN明星阵容大国际赛季又崩我ter一场春梦又无冠终究成空来也汹汹去也熊熊恨不能重生早也输穷晚也输穷都TM赖阿囧狂笑一声长叹一声惨死一生悲哀一生谁与鸡生死与共我哭泪洒心中蓝与黑苍天捉弄 我鸡何去何从动不动贴吧被封我常谈笑风生吹牛比狗屁不通我IN明星阵容大国际赛季又崩我ter一场春梦又无冠终究成空来也汹汹去也熊熊恨不能重生早也输穷晚也输穷都TM赖阿囧狂笑一声长叹一声惨死一生悲哀一生谁与鸡生死与共我哭泪洒心中蓝与黑苍天捉弄 我鸡何去何从动不动贴吧被封我常谈笑风生吹牛比狗屁不通我IN明星阵容大国际赛季又崩我ter一场春梦又无冠终究成空来也汹汹去也熊熊恨不能重生早也输穷晚也输穷都TM赖阿囧狂笑一声长叹一声惨死一生悲哀一生谁与鸡生死与共我哭泪洒心中蓝与黑苍天捉弄 米吊撑住，等老夫在🐶🐔拿到违约金就来解救你们🤣 陪了[可怜] 符合大家所口味的东西：i8e.net/60利y 我鸡快使用金表呵呵哈嘿 我鸡快使用金表呵呵哈嘿 你鸡基本上就这个逼样了水平到这了 大连还有这种傻逼玩意儿？ 这是踢的有多差啊 李哥现场观战的比赛米兰都赢了~~~ 会唱的一起唱我鸡何去何从动不动贴吧被封我常谈笑风生吹牛比狗屁不通我IN明星阵容大国际赛季又崩我ter一场春梦又无冠终究成空来也汹汹去也熊熊恨不能重生早也输穷晚也输穷都TM赖阿囧狂笑一声长叹一声惨死一生悲哀一生谁与鸡生死与共我哭泪洒心中蓝与黑苍天捉弄 鸡崽子大金表断货了啊，目测下场比赛又要上演老鹰捉小鸡了，看好我🐔四连败，佛砸阴大🤣🤣 联赛要是能这样赢国米就好了。 哈哈哈哈，果然是这样。狗鸡进攻单调，还不如米兰的套路多 三连败，好蛋疼！突然间啥啦？ 圣诞节了，又开始崩盘了 符合大家所口味的东西： 今天凌晨起来，梦见米兰这帮球员拿了欧冠，从梦里奏响着欧冠主题曲，含着泪醒来！然后看这场德比，不知道米兰何时真正崛起，但是，希望看了20年的米兰，一定要真正崛起！希望能杯赛夺冠进入欧冠，毕竟意大利只有米兰才有欧冠血统！只有米兰才最有资格代表意大利出战欧冠！！！ 哈哈 自从在媒体上公开声明要夺冠就没赢过，果然是见光呀。看来以后没捧起奖杯前都要说是保级了。 国米令人失望 i8尼e.尼net/66y 流星月亮地球太阳系有发动机么？没有!他们却高速在宇宙中运行!为什么？因为他们的运行轨道本身就是太空高速时空隧道!他们的运行路线一半为去路一半为来路，周而复始地运行着!地球自转公转着，本就没有东西南北上下左右等方位!谁定的？我们的天父啊!目的只有一个，告诉人类我们天父的星座方位!所以九曲桥的方向始终对着东北方!在宇宙一切物质中，永远是子体围绕母体运动，这是恒定的!所以地球自转并围绕太阳公转!因地球是自转公转的，所以根据地球的东西南北是找不到星外文明的星座方位的!只有找到太阳的上下前后东西南北才能准确地给天父星座方位定位!我们天父星座方位在太阳系东北上方第九颗恒星那里!那里以双伴恒星为中心带动周围108颗恒星运动着! 大崩溃的开始 这国米，又是高开低走的节奏。 鸡崽子真会找借口，等着被蓝鹰怒艹吧🤣 我鸡何去何从动不动贴吧被封我常谈笑风生吹牛比狗屁不通我IN明星阵容大国际赛季又崩我ter一场春梦又无冠终究成空来也汹汹去也熊熊恨不能重生早也输穷晚也输穷都TM赖阿囧狂笑一声长叹一声惨死一生悲哀一生谁与鸡生死与共我哭泪洒心中蓝与黑苍天捉弄 国米我觉得是来搞笑的！ 意大利杯要变成保加杯了 坐等赌狗以后跳天台 贴吧里压我毛10w赢球那老哥呢[窃笑] 狗鸡肥料互咬踢得真难看一场水平很低的比赛 加8强行续命，小飞机还要在跑道上多等会儿了😂 你爹妈知道你个小逼样这么贱吗[窃笑] 紧急了 米兰球迷都有过日子的心态，赢一场算一场吧[大哭] 加8下课缓期执行一场 还得靠我 呀狗🐔好兴奋呐 大都督表现不错 内裤这一插感觉有点像9爷 贵阳桀骜之心携全家人，<br>妹妹桀骜之逼，<br>妈妈桀骜之洞，<br>媳妇桀骜之缝，<br>女儿桀骜之唇<br>给米兰球迷拜年了。 压了一百万人民币米兰1:0国米（加时进球）搏一搏🏎️变🚢 像长友佑都和巴莱罗这样的人打主力，国米的阵容太差了 竟然赢了。。。 菜鸡互啄 难兄难弟 李哥看球米兰必赢！不像隔壁的印尼人看了一场国米球，结果输到现在。 压了一万人民币米兰1:0国米（加时进球）搏一搏🚴变🏍️ 👍 这场踢的还算有一点内容，希望还是在一些年轻人身上。 加8强行续命，小飞机还要在跑道上多等会儿了😂 现在赌球，加时赛也算进球了？不是九十分钟吗？ 米兰德比的新闻都没人了 今晚ac米兰表现不错👍。 加8强行续命，小飞机还要在跑道上多等会儿了😂 库特罗内真实惊喜啊翻版九爷有前辈带成长的更快现在都是些啥子人嘛哎 无奈 人质赢了！不要让卡利尼奇首发还可以更好！总算没让文艺蒙首发了！ 压了十万人民币米兰1:0国米（加时进球）搏一搏🚗变🏎️ 压了一百万人民币米兰1:0国米（加时进球）搏一搏🏎️变🚢 压了一万人民币米兰1:0国米（加时进球）搏一搏🏍️变🚗 国米人员少 真心希望AC米兰像今晚一样一直坚持到底 游标卡尺这么早劳你费心了还看新闻 ",
        "Total": 3445,
        "Link": "http://comment.sports.163.com/sports2_bbs/D6NLJOPD00058781.html",
        "Reply": 214
    },
    "Title": "意杯-库特罗内加时赛绝杀 米兰1-0胜国米晋级4强_网易体育"
}