{
    "Title": "新年第一乌龙!万人倒计时迎新年 倒数后秒回2017_网易新闻",
    "PublishTime": "01/01/201815:47:07",
    "URL": "http://news.163.com/18/0101/15/D72VCR1E0001875P.html",
    "Source": "Netease",
    "KeyWords": "新年,倒计时,杭州",
    "Comment": {
        "Reply": 28,
        "Content": "还有364天就有要跨年了，提前祝大家2019元旦快乐，回想上一次跨年，就跟昨天一样 牛逼 是不是上热搜了，广告啊 这就尴尬了…… 时光倒流 垃圾…… 58同城😂 服了[报警][报警] 这是没见过女的啊多屌丝 故意制造新闻吧 啊，又变58啦，那个声音真的很好听。 一群傻逼还跟着数数，还准备跳起来。 光听那个声音我都能撸一管 一群傻逼 牛逼 这是什么时钟。 大家的都是怎样迎接新年的呢? 感觉好尴尬。 哈哈哈哈哈哈…… 你们能想到我今天去医院看病，那个纸上面印的是2019年1月1日吗 时光倒流 垃圾…… 多过几次新年吧 宇宙的探索是离不开我的话的，只有把围绕地球公转的一切物质包括气体计算在地球体积之内才能找到地球真正的边和角，那是反引力汇聚地，是真正的真空隧道，宇宙高速路，太阳系内的动脉!把围绕太阳公转的一切物质包括气体计算在太阳体积之内才能找到恒星与恒星的边和角，那是恒星与恒星之间的真空高速隧道，找到真空隧道以近光速超光速飞行那不是个事!宇宙飞行器也不能按照飞机的二维结构原理制造，飞机是不能高速自转的，但只有高速自转才能产生真空电磁场，以近光速飞行，未来的宇宙飞行器必须按地球原理制造，八层以上结构，你看地球高速自转着前进，我们人坐在地球上有啥不适感觉吗？ 哈哈 一群傻逼还跟着数数，还准备跳起来。 光听那个声音我都能撸一管 沒有错啊！高利贷建国后没有了，现在不是又大规模回来了吗！<br>建国后民间骗子少了又少，现在骗子满街跑，呆在家里也不能幸免!接一个电话就存款没有了，不坚强的连命也会搭进去了！<br>哈哈大笑!没错! 还有364天就有要跨年了，提前祝大家2019元旦快乐，回想上一次跨年，就跟昨天一样 是不是上热搜了，广告啊 这就尴尬了…… 58同城😂 服了[报警][报警] 这是没见过女的啊多屌丝 故意制造新闻吧 倒计时没毛病 这就闹乌龙了。 智商是硬伤。 姚劲波已经嗨翻在地上 炒作，绝对是炒作 啊，又变58啦，那个声音真的很好听。 ",
        "Total": 204,
        "Link": "http://comment.news.163.com/news_shehui7_bbs/D72VCR1E0001875P.html"
    },
    "Article": "（原标题：尴尬！万人倒计时迎新年，秒回2017）#endText.video-infoa{text-decoration:none;color:#000;}#endText.video-infoa:hover{color:#d34747;}#endText.video-listli{overflow:hidden;float:left;list-style:none;width:132px;height:118px;position:relative;margin:8px3px0px0px;}#entText.video-lista,#endText.video-lista:visited{text-decoration:none;color:#fff;}#endText.video-list.overlay{text-align:left;padding:0px6px;background-color:#313131;font-size:12px;width:120px;position:absolute;bottom:0px;left:0px;height:26px;line-height:26px;overflow:hidden;color:#fff;}#endText.video-list.on{border-bottom:8pxsolid#c4282b;}#endText.video-list.play{width:20px;height:20px;background:url(http://img1.cache.netease.com/video/img14/zhuzhan/play.png);position:absolute;right:12px;top:62px;opacity:0.7;color:#fff;filter:alpha(opacity=70);_background:none;_filter:progid:DXImageTransform.Microsoft.AlphaImageLoader(src=\"http://img1.cache.netease.com/video/img14/zhuzhan/play.png\");}#endText.video-lista:hover.play{opacity:1;filter:alpha(opacity=100);_filter:progid:DXImageTransform.Microsoft.AlphaImageLoader(src=\"http://img1.cache.netease.com/video/img14/zhuzhan/play.png\");}if(/(iPhone|iPad|iPod|Android|NETEASEBOBO|blackberry|bbd+)/ig.test(navigator.userAgent)||/safari|chrome|firefox/i.test(navigator.userAgent)&&navigator.plugins&&!navigator.plugins[\"ShockwaveFlash\"]){varstr1='<videocontrols=\"controls\"preload=\"auto\"width=\"100%\"poster=\"http://vimg3.ws.126.net/image/snapshot/2018/1/K/G/VD6558AKG.jpg\"style=\"max-height:100%\">';varstr2='<sourcetype=\"video/mp4\"src=\"http://flv.bn.netease.com/videolib3/1801/01/AMSge2181/SD/AMSge2181-mobile.mp4\">您的浏览器暂时无法播放此视频.</video>';document.getElementById(\"FPlayer1404863609673\").parentNode.innerHTML=str1+str2;}尴尬！万人迎新年倒计时，秒回2017（来源：~）window.NTES&&function(d){varf=function(c){varb=c.getAttribute(\"flashvars\"),a=c.getAttribute(\"repovideourl\").replace(\".flv\",\"-mobile.mp4\");h=d(c.parentNode.parentNode.parentNode),g='<embedsrc=\"http://v.163.com/swf/video/NetEaseFlvPlayerV3.swf\"flashvars=\"'+b+'\"allowfullscreen=\"true\"allowscriptaccess=\"always\"quality=\"high\"wmode=\"opaque\"width=\"100%\"height=\"100%\"type=\"application/x-shockwave-flash\"/>';if(/(iPhone|iPad|iPod|Android|NETEASEBOBO|blackberry|bbd+)/ig.test(navigator.userAgent)){g='<videocontrols=\"controls\"preload=\"auto\"width=\"100%\"height=\"100%\"><sourcetype=\"video/mp4\"src=\"'+a+'\">您的浏览器暂时无法播放此视频.</video>';}h.$(\".video\")[0].innerHTML=g;},e=function(b){vara=d(b.parentNode.parentNode.parentNode);a.$(\"li\").removeCss(\"on\"),b.addCss(\"on\"),a.$(\".video-title\")[0].innerHTML=\"string\"==typeofb.textContent?b.textContent:b.innerText,a.$(\".video-title\")[0].setAttribute(\"href\",b.getAttribute(\"url\")),a.$(\".video-from\")[0].innerHTML=\"（来源：\"+b.getAttribute(\"source\")+\"）\",f(b);};window.continuePlay=function(){vara,b=d(d(\".video-list.on\")[0].nextSibling);3==b.nodeType&&(b=d(b.nextSibling));if(b&&d(\".video-innerinput\")[0].checked){e(b);}},function(){vara={init:function(){if(d(\".video-listli\")[0]){d(d(\".video-listli\")[0]).addCss(\"on\"),this.eventBind();}},eventBind:function(){d(\".video-listli\").addEvent(\"click\",function(b){e(d(this)),b.preventDefault();});}};a.init();}();}(NTES);2017年12月31日，杭州某商场大屏在跨年时，倒计时出现失误，本应跳至00:00的时钟又跳回了23:58分，造新年第一乌龙，群众直呼尴尬！本文来源：梨视频责任编辑：范姜国一_NN9138"
}