{
    "Comment": {
        "Total": 176,
        "Reply": 12,
        "Link": "http://comment.ent.163.com/ent2_bbs/PHOTJNTS000300AJ.html",
        "Content": "真不觉得刘雯漂亮，但是身材还不错 天生的衣服架子，好羡慕啊，我要减肥 范儿是🈶️的，美就算了…… 不是漂亮但就是让人看着觉得舒服 笑容很有个性 很自然，不是整容脸，挺好的 我到觉得比那些整容脸漂亮多了 人家是天然 我觉得她还挺可爱的 美和有气质是两种 天生的衣服架子，好羡慕啊，我要减肥 可以 笑容很有个性 很自然，不是整容脸，挺好的 好看 我到觉得比那些整容脸漂亮多了 真不觉得刘雯漂亮，但是身材还不错 范儿是🈶️的，美就算了…… 人家是天然 不是漂亮但就是让人看着觉得舒服 我觉得她还挺可爱的 "
    },
    "Title": "天生衣架子！刘雯穿格子大衣又帅又美_网易娱乐",
    "KeyWords": "刘雯,",
    "Article": "天生衣架子！刘雯穿格子大衣又帅又美2018年1月2日，北京，刘雯现身机场，格子大衣配牛仔裤，随性挽发显慵懒，大红唇当点缀，最是那一低头的温柔。",
    "URL": "http://ent.163.com/photoview/00AJ0003/647100.html",
    "PublishTime": "01/03/201807:34:38",
    "Source": "Netease"
}