{
    "Article": "马苏风口浪尖亮相机场见镜头礼貌挥手1月3日，马苏亮相首都机场，身穿白毛衣的她温婉大气。马苏一边走一边打电话，不忘对镜头微笑打招呼。近日由于李小璐的绯闻事件，当晚“证人”马苏也成为风口浪尖的话题明星。",
    "URL": "http://ent.163.com/photoview/00AJ0003/647160.html",
    "KeyWords": "马苏,",
    "PublishTime": "01/03/201817:13:21",
    "Title": "马苏风口浪尖亮相机场 见镜头礼貌挥手_网易娱乐",
    "Comment": {
        "Content": "马苏是姚笛的好朋友，不许你们骂她！ 马苏也被那人干过吧 下边也被皮几万捅过了吧 别出来恶心人 她在中间起了什么作用？ 那晚谁操马苏？ 你在网易这么努力，姚迪知道吗？😀 当年姚笛跟文章那破事被媒体曝光时马苏也没见像李小璐出轨事件一样帮她打掩护呀？！还好姐妹呢！ 把万舔硬把路舔湿。然后看着他们啪啪自己揉 拉皮条的？ 通过这个事情就可以看出来马苏就一心机女还包拉皮条最坏就这种女人 3p？ 好你妹的鬼蛋蛋 马苏也不是好鸟，也是骚货，所谓物以类聚，你看看马苏的朋友基本都是婊子！夜不归宿喝酒约炮！手挽手留宿还他么弟弟？不就是3P的局么？！ 璐宿一夜，贾装没事。璐出马脚，贾装原谅。 滚… 明天还得给你送回去又犯病了 拉皮条的没有好下场 可以考虑一下，她们姐妹团，结婚的和没结婚的，有什么区别 马苏你怎么还好意思出门？ 马苏秦岚李小璐假脸姐妹团集体包养的鸭子被曝光了 贵圈除了乱，还脸皮厚，出了事一个个伪装的好淡定。 你不是不担任姚笛的后援团了嘛 塑胶姐妹花 大宽逼 给我操一下好吗 这货一看就是淫乱不堪的 不做头发是不可能的，这辈子都不可能不做头发的，做头发的感觉比家里感觉好多了！里面的人还会rap，超有趣！ 你特么的不是辞去姚笛粉丝会会长职务了么。。。 聚纵淫乱还不抓 你个傻逼，不是退出了[微笑] 假奶亮挥泪斩马苏！ 和你辩一辩，她哪里欲女 润滑作用 上联：贾在哭，万在笑，小璐在挨炮，下联：宋在操，马在叫，宝强在咆哮。横批，指璐为马。 原来佩服你的执着，现在看这句，感觉你是往自己脸上抹屎啊。 马苏综艺节目说有严重洁癖，朋友去她家，她都要人家都要消毒！自己根本不去别家，还好意思说睡别人家！一群骗子 老铁，扎心了！ 因为马苏又不跟文章，这次不一样，马苏倒追批几万 额，你想说物以类聚，是吧。 欲女马苏!不服来辩.. 姓马的女人大多数是老司机 有他们的联系方式，我愿意奉献一下 好吧，你说什么就是什么 那骂你傻缺咯 她在中间起了什么作用？ 她哪里漂亮了？马漂亮个鸡 马苏嘴巴好奇怪，但说不出哪里奇怪，有知道的吗？ 你不是没了吗？[惊讶] 这个女人也不是善茬 看你面子绝对不骂马苏这个贱货！ 能干 扯人家姚笛干什么，至少人家出事了没找人洗白，拿吃瓜群众当傻瓜。 明天还得给你送回去又犯病了 嘴巴太尖了 假乃亮：谢谢苏姐一记漂亮的助攻 给我操一下好吗 她还是比小录好看点，小录的下吧搞得太尖了，跟脸型不符，怪怪的。 大器 漂亮不漂亮吧 美美哒 马苏大大咧咧、性格不错👍、身材比例也不错👍一定很爽 她还挺高兴 现代王婆！ 原来小璐被我内定<br>funny<br>亮哥不知道<br>小璐很浮躁<br>床上瞎胡闹<br>开始灌毒药<br>难道因为我的背景<br>还是我床上的水平<br>ok，letsgo<br>youku处境就是怕我出名<br>根本不敢突击只能偷袭<br>这点出息叽歪像个木鸡<br>不好意思我先到达六级<br>ooxx把你带走不说没用的屁话<br>忍你太久说你来自于地下<br>ooxx泰斗Holdupholdup<br>Excuseme<br>大的已不像人类<br>pgo的出现是为了让亮哥绿的更加纯粹<br>不理解那是非继续让他自卑WOO<br>还妄想插翅飞WOO<br>AllrightAllright<br>你只能被淘汰淘汰<br>砸烂你的招牌号外<br>想把小璐都偷走<br>但你无法模仿PG****sodope<br>YaungRichCheater 姓马的女人大多数是老司机 马苏是姚笛的好朋友，不许你们骂她！ 她最多算长得不难看，但人有点土气，跟她身上穿的不知哪淘来的带俩兜兜的针织衫倒是配。李小璐整的怪归怪，好歹比马洋气扎眼些。 马苏也被那人干过吧 尖下巴的果然都不省心。古人的相术还是有可取之处的。 整体看起来像男人 对呀。1楼不是退退组织了吗 那个满足不了马苏。 没以前漂亮但还行 讨厌马苏 马苏叫价100我都嫌贵了 人家有钱养，自己潇洒，少管闲事，多无聊 玩鸭子不正常吗？总比跳蛋舒服吧 1楼是友君啊[微笑] 94年的那里经得住这种熟妇的诱惑，至少一夜七次[微笑] 恶心 马苏秦岚李小璐假脸姐妹团集体包养的鸭子被曝光了 哈哈现在这些报料只是增加她们曝光机会而已。一个个求之不得。1400万很快就赚回来了。有我们为他们买单 这么多天，也没见那些好姐妹出来说什么啊，如果不是出轨，肯定会集体帮她的。默认了，要么就是塑料姐妹花！ 各种上位，心疼孔令辉 承上启下 心机婊 为啥她看起来总是一副欲求不满的模样 当年姚笛跟文章那破事被媒体曝光时马苏也没见像李小璐出轨事件一样帮她打掩护呀？！还好姐妹呢！ 好好的香奈儿被穿成这个样子 老鸨 好你妹的鬼蛋蛋 巴不得你们去说她蹭蹭热度找存在感 和屁股有一腿有她，喜好召男模也有她，大ma怀疑可能也有她。这么喜欢混战哦 招手即停，排队上公交车咯！希望是头班车 不是什么好鸟 卧槽，眼哥也是深圳的，也是执着潘晓婷，还有网易神贴富士康清湖形象店那个帖子，也是深圳坐标，再加上你，深圳IP出毅力帝啊 大美妞 她在中间起了什么作用？ 墨镜什么牌子的 看来孔令辉当初和此婊离婚是对的 水军不是漂白作用吗，咋尼玛还刷屏了？ 老婊子 女权主义不但解放了女性，更解放了她们骨子里的骚性，淫性 通通通？ 啥玩意儿. 没出这事之前，一直就不喜欢她，看长相就觉得有问题，越看越恶心 马苏秦岚李小璐假脸姐妹团集体包养的鸭子被曝光了 一般男人出去嫖娼都会有个打掩护的哥们儿，马苏就是起这个作用的 没事也期待有事，都是一群管闲事看热闹无聊的人！ 10 大马脸 不做头发是不可能的，这辈子都不可能不做头发的，做头发的感觉比家里感觉好多了！里面的人还会rap，超有趣！ 脸皮薄当不了明星 挺漂亮的[微笑] 自己用完了觉得还不错，推荐给好姐分享不行么 不好意思占个位置，小弟请教一个问题，《前任3》真的好看吗？看见好多平台都在猛夸，但豆瓣只有6.2分，说奇烂无比，我该信哪个？ 老鸨子 马苏是姚笛的好朋友，不许你们骂她！ 错，她的位置是皮条客 马苏算是败火教教主了 这圈子在过去不就是妓院 没见过世面现实中很多年轻女的也去鸭店.... 个臭婊子 马苏这比素质太低，有点像@黄土高原小钢炮他的麻麻 马苏真他妈的是个烂货 马苏怎么了？找鸭子又怎么了呢？ 大美妞你不是前些日子已经光荣退休了嘛 牵线 漏天鼻败家相 大妈服 老鸨子一样 你该去看心理医生了 几P来着[微笑] 不说了，我们一起去做头发 给你睡你不睡。。? 跟贴被火星网友带走啦~ 拉皮条 不说了，我去做头发了 换人？ 好你妹的鬼蛋蛋 长得一副尖酸刻薄像，看着就不是什么好人 我们的月亮就是一个鸡蛋，我们的地球系就是一个鸡蛋!我们的太阳系就是一个鸡蛋，我们的天郎双星系就是一个鸡蛋，我们的银河系就是一个鸡蛋!坯胎为中心，蛋黄，蛋清，蛋壳层层立体包围着坯胎!固体地球为中心，大气层，平流层，电离层等等以及最外层真空遂道层层立体包围着固体地球!而月亮飘流在地球最外层空间真空遂道里，就像船儿飘流在大气层和海平面之间的空间是一样的!以此类推至太阳系天郎双星系银河系及任何物质!月亮在地球最外层空间真空遂道里绕着地球自转公转着，地月绕着太阳在太阳系第三层真空遂道里自转公转着，太阳系绕着天郎双星在天郎双星系最外层真空遂道里自转公转着!任何物质皆如此运动，天地人合一，阿门 上联：贾在哭，万在笑，小璐在挨炮，下联：宋在操，马在叫，宝强在咆哮。横批，指璐为马。 我想他们那晚是三个人一起做头发了[狗] 好东西 好东西 你还是太嫩了铁子！连最基本的识人之术都不懂悲哀啊.. 聚众吸毒 好东西 那晚谁操马苏？ 好东西 好东西 好东西 好东西 好东西 马苏秦岚李小璐假脸姐妹团集体包养的鸭子被曝光了 这帮人，就靠不要脸走红呢，说不定还可以因为这上春晚呢，婊子集中营。 烂货圈的人就那个操性了 那晚3p主角之一 好东西 那真成了卖屁股的了 哈哈 这个也是个双商感人的 和你辩一辩，她哪里欲女 白洁何洁董洁李小璐马苏 欲女马苏!不服来辩.. 好东西 马苏是姚笛的好朋友，不许你们骂她！ 🐔🐔🐔 高级黑？ 有人曝光屁股王也上过马苏 上联：贾在哭，万在笑，小璐在挨炮下联：宋在操，马在叫，宝宝在咆哮横批都是绿的。 好东西 马苏以前觉得她挺漂亮现在感觉变大妈了 王婆 好东西 之前就爆料马苏和pg有情况，现在轮到李小璐这🦆玩的溜溜溜 越来越像个老鸨子 白洁何洁董洁李小璐马苏统一战线了 诶，这个证人不可信呀 娱乐圈有些人装的人模狗样的。 这年头，做婊子都做的这么理直气壮和坦荡荡😂 好东西 鸭头 屁股王，卖屁股本人知道了 好东西 别拉姚笛下水，人家可不是姐妹团的 这一群婊子都是包养小鲜肉的 本来我也误认为是高级黑？但貌似不是，他的执着貌似感动了很多人[微笑] 总觉得他有点假 好东西 王婆 她在中间起了什么作用？ 你护的过分了 好东西 求种子 风口浪尖？ 跟贴被火星网友带走啦~ 看热闹不嫌事大，呵呵呵!唉呀，哪个谁谁的老婆又出轨了。幸灾乐祸，不过我喜欢😊 那个圈子真有意思 好久没看见你这ID了 塑胶姐妹花 好东西 这条是公关发的通稿，分流计划之一 你们真是666 跟贴被火星网友带走啦~ 好东西 马苏为了在心花路放里演个小姐，把徐峥几把都快咽下去了 润滑作用 原来佩服你的执着，现在看这句，感觉你是往自己脸上抹屎啊。 马苏是姚笛的好朋友，不许你们骂她！ 你不是不担任姚笛的后援团了嘛 好东西 不冷吗这么穿 别出来恶心人 跟贴被火星网友带走啦~ 好东西 那视频我看了长得像但是怎么看都不是啊尤其是第二段视频仔细看完全是另一个人啊虽然娱乐圈确实挺乱的 感觉不是个好鸟 挺精神的(⊙_⊙) 滚… 老子就要，气死你。姚迪舔文章老二[微笑] 拉皮条的没有好下场 好东西 遇到这种事，其他人唯恐避之而不及，马苏自动往枪口上撞，是重情义还是缺心眼 好东西 一杯敬宝强，一杯敬乃亮<br>圣诞直播笑着说她去了发廊<br>却不知她在远方红杏出墙<br>不怕你头上有绿，心里不慌<br>一杯敬乃亮，一杯敬宝强<br>守着你的孤独，帽子变了样<br>所以从此以后可以横冲直闯<br>因为头上一片绿光 估计是3p了 娱乐圈真恶心 好东西 这货一看就是淫乱不堪的 好东西 啊呸呸呸 感觉她那个微信截图是在做广告，很有心机的样子 怪不得孔令辉和她厉害 老表纸，皮条马，不要碧莲 以前对她无感现在觉得恶心！李马双p屁肛 马苏要么是王婆，要么早已知情甚至鼓励过，不然李小璐不会拖她下水 大长脸，，真丑 马苏要么是王婆，要么早已知情甚至鼓励过，不然李小璐不会拖她下水 一脸大妈相 贼讨厌她 贱婊子一枚 拉皮条的？ 这鸭子有几个屌 [惊讶][骷髅][挨揍] 马苏也不是好鸟，也是骚货，所谓物以类聚，你看看马苏的朋友基本都是婊子！夜不归宿喝酒约炮！手挽手留宿还他么弟弟？不就是3P的局么？！ 也是挺骚的 [可怜][疲惫][大笑] 马苏秦岚李小璐假脸姐妹团集体包养的鸭子被曝光了 也是婊子一枚～鉴定完毕 最佳损友 马苏也不是好鸟，也是骚货，所谓物以类聚，你看看马苏的朋友基本都是婊子！夜不归宿喝酒约炮！手挽手留宿还他么弟弟？不就是3P的局么？！ 马苏要么是王婆，要么早已知情甚至鼓励过，不然李小璐不会拖她下水 [窃笑][挨揍][暴怒] 不是什么好鸟 这姨子用的是iphonex 她在中间起了什么作用？ 就在扬州啊！三个女的一个镇长老婆一个企业老板娘一个女老板，逮个鸭子往死玩，情人节一晚上吧，鸭子嗝屁了 一群荷尔蒙爆棚的女人👩，羡慕不已 马苏是姚笛的好朋友，不许你们骂她！ 马苏睡的人肯定也不少 这傻b那天和谁睡了，据称pgone家就两张床啊，五个人怎么睡的 马苏漂亮。可李小璐事件到底是真是假？娱乐圈太混乱。就不能好好过日子吗？ [微笑][疑问][不屑] 她一直就很土现在还那么贱呵呵 做假证 阅鸭无数 也是个欲女 棒棒哒！ 以前上高中经常出去网吧包宿，坐我前面的是一个长发女生，很长的那种。每次上课睡觉她都会把她扎着的头发放开。多年以后同学聚会发现她剪了短发，依然那么漂亮。我很好奇于是我就问她，为什么不留长发了。她说她并不喜欢长发，留长发是为了她后面经常熬夜的少年能够睡个安稳不被老师发现。结果多年不见她已为人妻，原来才知道错过的真的就错过了。 傻逼一样 猪一样队友的作用 你特么不是伤心已经混蛋了么！ 你特么的不是辞去姚笛粉丝会会长职务了么。。。 三p玩的 假奶亮挥泪斩马苏！ 我爱你 上联：贾在哭，万在笑，小璐在挨炮，下联：宋在操，马在叫，宝强在咆哮。横批，指璐为马。 你在网易这么努力，姚迪知道吗？😀 我听说的版本怎么在长沙，也是三个富婆一个鸭子，吃伟哥干死了，有个好像还是官太太 刚提的线，一巴掌干没了哈哈 马苏要么是王婆，要么早已知情甚至鼓励过，不然李小璐不会拖她下水 [惊讶][骷髅][挨揍] ",
        "Link": "http://comment.ent.163.com/ent2_bbs/PHOTJNVO000300AJ.html",
        "Total": 6915,
        "Reply": 355
    },
    "Source": "Netease"
}