{
    "Title": "高通在加州获准进行自动驾驶技术测试_网易科技",
    "URL": "http://tech.163.com/17/1226/09/D6IPQ7O300098IEO.html",
    "Source": "Netease",
    "Comment": {
        "Total": 0,
        "Reply": 0,
        "Content": "",
        "Link": "http://comment.tech.163.com/tech_bbs/D6IPQ7O300098IEO.html"
    },
    "Article": "本文系网易智能工作室（公众号smartman163）出品。聚焦AI，读懂下一个大时代！【网易智能讯12月26日消息】在加州，高通公司能够对其自主开发的自动驾驶技术进行测试，该公司生产的自动驾驶芯片组为汽车提供了相互通信的能力。加州政府已经允许更多品牌的自动驾驶汽车在道路上进行测试，其中就包括我们熟悉的芯片制造公司：高通公司。这家芯片制造商在12月12日获得了三名司机对该车的测试许可，此举也表明高通公司正式加入了英伟达和其他公司的竞争行列，而这些公司早已通过许可在该州测试他们的技术。不过，高通并没有像Waymo那样制造自己的自动驾驶汽车，而它为参加测试的车辆安装了几个月前宣布的9150?c-v2x芯片组。芯片组为车辆提供了360度的非视线范围内的感知能力，同时还能与其他车辆并与交通信号灯等基础设施进行通信。汽车制造商最终可能会利用该芯片组来辅助自动驾驶汽车的安全系统。该公司负责汽车产品管理的副总裁纳图?达加尔对CNBC表示，高通公司凭借这项技术即将成为“自动驾驶领域的关键参与者”。这家芯片制造商已经开始在位于圣地亚哥的福特汽车上进行芯片安装测试，并在未来有可能在加州的其他地方进行更多测试。高通公司还计划向密歇根、中国、德国、意大利和日本发送装有他们芯片组的测试车，以收集该芯片组在不同地点和条件下的性能数据。（选自：engadget编译：网易见外编译机器人审校：付曾）关注网易智能公众号（smartman163），获取人工智能行业最新报告。本文来源：网易智能责任编辑：揭丁诺_NBJS5302",
    "PublishTime": "12/26/201709:01:43",
    "KeyWords": "自动驾驶技术,加州,高通,高通公司"
}