{
    "URL": "http://news.163.com/18/0101/16/D7323JLT000187VE.html",
    "Title": "男子酒后无聊3晚报警56次 要求聊天送水被拘_网易新闻",
    "KeyWords": "拘留,治安,警察",
    "Article": "（原标题：三晚56个报警电话，山东男子酒后无聊拨打110被行政拘留）110报警服务台本是维护治安和服务群众的一个公共平台，可是有些人却把110当成了“游戏取闹”的对象。近日沂南一名男子酒后无聊就再三拨打110，要求聊天、送水、问无聊问题……俨然将“110”当成了酒后无聊精神空虚的“寄托处”，占据了有限的警务资源不说，最终因扰乱社会公共秩序被依法处以行政拘留10日。案件回顾12月25日夜，沂南县公安局110指挥中心是灯火通明，接警员们正在忙碌着接警派警。一个熟悉的号码“158*****630”，再次打了进来，“我在沂河边渴了，快来给送水。”报警的是沂南县苏村镇的王某，这已经是连着三晚，他打来的56个报警电话之一了。自12月份以来，王某以“咨询电话费、送水、陪着聊天……”五花八门的理由，先后拨了报警电话88次，这次报警电话里的王某语无论次，说话前言不搭后语，所说内容令人摸不着头脑。报警员虽然知道王某屡次酒后无聊就拨打110的“前科”，但为了其人身安全，还是指派派出所民警出警查看。就在民警出警时，王某又多次拨打110，电话里天南地北的胡扯一翻。民警到达王某所在地方，他已经喝得醉醺醺不省人事的瘫在地上，浑身酒气。被带到派出所的王某在民警的批评教育下，才认识到自己酒后多次拨打110的行为已经触犯法律，并对自己酒后恶意拨打沂南县公安局110报警电话的行为供认不讳。目前，王某因扰乱社会秩序被依法处以行政拘留10日的处罚。警方提醒：110报警服务台是维护治安和服务群众的一个公共平台，负责受理刑事、治安案件、群众突遇个人无法解决的紧急危难求助，是群众紧急情况下求助的一个极其重要的渠道，如果110被大量无效的警情占用，一旦发生重大警情时打不进来或者延误时机，将会造成严重的后果。恶意拨打报警、无聊拨打110取乐或报假警等行为严重浪费了警务资源，而且会构成为违法，公安机关将依法严肃处理，对于构成犯罪的，还要依法追究刑事责任。本文来源：澎湃新闻责任编辑：李杭_BJS4645",
    "Source": "Netease",
    "PublishTime": "01/01/201816:19:00",
    "Comment": {
        "Link": "http://comment.news.163.com/news2_bbs/D7323JLT000187VE.html",
        "Reply": 21,
        "Content": "里面个个都是人才，说话又好听，，哎呦，超喜欢里面......！ 愿望实现了现在不无聊了吧那么多人陪你呢 就是这些sb让真正报警的报不了 我好烦好无聊但也不敢惹警察，10086倒是敢 新年愿望实现了，进了里面去有人陪你聊天有人给你倒水，还有人帮你按摩菊花… 这次可以和警察蜀黍畅聊十天了 喝酒不认识自己了 有些人就是欠收拾，没喝酒之前我是沂南的，喝酒后沂南是我的，建议把他关到春节再放出来 傻了吧唧的耶[骷髅][骷髅][骷髅] 李时珍的皮 小编写错了啊 判它10年就老实了。 愿望实现了现在不无聊了吧那么多人陪你呢 里面个个都是人才，说话又好听，，哎呦，超喜欢里面......！ 喝酒不认识自己了 抓得好！发酒疯的后果 这个男的有病，还是欠揍 给个协警当当，体验一下，就知道别人的辛苦了 叫女孩玩玩啊。110 这次可以和警察蜀黍畅聊十天了 就是这些sb让真正报警的报不了 我好烦好无聊但也不敢惹警察，10086倒是敢 怎么不打110叫妹子呢 没事找事请别拿公共资源开玩笑! 新年愿望实现了，进了里面去有人陪你聊天有人给你倒水，还有人帮你按摩菊花… 说明兄弟你还没有被咱喷子洗脑成功，我们帮你洗脑撺掇十天，保证你也敢 傻了吧唧的耶[骷髅][骷髅][骷髅] 有些人就是欠收拾，没喝酒之前我是沂南的，喝酒后沂南是我的，建议把他关到春节再放出来 你为啥要喝酒呢？如果不喝酒，咱们喷子还可以帮你说说话 找死110是你能闲扯占线的吗。岁数活到狗身上去了 ",
        "Total": 241
    }
}