{
    "URL": "http://war.163.com/17/1231/11/D6VT3LPI000181KT.html",
    "Article": "【环球网军事报道】据俄罗斯卫星网12月30日报道，土耳其国防工业秘书处周五发表声明称，莫斯科和安卡拉签署的S-400防空导弹系统供应协议规定要进行技术合作。周五早些时候，俄罗斯和土耳其在安卡拉签署了供应S-400的贷款协议。根据土耳其国防工业秘书处的声明，土耳其购买两套S-400，它们将有土方人员维护。在文件中称，“协议规定，在项目框架内要进一步开展技术合作。我们会在满足我们自行生产防空导弹条件的方向上继续努力，为此正在与感兴趣的国家和公司进行谈判。”双方决定不透露协议中付款和技术方面的相关信息。消息称：“第一批导弹系统将于2020年第一季度运抵。土耳其总参谋部将负责监督使用，维护由土耳其技术人员负责。”土耳其国防部长加尼克里早前表示，土耳其和俄罗斯已经敲定购买四个营的S-400防空导弹系统。俄罗斯国家技术集团公司总裁切梅佐夫27日表示，俄罗斯将向土耳其出售4个营的S－400防空导弹系统，总额25亿美元，其中55%合同金额将用俄方贷款支付。对于俄土导弹交易，美国国防部回应称，符合北约标准的反导系统可更好满足土耳其的要求，并且有意尽快向土方供应美国系统。美国国防部新闻处代表表示：“符合北约标准的反导防御系统是土耳其防范该地区所有方面威胁的更好选择。为了自己在防空领域更加广阔和长期的需求，土耳其应继续坚持北约国家的反导系统，包括美国的‘爱国者’系统。美国有意尽可能加快对土耳其所购设备的供应。”本文来源：环球时报-环球网。更多精彩，请登录环球网http://www.huanqiu.com责任编辑：赵亮亮_NN6671",
    "KeyWords": "土耳其,导弹,俄罗斯,s-400",
    "Source": "Netease",
    "Comment": {
        "Reply": 42,
        "Content": "S300多次炸锅，自杀神器。 不搞点核讹诈，普鸡不敢和美军叫板。 不卖爹地武器，要了爹地命 操尼玛胡锡进美国说这话了吗！ 那红旗更没活路了，<br><br>技术文档要烂大街了 俄罗斯被欧美制裁，为了拉拢土耳其，甘愿做赔本买卖。土耳其不是省油的灯，普鸡哭的时候有你看。 你这标志养得烂狗撒话都能骂你在家就干这个？ 他们有仇的呀 用我们的💰养一帮狗砸种媒体整天黑别人！ 航天飞机炸了的怎么说 战斧从相距70公里的眼皮底下亚音速飘过，还提前一小时告知，都没能数清楚飞过去了几枚，呵呵。土鸡这是作死的节奏。 S300多次炸锅的视频B站搞笑必备。 你爷爷的火箭跑丢了快去看看吧呵呵 美狗就是这样，无道德，无底线，无文化。说不过就撒泼 俄罗斯被欧美制裁，为了拉拢土耳其，甘愿做赔本买卖。土耳其不是省油的灯，普鸡哭的时候有你看 跟土鳖打交道都比较麻烦～既然你加入北约，都有既定的共同防务合作协议和承诺。既要加入北约、依托强大经济支撑和先进装备壮大自己，有了军事实力和条约各国先进武器后又肆意妄为，真是个令北约头疼的问题。-----看看越南、北韩等等土鳖，都是这种鸟东西：一切从自私自利角度出发，没有感恩、罔顾道义、谁给狗粮多就投靠谁，再与恩家结仇～因为没还德行，后面的国家要想再跟你合作，一定是心存顾虑，最后自己孤家寡人、四面楚歌，直到自己玩死自己、崩溃倒塌个球滴。 你爹李连生了？怎么被我抽怕了吗？ 你本事大，总能找到尻你老娘的理由。 美国说这话了吗狗砸种。 印度都不要的s400<br>证明是垃圾 不要钱都不购你老美导弹，你想怎样？ 垃圾s400给土耳其也没用，土耳其这国家忘恩负义不是什么好鸟 中东怎么乱都无所谓。中国只想坐顺风车 属于北约的土机买俄导弹到底要打什么飞机？ 不搞点核讹诈，普鸡不敢和美军叫板。 操尼玛胡锡进美国说这话了吗！ 舌头真细腻啊.....山姆大叔的菊花有福气了 就像它的长相一样的流氓！在它们眼里地球就得围着它们转 1楼很容易看出来是美狗，请问你是怎么看出来2楼是鹅毛的？骂美狗的就是鹅毛？你智商不会这么低吧？ 用我们的💰养一帮狗砸种媒体整天黑别人！ 这什么情况 不友好吗 你这标志养得烂狗撒话都能骂你在家就干这个？ 垃圾s400给土耳其也没用，土耳其这国家忘恩负义不是什么好鸟 土耳其多么耿直得一个民族啊，支持土耳其打击美国，打击叙利亚政府军 俄罗斯被欧美制裁，为了拉拢土耳其，甘愿做赔本买卖。土耳其不是省油的灯，普鸡哭的时候有你看。 美国说我应该草泥马胡锡进。 不要钱都不购你老美导弹，你想怎样？ 他们有仇的呀 你爷爷的火箭跑丢了快去看看吧呵呵 正宗美狗，多吃点美屎 战斧从相距70公里的眼皮底下亚音速飘过，还提前一小时告知，都没能数清楚飞过去了几枚，呵呵。土鸡这是作死的节奏。 S300多次炸锅的视频B站搞笑必备。 不卖爹地武器，要了爹地命 那红旗更没活路了，<br><br>技术文档要烂大街了 如果你父母知道你给美国当狗，专干畜生干的事，死都不合眼，你父母真可怜生了你这只畜生 印度都不要的s400<br>证明是垃圾 他们不是不走干嘛 2L俄杂毛一只 跟土鳖打交道都比较麻烦～既然你加入北约，都有既定的共同防务合作协议和承诺。既要加入北约、依托强大经济支撑和先进装备壮大自己，有了军事实力和条约各国先进武器后又肆意妄为，真是个令北约头疼的问题。-----看看越南、北韩等等土鳖，都是这种鸟东西：一切从自私自利角度出发，没有感恩、罔顾道义、谁给狗粮多就投靠谁，再与恩家结仇～因为没还德行，后面的国家要想再跟你合作，一定是心存顾虑，最后自己孤家寡人、四面楚歌，直到自己玩死自己、崩溃倒塌个球滴。 你爹李连生了？怎么被我抽怕了吗？ 反美国家都是好样，这不是狰腐得一贯思维吗？ 美国说这话了吗狗砸种。 俄罗斯被欧美制裁，为了拉拢土耳其，甘愿做赔本买卖。土耳其不是省油的灯，普鸡哭的时候有你看 S400对北约已无任何秘密可言 一看就知道你二鬼子杂种~为啥？米帝灭了你鬼子祖宗的精锐师团啊～你能不恨米帝吗？哈哈哈哈。。。 北约的防空系统是用来防俄罗斯发，土耳其既然购买俄罗斯的防空系统说明土耳其已经彻底倒向俄罗斯。 买了爹地的导弹了，俄杂兴高采烈 土耳其找到了 它爹李连生也跑了。只留它老木在湛江 总额25亿美元，其中55%合同金额将用俄方贷款支付。 ",
        "Total": 590,
        "Link": "http://comment.war.163.com/news_junshi_bbs/D6VT3LPI000181KT.html"
    },
    "PublishTime": "12/31/201711:09:26",
    "Title": "土耳其签署购俄S400导弹合同:美称应购美导弹_网易军事"
}