{
    "Title": "男子寄马粪给美国财长惊动拆弹部队 称这坨算好的_网易新闻",
    "URL": "http://news.163.com/17/1226/15/D6JFUB7D0001899N.html",
    "KeyWords": "马粪,美国,洛杉矶,斯特朗",
    "PublishTime": "12/26/201715:28:27",
    "Article": "（原标题：男子寄马粪给美国财长惊动拆弹部队称本来想找更臭的）心理医生斯特朗称自己是“马粪包裹”的始作俑者。当地时间周六晚，美国财长努钦收到了一份可疑又尴尬的“圣诞礼物”，里面居然装着大量马粪。之后，一名来自洛杉矶的心理医生出面承认，自己就是这个“马粪包裹”的始作俑者。据美国中文网报道，洛杉矶心理医生斯特朗接受采访时表示，是自己制造了这起惊动拆弹部队的恶作剧。美国财长努钦斯特朗称此举目的就是为了讽刺共和党人。“我的生活信条就是透明。几年前最高法院裁决，企业就是个人，金钱等同于自由言论，这太荒谬了。我的信念就是，如果企业是自由言论，那马粪也是的。”星期六下午，斯特朗在社交媒体上传了三张照片，显示自己将大量马粪铲入身边的一个巨大纸盒中。之后这个纸盒被送到努钦位于洛杉矶高档社区的住所。洛杉矶警察局说，当地时间星期六19时30分左右，努钦邻居家的车道惊现一个包装成礼物的包裹，寄件人写着“美国人民”，收件地址是努钦住址。邻居随后报警。心理医生斯特朗称自己是“马粪包裹”的始作俑者。拆弹小组通过X光检查发现，包裹内没有爆炸物。当地电视台播放的画面显示，警察打开“礼物”包装，发现一个大盒子，里面装有大量马粪。据悉，斯特朗之后被特勤局调查人员问话，还并未施加逮捕。他表示希望自己的举动能鼓励更多人能更为“激烈”地表达自己的意愿。斯特朗还说，他本来希望能找到“更臭的屎”。“马粪是已经和稻草混在一起的了，老实说，这坨屎还算是好的，狗屎可能会更臭一些，”斯特朗说。本文来源：封面新闻责任编辑：张海桐_NN9053",
    "Comment": {
        "Content": "你发一个🎁试试[微笑] 我很奇怪：他是怎么搞到财长的地址的？ 辣鸡资本主义，我们社会主义绝对不会出现这样的事 我猜你想寄给三庞 尽快投案！争取死缓吧 牢底坐穿，小样敢这样调戏正部级官员👿 你已被网警锁定，请尽快去附近派出所报道[报警] 我有个大胆的想法 小试牛刀，寄给村长吧 神讽刺[大笑] 万恶的资本主义屁民居然知道灵道的住址让我们怎么能放心灵道的安危 美帝奇葩多，他居然没有被拘押。 美国人竟然不怕死！ 你送给我国那个试试？ 是舌惠著遗，舌惠，，，，，， 财长不起诉心理医生心里不正常？ 你们还想送快递？地址知道吗？等着收快递吧！ 别说不可能送的到，就算送到了，第二天你就永远从这个世界消失了 马粪，我觉得应该算是生化武器应该抓起来。 能够做一些自己喜欢的事情就感觉很幸福。 不错的礼物，有机肥可以种菜。 我猜出来了，你别乱寄东西给我啊！ 资本主义糟社会主义好 万恶的资本主义，迟早是会毁灭的 狗屎可能更臭 你发一个🎁试试[微笑] 我很奇怪：他是怎么搞到财长的地址的？ 辣鸡资本主义，我们社会主义绝对不会出现这样的事 落山鸡的水稻很出名的说,很多是寿司米的好吧,,,,,,,,, 我猜你想寄给三庞 哈哈哈哈[窃笑][窃笑][报警] 财长不起诉心理医生心里不正常？ 尽快投案！争取死缓吧 牢底坐穿，小样敢这样调戏正部级官员👿 你已被网警锁定，请尽快去附近派出所报道[报警] 我有个大胆的想法 小试牛刀，寄给村长吧 想寄给央行行长！ 全部吞下????(大吃大吃) 神讽刺[大笑] 万恶的资本主义屁民居然知道灵道的住址让我们怎么能放心灵道的安危 资本主义糟社会主义好 美帝奇葩多，他居然没有被拘押。 美国人竟然不怕死！ 你送给我国那个试试？ 落三机有稻草？落三机还种水稻？虾虎港。 是舌惠著遗，舌惠，，，，，， 马屎外面光，里面是草糠。 财长不起诉心理医生心里不正常？ 你们还想送快递？地址知道吗？等着收快递吧！ 别说不可能送的到，就算送到了，第二天你就永远从这个世界消失了 马粪，我觉得应该算是生化武器应该抓起来。 能够做一些自己喜欢的事情就感觉很幸福。 不错的礼物，有机肥可以种菜。 为什么米帝对人民那么宽容。 我猜出来了，你别乱寄东西给我啊！ 好笑又好玩 其实并不宽容，你所做的一举一动他们都看得很清楚，斯诺登的事你们都懂，只是他们不觉得你值得动手罢了。而在我国现在的干部还都是老一辈，等到下一辈也差不多就是这样了。 万恶的资本主义，迟早是会毁灭的 ",
        "Total": 758,
        "Link": "http://comment.news.163.com/news2_bbs/D6JFUB7D0001899N.html",
        "Reply": 35
    },
    "Source": "Netease"
}