{
    "PublishTime": "01/02/201807:18:21",
    "Comment": {
        "Total": 1468,
        "Link": "http://comment.tech.163.com/tech_bbs/D74KM01F00097U7T.html",
        "Reply": 88,
        "Content": "我还以为董姐帮过贾跃亭 从老贾举报快播那一刻，结局就已经注定了 只要给你喝稀饭你不闹，一定会给你喝稀饭 大家主要是在战队 说实话：做企业的人都想提高员工福利，大的企业可以这样做，但是那些小的企业都生存在生死边缘。 董总做事业绝对是一把好手，但是情商明显不足。 站着说话不腰疼，抛开国企国资背景，你老董有什么资格与老贾比！ 董阿姨跟假老板一样让人窒息每年分红分的让人快窒息了[刷卡] 大家不要再冤枉是乐视举报快播涉黄、导致快播公司倒闭了，真实的情况是：腾讯公司举报快播涉黄，深圳南山区文化执法大队查封快播公司服务器，快播公司倒闭。如果还有不相信的，可以调取北京海淀法院庭审快播高管王欣时，坐在原告席上的是腾讯公司的代表律师，而不是乐视的律师。既然庭审时，坐在原告席上的是腾讯公司的律师，那么肯定是腾讯举报快播公司涉黄，导致快播公司倒闭的罪魁祸首也是腾讯公司。大家睁大了眼，一定要看清楚啊！！！ 呵呵，她不足也能在商场干这么多年，而且位于格力高层。。。。。。兄台，你是臆想吧。好好练练自己的逻辑思维，独立判断力，学学哲学，方法论。别当草包。 做实业太真的很不容易，科研投入大，回报周期长，市场竞争激烈同时利润变薄，再说那些吃专业技术饭的人又不可能转行互联网、共享经济 很厉害，但是没人敢研究半导体cpu芯片，内存芯片，存储。 说道点子上了，这个女的也不是什么好东西，老贾要是没有化化撑腰，你们会帮他？我看当时是拍他马屁吧？ 帮的目的是什么，分利润 搞笑，董没资格跟贾比？你以为格力是一般的国企？是一只猪都能领导的国企？荒谬~~<br>论水平，两人谁高我不敢下定论，但贾现在转移骗来的资金，都上了黑名单，他还有什么资格去与董比？！ 姓董的你那么多供应商货款都没付清楚还在那大放厥词还有脸吗？ 支持曹德旺、董明珠这样的实业家 打击別人、抬高自己！批判贾跃亭、是为了抬高董明珠、难道格力完美无缺吗！想突出自已、只是说谁也不行。 董小姐虽然做事很高调，但是确实都是在理，而且也有责任感 连法拉第未来的股权都转让给外甥了，大招人间蒸发应该要使出来了 老贾在憋大招 麻花腾，你跑不了，等着受死吧 我还在读初中的时候大概15年前，有个同学老爸格力电器做厂工，分了家庭宿舍，有家庭的可以申请套间，还可以公司给首付让员工供房子，这已经可以了，那时候格力电器工资也不低，不过就是时间长了一点，别的厂那时候最多两千，格力都上三千了。 董小姐PPT技术还是不如他 假药停本来就是一个做电视机的，你非要做互联网，汽车，跨度太大，你不死才怪，活了反而奇葩。 到最后，憋个屁，哈哈哈哈哈 董小姐骗你钱了？老贾资产全转移出国，人也跑了，几十万股民都被坑惨，你同期买格力股票，都翻几倍了！ 没人帮你是你太优秀了[惊讶] 曹德旺这个我认可，董明珠有什么好支持的一个职业经理人搞得跟创始人一样 珠海格力总部什么时候有讨债者在那打地铺么？ 我去，这个双关，NB 大家不要再冤枉是乐视举报快播涉黄、导致快播公司倒闭了，真实的情况是：腾讯公司举报快播涉黄，深圳南山区文化执法大队查封快播公司服务器，快播公司倒闭。如果还有不相信的，可以调取北京海淀法院庭审快播高管王欣时，坐在原告席上的是腾讯公司的代表律师，而不是乐视的律师。既然庭审时，坐在原告席上的是腾讯公司的律师，那么肯定是腾讯举报快播公司涉黄，导致快播公司倒闭的罪魁祸首也是腾讯公司。大家睁大了眼，一定要看清楚啊！！！ 你的水平老贾没有，老贾的水平你没有。 之前都是董明珠在格力，那时候我就知道董明珠了，并不是其他人，所以她还是可以的。 大家不要再冤枉是乐视举报快播涉黄、导致快播公司倒闭了，真实的情况是：腾讯公司举报快播涉黄，深圳南山区文化执法大队查封快播公司服务器，快播公司倒闭。如果还有不相信的，可以调取北京海淀法院庭审快播高管王欣时，坐在原告席上的是腾讯公司的代表律师，而不是乐视的律师。既然庭审时，坐在原告席上的是腾讯公司的律师，那么肯定是腾讯举报快播公司涉黄，导致快播公司倒闭的罪魁祸首也是腾讯公司。大家睁大了眼，一定要看清楚啊！！！ 确实，董大妈纵有千般不是也比下周回国强 李小璐一看贾跃亭不行了，白投资了，找pgone诉诉苦吧！ 成败论英雄吧，至少董明珠现在还好好的，你的老贾已经遭万人唾弃了！！这就是差距！ 不多不多，才5个亿。 董绝对不是好人 大家不要再冤枉是乐视举报快播涉黄、导致快播公司倒闭了，真实的情况是：腾讯公司举报快播涉黄，深圳南山区文化执法大队查封快播公司服务器，快播公司倒闭。如果还有不相信的，可以调取北京海淀法院庭审快播高管王欣时，坐在原告席上的是腾讯公司的代表律师，而不是乐视的律师。既然庭审时，坐在原告席上的是腾讯公司的律师，那么肯定是腾讯举报快播公司涉黄，导致快播公司倒闭的罪魁祸首也是腾讯公司。大家睁大了眼，一定要看清楚啊！！！ 你就是那种以小人之心度君子之腹的人，你活着不累吗 老干妈辣酱算不算做实业的 我还以为董姐帮过贾跃亭 赞赏董小姐的魄力 强行插入明珠图片 董小姐说的没错，太不争气了！ 大家不要再冤枉是乐视举报快播涉黄、导致快播公司倒闭了，真实的情况是：腾讯公司举报快播涉黄，深圳南山区文化执法大队查封快播公司服务器，快播公司倒闭。如果还有不相信的，可以调取北京海淀法院庭审快播高管王欣时，坐在原告席上的是腾讯公司的代表律师，而不是乐视的律师。既然庭审时，坐在原告席上的是腾讯公司的律师，那么肯定是腾讯举报快播公司涉黄，导致快播公司倒闭的罪魁祸首也是腾讯公司。大家睁大了眼，一定要看清楚啊！！！ 支持曹德旺、董明珠这样的实业家 帮的目的是什么，分利润 姓董的你那么多供应商货款都没付清楚还在那大放厥词还有脸吗？ 那去年是谁要整他，突然事情爆发，没个推手不信 打击別人、抬高自己！批判贾跃亭、是为了抬高董明珠、难道格力完美无缺吗！想突出自已、只是说谁也不行。 董小姐虽然做事很高调，但是确实都是在理，而且也有责任感 大家主要是在战队 董这是在指正奸汇吗？帮贾最多，功劳最大的，到底是谁？——融创算一个。 麻花腾，你跑不了，等着受死吧 海军陆战队？ 大家不要再冤枉是乐视举报快播涉黄、导致快播公司倒闭了，真实的情况是：腾讯公司举报快播涉黄，深圳南山区文化执法大队查封快播公司服务器，快播公司倒闭。如果还有不相信的，可以调取北京海淀法院庭审快播高管王欣时，坐在原告席上的是腾讯公司的代表律师，而不是乐视的律师。既然庭审时，坐在原告席上的是腾讯公司的律师，那么肯定是腾讯举报快播公司涉黄，导致快播公司倒闭的罪魁祸首也是腾讯公司。大家睁大了眼，一定要看清楚啊！！！ 假药停本来就是一个做电视机的，你非要做互联网，汽车，跨度太大，你不死才怪，活了反而奇葩。 只要给你喝稀饭你不闹，一定会给你喝稀饭 董小姐说得在理 大家不要再冤枉是乐视举报快播涉黄、导致快播公司倒闭了，真实的情况是：腾讯公司举报快播涉黄，深圳南山区文化执法大队查封快播公司服务器，快播公司倒闭。如果还有不相信的，可以调取北京海淀法院庭审快播高管王欣时，坐在原告席上的是腾讯公司的代表律师，而不是乐视的律师。既然庭审时，坐在原告席上的是腾讯公司的律师，那么肯定是腾讯举报快播公司涉黄，导致快播公司倒闭的罪魁祸首也是腾讯公司。大家睁大了眼，一定要看清楚啊！！！ 你的水平老贾没有，老贾的水平你没有。 之前都是董明珠在格力，那时候我就知道董明珠了，并不是其他人，所以她还是可以的。 大家不要再冤枉是乐视举报快播涉黄、导致快播公司倒闭了，真实的情况是：腾讯公司举报快播涉黄，深圳南山区文化执法大队查封快播公司服务器，快播公司倒闭。如果还有不相信的，可以调取北京海淀法院庭审快播高管王欣时，坐在原告席上的是腾讯公司的代表律师，而不是乐视的律师。既然庭审时，坐在原告席上的是腾讯公司的律师，那么肯定是腾讯举报快播公司涉黄，导致快播公司倒闭的罪魁祸首也是腾讯公司。大家睁大了眼，一定要看清楚啊！！！ 确实，董大妈纵有千般不是也比下周回国强 李小璐一看贾跃亭不行了，白投资了，找pgone诉诉苦吧！ 听人说格力企业家给自己的员工待遇条件非常好，别的企业员工都很羡慕，看来格力企业的老总真的很棒，也是中华民族的骄傲。其实你不必担心在新时代还没为祖国做些什么，因为你已经早就为国家做出了很大的贡献了，做的比很多人还要好，也许是你自己还没这样认为而已，想想一下你的企业让成千上万个家庭过上幸福的生活，难道这不是国家在改善民生的重要成就吗？当然你想在国家改善民生的政策方面拿出些钱来资助国家，那是一个志愿的心意，我想国家政府和中国百姓会很感谢你的。<br>祝福格力企业在新的时代展现出他的活力。 珠海格力总部什么时候有讨债者在那打地铺么？ 烧杀假药停，以儆效尤 你也不是什么好鸟，现在还在消费贾跃亭吸引眼球。 大家不要再冤枉是乐视举报快播涉黄、导致快播公司倒闭了，真实的情况是：腾讯公司举报快播涉黄，深圳南山区文化执法大队查封快播公司服务器，快播公司倒闭。如果还有不相信的，可以调取北京海淀法院庭审快播高管王欣时，坐在原告席上的是腾讯公司的代表律师，而不是乐视的律师。既然庭审时，坐在原告席上的是腾讯公司的律师，那么肯定是腾讯举报快播公司涉黄，导致快播公司倒闭的罪魁祸首也是腾讯公司。大家睁大了眼，一定要看清楚啊！！！ 老干妈辣酱算不算做实业的 你现在再看看格力，还有那么好吗 空谈误国，实干兴邦啊！不过前提是你必须有能力自保。 董阿姨跟假老板一样让人窒息每年分红分的让人快窒息了[刷卡] 赞赏董小姐的魄力 真的是帮吗？确定不是想吃画的大饼？那么多实业不投，投一个互联网公司，还相信能造电瓶车，因果循环。 很厉害，但是没人敢研究半导体cpu芯片，内存芯片，存储。 董小姐也不过一条狗而已，说什么税收一点也不重，真jb恶心 两点一线吗？还是两丘一柱？ 不是什么帮，投机性投资而已，都是想赚大钱，没有人是活雷锋 我要在交200亿 老贾让很多投资人失望，格力让老百姓失望。弄着掌握核心科技的噱头，赚着老百姓的血汗钱，也没见过格力的空调降价！！！<br>过年的时候就看见某个网红在那吹牛逼，格力账上赚了多少钱！！！ 说道点子上了，这个女的也不是什么好东西，老贾要是没有化化撑腰，你们会帮他？我看当时是拍他马屁吧？ 曹德旺这个我认可，董明珠有什么好支持的一个职业经理人搞得跟创始人一样 从老贾举报快播那一刻，结局就已经注定了 老贾懂得怎么分享，所以现在安然无事！ 光看吹牛有什么用，最终还不是要落实到实际行动上面来的。 甘薇不是已经回国了吗？ 董绝对不是好人 你就是那种以小人之心度君子之腹的人，你活着不累吗 到最后，憋个屁，哈哈哈哈哈 这年头，环境不一定管用，但钱一定管用 男人65岁退休 姐姐，我爱你 嗯国企那个公司不是这样的？ 董总做事业绝对是一把好手，但是情商明显不足。 帮假药停？ 这么说来：假💊停是过街老🐭——人人喊打！[被黑][羞羞][惊讶][疑问][喷水][鄙视][不屑][大笑][石化][暴怒] 做实业太真的很不容易，科研投入大，回报周期长，市场竞争激烈同时利润变薄，再说那些吃专业技术饭的人又不可能转行互联网、共享经济 企业家对投资者负责也是社会责任。说得好。这也是一种基本的贵族品质。 不知道为什么，特反感这头猪 搞笑，董没资格跟贾比？你以为格力是一般的国企？是一只猪都能领导的国企？荒谬~~<br>论水平，两人谁高我不敢下定论，但贾现在转移骗来的资金，都上了黑名单，他还有什么资格去与董比？！ 呵呵，她不足也能在商场干这么多年，而且位于格力高层。。。。。。兄台，你是臆想吧。好好练练自己的逻辑思维，独立判断力，学学哲学，方法论。别当草包。 支持曹德旺、董明珠这样的实业家 我去，这个双关，NB 站着说话不腰疼，抛开国企国资背景，你老董有什么资格与老贾比！ 连法拉第未来的股权都转让给外甥了，大招人间蒸发应该要使出来了 老贾在憋大招 说实话：做企业的人都想提高员工福利，大的企业可以这样做，但是那些小的企业都生存在生死边缘。 加油吧 键盘侠 董明珠是这几年才上位的之前是朱老板 我还在读初中的时候大概15年前，有个同学老爸格力电器做厂工，分了家庭宿舍，有家庭的可以申请套间，还可以公司给首付让员工供房子，这已经可以了，那时候格力电器工资也不低，不过就是时间长了一点，别的厂那时候最多两千，格力都上三千了。 董小姐PPT技术还是不如他 小姐姐，我爱你 傻逼董明珠 董小姐骗你钱了？老贾资产全转移出国，人也跑了，几十万股民都被坑惨，你同期买格力股票，都翻几倍了！ 我们缺少做实业的企业家，更缺少保护实业的环境。 没人帮你是你太优秀了[惊讶] 曹德旺这个我认可，董明珠有什么好支持的一个职业经理人搞得跟创始人一样 是商人不是企业家 骗子的水平要来干嘛？最终还是个骗子 这个不好抓回来吧！ 呵呵 你的水平老贾没有，老贾的水平你没有。 站着说话不腰疼，抛开国企国资背景，你老董有什么资格与老贾比！ 成败论英雄吧，至少董明珠现在还好好的，你的老贾已经遭万人唾弃了！！这就是差距！ 不多不多，才5个亿。 我有点懂一楼说的情商是指什么，处事圆滑，打打太极。马云也是没有情商，当年不给银行领道送礼。 那是帮么~那是赌博那叫风险投资！本来投资就有风险更何况冠以风险2字的投资呢！<br>贾也是心太大太贪搞新能源车么又是无底洞这下兜不住了玩不转了垮了抛开汽车这一块贾其他的运作都还算是比较成功的！可谓是一招失满盘输可惜了！ 把自己当啥，啥事啥人都要评价一下，水平又差，没深度 "
    },
    "Article": "（原标题：董明珠谈企业家诚信和责任：一个人没诚信，别人只能帮你一次帮贾跃亭的人太多，结果他让那么多人失望）CFP图每经记者陈鹏丽每经编辑姚治宇“员工在创造价值的时候，企业家不会让创造价值的人喝稀饭。”说这话的人，是格力电器董事长董明珠。作为企业家“网红”，她本身就是格力的一块招牌。2018年的第一天，董明珠出席“2018正和岛新年论坛：企业家的新时代”并发表了讲话。对于企业的人才机制，她说道，“那我们要怎么留住人才？我不是高薪，而是给你平台。”《每日经济新闻》记者获悉，董明珠谈到，格力公司门口天天有人站在那里挖人。董明珠说，她不认为盲目加薪是稳住人才的办法，企业要坚守自己的人才培养机制。另外，企业需要一个公平的税收环境。8万员工每人一套两房一厅？董明珠告诉在场媒体，格力电器1991年成立，至今已经28个年头，格力电器1991~2011年累计实现净利润195亿元，2012~2017年前三季度，格力累计实现净利润758.19亿元，近5年的净利润值是1991~2011年的3.9倍，近5年产值是此前21年的2倍；税收也一样，近5年格力贡献的税收是1991~2011年的3.2倍。”董明珠称，在她看来，企业最需要的是环境，她重复强调三次“环境”一词，她说，这个环境是指公平的税收环境。“我们过去最怕的是税收的不公平。你交了，他没交。如何把税收制度建设监督到位，我认为这就是我们今天所想要的，而不是单一地减免税收。”她表示，一个企业没有创新力的时候，即使不交税，其实也未必发展得好。“我们门口天天有人站在这里挖你的人。我们一开会，虽然讨论人不是我们的主题，但一开场，主要话题都是现在我们的人被挖，怎么办。有人提建议加工资。但我想想，格力今天已经有了超过10000人的技术开发队伍，一个人如果是100万元，200万元，企业能够支持得起吗？”此外，董明珠还强调，企业要坚守自己的人才培养机制。“我们最高的一年纪录，连外资企业也到我们这挖人。我们格力电器到今天，万人的技术开发队伍没有一个国际上的外来人才，也没有用高薪引进的人才。而是在中国高校，把应届毕业生、研究生、博士生招到格力电器来培养。”董明珠还说，由于格力研发出了光伏空调，现在格力所有车间员工都可以在25度环境下工作。同时，格力还给8万员工每人一套两房一厅的房子，“你做到退休（这套房子）我就给你。”企业家要牢记诚信和责任在董明珠上台讲话之前，格力自主制造的机器人在台上公开亮相。值得注意的是，在智能装备上，格力似乎十分“执着”自主研发。董明珠说，格力坚决不以合资方式做智能装备，“我们必须走自主创造之路，尽管我今天没有，但是用3年5年甚至10年时间，我们培养一支自己人才队伍的时候，我们就一定能成为世界之最。”《每日经济新闻》记者注意到，在演讲的末尾，董明珠强调企业家无论遇到什么困难，在面对社会、面对员工时，都不能忘记“责任”与“诚信”。董明珠摆出数据称，格力电器1991~2011年累计分红53.97亿元，在这期间格力在股市上募集的资金没有超过50亿元；2012~2016年格力累计分红363.95亿元。董明珠认为，这是上市公司坚守社会责任的体现。“我并不是想，我要拥有多少多少的财富；我在想，如果我真的能够带着我们的人，给这个社会作出点贡献，就感觉自己特别有价值。”董明珠还分享一则经历称，在英国出差的马路上，遇到有人问她是不是格力的董总，跟她说感谢，因为买格力的股票赚钱了。“当一个人没有诚信的时候，别人帮你只能一次。贾跃亭，帮他的人太多太多了，结果他让那么多人失望了。”董明珠说。本文来源：每日经济新闻责任编辑：王凤枝_NT2541",
    "Source": "Netease",
    "Title": "董明珠：帮贾跃亭的人太多，结果他让那么多人失望_网易科技",
    "KeyWords": "董明珠,贾跃亭,格力,格力电器",
    "URL": "http://tech.163.com/18/0102/07/D74KM01F00097U7T.html"
}