{
    "Article": "（原标题：加拿大遭遇最寒冷跨年夜动物园紧急更换企鹅住所）【环球网综合报道】据台湾“中时电子报”1月1日报道，当全世界都在欢庆迎接2018年到来之际，加拿大却面临多年最寒冷的一个跨年夜，不仅人们受不了，就连原生于南极圈的企鹅也难以应付如此急速降温的冬天。在当地急速降温至-25℃后，加拿大西部大城卡加利(Calgary)的动物园2017年31日决定将原先居住在露天园区的企鹅全数移入室内，以防园区内的国王企鹅(kingpenguins)与皇帝企鹅(emperorpenguins)的幼鸟受到伤害。事实上，加拿大从12月初就面临酷寒天气考验。东岸大城多伦多正式发布今年度第二个酷寒警报(extremecoldweatheralert)，除了降雪外，加上强风助阵，体感温度达到-20℃的低温，也让昨晚的跨年烟火秀被迫缩短时间;首都渥太华(Ottawa)国会外的跨年音乐晚会和烟火秀，则因夜晚温度骤降至-27℃而被迫完全取消。虽然企鹅被移入室内园区，但卡加利动物园园方仍表示，欢迎大家在新年的第一天，一同前来探望可爱的企鹅家族。本文来源：环球时报-环球网。更多精彩，请登录环球网http://www.huanqiu.com责任编辑：程钢_NN7377",
    "Title": "企鹅也怕冷！加拿大企鹅难应付最冷跨年夜被移室内_网易新闻",
    "PublishTime": "01/02/201811:27:10",
    "Source": "Netease",
    "Comment": {
        "Content": "企鹅也需要烤火？ 企鹅：我要回南极！ 躲进房子是外面有北极熊 因为,,企鹅是不怕冷的吧,,(怕不怕冷他自己知道,,至少在南极应该是挺格冻的..) 企鹅都是不怕冷的.... 企鹅也需要烤火？ 企鹅：我要回南极！ ",
        "Reply": 5,
        "Link": "http://comment.news.163.com/news_guoji2_bbs/D752TIPG0001875O.html",
        "Total": 13
    },
    "KeyWords": "加拿大,跨年夜,企鹅,烟火秀",
    "URL": "http://news.163.com/18/0102/11/D752TIPG0001875O.html"
}