{
    "PublishTime": "12/30/201703:56:13",
    "KeyWords": "猝死,医院,护士,男护士",
    "Source": "Netease",
    "URL": "http://news.163.com/17/1230/03/D6SHTMTE0001875P.html",
    "Comment": {
        "Link": "http://comment.news.163.com/news_shehui7_bbs/D6SHTMTE0001875P.html",
        "Total": 16908,
        "Content": "氯化钾？？？？好像7年前心肌缺血就用它输液来治疗的。 这是人说的话吗？ 2017年，浙江上新闻的次数多于任何省市！还多是糟心事！！！ 这唐山的早被我打脸了！一个新闻两个央视台说法互相对立，他转眼就不认了，在其他新闻他还是说央视都是真的，我去回他，直接骂我，对于两个央视谁撒谎只字不提！ 这智商跟东北人一样 好事儿都往前凑合，出人命了、都开始推卸责任，唯恐避之不及。 你最好不论怎么样都别去医院，熬住，熬不住就死了算了，别浪费医疗资源。 应该还家属一个真相 为什么不信？曝光企业坏的事情的虽然也有弄错的，但大多数还是对的，不信自己去查。唱好的就不了解了。所以起码部分正确 尸检也是他们做 这个163不是高级黑就是个傻B 一楼SB 央视的新闻是有政治目的的，无论所谓的正能量还是所谓的阴暗面，都是为了政策造舆论，你仔细想想吧。包括315打假你都的仔细想想。你要是单纯信了他表面，你就输了。 这个病人本来就要死了，家属怎能讹医院呢？现在什么世道？干脆医院统统关掉，让大家生病等死吧！ 肿瘤医院做化疗，<br>身体差的顶不住！<br>天天有人离世！ 可惜了 注意用词，病患非正常死亡，这个讹字家属担当不起。你自己留着用吧！ 死哪讹哪 医院是要钱又要命的地方，进了医院不管治好与治不好都要交钱 静待尸检报告出来吧 不同的管子，需要不同的器械匹配操作，静脉输液，鼻饲，器具完全不同，别说正规学校毕业的护士，就是普通人，门外汉，也不可能插错，打不进去的！所以死人是打错管子根本不可能，可惜，护士注册还没完成，给家属抓住了把柄，赔钱吧 不信。仔细想一下，那是多少收入？那得一月十万到几十万吧。得过什么生活，没点逼数？赔钱那都不在乎。还跟你闹闹个屁，麻烦了不是，还不能赚钱了，想想都可笑。央视还说过我们都很幸福，你信吗？ 什么原因造成的当时没有进行解剖鉴定？ 一个肿瘤晚期患者，浑身插满了管子了，随时都可能去世吧？另外，你说他非正常死亡，那非正常死亡的原因是什么？ 5楼，一个月二三十万你以为玩笑？主任级别！热门科室！ 对回扣质疑的可以去三甲医院体验一把，老子刚体验了一周出院，现在的心情是：伤医案的医生罪有应得！它们不知道掏空了多少家庭的积蓄，还他妈口口声声让我去投诉。投诉有用的话哪里还有伤医案？ 那就说说你的不幸 得找当事人了解情况，特别是那个男护士 这年头还有信ccav的，脑子让驴踢了！ 医生回扣本来就3040 我就担心这种药用错的事情发生，能不上医院尽量熬住 终于放过南京了？ 辛福你大爷 举证倒置，不然医院或者其他事情的企业依然强势泰山压顶。 楼上麻烦下回吃完屎记得漱漱口，这么臭我离着几千公里都闻到了 我们这一个医院更换了一套医疗电子程序：4200万！！！ 是啊 给医生了？ 两方都不用瞎掰，直接尸检鉴定，该是谁的责任是谁的责任，家属瞎闹按医闹论罪，医疗事故按事故惩处。 患者为医药费的40%被医生拿走了央视曝的光 谁拿走要有数，别在这里煽动 没有证据，别乱评论，引导舆论！ 你不幸福吗？你为什么不相信央视？呵呵 也有可能手术后栓塞什么的！ 央视说被医生拿走了央视的音频视频都有证据确凿也是煽动？ 我发现最近163来的都是领工资的，大概他们的工作就是这个。另外，电脑端登录就是163，各位想想坐电脑前刷新闻是些什么人！ 央视的所谓正能量可以不信，偶尔曝光的阴暗面还是非常可信的。楼上有的人为医院开脱已经到不要脸的程度了 你他妈傻逼一个，整天YY医院整你，医生整你，那你别去医院啊，去干嘛？明知那是个整你的地方你还去，不是犯贱吗？ 哈哈哈，不说南京，主要是那里没发生过一件好事，都不值得一提！🤗️🤗️ 确实有可能，家属很细心，这样的事安中医的重症监护室里就发生过，当时把鼻饲的营养液打到静脉管道里了，造成严重后果，具体结论未知，因为没有传出来，只有少数人知情。 本来人都是个死人了，这下算是找到下家了。为钱无德。真做得出来，社会的悲哀。 懂不懂什么叫利益共同体？好处你一个人全独吞了，回头调查时，你指望别人替你说好话，替你打掩护？护士不是主力，但是或多或少要分一点给她们，毕竟她们熟知内情的。 这是人说的话吗？ 什么叫把柄？这叫违法，祝福你全家每次都遇到这种护士 2017年，浙江上新闻的次数多于任何省市！还多是糟心事！！！ 浙江绍兴的可能跟实习护士有点关系吧 阿弥陀佛阿弥陀佛 因为都是欺软怕硬的怂货，而且还有些价格到底谁定的都不知道，就喜欢跟风在那边瞎叫唤 南无阿弥陀佛🙏🙏🙏 当医生真的每个月10几万，凭什么要累得跟狗一样，搞到自己过劳死？缺心眼吗[窃笑]药的钱那肯定是ZF收了大头啊，你说cc敢爆ZF的不是吗？肯定医生背锅了，这都不是啥秘密了，怎么现在还有这么多不明真相的群众。 用哪些药和护士有关系？都是医生下的医嘱好不！ 阿弥陀佛阿弥陀佛 我表弟妹生孩子第二天死亡，说是栓塞，不知医院有没有责任 央视没说那大头去哪儿了吗？还有60%呢。 尸检谁检，不还是医院么 这个病人本来就要死了，家属怎能讹医院呢？现在什么世道？干脆医院统统关掉，让大家生病等死吧！ 我去百度了一下这两种管子的图片发现差别非常大我估计你说的这个护士是个弱智 遇见职业选手了 赔钱呗。 患者多讹钱，医院少赔钱，成交量遥遥领先 19岁大学毕业时找工作，面试时对面坐着的漂亮女白领，是人力资源部经理，她问我：你能干多长时间？我有些诧异，但还是老老实实回答：一般半个小时，状态好的时候四十分钟。她低声说：我是说你在这儿能干多久？我环顾四周，有些羞涩的说：这我可能放不开，我从没当着这么多人，真的不太习惯。三天后我被录取了，知道她原来是老板娘。她送给我一本《能量决定命运》，让我学习红浅学。三个月后她挺着肚子辞职离开公司，临行前嘱咐我一定认真学习，不学红浅学，赶不上马化腾，娶不起林志玲。不读《能量决定命运》，富不过刘强东，跑不过贾跃亭。二十年后孩子会来认你的。 这个问题可以问家属。 哪个单独卖水果的，利润低于百分之五十的？29楼说来听听！搞笑了，赵括么？ 一楼畜生 有只小白兔，一天它挖到一只好大的胡萝卜，往家里搬的时候，半路上杀出一只穿山甲一把抢走了小白兔的胡萝卜。小白兔生气冲着穿山甲说：“你干什么呢！”穿山甲说：M9H0qA29M4小白兔听了以后，立马撅起屁股。穿山甲到底说了什么？复制整条消息，打开支付宝，答案自己出现。 你不白痴？尸检医院做？谁是白痴？ 满脑子阴谋论的都是些什么人！这也不信那也不信？你怎么不去死，你告诉我你活着有啥意思？被害妄想症！就是太把自己当回事了 不同的管子，需要不同的器械匹配操作，静脉输液，鼻饲，器具完全不同，别说正规学校毕业的护士，就是普通人，门外汉，也不可能插错，打不进去的！所以死人是打错管子根本不可能，可惜，护士注册还没完成，给家属抓住了把柄，赔钱吧 问题是央视这次说的是真的。我发过回扣的收取部分，你可以从我名字点进去看，谁参与分配了。要审核，不想再发，但是你可以去看看。 27楼不要说是零差价，负价出去也能收回扣的好吗？几块钱成本的药一二百元中标，开一盒给多少回扣！ 真特码想给你俩嘴巴 可能是药用错了 因为他不是人，不会人话。 意外还有医疗事故？ 对回扣质疑的可以去三甲医院体验一把，老子刚体验了一周出院，现在的心情是：伤医案的医生罪有应得！它们不知道掏空了多少家庭的积蓄，还他妈口口声声让我去投诉。投诉有用的话哪里还有伤医案？ 你以为是毒药啊，一会儿就死了 不尸检难辩论 我真怀疑他们是不是有转移大家视线的任务！ 两方都不用瞎掰，直接尸检鉴定，该是谁的责任是谁的责任，家属瞎闹按医闹论罪，医疗事故按事故惩处。 这标题看的我邪恶了。 发明这个说法的sb断子绝孙！！！既然举证倒置，那是不是需要法律规定，每个病人治疗过程每时每刻需要全程录像，是不是整个治疗过程不需要病历记述？很多时候提出疑问很简单，但是证明起来却千难万难！像数学里的很多提出猜想或疑问，道理很简单，但证明正确却非常非常困难！现在默许的道理，很多是因为自己无知！医学是科学，道理是相通的。信得过医生你就去治，信不过你不要去治，治疗完还秋后算账，倒打一耙，流氓也不过如此下流！压垮你的不是医生，药商，器械商，审批和政策……，医生也仅仅为了糊口而已，愚昧的你们，什么时候才能清醒！ 我就担心这种药用错的事情发生，能不上医院尽量熬住 举证倒置，不然医院或者其他事情的企业依然强势泰山压顶。 病人死亡后家属是要签尸体解剖知情同意书的，无论同意还是不同意，这个是必需的程序，我觉得多半是家属不同意吧，很多家属都觉得人已经走了，不应该再遭罪 为钱借题发挥，把脸都要了，做人的底线都不要，那来的尊严，完全不要脸了，社会上的人象这样的人还是少数，敢怒而不会言，因为大环境不允许的言，心中有一杆称，谁是谁非自在人心。有德的，必径还是少数不要脸的。也发不了个财，会有报应的，只是时间问题。 凡是手术都有这种风险，一般情况下术前院方都有例行风险手续，比如防止意外签字等。 就算那楼，也没说清楚这药是怎么流入医院，哪些环节需要公关。那里面就没人提到药房护士也要分一点。可事实上，药房护士也有份的。 患者为医药费的40%被医生拿走了央视曝的光 什么原因造成的当时没有进行解剖鉴定？ 也有可能手术后栓塞什么的！ 这真的躺枪了 准备赔钱吧。 你真去了医院？我们这的医院现在都是开药单让你自己买，随便哪家店都有的药，医生也拿回扣了？ 天灾人祸不断，长个心眼，分辨善恶明真相上天佑。 这是好事，说明政府在袒护和隐瞒的程度在降低 这三楼是个白痴？你意淫多了吧 有人打脸了你去翻翻评论最多那楼 以后这种病人直接劝家属转院 继续努力 死哪讹哪也是国人一大特色，现在屁民争论的话题是医生回扣，医生医院掏空病人掏空医保的动力是什么？ 确实有可能，家属很细心，这样的事安中医的重症监护室里就发生过，当时把鼻饲的营养液打到静脉管道里了，造成严重后果，具体结论未知，因为没有传出来，只有少数人知情。 看看 有种直接找幕后黑手找说法，直接打死他，不敢？伤医生护士那么牛逼去找罪魁祸首就阳痿了？ 怎么中标的？医生护士决定的？再说，这中间大头谁拿，心里没点逼数？ 哦，你要按这么算的话，一个土豆种出来也就是3毛一斤，你去饭店吃一盘土豆丝就要20，这也是暴利，而且你这复制的新闻也看到了，中标价，知道中标价是什么意思？ 这样的医疗事故要好好查一查，病人把生命交给医院医院就草草推卸责任是行不通的。 到底是怎么回事 坚持住，别去！！！ 尸检结果可告诉你， 明显搞事情嘛！💊这东西哪个医护人员都知道“三查七对”！不要随便就给本已经极度紧张的医患关系添堵！受害还是自己，要是没人做医生护士了……又说了…… 既然这么确定，为何不尸检？这么好的证据不用，花费大量精力再折腾，大家都明白为什么了！ 刚刚上一个新闻跟帖里才说了现在没人愿意当医生了收入低工作累，无假期怎么到这里又月入几十万了 如果真的是医院搞错了那怪医院，但是往往现在由于病人自身原因死亡的，家属就讹医院了，反正死哪讹哪 医患矛盾又来了 陈科长你妈妈死了没有 尸体解剖鉴定 死哪讹哪！本该死的这家人估计穷疯了！ 那你们就去砍杀吧，既然是正义的化身。学医真的救不了中国人！ 别还没鉴定媒体就开始乱用标题，搞清楚了再说 广告部跟新闻部是两个不同的部门。央视虽然平时谎话连篇，但是有的还是真话的。起码就我了解的医生是参与分钱的。我刚才发过，被压到5页之后了。不想再重发，要审核，不过，你可以从我ID点进去看看，是怎么分配回扣的。 你不让尸检的？造谣是要坐牢的，北京人就可以随意造谣吗？ 鉴定 两个半月了，医院还没有查出来死亡原因，这说的过去吗？这医务科长就该下岗 告医院有几个告赢的？法律公正的话医闹至少少五分之四，社会治安至少好十倍，法律公正的话，基本上没碰瓷的，老头老太太倒了基本上都敢扶！ 这个病人本来就要死了，家属怎能讹医院呢？现在什么世道？干脆医院统统关掉，让大家生病等死吧！ 现在调查真相，走司法程序也算瞎闹了？ 又你玛开始挑动医患矛盾了，这一切的乱象不都是因为罪恶的医疗制度吗？ 不同的管子，需要不同的器械匹配操作，静脉输液，鼻饲，器具完全不同，别说正规学校毕业的护士，就是普通人，门外汉，也不可能插错，打不进去的！所以死人是打错管子根本不可能，可惜，护士注册还没完成，给家属抓住了把柄，赔钱吧 跟打针应该没有多大关系，几秒就死？比手枪危机还大吗？ 什么原因造成的当时没有进行解剖鉴定？ 医疗事故水很深的 哎无证？通过考试还叫无证？记得前段时间有人买的火车票丢了不让上车说是没有票看来这家属是铁道公司的家属吧 5楼，一个月二三十万你以为玩笑？主任级别！热门科室！ 那就说说你的不幸 明知道别人坑你你还去？自己给自己看不得了。去年我家人也生一场大病没给医生护士红包不一样客客气气，社会太浮躁多体谅点吧 别讹诈了，和护士没关系。 护士加班很严重的，人在高度疲劳的时候什么都有可能 无论什么结果，院方首先有过错，没有执业资格就单独操作，职业规章制度必须要严格执行，这是对自己负责也是对别人负责！ 我就担心这种药用错的事情发生，能不上医院尽量熬住 药特么还能喂错地方？ 别的原因 现在到处都是临时工，外包工，劳务派遣工，稍微培训下就上岗，不很专业当然出事啦 两方都不用瞎掰，直接尸检鉴定，该是谁的责任是谁的责任，家属瞎闹按医闹论罪，医疗事故按事故惩处。 患者为医药费的40%被医生拿走了央视曝的光 呵呵，你们做药和耗材的把价定的那么高，然后拿5-10％给医生。你当我不了解这个行业么。大头都是你们拿了，然后在这甩锅。 应该按谋杀罪起诉，连带起诉医院毁灭证据包庇罪 医生只拿5-10%？你把医生当叫花子？你确定你真了解这个行业？如果你是个拿过回扣的医生，这得多不要脸才说得出这种话！ 合着你是不看文章只管喷？ CCAV放假药广告可不少，信？ 没有经历过医疗事故的家庭永远不知道医院里一切皆有可能，2015年母亲医疗事故植物人，我们姐弟四人整整打了一年官司，最后赢了，其中艰辛只有当事者自己知道。 多你这种人，世界多多了头猪，只要给你饲料，基本上就很幸福了 媒体，患者家属也是屁扯 别的不说，国家如果允许国际机构来华大量开尸检所，那中国医疗会上一大个台阶。。 其实我就服网易的标题，有同感的请举手！ 你那是喝多了，不是疲惫 警察和城管都能狼狈为奸，这两个部有啥不能勾结的？它们肯定不会和老百姓一条心就是了 赔钱赔钱！ 尸检和医院一伙的 女子有问题吧 死哪讹哪也是国人一大特色，现在屁民争论的话题是医生回扣，医生医院掏空病人掏空医保的动力是什么？ 又是这个唐山的撒比，每次新闻就会说这几句话，真的很怀疑是制杖！ 医生高收入高回扣是有的（但至少副主任以上），收入一般不停上班也有的（大部分是这样），慢慢熬吧，基本熬到40岁以上收入就不会觉得低了 31楼的，你说谁把药价推上去的那？ 尸检报告是公证的假如我是说假如是肺栓塞这就赔不了几个钱了 拉倒吧，就算是火星人来尸检，只要跟他们猜测臆断的不符合，都是有黑幕！ 患者为医药费的40%被医生拿走了央视曝的光 完了没戏了基本医院没多大责任了，医院推出个“临时工”有说一堆医院的专业的东西，反正就不承认误操作和误使药物，一个老百姓怎么能辩的过他们还你妈举证一个老百姓等医学还上医院看什么病 这是人说的话吗？ 宁波第一医院，我们单位体检都是它。。。 猝死原因未查出? 中国的事能有1%公正解决很好了。 大家好，我是一家机械厂老板，我手下有200个工人，我厂每年收益达到了2个亿，但我从不拿1分钱，我把钱都分给了手下的员工们，他们都很高兴，见人就夸我会做生意🙄🙄🙄 什么原因造成的当时没有进行解剖鉴定？ 又比美国，可怜，人家一人一票定法律规定，合不合理也51%人认同，你有吗？ 讹呗！ 静脉注射用的是注射器鼻饲用的是喂灌器接口完全不同的想错都错不了学过医的都知道我说无良媒体们能别发这些无聊的东西了吗 说你是傻逼，不知道有没有人顶！ 。。。 心狠手辣 为错了地方[狗] 这个病人本来就要死了，家属怎能讹医院呢？现在什么世道？干脆医院统统关掉，让大家生病等死吧！ 讹医院的人越多，大家看病就越贵，风险会均摊到广大老白姓身上，所以别助纣为虐… 莫等如此病，早舍剐，灭贱。谱写壮丽人生。 氯化钾差点看成氰化钾[惊讶] 刚毕业的都没有资格 不能静推，点滴好像是500ml不超过05克 人命不值钱了现在 你看错了..这不是人在说话 有事请百度吧，你这样有事的时候不适合到医院🏥，因为你不信任专业人员！连基本都不信，还去医院🏥干什么？ 来来来，干了这杯五毛钱的酒，庆祝医院胜利！ 重症等各种各样的医疗都肯看得出对病人很关心突然不明不白的去世了那肯定不行医院规范的话根本不用担心 作为医生这个病人的病是治不了的其实就是在医院等死 医患关系发展到如此紧张地步，关键是缺乏公正的第三方处理机制！！！！！<br>河北张家口一平民百姓，在医院拔牙，回家麻药劲过后取掉药棉，发现应该拔的“断牙”还在，后面的“好牙”没了，患者通过倡导的理性诉讼解决，就这么是非分明，看得见摸得着的小案，患者受尽百般“愚弄”，历经三年至今患者没有得到医院一分钱退赔、一句话道歉。就连预交的诉讼费法院也未退分毫（一审法院判决被告医院全部负担案件诉讼费）。请搜索看《截然相反的医疗纠纷乌龙奇葩案》，患者维权无门，苦不堪言，祈求得到法律援助。 这件事如何才能公正、公平的解决呢？难道无解？ 在美国，医生拿回扣是合法合规的，是精英人士的才干！且全世界医生拿回扣只有中国是违规的 医生高风险高强度行业 医院，尤其是公立医院，一半的工作由没有证的实习护士完成，三甲医院也一样。私立医院基本如果老师娘还证，有证的护士一个都不会请，因为要节约工资。死了只能怪运气差，很正常！ 我大绍兴怎么会有这种人 尸检？你开玩笑呢，都是自己人检，你信吗 两方都不用瞎掰，直接尸检鉴定，该是谁的责任是谁的责任，家属瞎闹按医闹论罪，医疗事故按事故惩处。 的确如此，看谁关系硬谁就强者。公平公正都是放屁。法律就是权者的工具。 举证倒置，不然医院或者其他事情的企业依然强势泰山压顶。 我没觉得是患者家属王先生没让做吗？自己有理有据的话，为什么不让做尸体解剖啊，到底什么原因开始不走法律程序啊？有什么内幕呢？ 本来身体挺好的，去医院干嘛 两个多月了，不是天朝现代医学很发达了嘛？连死因都不知道？是不知道还是拖着不想说啊？ 又比美国，可怜，人家一人一票定法律规定，合不合理也51%人认同，你有吗？ 美式民主不适合于中国。 没资格咋招进的？拿生命当儿戏！ 医检人员是同伙，检个鬼。此死亡事件肯定是喂食不当堵塞气道造成的。 现在一楼这种傻逼，尤其多 医院的收入归谁，监管部门是谁，举证部门是谁。这个谁是同一个那谁。医院出事后，奉劝P民们自己乖乖的回家，告状也是瞎花钱，除非自己有亲戚是那个谁。 P民逻辑你不懂，难怪永远只是p民 我三年前有次夜里十一点多发烧，然后去了本地一个中医院急症室，急诊医生开完药我自己就去药房拿药，护士配药是说少了一种药，我又去药房，发药的尽然说没少，就这样跑了两三趟终于确定是少拿了，就把药房的骂的狗血淋头， 举证就是尸检，有几个家属会同意尸检的… 男护士都是变态 呵呵了。我儿子看病也差点吃错药，幸好我老公掸了一眼。 氯化钾？？？？好像7年前心肌缺血就用它输液来治疗的。 没说错。医闹不少。中国人现在死哪讹哪。死高压线下还告供电局的。你真以为百姓很善良。 这话说的，好象你不是百姓似的 医院不承认那就尸检吧！ 讹医院的人越多，大家看病就越贵，风险会均摊到广大老白姓身上，所以别助纣为虐… 一般都是家属不愿意鉴定，直接火化了，这样就没法对证，才好跟医院谈价钱。 很专业 极个别吧！至少我大广州本地人都很100%相信医护人员的！小病社区，大病到带飞机服务的大型综合医院准没错！ 说得简单，这贪腐国的故事会如此简单明了？！？！ 看清楚内容了吗，嘛玩意儿叫无证行医？真正无书的莆田系从来没见你们敢去闹的 这是人说的话吗？ 要病人举证医院，怎么举证？ 说好的举证倒置呢？你医院，首先要证明医疗过程无过错呀 你二楼才不是 医检人员是同伙，检个鬼。此死亡事件肯定是喂食不当堵塞气道造成的。 医院的收入归谁，监管部门是谁，举证部门是谁。这个谁是同一个那谁。医院出事后，奉劝P民们自己乖乖的回家，告状也是瞎花钱，除非自己有亲戚是那个谁。 经济 时间向着谁呢？还是大事化小小事化聊，赔钱吧。 医院，尤其是公立医院，一半的工作由没有证的实习护士完成，三甲医院也一样。私立医院基本如果老师娘还证，有证的护士一个都不会请，因为要节约工资。死了只能怪运气差，很正常！ 医患关系发展到如此紧张地步，关键是缺乏公正的第三方处理机制！！！！！<br>河北张家口一平民百姓，在医院拔牙，回家麻药劲过后取掉药棉，发现应该拔的“断牙”还在，后面的“好牙”没了，患者通过倡导的理性诉讼解决，就这么是非分明，看得见摸得着的小案，患者受尽百般“愚弄”，历经三年至今患者没有得到医院一分钱退赔、一句话道歉。就连预交的诉讼费法院也未退分毫（一审法院判决被告医院全部负担案件诉讼费）。请搜索看《截然相反的医疗纠纷乌龙奇葩案》，患者维权无门，苦不堪言，祈求得到法律援助。 为什么突出男护士？ 和稀泥就可以了。 比如心脏搭桥，40%不为过！！感冒发烧就没40%了，不过每天量多，收入也不少。 [被黑][被黑][被黑]责任心呢 ！！！！ 别觉得别猜，实践报告呢？信不过医院的可以找一家自己信得过的查嘛 死哪讹哪[鄙视] 真是日了狗 别闹了，这不可能分的错，估计栓塞。护士倒霉啊 无证行医，这一条都够医院受的了。只不过有人不管不问而已。 那你说，每年的护理专业的实习生到哪里去实习？在学校她们怎么学？基本上都去了医院吧！ 这个与职称有什么关系？ 现在好些了，用药前护士反复确认好多遍的，一线护士不容易，鉴定后按规则来吧，没必然因果就没必要抓住人家的小辫子不放，而且你还只是人家亲戚。。。 你以为鉴定的结果就是真的吗 什么原因造成的当时没有进行解剖鉴定？ 哈哈，我是专门捉拿三楼疯狗的，你们几个继续聊 医患关系发展到如此紧张地步，关键是缺乏公正的第三方处理机制！！！！！<br>河北张家口一平民百姓，在医院拔牙，回家麻药劲过后取掉药棉，发现应该拔的“断牙”还在，后面的“好牙”没了，患者通过倡导的理性诉讼解决，就这么是非分明，看得见摸得着的小案，患者受尽百般“愚弄”，历经三年至今患者没有得到医院一分钱退赔、一句话道歉。就连预交的诉讼费法院也未退分毫（一审法院判决被告医院全部负担案件诉讼费）。请搜索看《截然相反的医疗纠纷乌龙奇葩案》，患者维权无门，苦不堪言，祈求得到法律援助。 这件事如何才能公正、公平的解决呢？难道无解？ 喂到哪里了？ 不同的管子，需要不同的器械匹配操作，静脉输液，鼻饲，器具完全不同，别说正规学校毕业的护士，就是普通人，门外汉，也不可能插错，打不进去的！所以死人是打错管子根本不可能，可惜，护士注册还没完成，给家属抓住了把柄，赔钱吧 这个病人本来就要死了，家属怎能讹医院呢？现在什么世道？干脆医院统统关掉，让大家生病等死吧！ 我就担心这种药用错的事情发生，能不上医院尽量熬住 医院就两种结果吧，要么治好，要么死亡，正常得很。 为什么不尸检？ 举证倒置，不然医院或者其他事情的企业依然强势泰山压顶。 比如心脏搭桥，40%不为过！！感冒发烧就没40%了，不过每天量多，收入也不少。 我们这一个医院更换了一套医疗电子程序：4200万！！！ 中国的事能有1%公正解决很好了。 难道从另外一个口喂的 值得怀疑 患者为医药费的40%被医生拿走了央视曝的光 没有那么麻烦，就请和稀泥。 氯化钾直接打静脉里一般不可能，打一点点就会很痛很痛的，患者不是植物人不可能受的了，再说护校毕业的有点常识的不可能会静脉直接注射氯化钾 的确如此，看谁关系硬谁就强者。公平公正都是放屁。法律就是权者的工具。 直接专业机构鉴定不就完了。 举证倒置，不然医院或者其他事情的企业依然强势泰山压顶。 什么地方？ 两方都不用瞎掰，直接尸检鉴定，该是谁的责任是谁的责任，家属瞎闹按医闹论罪，医疗事故按事故惩处。 闹一下就能解决的问题干嘛要解剖 医患关系发展到如此紧张地步，关键是缺乏公正的第三方处理机制！！！！！<br>河北张家口一平民百姓，在医院拔牙，回家麻药劲过后取掉药棉，发现应该拔的“断牙”还在，后面的“好牙”没了，患者通过倡导的理性诉讼解决，就这么是非分明，看得见摸得着的小案，患者受尽百般“愚弄”，历经三年至今患者没有得到医院一分钱退赔、一句话道歉。就连预交的诉讼费法院也未退分毫（一审法院判决被告医院全部负担案件诉讼费）。请搜索看《截然相反的医疗纠纷乌龙奇葩案》，患者维权无门，苦不堪言，祈求得到法律援助。 考虑到你们一个地级市，要是报价到这个程度，那应该是pacs系统软件+服务器（一般是两台冗余）+存储+医用竖屏若干+专业级显卡若干，但也到不了你这个数。。。结论，要么你们那里的政府采购部门不怕年底的财务审计，要么就是你不懂行还要在这儿瞎列名词“一套医疗电子程序”煽动情绪。。。 意思是死在我手上也不是因为我。 不要说太多，赔钱就行了。 严查这个医院的背后黑手及管理缺失渎职。 氯化钾？？？？好像7年前心肌缺血就用它输液来治疗的。 这是人说的话吗？ 觉得二楼是在调侃央视呢 他阿姨49岁，去年年底检查出患骨髓瘤，9月18号，在宁波市第一人民医院做了骨髓移植。9月30号，又查出十二指肠坏死，当天做了切除手术，又转到重症监护室。 希望能安装正常程序走，不要闹该怎么处理还是怎么处理，愿安息。 2017年，浙江上新闻的次数多于任何省市！还多是糟心事！！！ 问题是中国的鉴定总受到外力的一些扭曲，百姓们不信啊 草菅人命 王先生说，他阿姨49岁，之前身体很好。去年年底检查出患骨髓瘤，9月18号，在宁波市第一人民医院做了骨髓移植。9月30号，又查出十二指肠坏死，当天做了切除手术，又转到重症监护室。<br>看看吧，本来就是要死的人了，死了也是意料之中，何必要讹人了！ 一看就是院长的亲戚，要不然没有护士证怎么能去医院上班 好像輸這種液體人特別不舒服，喊痛 一楼要不是医生中的败类我吃屎十斤，热的！ 下次投个好地方，不要再点地玉模式了。 我一个外行都知道，鼻饲的那不是营养液，那叫“流食”，流食太粗，根本注射不进静脉血管里，所有的“营养液”，都是水解蛋白和氨基酸类，都是液体。“流质”跟“液质”，是完全不同的两个概念！所以你说的营养液，没有鼻饲的，几乎全都是静脉注射的，比如捷苏。营业液就是水质，你他妈鼻饲能吃饱吗？我这个外行都不下去了，还“中医的重症监护室”呢，重症监护室里鼻子大都插着吸氧，哪有地方插鼻饲？你坑鬼呢？中医的名声就是这样被你们败坏的！ 有病吧那人家做了真多次手术花了这么多钱了还想她死吗又没有说是什么病晚期没得治了人家是好好的好吗 浙江摊上大事了 这个病人本来就要死了，家属怎能讹医院呢？现在什么世道？干脆医院统统关掉，让大家生病等死吧！ 鉴定结论有几分可信，医院会不会幕后操作 两方都不用瞎掰，直接尸检鉴定，该是谁的责任是谁的责任，家属瞎闹按医闹论罪，医疗事故按事故惩处。 马上医改就会改成你想要的那种局面了，希望你将来不会觉得看病难，看病贵。拭目以待吧。 做鑑定的人，就是醫院的同行，懂麼！？ 够药💊的回扣早拿了 有一个事实是确认了的，护士无证上岗，在任何国家只要医护人员无证上岗，那都是要判刑加罚很多很多钱的。不过有些特殊地方估计会除外，因为他们通常会发明医闹这些高端东西出来。 氯化钾？你喝一口也不撑啊 中国医院的问题是垄断医疗资源，让百姓无处可去。若像国外一样民间医院可以做所有项目，你们看看还有没有公立医院的医疗事故天天发，巨额费用吃死人的事！ 你这谄媚的样，看来你意思是医院责任的话也就是停职检查了被？大连的狗真多 我一个外行都知道，鼻饲的那不是营养液，那叫“流食”，流食太粗，根本注射不进静脉血管里，所有的“营养液”，都是水解蛋白和氨基酸类，都是液体。“流质”跟“液质”，是完全不同的两个概念！所以你说的营养液，没有鼻饲的，几乎全都是静脉注射的，比如捷苏。营业液就是水质，你他妈鼻饲能吃饱吗？我这个外行都不下去了，还“中医的重症监护室”呢，重症监护室里都是重症患者，鼻子大都插着吸氧，哪有地方插鼻饲？你坑鬼呢？中医的名声就是这样被你们败坏的！ 不同的管子，需要不同的器械匹配操作，静脉输液，鼻饲，器具完全不同，别说正规学校毕业的护士，就是普通人，门外汉，也不可能插错，打不进去的！所以死人是打错管子根本不可能，可惜，护士注册还没完成，给家属抓住了把柄，赔钱吧 医患关系如此紧张，关节是缺乏公正的第三方解决机制！！！！！<br>河北张家口一平民，在医院拔牙，没有签同意书，也没有写纸质病历，回家麻药过劲后，发现断牙还在，后面的好牙没了，患者选择理性维权，就这么是非分明，看得见摸得着的小案，患者打了三年官司，至今也没有得到医院一句话道歉，一分钱退赔，就连患者预交诉讼费也未退分毫（法院判决诉讼费由被告医院全部负担）老百姓维权无门，请搜索看《截然相反的医疗纠纷乌龙奇葩案》患者祈求得到法律援助！ 现在的伍dog素质堪忧啊，连D媒都不信了，也不知道是怎么调教的 不要什么都去闹！ 谁能举个例子，医疗鉴定是医院有过错的？好像没听说过。 而且这个尸检都无法发现的。曾经有人用这个谋杀过，尸检发现是因为静脉发现不应该有的针眼。这个病人估计静脉上早就布满针眼了。这种死亡方式是无法尸检发现的。 这不就是传说中的安乐死吗？这可是求之不得的呢。 暂且不论40%是否真实，那剩下60%被谁拿走了，你想过没有？ 我觉得你说的很有道理。氯化钾是高危药，根本不可能用于静脉注射，谁会脑子搭错把胃管，留置针什么的搞错。 喂药喂错嘴了吗 政府宣传小病三千大病五千治病，然后转脸医保办就给医院下了死规定，手里就几百万，多收的病人你们医生掏钱给人家报销。这就是为什么快年底的时候都尽量不收病人了，病人去报销，转脸就从医生身上扣钱，谁还收病人。郭嘉就这种嘴脸，信央视的迟早成红卫兵。 谁实习还不干活的？ 什么原因造成的当时没有进行解剖鉴定？ 氯化钾打静脉当场死亡。我也是晕了，我也打过，怎么还好好的？ 患者为医药费的40%被医生拿走了央视曝的光 对血管有刺激的，快了痛。要慢。 這隻鑊怎樣背才能解決？ 稀释静脉滴注是可以的，氯化钾直接静脉推注，会致死。 有利的时候就信，不利的时候就不信了。 解剖后再说吧 我一个外行都知道，鼻饲的那不是营养液，那叫“流食”，流食太粗，根本注射不进静脉血管里，所有的“营养液”，都是水解蛋白和氨基酸类，都是液体。“流质”跟“液质”，是完全不同的两个概念！所以你说的营养液，没有鼻饲的，几乎全都是静脉注射的，比如捷苏。我这个外行都不下去了，还“中医的重症监护室”呢，你坑鬼呢？中医的名声就是这样被你们败坏的！ 那问题来了，医院都关门了，医生生病咋办 家属为什么都不愿尸检？这不是能比较准确的确定死因嘛 楚人命了找法医尸检 跟医院斗肯定斗不过的，最多开除这个男护士了事 确实有可能，家属很细心，这样的事安中医的重症监护室里就发生过，当时把鼻饲的营养液打到静脉管道里了，造成严重后果，具体结论未知，因为没有传出来，只有少数人知情。 回扣大头在医生那里，这个绝对没错。要公关的有：省招标平台（这个是入围招标，要不然就连招标资格都没有，进不了医保名册），医院的医药委员会（这个是要能进这个医院，其中院长跟药房主任最重要），科室主任（这个是进科室的门槛），具体的用药医生（同质化的药很多，用你用别人都是用，凭什么用你的？就算院长同意，医生不用一样行不通)，就算是药房的护士也要分一点（每个月统计每个医生的用药量，好计算回扣）。你告诉我医生有没有拿大头？！ 想弄清楚死因，做尸检就行了，不清楚死因，责任无法判定，发这么一篇没有根据的报道，想说明什么问题？还嫌医患矛盾不够多？ ",
        "Reply": 1229
    },
    "Article": "（原标题：医院打针突然猝死，男护士没有护士执业证？家属怀疑.）宁波的王先生，最近为了亲戚的事，反反复复跑去医院，说是想让院方给个确切解释。亲戚猝死，怀疑实习护士“喂错药”？王先生：“没有资格证的护士，在进行打针的时候，当场打了一半，一分钟不到，当场猝死。”王先生说，他阿姨49岁，之前身体很好。去年年底检查出患骨髓瘤，9月18号，在宁波市第一人民医院做了骨髓移植。9月30号，又查出十二指肠坏死，当天做了切除手术，又转到重症监护室。王先生：“本来是因为动了手术，是不能吃东西，医院也记录，接了鼻饲的管子，要打进去了，我阿姨的手臂有一根管子。”王先生说，他阿姨鼻部接了导管，用于营养补给，另外手臂上也埋了管，用于静脉注射。住院期间，由一位姓陆的男护士照料，10月8号下午，他阿姨竟然在护士的护理操作中死亡，家人觉得，是男护士喂药喂错了地方。王先生：“我怀疑，实习护士肯定是打错了，（怎么打错的？）打到静脉，氯化钾的话，打到静脉，百分之百任何人的都受不了了，肯定当场死亡的，院方说给我处理，现在时间已经过去两个半月了。”当事男护士，某种意义上讲没有执业资格王先生告诉记者，经了解，这位男护士在事发时，并没有取得护士执业证书，指导老师也不在现场。宁波市第一医院医务科陈科长：“当时操作的护士，是今年新毕业的新职工，通过了全国执业护士考试，但是因为护士注册，不是随时能注册的，某种意义上讲没有执业资格。”陈科长说，新护士没有取得执业执照，就独立操作，这一点的确不符合规定，宁波市卫计委已经责令整改。宁波市第一医院医务科陈科长：喂错药的说法不成立至于家属提出的，护士喂错药这个说法，院方以及卫生部门已经调查，并做出答复。书面答复中写到，事发前，护士陆某在给患者进行鼻饲喂药，药物为“蒙脱石3克，培菲康3克，氯化钾口服液10毫升”。陈科长说，首先，事发当天是这名护士第三次给患者喂药，另外，器具与静脉注射管并不匹配，所以喂错药的说法不成立。宁波市第一医院医务科陈科长：“（他说当时鼻腔这边，并没有插管？）有的（他们怀疑是注射到静脉）这个怎么说的，首先，这个病有两个管子，一个叫胃管，一个是鼻饲管，胃管是插到胃里面，主要作用减压的，鼻饲管，是插到肠子里的，喂药的，喂营养液的，当时是喂药的时候，其中一个管子已经拔掉了，胃管。”陈科长：猝死原因还不清楚王先生：“过来看，是面部没有管子的，那你举证，现在我法院要起诉，要坐牢的，你可以去举证你的东西，可以去庭上举证，你跟我们讲，讲不清楚，我不在场，这只是调查。死亡很明确，氯化钾打到静脉，就会直接死亡的。”陈科长：“（喂进去以后，会不会段时间内，就出现猝死？），猝死的原因不清楚，有没有初步调查，不清楚，当时分析以前考虑肺血栓。”王先生说，由于种种原因，当时没有进行解剖鉴定，但接下来肯定会通过法律程序维权。本文来源：1818黄金眼责任编辑：赵亚萍_NN9005",
    "Title": "女子医院打针突然猝死 家属:男护士喂药喂错了地方_网易新闻"
}