{
    "URL": "http://ent.163.com/17/1228/16/D6ONKF2M00038FO9.html",
    "Comment": {
        "Reply": 14,
        "Content": "8848我信了 天干物燥小心火烛 近期胡可不会出现了，她准备再要孩子了，现在孕检呢，北京海淀区私立医院，跟我媳妇每天一起练瑜伽 年级 这也算新闻？？？ 回家好尴尬 就好 安吉挺可爱的 天干物燥小心火烛 低调奢华 8848我信了 还是字体加粗的新闻！！！！！！ 就好 近期胡可不会出现了，她准备再要孩子了，现在孕检呢，北京海淀区私立医院，跟我媳妇每天一起练瑜伽 挺好看的呀 8848我信了 乞丐的丐 ",
        "Total": 61,
        "Link": "http://comment.ent.163.com/ent2_bbs/D6ONKF2M00038FO9.html"
    },
    "Title": "胡可分享GAI名字由来 网友：安吉发型也是盖儿头_网易娱乐",
    "Source": "Netease",
    "KeyWords": "胡可,gai,发型,安吉",
    "PublishTime": "12/28/201716:19:04",
    "Article": "网易娱乐12月28日报道今天，《我要上春晚》主持人胡可分享嘻哈歌手GAI名字的由来，她称留过盖儿头的人都很有才华。GAI转发微博回应“可可姐过奖咯，安吉小鱼儿现在的发型也很有才！”胡可在微博分享GAI名字由来：小时候是“盖儿”头所以叫“GAI”，我发现小时候留过“盖儿”投的孩子好像长大后都很有才华。GAI随后回应：“可可姐过奖咯，安吉小鱼儿现在的发型也很有才。”网友表示：“安吉现在的发型就是盖儿头！”“果然颜值高什么发型都能hold住啊。”本文来源：网易娱乐责任编辑：张悦_NBJS5410"
}