{
    "Article": "（原标题：北京今晨因雾4条高速封闭白天7级阵风重启蓝天模式）中国天气网讯今晨（30日），北京因雾能见度较差，部分高速路段采取封闭措施，正值元旦假期出行高峰，请您提前选择行车路线，注意交通安全。预计白天起，北风加大，7级左右的阵风将强力“扫霾”，京城重启蓝天模式。明后天，天气将以晴到多云为主，总体适宜户外活动和出行，不过气温有所下降，目前正值流感高发季，公众还需注意防寒保暖，谨防感冒。12月30日6时20分，北京房山因雾能见度不佳。昨天，北京的天气舞台十分热闹。早晨大兴、通州、房山出现大雾天气，部分地区伴有水汽凝华现象。另据观测，北京大部地区出现霜、房山和通州出现雾凇、南郊观象台出现短时飘雪。尽管局地出现飘雪，但仍未达到北京地区初雪标准，因此可以说北京初雪仍未来到。由于天气静稳，不利污染物扩散，昨天北京的空气质量一度达到重度污染。截至今晨6时，空气质量依然不佳。同时，由于空气湿度较大，北京出现大雾，城区及东部地区能见度在5公里以下。据北京交警官方微博消息，截至今天7时，北京境内因雾四条高速公路封闭，分别是G106京开高速金华寺至市界双向；S32京平高速吴各庄至市界双向；G3京台高速青云店至市界双向；G4501南六环太和至长阳双向。好消息是，目前北京大部地区风向正在转为北风，风力缓慢加大中，蓝天进入倒计时。北京市气象台预计，今天白天多云转晴，上午东部和南部有雾或轻雾，北风4级左右，阵风7级左右，最高气温6℃；夜间晴间多云，北风1-2级，最低气温-6℃。通州区大雾橙色预警中，出行需做好健康防护；早晨能见度不佳，请注意交通安全；白天北风渐大，扩散条件逐步转好。气象专家提醒，今天风力较大，公众外出需注意防风，远离广告牌或简易搭建物，警惕高空坠物。同时，由于天气干燥，注意用火用电安全。明后天，北京天气将以晴到多云为主，最高气温逐步下滑，1日最高气温将仅为3℃，天气寒冷，公众外出需注意防寒保暖。12月30日5时30分更新的北京未来7天天气预报。本文来源：中国天气网责任编辑：张宪超_NN9310",
    "PublishTime": "12/30/201709:04:31",
    "URL": "http://news.163.com/17/1230/09/D6T3I7OS0001875N.html",
    "Comment": {
        "Content": "哦……原来北京的蓝天白云靠吹 雾，呵呵（｡ӧ◡ӧ｡） 往南吹我这就诗意了 哦……原来北京的蓝天白云靠吹 《华北黄淮江淮等地有霾今起大气扩散条件逐渐转好》2017-12-3001:17:00来源:中国新闻网(北京) 7级风 来风啦，大家出来吧！ 往南吹我这就诗意了 目前还没风 让我们在雾里看花吧！哈哈哈哈哈哈 大雾也不能封高速路人民力量就没了不就出点车祸那是在练弯道超车！ 雾，呵呵（｡ӧ◡ӧ｡） 还不如天一黑就刮风了，白天刮风影响出行 ",
        "Link": "http://comment.news.163.com/news_guonei8_bbs/D6T3I7OS0001875N.html",
        "Total": 116,
        "Reply": 10
    },
    "Source": "Netease",
    "Title": "北京今晨大雾4条高速封闭 白天7级风重启蓝天模式_网易新闻",
    "KeyWords": "北京,大雾,天气,风力"
}