{
    "KeyWords": "婚礼,结婚,口角",
    "PublishTime": "01/02/201808:40:31",
    "Comment": {
        "Link": "http://comment.news.163.com/news_shehui7_bbs/D74PCENJ0001875P.html",
        "Content": "一看你就是那种女的 插嘴问一句，结婚也彩排？ 谁当那么多人面欺负你妹妹你能忍？你可能没兄弟姐妹，不知道那种感觉，你总归有爸妈的，如果有人在大庭广众下冲你爸妈你也不掺合？ 你瞎吗？我没说哥哥脑残吗？ 这哥哥沙壁吗，小两口拌嘴你搀和啥，这下这婚恐怕是接不了了，还没有结婚就离婚，以后这女孩子再嫁人就掉价了 还是明白人多，动不动就觉得谁欺负了谁的，有受迫害妄想症吗 傻逼，结婚忙的事太多了，女方不知道吗？这种情况应该问下新郎啥情况，而不是直接bb，不知道互相理解吗？新郎没有病。我刚结婚，之前彩排一样兴致不高，很累。我媳妇就体贴，说累了就大概走个过场就可以了，反正是彩排。两家都很高兴。[喷水][喷水][喷水] 煞笔就只看一面，或者一点 女的虚荣，哥哥脑残，打个圆场劝劝就不得了 别同我，我还没结婚。 哥哥不是冲动，是脑残，他们两个人的事你冲上去干嘛 肯定男的有点过分女的哥哥才揍人的。不然吃饱了撑的吗 说话也有脑子要有底线不结婚这种话能说么？还有她那个哥哥更是个脑残 哥哥脑残不错，但是你结婚看到你媳妇情绪不高，耷拉着脸，你不得打死她？楼上俩脑残 原来，2017年12月31日晚的婚礼彩排现场，小容见丈夫小黎情绪不高，不愿上台发言，就赌气说了一句：这个婚，结得没意思，算了，不结了! 四楼，夫妻两拌嘴，就是欺负吗？拜托长点脑子，结了婚估计大舅子天天去打妹夫了 轻易说放弃的真的是不尊重婚姻。 你们都别结婚了，真的，婚姻不适合你们这样的人 一般都是在婚庆公司那里，跟司仪一起，简单走个流程就可以了。他们这是在酒店实地预演。 四楼是新闻里的哥哥吧！ 你真是个sb你不问问为什么新郎情绪不高？ 4楼肯定没结婚，小屁孩一个。两口子哪有不拌嘴的？只要他不是当自己面辱骂或者动手，大舅哥就不应该出手。人家俩只是发几句牢骚而已，你应该劝说，要么干脆不插嘴。 没事还干她呢，也护着不让干？ 结婚也要彩排的？这些人怎么想的，这女的哥哥也是暴脾气，还是别结了吧，结婚不是两个人的事，是两家人的事 这女的嘴巴贱，哥哥又是个煞笔 情绪高不高是另外一回事，那是两夫妻的事情，轮不到这个哥哥上来就动手打人的，何况是快结婚日子，这样一打婚没结成，到成仇家了，有问题就让两夫妻自己商量着解决，轮不到你这个哥哥来动手打人，还有别动不动傻逼，有点素质，有些人都懒的回复 结个婚还要彩排，他们在上面演的时候觉得自己多主角，其实下面客人都在想，尼玛别扯蛋了见过的婚礼多了一个比一个俗一个比一个假煽情，还是早点宣布开饭吧吃完走人。 同七楼，真的很累，很麻烦 到底发生了什么让男人情绪不高不愿发言？赶紧扒点内幕😂 怎么就欺负了？打你妹妹了？难道你妹妹的老公就不能说你妹妹几句？你的意思是这家里只要让你妹妹不高兴了，就是欺负你妹妹？什么狗屁逻辑！ 拍婚纱和婚礼当天很累很累，结过婚的男人都懂得。 本来结婚过程就累，这不是自找麻烦嘛 我就想知道四楼什么年纪 结婚有彩排的啊，提前走个过场，怕正式结婚出现错误。可以理解，但是结婚真的很累的。。。。。[喷水][喷水][喷水][喷水] 这女孩估计得怨恨他哥一辈子婚结不成沦为笑柄遭人指指点点更腻歪的是本地一下就传开了嫁本地是别想了只能找个外地不知情的了 幸好没结婚<br>各走各的路<br>结婚后再离<br>儿女泪汪汪 大喜事都能打起来，确实不用结了，想好怎么赔酒店损失就行了。 哟哟，最烦这种不知轻重的 傻逼，没有哪个女的看到还肯结的！ 这就是你打新郎的原因？是他这个哥哥跟她过日子还是新郎过？两句话没说上来就动手，脑子有没有？何况还是屁大点事情 哪里嘴贱了，结婚日子新郎自己没兴趣，哪个新娘会高兴！ 还真是不能结，结婚都提不起兴趣，仪式都不情不愿的，确实没有意思！哥哥也冲动了点 这女的确实不对 不结拉倒，还用求她？ 两口子拌嘴，大舅哥这么激动...就算是护着妹妹，也不是这么个护法，这是往搞散了去的。 新郎摆个臭脸叫心理健康？？？自己不喜欢办就别办！一开始就说别办啊！连累人新娘！谁害谁啊！有没有三观！ 其实四楼这样的人不少，男人女人都有，表面上是护着女方，实际上是把人家害了！人家这对小夫妻可能吵两句就过去了，他这一来就激化了，不结是最好的结果了，这女的有这样的家人以后肯定得离婚！ 坚决不娶家里有哥哥弟弟的女的，谁结谁后悔，无底洞，胡搅蛮缠 这婚确实没意思，女的作，哥哥脑残。 单身限制了我的想象力 男女都没错，大舅子不会办事 不会是个恋妹狂吧 这哥哥真是傻逼 幸好我跟我老婆结婚的时候小舅子才5岁，不然我这天天跟我老婆吵的不得把我打死 有哥的女的不能娶😂 这哥哥沙壁吗，小两口拌嘴你搀和啥，这下这婚恐怕是接不了了，还没有结婚就离婚，以后这女孩子再嫁人就掉价了 一家智障 有些大舅子并不是盼着妹妹生活幸福，而是想着怎么搞一点彩礼塞到自己兜里。 快结婚还没办酒席的这段时间其实矛盾都挺大的，因为涉及到太多细枝末节的事，都有点情绪，也不能说就是感情有问题，再说女人就那样，把女人话当回事那真是认真就输了 可能哥哥缘之空看多了 结婚仪式就是开心喜庆，整这些幺蛾子干什么。表白还彩排，有意思吗，表白给谁看的 命不该绝啊，要是结婚了，可能更惨 结婚还能打起来，服 作怪，婚礼也要彩排！ 一看你就没有妹妹，谁家妹妹被欺负哥哥能不帮忙出头的？ 有押金的。押金是肯定拿不回来了。买的菜，酒店就慢慢卖吧。[窃笑] 这女的嘴巴贱，哥哥又是个煞笔 废话，女的愿意那没话说，女的不愿意别说她哥，警察都管[挨揍][挨揍][挨揍][鄙视][鄙视][鄙视] 你这智商，没结婚哪来的离婚？ 充其量是桩买卖。 这女的一家人都很奇葩 这两家绝对成不了 不是说男的怂啊！就是说男的渣啊，害新娘啊！ 第一次听说结婚还有彩排，干脆重来呗 所以说对这种女人三天不打就上房揭瓦了 新郎新娘平时感情估计也不咋地，稍微感情好点也不会动不动就说不结婚的话，男的估计受女方的气受惯了，突然爆发顶开嘴了。 婚姻不是儿戏，这样夫妻结了也会离，好在没结。 这女的哥哥脑子有问题，太冲动了 没事还干她呢，也护着不让干？ 都是面子惹的祸，面子社会，脸面有时比任何事情都重要 结婚也要彩排的？这些人怎么想的，这女的哥哥也是暴脾气，还是别结了吧，结婚不是两个人的事，是两家人的事 恭喜恭喜！ 有钱人，结婚还要彩排！有钱就目空一切，现代的社会要玩完 反正都是男方说的……坐等翻转 还结个屁 酒店损失陪了就好了 结婚还要彩排？！肯定是女方的主意，太能把自己当回事儿了。 这个需要彩排? 女方家人脑残！脑子是好东西！可惜她没有 幸好没结。 有这样的亲家，结了更后悔。 小两口拌嘴吵架再正常不过的事，这当哥的也是脑残，这一拳打得怕是彻底黄了这事 估计情绪积累很久了，不然怎么会情绪不高，上来就打，打了还打 呵呵 幸好没结婚<br>各走各的路<br>结婚后再离<br>儿女泪汪汪 大喜事都能打起来，确实不用结了，想好怎么赔酒店损失就行了。 原来，2017年12月31日晚的婚礼彩排现场，小容见丈夫小黎情绪不高，不愿上台发言，就赌气说了一句：这个婚，结得没意思，算了，不结了! 哪里嘴贱了，结婚日子新郎自己没兴趣，哪个新娘会高兴！ 还真是不能结，结婚都提不起兴趣，仪式都不情不愿的，确实没有意思！哥哥也冲动了点 这女的确实不对 我看人男的也没怂啊，倒是男的说不结了女方恼羞成怒打人了 父母之命媒妁之言？ 男的先说的吧？不想结你特么扯什么淡啊，换成谁妹妹受这委屈能忍？[挨揍][挨揍][挨揍] 好湿好湿！[窃笑][窃笑][窃笑] 其实四楼这样的人不少，男人女人都有，表面上是护着女方，实际上是把人家害了！人家这对小夫妻可能吵两句就过去了，他这一来就激化了，不结是最好的结果了，这女的有这样的家人以后肯定得离婚！ 不用接了 这婚确实没意思，女的作，哥哥脑残。 不结就不结了呗，没啥大不了 看过一个电视剧叫独生子，有些情节能把你气死。比如好好一家人的生活活生生让小舅子拆散了 这里面女方哥哥脑残 再结也没意思了，新郎官和大舅子看谁再也不顺眼了 谁当那么多人面欺负你妹妹你能忍？你可能没兄弟姐妹，不知道那种感觉，你总归有爸妈的，如果有人在大庭广众下冲你爸妈你也不掺合？ 傻逼，结婚忙的事太多了，女方不知道吗？这种情况应该问下新郎啥情况，而不是直接bb，不知道互相理解吗？新郎没有病。我刚结婚，之前彩排一样兴致不高，很累。我媳妇就体贴，说累了就大概走个过场就可以了，反正是彩排。两家都很高兴。[喷水][喷水][喷水] 打得好 女的虚荣，哥哥脑残，打个圆场劝劝就不得了 男的肯定是被折腾的够呛，女方方那句话成为了压垮骆驼的最后一根稻草。 这什么毛病 这女的确实不对 意见不一致就是过分了？ 这要看婚礼哪一方为主导，曾经看过两起婚礼，都是以女方为主导，看男方家长相当憋屈，婚后家庭都不合睦，早晚会走离婚这条路的 女的傻一点作一点没关系，以后也可以慢慢调教。可近距离接触了才发现，他一家子全特么这模样，大舅哥小姨子老丈人都不正常，大舅哥张口就打过谁谁谁，公安局认识谁谁谁。张牙舞爪那副德行，哎不正常就不正常吧，我尽量克制忍一忍，艹他吗的结果老子忍还忍出毛病了？说我面瘫，木头疙瘩，将来无能阳痿？你吗的，你给我过来！别拦着我！别拦！老子今天不给他点颜色看看他不知道自己姓啥！你躲开！别拉着我！！ 还是不结好，结了再离对大家都不好 肯定男的有点过分女的哥哥才揍人的。不然吃饱了撑的吗 撒逼 婚礼都要彩排？？？？当年婚庆公司问我要不要彩排，我直接白她一眼！ 这当哥的就是个傻逼…… 妹妹你出嫁，哥哥心理恨。正好打一架。 原来，2017年12月31日晚的婚礼彩排现场，小容见丈夫小黎情绪不高，不愿上台发言，就赌气说了一句：这个婚，结得没意思，算了，不结了! 在没人要，也不会找你 冰冻三尺非一日之寒，这种情况肯定早已经势同水火了，最后的只是导火索而已。 这女的嘴巴贱，哥哥又是个煞笔 哥哥打个圆场，活跃一下气氛。说妹妹两句不就行了吗，上去直接怼太冲动了。 虽说是一场悲剧，却蕴含着极大的喜剧影片价值。😁 这婚还是不接了为好 哥哥情商不高吧 这婚能不结就别结，过来人都知道。真的没意思。 我靠，恭喜新郎，幸好没结这婚，脑残的女方亲属 内向把 这种哥就是弱智，这下好了，他来收场吧。 发言稿没有，新郎怎么发言？上台说不出话来，那不是很尴尬[窃笑] 这是忙的么？？！，这明显对新娘摆臭脸了！对谁摆都可以唯独不能对新娘摆！你当新娘很轻松么？，！！人家新郎新娘再累都不会互相摆脸！ 女的嘴贱公主病，女的她哥又脑残。 不仅仅是结婚累，婚后更累，如果让我重选，单身挺好！ 幸好没结婚啊，婚后也消停不了 到底发生了什么让男人情绪不高不愿发言？赶紧扒点内幕😂 怎么就欺负了？打你妹妹了？难道你妹妹的老公就不能说你妹妹几句？你的意思是这家里只要让你妹妹不高兴了，就是欺负你妹妹？什么狗屁逻辑！ 拍婚纱和婚礼当天很累很累，结过婚的男人都懂得。 你老婆是啥样子的，她家里人也差不多，一个家里长大的，能好哪去 傻B碰见傻B了，都不是好货色 结婚很累的，忙的事太多了，很正常。 脾气不合适，分手了吧 幸亏发现的早！不然麻烦了！ 哪里嘴贱了，结婚日子新郎自己没兴趣，哪个新娘会高兴！ 还真是不能结，结婚都提不起兴趣，仪式都不情不愿的，确实没有意思！哥哥也冲动了点 这女的谁要谁倒霉 不结了，想办法把钱拿回来，然后白日了 一个傻逼一个傻屌！ 对待一群不认识女方家属我也抹不开 这种女人不要也罢 还结屁 你爹 唉，这种情况应该是新郎被逼结婚吧，本身就是心不甘情不愿。所以才摆丑脸啊。一般人结婚不说兴高采烈，至少也是态度端正吧。你们打架我没意见。但是我支持酒店要求合理的赔偿？ 下午去医院挂号，前面就有个新娘在排队!别的不说了！希望大家新年安好 这婚确实没意思，女的作，哥哥脑残。 幸好没结婚<br>各走各的路<br>结婚后再离<br>儿女泪汪汪 这个女的哥哥是个二百五 这傻逼哥哥，要是我女朋友要有这样的哥哥我婚不结都要把他屎打出来 小舅子真是个搅屎棍 怎么就没人说新郎？结婚应该是高高兴兴的啊，新郎不情不愿，还不如不结。女的没毛病好嘛。哥哥太冲动，不应该瞎掺和。 酒店是无辜的 不是没兴趣结婚是件非常折腾的事新郎压力更大些当年结婚别说我老公连我都累的不想说话这都是互相体谅的事 结婚还有彩排的啊？？？ 要车要房？你真会代入啊！自己的婚礼你tm不想开心就别办啊！这还有逼着办的啊？？脑子少根筋 现在的婚礼真是折腾，程序一大堆，还要搞什么车队，阻碍交通，烦，还是平平淡淡点，踏踏实实过日子比较好。 其他地方不知道，我这个小地方，有的家庭条件不好的，是结婚当天收了份子钱，再跟酒店结账的 卡住了 对啊，谁遇上都不高兴啊！这里就是新郎先一脸的不想结！！不高兴一开始就别结啊！ 这种女人最好让她一辈子嫁不出去，作死自己人去吧。 冰冻三尺非一日之寒，这种情况肯定早已经势同水火了，最后的只是导火索而已。 傻逼浙江野猴子 估计证已经扯了吧？床也上了，怎么还是那么大脾气呢？ 我小舅子跟我的关系比跟我老婆还亲，他姐说我一句不是他都不答应，不过我琢磨我要是真把我老婆打了，我小舅子也不能饶我，我姐和我感情一般，结婚后有次我姐夫喝大了打了我姐几巴掌，我和我弟差点把我姐夫给打死。 我就想知道四楼什么年纪 应该不高于小学二年级 火气大，惹麻烦 南蛮都这个傻逼德性当然广东除外看新闻新闻不撒谎 这女的嘴巴贱，哥哥又是个煞笔 这女的以后妥妥的掉价，以后人家就当你是二婚了，要么别在那个地方混了 估计证是领了吧 酒店也有損失？這不是先給錢的？ 女的说不结了，就跟有人骂你贱种或者杂种一样。都这样了你还笑呵呵？那我不得不佩服仁兄的海量[挨揍] 幸好没结婚<br>各走各的路<br>结婚后再离<br>儿女泪汪汪 你们村直接在大街上摆酒席当然不用彩排 打的好， 结婚也要彩排的？这些人怎么想的，这女的哥哥也是暴脾气，还是别结了吧，结婚不是两个人的事，是两家人的事 那肯定了，跟你关系再好也是因为人家的姐，先有姐后才有姐夫，你打了人家的姐人家不揍你都是对不起你。 新疆垃圾地方不要bb 你们俩还是不适合，这婚别结了 到底发生了什么让男人情绪不高不愿发言？赶紧扒点内幕😂 罪魁祸首是他哥 还是明白人多，动不动就觉得谁欺负了谁的，有受迫害妄想症吗 不押韵，没意思，不会写，没法念。 二楼你麻痹！谁都知道这是喜庆的，新郎不高兴给谁看！是新郎一脸的不想结！女的说出来是后面了！谁还求着结了！ 一般都是完事了再结账，因为预算不可能刚刚好，酒店基本都是这样的 结婚女的就出个B，别的都是男方准备，男人当然累 这些人脾气都好大，比我大多了。能动手就别播逼 现在结婚就是走个ppt流程有什么意思嘛有时候感觉新人像一对猴子被人耍尤其是那些婚闹的 这种女人最好让她一辈子嫁不出去，作死自己人去吧。 幸好没结 拍婚纱照和婚礼彩排是最容易出事的环节。 反正我是接受不了别人打我，不管是大舅哥还是小舅子，跟我动手我特么就干倒他 因为这时放了一首歌曲！😁😁😁😁😁😁 累的不想说和这个不是一码事！ 哪里嘴贱了，结婚日子新郎自己没兴趣，哪个新娘会高兴！ 大喜事都能打起来，确实不用结了，想好怎么赔酒店损失就行了。 原来，2017年12月31日晚的婚礼彩排现场，小容见丈夫小黎情绪不高，不愿上台发言，就赌气说了一句：这个婚，结得没意思，算了，不结了! 我一个哥们就是这样，相亲三个月就结婚，然后结婚当天就吵架但是被劝住了，女的无业，我哥们做销售一个月一万多，婚后女的说要做家庭主妇钱都给她保管，我哥们说一个月只能给八千，还要留点钱出去应酬，女的不答应然后又是吵架回娘家去了。我劝他还是去道个歉再好好商量一下，结果他去女方家被她大舅子小舅子揍了一顿回来就离婚了 自古二楼 还真是不能结，结婚都提不起兴趣，仪式都不情不愿的，确实没有意思！哥哥也冲动了点 两口子的事哥哥凑什么热闹夫妻亲还是兄弟亲心里没点b数<br>夫妻亲还是父子母子亲心理没点b数 这婚确实没意思，女的作，哥哥脑残。 装逼婚礼搞好了吗？草泥马的 90后吧？ 神经病，都揍死清净！ 酒店的钱肯定要赔咯 不是什么坏事总比结婚后离强不过估计已经领证有点晚了 玩过不少总体觉得2婚没孩可以，有孩还是算了。第一是她牵挂那孩，第二是有孩的女人那个胸真的摸起来没有劲，没哺乳的女人的胸摸起来像苹果🍎，哺乳过的胸摸起来跟泄气的气球🎈一样。花高价彩礼娶离婚的女人，家里人都带着歧视的眼镜。这女人肯定不是善茬，要不然离什么婚呐？每个你朝思暮想的女情人背后，都有一个干她干的想吐的男人！ 重庆妹纸跟火锅一样辣，能与之匹敌的只有南京妹纸了，还是广东妹纸好！ 大舅子的功劳，夫妻的事夫妻解决，大舅帮倒忙这下彻底黄了，一首凉凉送给大舅 分了吧！ 嘴巴贱的人就是这样，没事也能找事情出来，她哥哥也是个煞笔，如果是男的在笑，女的说句，笑什么笑，跟我结婚有这么好笑吗，估计一样的下场 谁当那么多人面欺负你妹妹你能忍？你可能没兄弟姐妹，不知道那种感觉，你总归有爸妈的，如果有人在大庭广众下冲你爸妈你也不掺合？ 第一次没经验 这哥哥沙壁吗，小两口拌嘴你搀和啥，这下这婚恐怕是接不了了，还没有结婚就离婚，以后这女孩子再嫁人就掉价了 彩排才是最傻逼的！！！ 大舅子是一个大傻瓜！这样护妹妹真的好吗？ 只须女的说这婚不结了，结的没意思，男的回了一句不结就不结，舅子也太不是东西了就打人，这女的和舅子人碴一对 都要结婚了还这样 婚姻靠的是互敬互爱，不是自己的婚姻，任何人都别参与，这舅子是个傻逼，人家两夫妻吵个嘴，你非要耍威风，这下傻眼了吧！ 婚礼彩排很正常的<br>虽然我单身狗，但是我的很多好友结婚，我都全程参加 男的就不想结婚。要不干嘛情绪不好。女的哥哥怒了也情有可原 要的，洞房更要彩排 那你打吧打完了你妹妹也离婚了挺好 肯定男的有点过分女的哥哥才揍人的。不然吃饱了撑的吗 插嘴问一句，结婚也彩排？ 结婚前的四五天我就基本没停下来休息过，结婚确实累，婚礼彩排我都不记得怎么过来的，结婚当天我又只睡了四个小时不到，那天也基本没有怎么吃东西，结完婚发烧40.2 保证结婚当天有序进行，没毛病 原来，2017年12月31日晚的婚礼彩排现场，小容见丈夫小黎情绪不高，不愿上台发言，就赌气说了一句：这个婚，结得没意思，算了，不结了! 这哥哥，装尼玛币呢？ 反正是搞了，不吃亏 女的确实嘴贱，不过明明是喜事，新郎为什么要板着个脸，不愿意彩排发言呢？要是这么不情愿，不想结婚就不结呗。主要是那个新娘的哥哥不应该掺和进来，有毛病。 一点小事就不结婚了，那真的有几个能结婚的！我和老婆结婚前天天吵架现在也过的很好！ 这个哥哥是个大傻逼，不应该打个圆场这事儿就好了么！ 老哥你可长点心吧 可能是新郎比较紧张，属于内向型 说明矛盾积累已经够久了，刚好在婚前爆发了而已 哈哈我艹就服你。虽然是扯犊子 大舅哥绝对2逼，真不过了，你打他也就算了。人家两个本来是赌气任性一下，你这一打，你妹就是离婚了。 结婚也要彩排的？这些人怎么想的，这女的哥哥也是暴脾气，还是别结了吧，结婚不是两个人的事，是两家人的事 这女的嘴巴贱，哥哥又是个煞笔 亲戚八成看热闹的撒，彩排这些亲戚没必要来 结婚还要彩排吗？第一次听说 这大舅子真奇葩，结婚那流程简直能把两口子磨到神经衰弱。吵两句再正常不过了。上来就打人，你是多不待见你妹夫啊。这事黄了，等着被你妹怨一辈子吧。这就是你这暴脾气的代价！ 牛逼！！ 打的好！早散早好！ 你说你个哥哥装什么逼，你说几句就行了，还动手了 估计新郎新娘本来就有点问题不然也不至于自己婚礼都没精神所以新娘说了不接新郎马上针锋相对不接就不接打了也好就真不用接了 那特么是别人？是你妹夫啊！原来特么妹夫就是别人！妈的智障。 反正两家傻逼 婚礼仪式要彩排 起因是新郎情绪不高 结婚仪式不需要彩排吧，事先主持人什么的把流程给双方交代下就行了。女人喜欢复杂，男人估计会烦。 不过她哥是该来，不过这二货就是个莽夫 结婚还要练彩排？真是见识少！ 楼上这种傻逼，那样只会把事情越搞越遭 来，小朋友们再来一次 之前肯定有很多不愉快。借机爆发而已 男的也有问题 该做的都做了，离就离 控制好情绪 女的做的不对，但是哥哥做的不错！如果我妹妹被人欺负我也会揍他！ 结婚还彩排，难道结婚就是在演戏吗，我结婚的时候临场发挥，说了些感人话好像，不过紧张都忘了 还真是不能结，结婚都提不起兴趣，仪式都不情不愿的，确实没有意思！哥哥也冲动了点 这女的确实不对 这女的估计很强势，不结拉到 彩排很出彩，正席更精彩，欢迎各位静候下集 有问题还结婚？不解决好了就敢结 这婚确实没意思，女的作，哥哥脑残。 难道不是苍老师结婚吗？ 新郎也不够大度。都够奇葩 哄你mb，不结滚蛋 婚礼还可以彩排的吗？这是再演戏吧？正常来说，这家狗血的人还是要付婚宴费用的 也真呵呵了！看来只允许女方说不结啊！真是脑残护脑残。 定金不退而已，不用赔 是什么让这个女这样？是人性的扭曲，还是道德的沦丧…… 我觉得男女双方谁错倒不好说，她哥哥是脑残是肯定的。 看问题要全面，单身增强你的动手能力。 结婚要把第二天婚礼的流程和台词弄熟练！ 结婚前的准备本来就累，兴致不高很正常，留着精力结婚当天再用不行吗 女的虚荣，哥哥脑残，打个圆场劝劝就不得了 虚荣个屁？从哪看出女人虚荣了？总说女人虚荣的男的都是没啥本事的，才会总说女的虚荣 对酒店造成毛损失啊，酒席钱该付就付 很好啊，不结了。 正好分了得了，反正还没结…看这样即使结了婚后肯定也不会幸福的… 你是个女人吧？大喜的日子，新娘张口就来？ 这哥哥真2B 原来，2017年12月31日晚的婚礼彩排现场，小容见丈夫小黎情绪不高，不愿上台发言，就赌气说了一句：这个婚，结得没意思，算了，不结了! 四楼，夫妻两拌嘴，就是欺负吗？拜托长点脑子，结了婚估计大舅子天天去打妹夫了 一辈子结一次婚，男方不情不愿的，女方能高兴？还愿女方作？ 结婚还彩排是演戏吗搞笑 撒娇也好，气话也好，都是成年人，什么场合说什么话自己应该清楚，这话二人私下说说没啥，让女的当着男女双方家人亲戚面说那种话，不是缺心眼就是不把男的当回事，不结也罢 不知道夫妻生活前要不要彩排[微笑] 所以说啊，小两口的生活让他们自己经营，这个大舅子，凑热闹吧，脑袋被门夹了吧，一参合，就是两个家庭的事情了 我是男人，我觉得这男的太没风度了，结婚彩排都不愿意动，估计也没多愿意娶这个老婆 他哥这么一闹。。。呵呵。女的高兴了 就怕碰见这种脑残煞笔不看原因，站着不动就没风度？如果开始前跟你再要10万，你也觉着你不笑是没风度？你笑是不是煞笔？连点逻辑能力也没有，你也算是个男人？呵呵 结婚也要彩排的？这些人怎么想的，这女的哥哥也是暴脾气，还是别结了吧，结婚不是两个人的事，是两家人的事 这女的嘴巴贱，哥哥又是个煞笔 确实不能结了、大舅哥不会按事只会起事，结婚后也会离的。 赔了夫人又折兵 损失数万还有价值可言，如果真的不合适，在一起了，后悔药真买不到 这个哥哥有想法？我是说日本电影里的，亲哥哥……… 尴尬 主要是她哥，否则两口子吵架不算啥 娶你就已经够让老子郁闷了，你还要老子开心？ 恒大输给了鲁能 到底发生了什么让男人情绪不高不愿发言？赶紧扒点内幕😂 结了婚也会被这种大舅哥打散的 这样结果还好，要不结了过日子也得离婚，都不心疼对方，有了孩子孩子也倒霉。 十有八九是气话，冷静一下就好。这旁人瞎搞什么，装逼过头了。 本来结婚过程就累，这不是自找麻烦嘛 婚礼筹备中应该是矛盾不少 新娘的哥哥真是傻逼，有什么资格动手打人，这下离婚了，就高兴了 这女孩估计得怨恨他哥一辈子婚结不成沦为笑柄遭人指指点点更腻歪的是本地一下就传开了嫁本地是别想了只能找个外地不知情的了 大喜事都能打起来，确实不用结了，想好怎么赔酒店损失就行了。 呵呵，不想解释那么多！ 这就是一家人 这个女的哥哥有病吧，号称暴脾气，这是想立威？想欺负新郎家没人？要结也行，把这个所谓的哥哥抓了，判刑再商量，要不免谈，人家家的事管你什么事？你算干什么的？ 还好我机智，前女友两个哥哥，当初我思来想去还是分开了 还真是不能结，结婚都提不起兴趣，仪式都不情不愿的，确实没有意思！哥哥也冲动了点 这女的确实不对 结个婚搞的上春晚一样，还彩排？？女方一家都不是善茬，不结就对了 结婚还彩排？搞笑！估计男的谢天谢地没有结！ i8流畅度不如i7，偶尔有掉帧的感觉，然后点开微信语音听的瞬间有炸音，有时候看视频听电话也有喇叭炸音的存在，想买i8或者8p请慎重。 这它妈都是些什么人啊！纯粹的胎神一路！ 这大舅子也是个智障！<br>不过国内的大家庭就是这样，界限不清，本来两人之间很容易解决的小事，会因为管事的人多了而变得越来越麻烦，奇葩了几千年了😂😂😂 女的做的不对，但是哥哥做的不错！如果我妹妹被人欺负我也会揍他！ 这婚确实没意思，女的作，哥哥脑残。 单身限制了我的想象力 还好没结成 ",
        "Total": 8272,
        "Reply": 457
    },
    "Title": "夫妻婚礼彩排现场发生口角 结婚前夜新郎被打住院_网易新闻",
    "Article": "（原标题：结婚前晚新郎被打入院一场口角为何闹成这样）2017年的最后一天，是家住重庆的小黎和小容举行婚礼彩排的日子。原本计划2018年1月1日，小黎、小容在双方家人的见证下，正式步入婚姻的殿堂。然而，就在头一天晚上，婚礼的彩排现场，一场口角之后，新郎小黎住进了医院，两人的婚礼也被迫取消。在重钢总医院的病房里，第1眼记者见到了小黎。由于头部有外伤，而且伴有头疼症状，小黎还在医院接受进一步检查。小黎的父亲和长辈看到小黎这副模样，心头十分难过。前一晚究竟发生了什么?小黎为什么会受伤住院呢?原来，2017年12月31日晚的婚礼彩排现场，小容见丈夫小黎情绪不高，不愿上台发言，就赌气说了一句：这个婚，结得没意思，算了，不结了!小黎听了也赌气回了一句：不结就不结了!两口子拌嘴赌气，本来不是什么大事，但当时彩排现场还有小容的一些亲人，听到新郎这么一说，新娘(小容)的哥哥有些不高兴了，突然冲上来，就给了小黎一拳，然后两人扭打在了一起。婚礼彩排，因为两口子口角，结果大舅子和新郎打了起来。双方被周围的人拉开之后，本来已经安抚下来，事态得到控制，然而，小黎的亲人相继赶到了酒店，双方的亲人又扭打在一起，这下彻底失控，最后还报了警。警察赶到之后，现场总算得到了控制。可因为这场意外，原本定在2018年1月1日举行的婚礼，不得不取消，热热闹闹的婚宴大厅，如今空空荡荡，双方亲友都不是滋味。同时，这事也让酒店方措手不及，已经采购好的菜品、酒水，全部放在了厨房和仓库，损失至少数万元。目前，当地警方已经介入此事。本文来源：第1眼-重庆广电责任编辑：程钢_NN7377",
    "Source": "Netease",
    "URL": "http://news.163.com/18/0102/08/D74PCENJ0001875P.html"
}