{
    "Title": "B站东京电视台番剧将有1分前置广告 大会员不受影响_网易科技",
    "PublishTime": "01/01/201812:52:31",
    "URL": "http://tech.163.com/18/0101/12/D72LD55600097U7R.html",
    "Source": "Netease",
    "KeyWords": "东京电视台,b站,广告,番剧",
    "Comment": {
        "Reply": 17,
        "Content": "[不屑]前几年烧钱，用户数吸引够了，现在可以开始套现收割了 其他版权购买者投诉干的。妈的臭不要脸的那群人。土豆优酷。以后会不会逼半路放广告。草 67拉 现在那么多视频网站。我就B站开了。其他的。QNMLGB 这是同行把他架到那里了 科普一下，某酷，某奇艺干的事儿 怎么喷一楼 想当清流？问问其他大佬什么意见吧 屈辱地买大会员了…… 其他版权购买者投诉干的。妈的臭不要脸的那群人。土豆优酷。以后会不会逼半路放广告。草 67拉 反正我也不看番剧，支持！ 这是同行把他架到那里了 科普一下，某酷，某奇艺干的事儿 好多没看过的…… [不屑]前几年烧钱，用户数吸引够了，现在可以开始套现收割了 现在那么多视频网站。我就B站开了。其他的。QNMLGB Boynextdoor?? 偷偷承包 反正只看哲♂学，无所谓 [狗][狗] 可以理解，刚开始我也没想到同行竞争能影响到这一步 ",
        "Total": 57,
        "Link": "http://comment.tech.163.com/tech_bbs/D72LD55600097U7R.html"
    },
    "Article": "（原标题：B站东京电视台番剧将有1分钟前置广告大会员不受影响）今天，B站（哔哩哔哩）番剧运营组发布公告称，应版权方（东京电视台）要求，2018年1月1日起，本番剧对非付费用户将加载至少1分钟的前贴片广告，并且不能被跳过。大会员用户，以及在B站承包过番剧的用户在观看时不会加载广告。B站在公告中表示，曾经于2016年5月23日，在版权方（东京电视台）要求下，在其番剧前加载至少15秒的前贴片广告。但由于广告投放期结束后，没有新的广告承接，因此东京电视台于近日再次要求，对非付费用户必须加载时长至少1分钟且不可跳过的前贴片广告。本文来源：快科技责任编辑：姚立伟_NT6056"
}