{
    "Title": "小区业主参选业委会 被街道办要求证明\"我没犯罪\"_网易新闻",
    "URL": "http://news.163.com/17/1226/05/D6IDPP7H0001875P.html",
    "Source": "Netease",
    "Comment": {
        "Total": 1841,
        "Reply": 157,
        "Content": "大麦 不但要无犯罪记录，还需要诚信记录才对 无所谓啦！ 你进的是什么大公司还要提供无犯罪证明。想当年我拿百度和华为的offer也没有要这个证明。 入职当然要提供无犯罪记录证明了你没入职过？？ 不是基层干部的错，而是领导忙于升官发财，没心思关心百姓疾苦! 替自己买的房子及其他邻居争取权利，及为大家服务，名正言顺。和犯罪记录有关系吗？<br>不过是为了维护物业公司的利益，一起鱼肉乡里。阻挡成立业委会的勾当而已。 还有银行系统，也能查到你完整的信息记录，不是公安司法系统才可以做到。这些单位要你看身份证明，都是故意的。 有政审的已经包含无犯罪证明了 无犯罪证明真的可以开一个，拿着身份证去派出所就给开，现在入职管理岗都需要无犯罪证明，诺大个小区，孩子老人那么多，真的想做点什么太简单了。防一层是一层，别上来就骂人，坏人的脸上可没刻着字。 良民证！ 犯过罪的人也可以为自己小区出力做贡献的！ 那为什么有政审？ 妈B:犯过罪的人就需一棒子打死，浪子回头服务人民难道有错，混帐东西 无犯罪记录到辖区派出所就可以开具了，正常流程需要的证明材料而已，这么多喷子和小便故作惊讶是为何？ 你说的没错！它们就是要你们老老实实地当猪，想别的肯定不行！ 一看就是民住素质低的，无犯罪记录要求很正确 错了，估计是领导跟开发商、物业有染 谁主张谁举证 其实就是不想让你成立业主委员会，我们小区业主准备了，好长时间。社区以各种理由不让成立 他们什么信息都掌握，真想知道完全可以做到秒查，就是站在老百姓的对立面刁难老百姓 物业是谁下的蛋大家还看不清楚么？你指望他能给你开绿灯？ 街道办应该自己帮人办无罪证明才对 你做公交车是不是也要提供这个记录，你入职提供过吗？请问身份证没用，暂住证没用，那以后大家一人一个无犯罪记录带着？ 官员要开没有贪污证明 制造舆论，迎合底层喷子口味，骗取跟帖和流量“我是有态度滴” 当时主管部门曾承诺，要在指导业委会成立这项工作上取得新突破，然而，两年多时间过去了，这项工作似乎并未取得进展，这又是为什么呢？看到这里终于明白哪里都逃不脱它们的磨爪 现在去办理居住证等，你需要先去居委会办理居住登记，你可以去看看居委会的电脑是不是可以查到你所有信息 特色 现在小区住的人很复杂，居委会也不能掌控，提供“无犯罪记录”是无奈之举！ 东北估计都是这样的 不可能！想想为什么？？ 街道办跟物业管理公司是一伙的。 一楼请提供下你的良民证 业委会，真的能够代表广大业主利益？？？无利不起早。 请物业人员出示无犯罪证明 犯过法就不能当业主了？没有高中学历就不能当业主了？ 就是收了钱呗！ 想想企业里的工会，跟业主委员会不一样么？都是狗腿子，哪里是选举出来替百姓说话的啊！ 谁要求！谁先出示！ 折腾得你们服服帖帖的 小偷小摸的受惩戒当饭吃。<br>先了解一下是必要的。 话说，犯罪的人不都被通缉或正在监狱吗？无犯罪证明是啥东东？ 街道办先证明你是否能代表本辖区以及是否贪污犯 街道办这种历史产物，早特么就该取消了！ 正常个锤子 这是尔狗的统一要求，不准成立！ 仓库保管、财务出纳、小区保安、警察、快递、邮政等还真不能录用有过小偷小摸行为的人，还怕监守自盗呢， 只有公安司法系统的电脑系统里才保存公民犯罪记录，居委会是没有的，有没有犯罪记录，不是随便查的，必须是本人查本人的，必须是本人提申请，无刑证明也到本人手中 你妈的小便，这叫无犯罪记录证明，再正常不过了。 它们就是搅屎棍 不但要无犯罪记录，还需要诚信记录才对 证明可以开，但作为政府部门，不应该为人民服务吗？为什么还要业主亲自去？ 无犯罪记录证明不是去检察院开的吗?怎么我去年去检察院开的是假的吗？ 入职当然要提供无犯罪记录证明了你没入职过？？ 为开无刑证明在派出所软磨硬泡的那位，应该是开不出无刑证明吧？有犯罪前科？ 请街道办人员出示无犯罪证明 保安都有无犯罪证明 就是不让你自己做自己的主呗 涉及人身安全、财物安全，要不跟业主动粗，偷盗业主怎么办？业主也没有安全感 今天可以自己选举小区的业主委员会；明天就会要求选举整个街道的业主委员会；后天就会要求选举整个区县的业主委员会；大后天就会要求选举整个省的业主委员会；大大后天。。。好可怕好可怕。。。 街道办是什么鬼 街道办又不知当事人的情况，假如当选的是个刑满释放的黑道人士，到时候你是不是又骂官员瞎啊 业委会什么时候也变成机关单位了 居委会管治安的办公室和派出所是联网的，输入身份证号就能查到身份信息和有无刑事记录。别的单位需要可以理解，居委会要求，其实就是阻扰。 有些工作确实需要无犯罪证明的，别瞎扯 我问过保安，他们需要，一联网能查出来 等了半天终于等到你这样的，总拿个体定义群体。 其实就是不想让你成立业主委员会！！！ 妈B:犯过罪的人就需一棒子打死，浪子回头服务人民难道有错，混帐东西 我有个领导最近户籍频繁变动，但身份证跟不上，去银行办事需要核实身份证时，你的运动轨迹历历在目，让人吃惊 无犯罪记录到辖区派出所就可以开具了，正常流程需要的证明材料而已，这么多喷子和小便故作惊讶是为何？ 其实就是不想让你成立业主委员会，我们小区业主准备了，好长时间。社区以各种理由不让成立 一看就是民住素质低的，无犯罪记录要求很正确 它们没说，小区业主能不能自治小区 街道办算什么？ 2楼说的有问题？ 关键是公安部不让开！！ 无犯罪记录证明是在检察院开 物业公司都是黑社会背景的公司 物业是谁下的蛋大家还看不清楚么？你指望他能给你开绿灯？ 街道办应该自己帮人办无罪证明才对 你做公交车是不是也要提供这个记录，你入职提供过吗？请问身份证没用，暂住证没用，那以后大家一人一个无犯罪记录带着？ 街道是根据物业管理条例有关业主委员会的成员的基本要求所提出的要求。业委会成员不要说有无前科，就是不按期交纳物业管理费的不能当选。当然，街道在行使审查候选人的方法存在问题。 现在小区住的人很复杂，居委会也不能掌控，提供“无犯罪记录”是无奈之举！ nm还不如以前了，<br>要证明的一点没少，开证明的倒是理直气壮得不给你开了。<br>傻逼网络的副作用 当时主管部门曾承诺，要在指导业委会成立这项工作上取得新突破，然而，两年多时间过去了，这项工作似乎并未取得进展，这又是为什么呢？看到这里终于明白哪里都逃不脱它们的磨爪 有些工作确实需要提供无犯罪证明....这东西也不能一概而论 凡是吃国家财政的、企业高管、涉及人身安全、财务安全、国家安全的领域，入职都应该有无刑证明，按道理，托幼事业入职、工商注册也应该有无刑证明的要求，目前国内好象还没有，要不虐待儿童、不法商家经常被报道出来，开不出无刑证明的只能从事不会对他人造成影响的劳动力角色 街道办是干啥工作的，也是个公职？ 替自己买的房子及其他邻居争取权利，及为大家服务，名正言顺。和犯罪记录有关系吗？<br>不过是为了维护物业公司的利益，一起鱼肉乡里。阻挡成立业委会的勾当而已。 你妈的小便，这叫无犯罪记录证明，再正常不过了。 谁说的无刑证明不对个人出具的？我们出国，就开过多次无刑证明（无刑证明是有时效的） 筹备组成员不是业委会成员，业委会成员是业主选出来的，业主为自己的选票负责选他也没问题，犯罪已经受过刑罚，做为业主他有权利参选 那只是最基本的信息记录，远不是全部，犯罪记录会在他们那里查到？没试过，这可是相当隐私的东西 不可能！想想为什么？？ 街道办跟物业管理公司是一伙的。 谁主张谁举证 一楼请提供下你的良民证 请物业人员出示无犯罪证明 犯过法就不能当业主了？没有高中学历就不能当业主了？ 请物业人员出示无犯罪证明 我从来也没说企业入职都要无刑证明，普通劳工不需要 数据库是分权限的，居委会能查到的个人信息少的可怜，往往只是最基本的 折腾得你们服服帖帖的 你说的没错！它们就是要你们老老实实地当猪，想别的肯定不行！ 街道办先证明你是否能代表本辖区以及是否贪污犯 街道办这种历史产物，早特么就该取消了！ 正常个锤子 这是尔狗的统一要求，不准成立！ 只有公安司法系统的电脑系统里才保存公民犯罪记录，居委会是没有的，有没有犯罪记录，不是随便查的，必须是本人查本人的，必须是本人提申请，无刑证明也到本人手中 现在去办理居住证等，你需要先去居委会办理居住登记，你可以去看看居委会的电脑是不是可以查到你所有信息 正常尼玛，你在帝都，估计是被查习惯了 cnmgb 良民证 的确有法规规定的，不要想当然认为没有，问问题之前自己先去查一下 可是要换物业就得成立业委会，业委会的成立反而又绕不过街道办，社居委，甚至绕不过开发商的物业，换物业谈何容易。 武汉江汉路宝利金小区，交房五年了，到现在还是前期物业合同。业主闹了一次又一次，街道社区根本不理，物业直接人身威胁业主代表。 不是基层干部的错，而是领导忙于升官发财，没心思关心百姓疾苦! 较真就没意思了，自己电脑上p一个不就完事了？谁塔玛显得蛋疼几百分资料打去核实？ 有政审的已经包含无犯罪证明了 无犯罪证明真的可以开一个，拿着身份证去派出所就给开，现在入职管理岗都需要无犯罪证明，诺大个小区，孩子老人那么多，真的想做点什么太简单了。防一层是一层，别上来就骂人，坏人的脸上可没刻着字。 歧视！ 不合理 有犯罪记录，不可以进业主委员会，有法律依据吗？ 那是不是犯罪的人洗心革面后出来都没有机会做人了？ 那为什么有政审？ 东北估计都是这样的 无犯罪记录到辖区派出所就可以开具了，正常流程需要的证明材料而已，这么多喷子和小便故作惊讶是为何？ 公务员及有的大单位录取职员，加入先进组织，本人及家人都有这一关审核。搬砖去不需要。 呵呵 [喷水] 看吧，物业，其实就是一级政府机构。 。。。。。。。。。 小偷小摸的受惩戒当饭吃。<br>先了解一下是必要的。 他们什么信息都掌握，真想知道完全可以做到秒查，就是站在老百姓的对立面刁难老百姓 可怜的业主！ 犯过罪的人也可以为自己小区出力做贡献的！ 就是不想让成立业主委员会 果然典型温州人思路 很多工作入职都要求无刑证明的，哪怕私人老板想，也可以，谁都不想找个麻烦，只要个人提出，本人确无刑事犯罪记录，派出所有义务出具无刑证明，你开不出，对不起，你有犯罪记录 你做公交车是不是也要提供这个记录，你入职提供过吗？请问身份证没用，暂住证没用，那以后大家一人一个无犯罪记录带着？ 官员要开没有贪污证明 现在小区住的人很复杂，居委会也不能掌控，提供“无犯罪记录”是无奈之举！ 狗改不了吃屎的 现在无犯罪记录证明确实不好开，得软磨硬泡，最好是单位出介绍信去，然后再费一番口舌才能开出来。一方面是一边非要你开不可，一方面是不给你开。 你妈的小便，这叫无犯罪记录证明，再正常不过了。 互联网时代多一些智慧，少一点愚玩。 那你证明一下我犯了罪 当然不能进业主委员会，这是对整个小区业主负责任的做法。 …… 如果业主可以监督物业，有权换掉对业主不好的物业，物业就会尽心尽力为业主服务 错了，估计是领导跟开发商、物业有染 这是档的触手，怎么可以取消？ 不是党员。累啊。走到哪里都要被吃ypushui 谁要求！谁先出示！ 扯淡 一看就是住过小区的大佬 很多规定和要求只要有案底的一概不采用，犯错之前要想到后果，至少要对自己负责，做过的事自己就要担当 想想企业里的工会，跟业主委员会不一样么？都是狗腿子，哪里是选举出来替百姓说话的啊！ 业委会，真的能够代表广大业主利益？？？无利不起早。 物业的狗。。 物业才几个人？小区的人民群众呢！ 街道办这种历史产物，早特么就该取消了！ 呵呵 正常个锤子 仓库保管、财务出纳、小区保安、警察、快递、邮政等还真不能录用有过小偷小摸行为的人，还怕监守自盗呢， 这个证明是要的，但不能要求个人去开，应该由居委会收集所有参选人的信息才去公安机关开。 奇葩的证明 居委会吃粪的，啥都不知道要你居委会领工资的 如此看来我的良民证还是个好东西 呵呵 77777777777777777收拾收拾 无所谓啦！ 大麦 洪秀全就搞过过夫妻生活还要批准 对，打着官腔不做事，应该改成小区服务中心 本来就是要刁难 就是收了钱呗！ 你做公交车是不是也要提供这个记录，你入职提供过吗？请问身份证没用，暂住证没用，那以后大家一人一个无犯罪记录带着？ 77777 不是基层干部的错，而是领导忙于升官发财，没心思关心百姓疾苦! 什么事都想插一脚 特色 你错了，拿了物业和开发商的钱，只能装瞎，管你下人死活 即便犯过罪就不能服务社区邻里了？ 良民证！ 77777777777777777收拾收拾 部门利益集团 开发商养的🐶 以后领导去哪，必须开据证明，证明自己不是假领导。 部门利益集团 叫人提供一个个人无法开出来的证明是无奈之举？故意刁难之举吧！ 每当股市大跌物jia和税费大涨拼死拼活干一年没钱过节的时候各个戏子粉墨登场了让我们看的头条热点都是比芝麻还小比王八强眼还小的小事别人却在不停息的暗度陈仓 领导必须证明他是他爹妈生的！ 不作为了又如何 各种条条框框 鸡蹭干部有好东西？ 77777777777777777收拾收拾 话说，犯罪的人不都被通缉或正在监狱吗？无犯罪证明是啥东东？ 街道办这种历史产物，早特么就该取消了！ 那党员优先呢？ 现在要求开无犯罪记录证明很普遍的呀 有个性 77777777777777777收拾收拾 现在小区住的人很复杂，居委会也不能掌控，提供“无犯罪记录”是无奈之举！ 你妈的小便，这叫无犯罪记录证明，再正常不过了。 ",
        "Link": "http://comment.news.163.com/news_shehui7_bbs/D6IDPP7H0001875P.html"
    },
    "Article": "（原标题：小区想成立业委会参选业主需先证明\"我没犯罪\"？）12月24日，今年第十期南宁电视问政节目播出，本期的主题是民生热点，重点关注了三大管理问题，分别是业主委员会无法顺利成立、共享单车乱停乱放、农机车没办法年审。在业主委员会无法顺利成立这一环节中，不少市民、社区都表示了极大的关注，其实早在2015年电视问政第八期节目中，就有现场嘉宾提到过成立业委会是制约物业乱收费，甚至能把小区方方面面管理好的一个有效途径。当时主管部门曾承诺，要在指导业委会成立这项工作上取得新突破，然而，两年多时间过去了，这项工作似乎并未取得进展，这又是为什么呢？业委会难成立?大家都愁本期节目中，兴宁区东沟岭阳光绿城小区的业主认为物业公司管理不到位，部分业主拒交物业费，这种拒交行为导致了小区内环境脏乱、路灯不亮等。为了改变这种状况，2016年11月，小区业主提交了成立业委会的申请。但在递交材料过程中，小区业主却遭遇了各种窘况。业主们先是花了7个月时间去档案局查建筑规划总平面图档案，接着又被街道办要求凡是参与业委会评选的业主，都要出具一份《无犯罪记录证明》，且必须出具高中以上学历证书。但根据公安部的规定，《无犯罪记录证明》对个人一律不予以出具，一些业主不得已跑到派出所软磨硬泡。最终，在经历了多个环节的挫折之后，该小区的业委会筹备工作宣告失败。对此，兴宁区住房和城乡建设局回应称，对于无法出具犯罪记录证明这一问题，相关工作人员已经和城区公安部门进行沟通。之所以会要求业主出具该证明，是因为曾经有业委会在成立之际，才发现有业主有犯罪行为。对于开发商和物业不提供总评规划图的情况，城区的住房管理部门会向开发商物业公司发函，要求他们按期提供，假如不按期提供，则按规定对开发商进行处罚。兴宁区政府表示，今后会加强对业委会无法顺利成立这一问题的整改力度，提高一线工作人员的责任心，并加强工作人员的政策业务培训。共享单车乱停?大家都烦共享经济方兴未艾，今年1月开始，共享单车进入南宁，目前各品牌的总投入量已经超过20万辆，尽管给市民带来了方便，但其所暴露出来的管理问题也成为不少人的烦恼。12月14日上午8时，在兴宁区工人文化宫一带，横行霸道、东倒西歪的共享单车闯入了行风监督员的视野。据现场统计，在很小的一块区域内，就停放着83辆共享单车，其中多达51辆停放不规范，乱停放占比61%。有市民反映，共享单车总量不断增长，新车一批批投放，旧车的开锁率却很低，有的车辆已经蒙上厚厚的灰尘，陷入了无人问津的尴尬。据市长热线统计，今年1月1日至12月13日，南宁市民对共享单车的投诉达到287条，主要集中在管理不当、乱停乱放、挤占公共资源等问题上。对此，南宁市城市管理局表示，由于共享单车是新事物，目前管理起来比较棘手。相关部门此前已经要求共享单车的相关企业增加运维人员以及运维时间；城管部门、交警部门以及各城区开发区已展开联动，在巡逻时一旦发现乱停乱放的行为，会立即将相关信息推送到各家公司的运维人员手机上，并要求如果是市内核心区，要在30分钟内到达现场进行处理。下一步，城管部门将向一些先进城市学习管理共享单车的经验，控制共享单车的投放量；同时接洽一些公司制定能够制约用户乱停放行为的方案，比如政府部门投放的公共租赁自行车，因为是有桩的，只有把车停到锁桩里面才能够停止计费，这就是一个比较有效的管理手段。农机无法年审?大家都忧今年4月份以来，经开区吴圩镇一些家里有农用机械的农民开始犯愁，因为他们的农机车辆没人给年审了。如果农忙时要使用这些车，那就成了违法上路，出了事故也拿不到保险；如果就这么搁置不用，农业机械化耕种等生产就没法进行。相关部门究竟是为什么没给农民进行农机年审呢？对此，吴圩镇农业服务中心表示，经开区农机年审业务已经中断了近8个月，目前还没有其他机构接手。南宁市农业委员会对此回应称，之前由于工作交接等问题，没有及时接到农机无法年审这一问题的情况反映。在吴圩镇农机年审方面，初期的管理是江南区管，后交由经开区托管，由于经开区是派驻机构，没有监理部门，最后只能交还给江南区。但是，江南区不愿意再接手，这才导致农机无法年审的情况出现。对此，现场评议员汪玉凯认为，这是懒政的表现，各个部门之间应该负起责任，为人民负责、为老百姓负责；相关部门应该做到简政放权、放管结合、优化服务。本文来源：广西新闻网-当代生活报作者：黄占玲责任编辑：李天奕_NN7528",
    "PublishTime": "12/26/201705:31:46",
    "KeyWords": "物业,开发商,业委会,证明"
}