{
    "Article": "（原标题：云南临沧市永德县发生4.6级地震暂无人员伤亡报告）中新网昆明1月4日电据中国地震台网正式测定：1月4日5时35分在云南临沧市永德县(北纬23.93度，东经99.32度)发生4.6级地震，震源深度10千米。记者联系临沧市委宣传部获悉，暂无人员伤亡报告，房屋损毁情况正在统计中。图片来源：中国地震台网截图地震发生后，多位网友表示震感强烈，微博名为“遖柯無梦”的网友表示：“住在三楼，直接摇醒，感觉要甩下床了，本人住在永德县。”微博名为“傲娇的小狐狸小狐狸”称：“我在云县，被摇醒了，听瑞丽小伙伴说也有震感。”本文来源：中国新闻网作者：陈静责任编辑：李天奕_NN7528",
    "URL": "http://news.163.com/18/0104/09/D7A0EN4I00018AOQ.html",
    "KeyWords": "永德县,临沧市,地震,云南",
    "PublishTime": "01/04/201809:11:00",
    "Title": "云南4.6级地震暂无人员伤亡 网友:感觉要被甩下床_网易新闻",
    "Comment": {
        "Content": "",
        "Link": "http://comment.news.163.com/news2_bbs/D7A0EN4I00018AOQ.html",
        "Total": 0,
        "Reply": 0
    },
    "Source": "Netease"
}