{
    "URL": "http://news.163.com/17/1228/16/D6OPNLQ80001899N.html",
    "Comment": {
        "Reply": 122,
        "Content": "别让英雄们流血又流泪 向英雄致敬！ 好电影反应事实。 英雄需要得到保障 向为了保卫我们伟大的祖国的英雄们敬礼！ 厉害了，芳华👍 好好 芳华，好电影！ 不错👍 为国防部的直面担当点赞。 致敬冯小刚 电影的影响力 这就是好电影 好电影 向英雄致敬！ 向参战人员及牺牲了的英雄致敬，他们用青春和鲜血谱写了最华丽的乐章，永远别忘记他们 希望他们能长寿健康到幸福的那一天。 希望落到实处！ 希望落到实处，别伤了我们这些退伍军人 有希望了。 支持！向他们致敬！ 赞赞 只希望尽快落到实处，越战老兵都老了 应该的 这就是中国人应该有的态度 应该得到关注和妥善安排！ 支持支持 去看了芳华、感动。 这就是好电影 挺好的 这电影昨天去看了，一半战争题材一半爱情题材，战争部分太真实，看着非常残酷，爱情片段也太接近现实，基本上都是有情人最后都没有成眷属。不过值得看 向被遗忘的参战老兵敬礼！ 照顾好英雄的后半生。 政府进步了 小钢炮还是不错的 这才是电影的力量。 希望如此…… 小刚叔好样的！ 希望好好对待人民子弟兵 赞芳华。。。赞英雄。。。 支持。 感谢冯晓刚 冯小刚，好样的！！！ 退役，一辈子青春。 不错 能够正视问题，正面回答疑问就是好样的！ 最近正在看中国远征军 芳华，好电影！ 赞👍 小钢炮牛逼🐮 艺术的作用与力量。 不错，支持的点赞。 这就是好电影！ 确实好看 希望解决好 好样的 献给最可爱的人 向参战人员及牺牲了的英雄致敬，他们用青春和鲜血谱写了最华丽的乐章，永远别忘记他们 期待去看 向小刚致敬！我心中永远的老炮 支持！ 支持冯导 谢谢冯导为英雄们呼喊！ 确实好看 耍彻底解决好 这就是中国人应该有的态度 好电影 感谢芳华 一部优秀作品的力量希望这样的作品越来越多 相信政府 这才是真正的电影 确实好看 这个得顶起， 支持，应切实落到实处，期待！！ 政府进步了 一部好电影。 文艺本该为社会服务，赞钢炮！ 确实好看 很棒 这就是电影带来的正能量！要赞！ 别让英雄们流血又流泪 这就是好电影 好电影啊！ 小钢炮还是不错的 好好 保卫祖国将士致敬 希望能真正做到勿忘英雄！ 赞一个 下岗老兵路过！ 好电影，良心导演 为国防部的直面担当点赞。 赞一个 向英雄致敬！敬重英雄的民族是强大的民族。 支持大赞 厉害。 请坚持到底 有改进，值得表扬， 电影的影响力 挺好的 支持！向他们致敬！ 有希望了。 只希望尽快落到实处，越战老兵都老了 保卫祖国将士致敬 善待 芳华真争气 这电影昨天去看了，一半战争题材一半爱情题材，战争部分太真实，看着非常残酷，爱情片段也太接近现实，基本上都是有情人最后都没有成眷属。不过值得看 加油加油 希望对参战老兵多多关照 成功的作品 好电影反应事实。 点个赞 确实好看 照顾好英雄的后半生。 小刚的电影有深度 支持芳华，大家都去买票看芳华啊 希望如此…… 支持 政策要落到实处 抓紧落实 赞👍 困难是暂时的，前途是光明的 已经很好了 赞一个 向英雄致敬！ 英雄需要得到保障 向为了保卫我们伟大的祖国的英雄们敬礼！ 厉害了，芳华👍 不错👍 这才是好导演好电影 致敬冯小刚 去看了芳华、感动。 这就是好电影 好电影 向英雄致敬！ 希望能够尽早解决 希望他们能长寿健康到幸福的那一天。 希望落到实处！ 小刚叔好样的！ 厉害 赞赞 退伍兵 应该的 好好好 向被遗忘的参战老兵敬礼！ 进步了 支持支持 顶！ 芳华好看！！！ 支持 收到！ 应该的 英雄应该有一个好归宿 电影可以纠错 希望落到实处，别伤了我们这些退伍军人 应该得到关注和妥善安排！ 这才是电影的力量。 小刚叔好样的！ 说的太好了 希望好好对待人民子弟兵 赞芳华。。。赞英雄。。。 嗯慢慢来嘛 好好 ",
        "Total": 16366,
        "Link": "http://comment.news.163.com/news2_bbs/D6OPNLQ80001899N.html"
    },
    "Title": "《芳华》提到退役人员安置 国防部:困难会逐步解决_网易新闻",
    "Source": "Netease",
    "KeyWords": "国防部,党中央,中央军委,部队",
    "PublishTime": "12/28/201716:55:46",
    "Article": "【国防部发言人任国强回应电影《芳华》提到退役人员安置情况：部分退役人员的暂时生产生活困难会逐步得到解决】任国强：党中央国务院中央军委对广大退役人员一直是非常关心的，对解决他们面临的暂时生活困难高度重视，也出台了一系列措施。地方各级党委政府也做了大量的工作，不断提高军队退役人员的生活待遇、优抚待遇，部分退役人员的生活状况不断得到改善。我们相信随着改革的不断深入和经济进一步发展，各种社会保障制度的不断健全，相关政策逐步完善和落实，部分退役人员的暂时生产生活困难会逐步得到解决。本文来源：军报记者责任编辑：张海桐_NN9053"
}