{
    "URL": "http://news.163.com/17/1227/14/D6LTBDU40001899N.html",
    "Comment": {
        "Total": 394,
        "Reply": 47,
        "Link": "http://comment.news.163.com/news2_bbs/D6LTBDU40001899N.html",
        "Content": "1楼个滥用所谓公民权益的怂货~~~ 你罚谁呢？店家涨也是合理的，多了平台费，还20%这么多。要罚也是找平台去。 这个报导了多少次？有卵用！ 哎呀，即想省事又不想花钱！哪有这么便宜的事！ 我<br>靠<br>！<br>呆逼傻逼才会点外卖！ 监管部门呢<br>？以罚款是起不到任何作用的 这个没办法，不像网店可以没店面，网店是少了成本可以低价，现在外卖是多了一道，加成本了，还加这么多，20%啊。这个真怪不到店家了。 肿窝的潜规则那个不坑人？ 堂吃48元，外卖标价68元很正常，别人叫你白白跑腿送外卖你干不？智商都是多少啊？ 傻逼和懒汉才点外卖，正常人要么自己做饭要么去正规酒店餐厅吃饭。 叫外卖就要承担额外费用。没毛病。跑腿费平台费消费者承担就是。要么来我店里吃便宜的，要门你出跑腿费跟平台非。 标价还有满减，不标高些拿什么满减？别人送餐上门结果减下来比店里卖的还便宜可能吗？ 现在的人越来越来越懒？ 外卖都是垃圾 我虽然从不叫外卖吃，但也明白，天下没有白吃的饭。既想简单省事动动手指头就让人送饭菜上门，又想跟别人跑去门店吃价格一样，你TM当你是谁啊，又懒又想占便宜 平台还要给外卖员发工资，而且还要花钱去竞争。。20%并不高 [窃笑][惊讶][狗][疲惫][晕][微笑][大笑] 这[微笑]尴尬 看清了再买 这个报导了多少次？有卵用！ 呃呃 更坑的是配送费，死贵死贵的…… 我这边线上线下基本上都一个价的，加个打包费3块，配送费5块，多付5块省的出门去店里吃挺好的啊 肿窝的潜规则那个不坑人？ 堂吃48元，外卖标价68元很正常，别人叫你白白跑腿送外卖你干不？智商都是多少啊？ 只有买错的，没有卖错的——我妈说。 叫外卖就要承担额外费用。没毛病。跑腿费平台费消费者承担就是。要么来我店里吃便宜的，要门你出跑腿费跟平台非。 标价还有满减，不标高些拿什么满减？别人送餐上门结果减下来比店里卖的还便宜可能吗？ 线上很贵的外卖该淘汰了 我<br>靠<br>！<br>呆逼傻逼才会点外卖！ 什么 意思是你去餐厅吃100大餐，给你送到家只能卖50？ 你嫌贵就别他妈点。你以为送外卖都是免费的？ 傻逼和懒汉才点外卖，正常人要么自己做饭要么去正规酒店餐厅吃饭。 1楼个滥用所谓公民权益的怂货~~~ 潜规则要么吃要么不吃。点个鸡排要5毛餐盒费，多点几样餐盒费都收了5块呵呵！ 外卖都是垃圾 平台还要给外卖员发工资，而且还要花钱去竞争。。20%并不高 这也要竞价排名，真几把黑 屁话，把送外卖的员工都饿死吗？20%的佣金还得继续往里面烧钱呢，你看哪个外卖平台盈利了？ 先不要管监管部门，消费者心理也是一个问题，同样的东西，一边是49不减，一边是89满减30，你试试看哪边的生意更好 凭什么不允许别人涨价？楼盘涨价你怎么不去举报？是欺软怕硬吗？你自己涨工资怎么不吭声？别人辛苦给你送过来的劳动就不值钱吗？ 哭唧唧 简直可怕 这套路都懂 卧槽 别把骑手拉下水，骑手什么提成心里没数么？ 市场经济，自主定价，觉得值你就买 这个没办法，不像网店可以没店面，网店是少了成本可以低价，现在外卖是多了一道，加成本了，还加这么多，20%啊。这个真怪不到店家了。 你这个喷人智商的，叫过外买吗？什么叫白白跑腿？送餐费给你吃啦？ 吃饭很少用美团，直接打门店电话叫，到是找酒店方便。 [窃笑][惊讶][狗][疲惫][晕][微笑][大笑] 你可以解释一下配送费是什么费？ 你罚谁呢？店家涨也是合理的，多了平台费，还20%这么多。要罚也是找平台去。 平台20%佣金？抢劫啊 简直可怕 哎呀，即想省事又不想花钱！哪有这么便宜的事！ 监管部门呢<br>？以罚款是起不到任何作用的 美美美 现在的人越来越来越懒？ 嫌贵就别吃耶[狗][狗][狗] 我虽然从不叫外卖吃，但也明白，天下没有白吃的饭。既想简单省事动动手指头就让人送饭菜上门，又想跟别人跑去门店吃价格一样，你TM当你是谁啊，又懒又想占便宜 这成本直接就上去的，平台费，配送费。要么就是纯线上为主，店里提价。不然谁都亏本 读不好 这[微笑]尴尬 "
    },
    "Article": "（原标题：经常点外卖的必看，这个潜规则实在太坑人！）很多人觉得点外卖不仅便捷，而且还有红包返现，点单满减，价格肯定更优惠。然而，在比对了多家餐饮店线上线下价格之后，记者发现，事实并非如此。外卖原来一直有个潜规则，先提价，再用红包降价！有的竟比门店价贵一倍！外卖平台收佣金商家定价线上比线下贵20%记者通过比对发现，不少外卖线上价格往往要比线下贵20%左右。在北京房山某“香河肉饼”店，店铺老板表示，因为外卖平台要扣20%，所以线上销售只能涨价，但线下价格保持不变。线下卖10元的饼，线上卖12元。有时候会打折，涨不了20%，但多少肯定会涨一点。“线上价格贵”这种情况并不是个例，北京的多家餐馆，都是这样处理。有外卖送餐员也表示，店铺线上加价的情况普遍存在，因为现在外卖平台都要收店铺流水20%的佣金，店铺为了收支平衡，线上外卖只能涨价。每个外卖平台都这样。记者在调查中发现，在一家餐厅的馋嘴牛蛙，堂吃48元，外卖标价却要68元。而这家店的套餐，扣掉各种“满减”优惠之后，平均每份30元。而在实体店内，所有套餐都是15元一份。先提价，再用满减红包抵扣，顾客并没有得到实惠。一些商家也坦言，现在的食客越来越依赖外卖平台，商家70%的营业额都来自外卖收入，不走套路，就没有生意。某饭店老板告诉记者，不参加“满减”的话，竞争对手都在做满减，那样的话单量会下滑，如果不参加，就会被外卖平台排到很后面，基本上就是一天一单，或者两天一单，所以都要价钱高几块钱。羊毛出在羊身上，这个没办法。?外卖平台也可竞价排名“收佣金”是外卖平台维持下去的一种手段，但对外卖平台来讲只是“小钱”，未来外卖平台最大的盈利可能是向店铺供应链端和金融服务渗透。?据了解，目前在线外卖平台并没有清晰、有效的盈利模式，普遍分析认为单靠收佣金也难以覆盖运营成本。除了收取佣金，外卖平台对盈利越来越渴望。近年，就有媒体曝光了各大外卖平台上存在餐饮商家竞价排名的情况——商家通过付费就可以买进排名靠前的位置。中国政法大学传播法研究中心副主任朱巍：付费搜索也是广告的一种类型，应该遵守相关法律法规的具体要求，不能侵害到消费者合法权益。从这个角度讲，排名靠前的商家未必是因为口碑好，可能是买来了。就像搜索领域的竞价排名一样，应该明确哪些是广告推广，哪些不是，否则消费者很难辨别。本文来源：央视责任编辑：何雨芳_NN5632",
    "KeyWords": "外卖,潜规则,满减,红包",
    "Source": "Netease",
    "Title": "这个潜规则实在太坑人！经常点外卖的人必看_网易新闻",
    "PublishTime": "12/27/201714:01:16"
}