{
    "Article": "（原标题：印度孟买一建筑突发大火已致14人死亡）海外网12月29日电印度孟买一建筑突发大火，已致至少14人死亡，16人受伤。据《今日印度》报道，当地时间周五晚，印度孟买下帕雷尔（LowerParel）一6层建筑发生重大火灾，大火最初在3层一间餐厅爆发，随后迅速蔓延，目前已致至少14人死亡，16人受伤。事发后，印度消防部队派遣8辆消防车赶到现场，控制火势，目前大火已被扑灭，被救出的十余名伤者也被带到当地医院接受治疗。本文来源：海外网责任编辑：何雨芳_NN5632",
    "URL": "http://news.163.com/17/1229/07/D6QCDR1400018AOR.html",
    "Source": "Netease",
    "KeyWords": "印度,孟买,消防车",
    "Comment": {
        "Reply": 5,
        "Link": "http://comment.news.163.com/news2_bbs/D6QCDR1400018AOR.html",
        "Total": 7,
        "Content": "全靠不是火车失火，免得伤亡更加大 希望不要再震了! 不会吧,肯定是老人吧? 突发大火人为纵火烧厂房 全靠不是火车失火，免得伤亡更加大 祈祷，不要意外！ "
    },
    "Title": "印度孟买一建筑突发大火 已致14人死亡16人受伤_网易新闻",
    "PublishTime": "12/29/201707:21:57"
}