{
    "Comment": {
        "Total": 420,
        "Reply": 30,
        "Link": "http://comment.news.163.com/news2_bbs/D76MIN4K000187VI.html",
        "Content": "卖身葬夫？ 贾跃亭多少还算有良心的商人，起码还尽力还债。贾跃亭代表中国最多的那批商人的性格 孙总干，我们旁边当汁男可以不？ 先把你媳妇送过来让我玩半月吧！ 孙排队第一呢 恶人的天下！好人处处都是陷阱[微笑] 我以为她要出来卖了 股民，市民，居民，基民，一定要知道什么叫做有限公司！！！!！<br>有限公司注册金100元,公司倒闭只赔100元！公司法人的个人财产是不用拿来赔偿的!股东的个人财产也一样！<br>法律在中国是被玩的！<br>看看上市公司改名字，一定要注意改成有限责任公司的，看看它的注册资本金是多少钱！ 肉偿吗？😡😡😡😡😡😡 我懂全篇重点就是令字～ 扭转形象，再捞一把？？？？？？？？？ 好像睡 真正作恶多端十恶不赦的大坏蛋是老贾的站台者…… 在契约精神健全的古代，还不了债是要卖老婆的！ 我是11月12号在乐视商城购买乐视手机1s也不知什么时间到货. 有几个不是赚足了就移民的？掏空CHINA 挺好的一个公司，被你贾氏家族折腾成这样也算是一个奇迹了，你没有李的智慧，如果令不倒。你可能还会一帆风顺，就不会套现脱坑！可你把那些股东和那些信任你的客户坑了，当局也想睁眼闭眼，可惜负面舆论太严重，你的情商太低！还没有担当！ 卖身葬夫？ 肉偿吗？ 好像睡 股民，市民，居民，基民，一定要知道什么叫做有限公司！！！!！<br>有限公司注册金100元,公司倒闭只赔100元！公司法人的个人财产是不用拿来赔偿的!股东的个人财产也一样！<br>法律在中国是被玩的！<br>看看上市公司改名字，一定要注意改成有限责任公司的，看看它的注册资本金是多少钱！ 好可怜 我是11月12号在乐视商城购买乐视手机1s也不知什么时间到货. 你这样会把他淹死的！ 我懂全篇重点就是令字～ 扭转形象，再捞一把？？？？？？？？？ 他妻子怎么叫AV 甘回国，尽丈夫责任，也值得称赞！贾如拼搏渡过难关，亦是好事！挺一把！ 真正作恶多端十恶不赦的大坏蛋是老贾的站台者…… 贾跃亭多少还算有良心的商人，起码还尽力还债。贾跃亭代表中国最多的那批商人的性格 孙总干，我们旁边当汁男可以不？ 先把你媳妇送过来让我玩半月吧！ 孙排队第一呢 哈哈，汁男 红兵胸请 股票套现不是正常的吗？玩不下去就走谁来管你们这些p民 我以为她要出来卖了 在契约精神健全的古代，还不了债是要卖老婆的！ 你就是傻的，这个节骨眼上了，还敢买乐视产品？活该你收不到货 扭转形象，再捞一把？？？？？？？？？ 肉偿吗？😡😡😡😡😡😡 恶人的天下！好人处处都是陷阱[微笑] 快播的王欣要出来了吧？ 事情可能并不简单～有没有可能老贾是帮一群人洗钱呢～？ 有几个不是赚足了就移民的？掏空CHINA 挺好的一个公司，被你贾氏家族折腾成这样也算是一个奇迹了，你没有李的智慧，如果令不倒。你可能还会一帆风顺，就不会套现脱坑！可你把那些股东和那些信任你的客户坑了，当局也想睁眼闭眼，可惜负面舆论太严重，你的情商太低！还没有担当！ 心进成，欲进败， "
    },
    "Title": "贾跃亭妻子甘薇“代夫还债” 乐视商城被以资抵债_网易新闻",
    "KeyWords": "乐视,甘薇,贾跃亭,上市",
    "Article": "（原标题：甘薇“代夫还债”乐视商城被以资抵债）新京报讯距离上一次在微博上发表“尽责到底”的宣言约6个月后，1月2日贾跃亭再次在个人微信公众号称“针对债务问题，我会尽责到底”。2017年12月31日早晨，贾跃亭妻子甘薇在微博上发布了一条定位于“北京首都国际机场T3航站楼”的微博，并称“2017年最后一天，使命归来。”随后，2018年1月2日，贾跃亭在个人微信公众号发表“关于《北京证监局责令贾跃亭回国履责通告》的回应函”称，对乐视体系公司债务危机引发的影响深感愧疚和自责，委托甘薇、贾跃民全权代理自己行使上市公司股东权利和履行股东责任，包括资产处置等相关工作。随后，甘薇发表微博表示，将负责贾跃亭在国内的债务问题。其在回应函中强调，非上市体系所欠上市公司（乐视网）债务，我自愿由我个人承担。1月2日晚，乐视网发布“以资抵债暨关联交易的公告”，乐视网控股子公司新乐视智家电子科技（天津）有限公司拟以9290万元价格受让（非上市体系）乐视电子商务经营的网站（乐视商城）及相关资源、知识产权等资产。公告显示，乐荣控股（北京）有限公司持有乐视电子商务85%股权，乐视网则持有其余的15%股权，而乐荣控股的实际控制人为贾跃亭。贾跃亭：债务问题会尽责到底2017年12月25日晚，证监会北京监管局发布通告，责令乐视网前任董事长贾跃亭于2017年12月31日前回国，配合解决公司问题，稳妥处理公司风险，保护投资者合法权益。乐视网昨日公告称，上市公司存在大量非上市体系关联方对公司的债务，直接导致上市公司对上游供应商形成大量欠款无法支付，出现大量债务违约和诉讼情形，危及上市公司信用体系，现金流极度紧张，日常经营出现问题。在乐视网的2017年三季报中，截至2017年9月底其应收账款总额高达97亿元，不过，未披露乐视系非上市体系的具体数据。对此，1月2日，贾跃亭在个人微信公众号回应称，已紧急制定了详细反馈函，并与上市公司充分沟通形成债务解决意向，并委托贾跃民于2017年12月29日下午前往北京监管局进行了当面沟通和汇报。贾跃亭表示，对乐视体系公司债务危机引发的影响，给社会、政府、投资人、股民、供应商、员工都带来了巨大负面影响和损失，深感愧疚和自责，一定竭尽全力解决债务问题。乐视网：尚未形成可执行债务解决方案贾跃亭称，已委托妻子甘薇、哥哥贾跃民全权代理自己行使上市公司股东权利和履行股东责任，包括资产处置等相关工作。“积极与上市公司充分讨论沟通，提出明确的还款意愿和初步方案，双方形成债务解决意向，通过出售资产获得资金和以资产抵债的方式，解决上市公司的欠款问题。”不过，2018年1月2日晚间，乐视网发布公告称，“截至目前，双方尚未就解决意向形成可执行的实质性书面整体债务解决方案。上市公司将继续全力推动贾跃亭先生及非上市体系关联方债务问题的实质解决”。“只能做的一件事情就是靠卖资产还债”对于乐视的困局，贾跃亭昨日在回应函中表示，“2016年下半年开始，因乐视体系公司在同一时间布局产业过多，公司管理能力没有及时跟上，导致公司经营情况恶化，从移动手机业务资金链断裂开始，问题持续发酵并不断扩大。”贾跃亭还提到，“2017年7月，某银行机构仅仅因为逾期两周未支付3000余万贷款利息(贷款余额12亿)，超倍冻结乐视非上市公司资产和我个人资产合计261.62亿元，引发诸多金融机构集中挤兑停止授信并提前追收贷款，绝大多数资产被司法冻结。非上市公司生产经营戛然而止，彻底休克，全面停顿，10000余名员工被迫解散，公司只能做的一件事情就是靠出售资产还债。”2017年7月初，据中国裁判文书网挂出的民事裁定书显示，招商银行上海川北支行于6月26日向法院申请，要求冻结乐风移动香港有限公司、乐视移动智能信息技术(北京)有限公司、乐视控股(北京)有限公司、贾跃亭、甘薇名下银行存款共计人民币12.37亿元，或查封、扣押其他等值财产。2017年7月3日，招商银行就此回复称，该事件系乐视旗下的乐风移动贷款发生欠息、招行上海分行多次催收无果后所采取的法律手段。记者就如何偿债等问题向贾跃亭求证，截至记者发稿时，尚未回复。焦点成“老赖”后再喊“尽责到底”距离贾跃亭上一次在其微博上发表“尽责到底”的宣言，已经过去了约6个月的时间，期间贾跃亭远赴美国，虽然监管层多次喊话要求归国，但其一直未归。不过，这次喊出“尽责到底”的贾跃亭还有个不光彩的身份——“老赖”。2017年12月11日和12月14日，贾跃亭先后两次被法院列入失信被执行人名单。2017年12月29日，贾跃亭因“无正当理由拒不履行执行和解协议”，三度被北京市第三中级人民法院列入失信被执行人名单。在公布的三份已经生效的判决书中，贾跃亭累计需要支付超过12亿元，这还只是已经公布的金额。新京报此前从知情人士处获悉，据不完全统计，贾跃亭在三中院被列为被执行人的案子就有9起，其中最高的负债达14亿，9起案件仅执行费就逾600万。在贾跃亭远赴美国之际，又被爆出其此前将减持乐视网股票的所得借给上市公司的承诺未曾履行，并引发监管层问询。贾跃亭则在2017年11月9日回复乐视网的函件中称，其已经将所减持所得资金全部用于非上市体系以及本人所涉及的债务偿付等，目前已无力履行无息借款予以上市公司的承诺，亦无力履行增持上市公司股份的承诺。2017年12月29日，贾跃亭因为履行借款或回购股份的承诺而被深交所公开谴责。对于负债情况，贾跃亭此前接受媒体采访时曾表示，其在非上市体系股权、地产和上市公司体系股权，共约400亿的资产都在国内被冻结了，整个乐视的负债大约200多亿元，其中100多亿元由其承担连带担保责任。（朱星）贾跃亭如何尽责到底？贾跃亭一方面表示“尽责到底”，但其妻子甘薇的微博却透露出另一种情形。甘薇昨日在微博上表示已经“负债累累”。甘薇称，老贾减持股票的钱（减持所得97亿，缴税20亿元）和质押股票的贷款（质押贷款余额69亿元，2014年至今利息支出17.4亿元），股权投资约16亿。经营投入约152亿。甘薇表示：“不但没用于个人及家庭使用，还替公司担保100多亿，个人及家庭两套房产和资产都被冻结，负债累累。”乐视网2017年半年报显示，贾跃亭、甘薇、贾跃民以及乐视控股等方共为上市公司乐视网担保借款约47亿元，其中约18亿元是2017年到期。2017年12月25日，北京法院审判信息网透露，法院依法对被执行人贾跃亭的银行存款、房屋登记、车辆登记进行了调查，扣划被执行人贾跃亭银行存款130.94万元，轮候查封了贾跃亭持有的乐视网10.24亿股股份，轮候查封了贾跃亭名下位于北京市东城区东直门外大街某房产和位于北京市朝阳区双花园南里二区某房产。法院称，现查明贾跃亭无其他可供执行的银行存款、无其他房屋登记记录、无车辆登记记录。（朱星）非上市资产再被以资抵债贾跃亭在回应中表示，“虽然非上市公司的股东承担有限责任，非上市公司所欠上市公司的债务从法律上讲不应由我个人承担，但是出于对上市公司的情感和责任，我自愿由我个人全部承担，并拿出我的一切来解决上市公司和非上市公司的债务问题。”1月2日晚间，乐视网公告，其控股子公司新乐视智家拟以9290万元受让乐视电子商务经营的网站（乐视商城）及相关资源、知识产权等。乐视网称，乐视商城等资产注入上市体系的同时，可通过以资抵债的方式有效解决上市公司与关联方之间应收账款问题。截至2017年9月末，乐视商城对乐视网的应收账款余额为3.2亿元。截至2017年6月30日，乐视电子商务总资产人民币9.48亿元，净资产-9.74亿元，营业收入4.50亿元，总利润-2.45亿元。此前，乐视网也在通过受让乐视非上市体系资产，以资抵债来解决应收账款问题。9月24日晚间，乐视网公告称，拟以不超过30亿元收购乐视金融的主体公司乐视投资100%股权，乐视网称，这不仅可将优质资产注入，也可解决上市公司和关联方之间应收账款问题。本文来源：新京报责任编辑：张海桐_NN9053",
    "URL": "http://news.163.com/18/0103/02/D76MIN4K000187VI.html",
    "PublishTime": "01/03/201802:29:53",
    "Source": "Netease"
}