{
    "Title": "陈红儿子陈飞宇古装造型曝光 五官英挺更显成熟_网易娱乐",
    "URL": "http://ent.163.com/17/1228/23/D6PHC04600038FO9.html",
    "Source": "Netease",
    "Article": "陈飞宇网易娱乐12月28日报道12月28日晚，陈红儿子陈飞宇通过微博晒片场自拍，并称：“这其实是张自拍。”照片中，陈飞宇一身古装造型，手里拿着的饮料被打上了马赛克，有种瞬间穿越的感觉，酷酷的眼神和精致的五官，非常的帅气丝。纷纷围观并留言称：“明明是他拍，骗谁呢？”“行吧这种自拍最好天天发。”“这位少年骨骼清奇，可远程自拍，了得了得！”本文来源：网易娱乐责任编辑：陈少杰_b6952",
    "PublishTime": "12/28/201723:48:49",
    "Comment": {
        "Total": 938,
        "Content": "帅比 帅，就是嘴巴不好看，像他那个势力的爹 他爹是谁啊？ 吴亦凡？ 挺帅 陈红不是忙着打官司呢吗 这是什么鬼 陈红的好基因啊 帅是帅，就是嘴巴不好看，气质比一线的男明星比还差了点什么…… 妈好看的一定要生儿子，简直美炸天 挺好的 没完全像妈 嘴巴随爸 铅山美女基因就是好 手里该拿个馒头拍照才对 长得像吴亦凡啊 陈红的儿子好看多了，这个新闻配图说实话选得不好，陈飞宇长相酷似吴亦凡，并且不比本尊差。而且陈凯歌好歹是中国几个有名的大导演资源也比范冰冰好得多。范冰冰的儿子属于那种混在人堆里找不着那种！ 都知道娱乐圈的💰好挣哈！一边矫情，一边削尖了脑袋往里挤👎🏿👎🏿 颜值被他爸拖了后腿😄 他和范冰冰的弟弟哪个会混的好一点？ 比小鮮肉好 还是陈凯歌老婆那个陈红 [挨揍] 基因很重要 陈凯歌的不行啊 没他妈好看，我还是喜欢陈红 老板，还有没有胡萝卜？老板：吃的用的？用的，老板：没有了……没有了。。。。。。 验个DNA吧 [鄙视] 还好基因大部分随的母亲. 论基因的重要性 常回家看看那个陈红吗 二儿子看来是夫妻感情幸福的时候怀上的；有兴趣搜一下他们的大儿子，是陈红当小三逼宫时怀的画风完全不一样 孙悦不是打篮球的吗 整容前一般得很，现在这样比以前好看点，脸记不住哇整容的通病 长得一点不像陈凯歌那个脑血栓后遗症脸 有点像吴亦凡 ，， 打篮球的是姚明好不好？ [疑问] 嗯，像我，我看到了 帅是帅，就是嘴巴不好看，气质比一线的男明星比还差了点什么…… 还是不是🇨🇳籍？ 演戏钱多风险几乎是零。 [挨揍] 青藏高原那个 手里该拿个馒头拍照才对 老板，还有没有胡萝卜？老板：吃的用的？用的，老板：没有了……没有了。。。。。。 陈红的儿子好看多了，这个新闻配图说实话选得不好，陈飞宇长相酷似吴亦凡，并且不比本尊差。而且陈凯歌好歹是中国几个有名的大导演资源也比范冰冰好得多。范冰冰的儿子属于那种混在人堆里找不着那种！ [微笑] 强大的基因 没完全像妈 ，， 这是那个小儿子吗？变丑了？ 没他妈好看，我还是喜欢陈红 长得像吴亦凡啊 你厉害👍 刚兵 颜值被他爸拖了后腿😄 他爹是谁啊？ [羞羞] 挺帅 陈红的好基因啊 整容了鼻子 挺好的 嘴巴随爸 ，， [疲惫] 他和范冰冰的弟弟哪个会混的好一点？ 陈红是谁 常回家看看那个是孙悦 还是陈凯歌老婆那个陈红 厉害呢 哈哈哈 马赛克 还没吴昊然好看 好好好 [羞羞][羞羞][羞羞] 二儿子看来是夫妻感情幸福的时候怀上的；有兴趣搜一下他们的大儿子，是陈红当小三逼宫时怀的画风完全不一样 常回家看看那个陈红吗 帅比 [晕] 这电影确实不错 帅，就是嘴巴不好看，像他那个势力的爹 吴亦凡 😍 吴亦凡？ 赵氏孤儿就出来过，那时候脑袋上长个痣 陈红不是忙着打官司呢吗 这是什么鬼 陈红的好基因啊 fhh …… 妈好看的一定要生儿子，简直美炸天 比小鮮肉好 乍一看像刘涛啊 基因很重要 都知道娱乐圈的💰好挣哈！一边矫情，一边削尖了脑袋往里挤👎🏿👎🏿 肯定 …… 铅山美女基因就是好 论基因的重要性 gh 还是陈凯歌老婆那个陈红 说好一年一张的新专辑呢 陈凯歌的不行啊 [鄙视] 常回家看看那个陈红吗 [狗] 验个DNA吧 自己炒的吧 还好基因大部分随的母亲. 你个水军。 thh 像刘涛 度娘现在真是毫无底线 ",
        "Reply": 80,
        "Link": "http://comment.ent.163.com/ent2_bbs/D6PHC04600038FO9.html"
    },
    "KeyWords": "陈飞宇,陈红,自拍"
}