{
    "Article": "（原标题：台当局成立“快反连”反“斩首”网友讽：蔡英文会被自己吓死）台当局成立“快反连”【环球网综合报道】台防务部门成立“宪兵快速反应连”，担任台北卫戍区反空降、机降、特攻、突击的“反斩首”任务。据台“联合新闻网”2日报道，“快反连”于今日起开始执行任务，首任连长由张姓女连长担任。对此，台网友讽刺，“她(蔡英文)会被自己吓死”。报道称，台北“中枢”卫戍任务过去以“装甲宪兵营”为主，去年加入海军陆战队驻复兴岗的步兵营。而为加强博爱特区与周边安全，台防务部门又决定由“宪兵指挥部”成立一支“快速反应连”，以强化重要区域防卫作战能量。报道称，“快反连”除重型机车及外，还将纳入“云豹”八轮甲车、反空降机降及反特攻等各式装备，增添新式资通电装备。除此之外，“宪兵指挥部”也将强化装备，规划在2018年筹补5个宪兵营、21个宪兵队及12个空军宪兵中队等38个单位战斗装具，2019年筹补警卫大队、各地区指挥部军官排含宪训中心、勤支连、本部军官连、勤务连及通作连等14单位战斗装具。对此，台湾网友留言讽刺，“她会被自己吓死”，“怕成这样”，“八轮甲车“云豹”就是为了逃命用的”，“坏事做太多了，越来越怕被刴头?”，“怕死，还不停地挑衅，有病”，“陈水扁、蔡英文都要反斩首演习。”本文来源：环球时报-环球网。更多精彩，请登录环球网http://www.huanqiu.com责任编辑：姚文广_NN1682",
    "PublishTime": "01/02/201809:31:00",
    "URL": "http://war.163.com/18/0102/09/D74SVE8E000181KN.html",
    "Source": "Netease",
    "Comment": {
        "Content": "从历史看，蒙古的成吉思汗对海南拥有无可争议的主权 和呵呵呵呵呵呵呵呵呵呵呵呵呵呵 不把日杂当同胞就被二楼如此解释啊？ 大陆己成世界人民娱乐对象 你见过谁拿刀逼别人当自己同胞的?可笑 太監竟然會陽痿真是天下一大奇事 从历史看，你八代都是没有皇帝反而活不下去的犬，渗透骨髓。 跟贴被火星网友带走啦~ 大陆的随便一个特战分队拿下你分分钟！ 你素的什么啦？偶们听不懂的啦~！有种，就继续和大陆对抗吧湾湾！！ 小心快反连里有一半的卧底 斩首？蔡英文太高看自己了！和平统一台湾是大势，别上了历史害榜！ 我一想起就阳痿 宁可台弯不长草，也要收复台湾岛！ 你吗 呵呵！有用吗？或者是说有意义吗？当势不可挡的强大洪水来了的时候，有个小朋友拿着一块小木板说：这块木板就可以挡住洪水了。你信吗？ 我每每看到大陸網友叫囂武力台灣時那種自信的樣子，總會想起早年看美國戰爭片，有個年輕的新兵補充到戰場，得意的拿他磨成鋸齒狀的刺刀給老兵看，說要拿來殺德軍。那老兵只對他說一句：把那把刺刀丟掉被德軍抓到你會很慘。很多朋友就像那新兵，總以為武力台灣，只要搭船上岸就可以任意殺戮台灣人很輕鬆。我真的很替你們擔憂，還好網友們不是決策高層。 蔡婊子。 看这个鸟样子！唉，自不量力 那就上呀?等什么呢? 跟贴被火星网友带走啦~ 这种女人，男人一看就阳痿。 历史来看，你爸是外来物种！ 呵呵比你吗好看多了 他们贫雇农，希望战争，得军功，当上局长，然后白睡威权社会的七百个良家妇女不花钱，只出权。 SO？？？你们压根也没把我们当过同胞好吗？？？只是我们这里一直把你们当同胞。但这不代表你们就很重要或者久非得要你们喜欢，所以宝岛那边喜不喜欢我们呢……其实吧，有时候你们也别太把自己当根葱 环球 这坨屎对民主国家和地区哪里没黑过？ 历史会证明，蔡英文会比马英九干得好！也一定会是两岸统一大业的功臣。 “快反连”自己都被干掉了，反个毛线啊？ 蔡英文你就是一副肮脏的嘴脸，丑陋的灵魂政治犯！你在把台湾同胞一步一步带上不归路！绑架民意的纳粹分子！感谢有你，是你让我们看到了武统的曙光！不管你从美国买多少武器，最终还是我们的！ 混球时报竟搞些制造民族矛盾和破坏两岸关系的事情 不用你厌恶，一坨屎不会厌恶另一坨屎，因为你们是同类，懂吧。同样是女人，我们为什么没人骂英国德国领导人，因为她们不像蔡婊，因为你们就是娱乐对象，你还是撒泡尿照照自己吧，等你们不配被我们嘲笑的时候，就由不得你来一本正经的装斯文了。！你自己什么里子自己最清楚。我们高兴了，骂骂蔡婊看猴耍，不高兴了，骂都懒得骂。你算什么葱？？等到我们懒得给你们猴戏的机会，就是你们作到死的时候。像你这种铁心走狗，自己算算还有多长时间蹦跶吧。 跟贴被火星网友带走啦~ 台湾越来越成为大陆的娱乐对象了 妄图以外来势力来图谋政治利益者，自古未见不出卖国家利益者，亦自古未有成功者<br>想那空心菜也必不会成功，而定遭国人唾弃！ 台湾省沦为中国四线城市，这一点，他们领导人就要下台了。。。 别扯淡，历史会证明，蔡是中国统一的功臣…… 多少钱一天？为什么你们的能显示？ 这种女人，男人一看就阳痿。 没有湾湾环球估计要大裁员 你在說笑話？確實好笑，我笑了！ 人家跟你对抗快七十年了，也没怎么样 台湾人民为保卫自由、富裕、明珠而战 有逼脸笑台湾，房产证拿到了？ 环球胡总听说你也快了。 跟贴被火星网友带走啦~ 跟贴被火星网友带走啦~ 你老婆确实让别人硬....还能让别人软.... 从历史看，蒙古的成吉思汗对海南拥有无可争议的主权 呵呵.............能不被吓死吗如果俺们动手这老娘们连跑到美国或者日本的机会都没有还特种部队不知道俺们有巡航导弹啊 这女人就是个利益的载体，只恨是同族肉体装日美利益。 呵呵你高兴就好 看来离被斩首不远了！ 从台湾飞到美军在日本基地要多长时间 二楼急眼了？难道是你失散多年的麻麻？🙄 从历史看，你八代都是没有皇帝反而活不下去的犬，渗透骨髓。 相煎何太急 我一见它名字就阳痿 菜的面相跟一只癞蛤蟆似的，你说的不是没可能。。。 自己买的手机 大陆的随便一个特战分队拿下你分分钟！ 够花记得 做了又有鸟用，不去舔日本舔美国，你们还真拿自己当回事了！都不够这边一次冲锋的 斩首？蔡英文太高看自己了！和平统一台湾是大势，别上了历史害榜！ 我一想起就阳痿 宁可台弯不长草，也要收复台湾岛！ 你吗 快速反应？猝死？ 想要收复台湾，只能武力解决 你在說笑話？確實好笑，我笑了！ 我每每看到大陸網友叫囂武力台灣時那種自信的樣子，總會想起早年看美國戰爭片，有個年輕的新兵補充到戰場，得意的拿他磨成鋸齒狀的刺刀給老兵看，說要拿來殺德軍。那老兵只對他說一句：把那把刺刀丟掉被德軍抓到你會很慘。很多朋友就像那新兵，總以為武力台灣，只要搭船上岸就可以任意殺戮台灣人很輕鬆。我真的很替你們擔憂，還好網友們不是決策高層。 蔡婊子。 历史来看，你爸是外来物种！ 他们贫雇农，希望战争，得军功，当上局长，然后白睡威权社会的七百个良家妇女不花钱，只出权。 韩国是朝鲜不可分割的一部分 台湾必须武力解放。否 放心吧，其实即使登岛，我们也只杀日本鬼子留下来的野种。 我看了台湾拍的这个新闻的视频，谁看谁都会开心的大笑，这一天都有好心情。 三楼真说到点子上了.这个还真的是.如果她真来柔的,还真不好办,现在好,刀磨好了.水烧开了,一头猪哼哼着躺上来了. 大陆武统时悬赏抓小蔡。估计这些人会起作用的。 啦咯女扣扣咯哦图咯 二楼这么逗逼？急着出来护老母？ 我擔心的是餵魚，畢竟兩岸同文同種都是人生父母養的。 胡锡进总编千古。 海峡两岸同是中国人，为什么这么恶毒谩骂攻击自己人。 你是日雜？還這想法還真詭異 妄图以外来势力来图谋政治利益者，自古未见不出卖国家利益者，亦自古未有成功者<br>想那空心菜也必不会成功，而定遭国人唾弃！ 不，是你嘛 2018年是一个平凡的年，但也是一个不平凡的年，值得我们去认真面对。象台独这种做事无奇不做的组织，很有可能会沦为恐怖组织！中国的发展不可能一而再再而三的任由这些不入流的东西来阻碍，也不可能任由它们来玷污我们的明声！周边有朝核问题、日本问题、印度问题等等，但如果处置得当，说不定一个漂亮的处理台独问题就可以让周边形势发生根本性改变，使我们的发展走向更敞亮的路！ 快反水连队 “快反连”自己都被干掉了，反个毛线啊？ 蔡英文你就是一副肮脏的嘴脸，丑陋的灵魂政治犯！你在把台湾同胞一步一步带上不归路！绑架民意的纳粹分子！感谢有你，是你让我们看到了武统的曙光！不管你从美国买多少武器，最终还是我们的！ 那就上呀?等什么呢? 本是同根生，后面是啥？ 呆湾的，今天你又该去跟你蔡妈妈要饭钱了哦！ 哈哈哈哈 女人一看也流泪。 别扯淡，历史会证明，蔡是中国统一的功臣…… 建议以后关于呆湾和老菜头的新闻，放在娱乐版块！ 外来物种的种还是一边看着的好，中国的事中国人自己会解决。虽然你的出身很可悲，当然你自己是很自豪的，外来物种嘛！ 这种女人，男人一看就阳痿。 因为上战场的不是键盘侠！ 台湾人民为保卫自由、富裕、明珠而战 历史会证明，蔡英文会比马英九干得好！也一定会是两岸统一大业的功臣。 78以前这么说还过得去。问题是现在除了台北故宫博物院的明珠以外，台湾还有哪个？？或者换成台湾呆蛙为了保卫无知自大，愚昧闭塞，傲娇而战更合适吧。台独更像猪圈里的猪自以为是世界之王，其实主人可以随时进圈杀猪。只不过主人想等待一个更好的时机比如说过年^6^lol 环球胡总听说你也快了。 跟贴被火星网友带走啦~ 那也要能活著才行。有個自稱他原當兵的單位就是專打台灣的，還哈哈大笑！我很難過希望他是胡說八道，知此知彼百戰百勝，我想大家都可朗朗上口，而他專打台灣的竟然對台灣絲毫不知，只是來送死的。 这种女人，男人一看就阳痿。 台湾省沦为中国四线城市，这一点，他们领导人就要下台了。。。 蔡英文有点逗逼了 呵呵 菜菜子在作死的道路上越走越起劲！ 大陆己成世界人民娱乐对象 你见过谁拿刀逼别人当自己同胞的?可笑 怎么反 你素的什么啦？偶们听不懂的啦~！有种，就继续和大陆对抗吧湾湾！！ 大陆的随便一个特战分队拿下你分分钟！ 不干别浪费，让我来！ 美帝笑尿了咯。。。😄😄😄 你在說啥？是不是跑錯場了？ 一个女娃娃带个绿帽子，差评！ 您刚才说了什么13亿人的素质，当然个别人是代表不了的，不过您这样的回复是代表了谁呢？ 我一想起就阳痿 天花板 哈哈，不用看都…… 空心菜只要有选票，都敢直接公投，管它老百姓死活 我寫的貼被刪後，我自己也忘了內容，我都是直接在網頁寫，打字又快腦袋來不及記。結果引來激烈反應被刪後再想要回想內容就腦袋裡一片空白。哈 巫婆 蔡婊子。 按某些台湾人和你的观点和逻辑，你用变化了几代的繁体字，破坏了中国优秀的文化传统！应该用第一代的甲骨文。不要自己打自己的脸。 那就上呀?等什么呢? 94,94，很多人都盼着你被斩首呢。这也能拿出来说！ 人家跟你对抗快七十年了，也没怎么样 不想黑～但……这头盔戴的我想笑😂 哈哈哈……哈哈…… 我回復代表我自己還有小編(是他通過審核的) 总统候选人多呢，还在乎少一个你？😂 有点搞笑 下次记得带3级头，，2级头不够98K一枪 小心空心菜会夹鸡 被女连长吓着了！ 这坨屎对民主国家和地区哪里没黑过？ 你的回應正好表達出你們的誤區 菜菜太菜，不如回家卖菜 月亮灣四面哀歌。 还有平底锅~~！！逃命必备 台湾越来越成为大陆的娱乐对象了 不用你厌恶，一坨屎不会厌恶另一坨屎，因为你们是同类，懂吧。同样是女人，我们为什么没人骂英国德国领导人，因为她们不像蔡婊，因为你们就是娱乐对象，你还是撒泡尿照照自己吧，等你们不配被我们嘲笑的时候，就由不得你来一本正经的装斯文了。！你自己什么里子自己最清楚。我们高兴了，骂骂蔡婊看猴耍，不高兴了，骂都懒得骂。你算什么葱？？等到我们懒得给你们猴戏的机会，就是你们作到死的时候。像你这种铁心走狗，自己算算还有多长时间蹦跶吧。 （多做好事，必有好报）美攻朝中收台战略对冲平衡（加快发展繁重工作替代性智能机器，不用延迟退休）公司上市后业绩异常下降，依法赔偿遏制骗钱（当务之急大小限减持和再融资要挂钩分红或回购，违则重罚，促进长期良好经营，缓解套现压力）尽快开征股指期货的印花税，才能降低杠杆及高频风险，限制其乱影响股市（基金只有盈利才收管理费，真正为投资者服务）连续2天涨跌停就限仓交易，共同受益，利国利民！ 二三线还是有的，台北还是挺繁华的 混球时报竟搞些制造民族矛盾和破坏两岸关系的事情 已经准备后路 好好的一个伟大的中华民族，狗娘养的们祸害到什么时候是个头？ 呵呵！有用吗？或者是说有意义吗？当势不可挡的强大洪水来了的时候，有个小朋友拿着一块小木板说：这块木板就可以挡住洪水了。你信吗？ 不知道你是一个什么样品种 多少钱一天？为什么你们的能显示？ 蔡英文，你再疯狂些！好让大陆动手。 50美分一天，干吗? 这么恨？ 没有湾湾环球估计要大裁员 厌恶？你们嘲笑大陆吃不起茶叶蛋，演员打击大陆演员心里没点b数吗？ 有逼脸笑台湾，房产证拿到了？ 这娘们儿越来越觉得自己是个角色了！太高看自己了…… 跟贴被火星网友带走啦~ 老蔡鸟脑袋上扣了个大傻冒…… 蔡大美人整天提心吊胆，惊吓的大姨妈都紊乱了。 好好的回归祖国就不用担心受怕了！ 老蒋补斩首多少次了，蒋氏后人也没人问。 这种女人，男人一看就阳痿。 这种女人，男人一看就阳痿。 你怕是不想都…… 枪炮弹药只会偶尔哑火，不会阳痿也不认人。 呵呵比你吗好看多了 蔡英文戴帽子真是丑爆了 这绿帽子戴的好 环球 蔡婊这是给自己加戏啊 看这个鸟样子！唉，自不量力 最好是全独了，这样我们就可以要岛不要人，反而现在还要顾忌误伤，那反而困难啊…… 蔡小姐怕是因为要打战了。我们6070这两代最幸福，没有文革，把握改革，享尽性福，有生之年还能看到统一台湾。 这起的名字，怎么都这么奇葩 和呵呵呵呵呵呵呵呵呵呵呵呵呵呵 小心快反连里有一半的卧底 不不你这个智商的领导斩首行动都嫌弃浪费油钱和子弹钱的 要以正常的心态看她就对了。在强大的攻势面前，他们不会坐以待毙的。 我一想起就阳痿 一看那蔡几八婆就倒酸味，放心吧你跑不了的你一定会受到14亿中国人民的公开审判！ 想坐战机逃是不可能得，想从水下逃更不可能，只能等死吧！ 搞台独总将会自掘坟墓。台独分子就是日本美国在台湾的爪牙，想分裂中国，干尽坏事必死无疑。爱国人士迟早会砍下她的头颅。 别扯淡，历史会证明，蔡是中国统一的功臣…… 真的要想斩首蔡英文，只需要通过卫星摸清其行踪，几枚导弹就搞定了，届时恐怕连什么“快反连”都一起见鬼去了！ 居家旅行，杀人避孕之良药 台湾网友 真恶心的民进党 你要这么说，那还真说不定 能反得了吗？ 这鼻子。。。。 ",
        "Reply": 144,
        "Total": 1710,
        "Link": "http://comment.war.163.com/news_junshi_bbs/D74SVE8E000181KN.html"
    },
    "Title": "台当局成立“快反连”反“斩首” 遭网友讥讽_网易军事",
    "KeyWords": "军官,防务,快反,宪兵"
}