{
    "Comment": {
        "Content": "联赛输给巴萨 三年两进欧冠决赛，意甲N连冠，确实有点虚，但是这位置想让出去都没人接啊！把主力中卫国脚都送人了，结果人家连欧战区都进不了，也很无奈啊。还有年年争冠，年年冬歇开始掉队的。那不勒斯都表示现在保二争一了，别的队没压力啊。 我大国🐔在哪里？前五没有也就算了，米兰一百多都能提到为啥不提我🐔？ 第一居然不是皇马，去年欧冠冠军 讲道理我小萨村排第一有点意外 我鸡宇宙第一，连年欧冠不败无失球。 巴萨模式的曼城升到第二，恭喜恭喜 欧冠小组第二两回合被热刺摩擦排第一太难了 如果跟前三十年一样，肥料越位有效、假摔得点、伤人不犯规……，肥料还是有机会“赢”的。 瓜迪奥拉执教过的球队都排进了4强 尤文图斯虚高 有必要与一楼理论吗？ 别提99。拜仁铁粉 这个实话 这场有看点，霍华德从亚特兰大转去的黄蜂，看看怎么报复老东家。 一楼，傻逼[大笑] 夏天最惨现在缓过来了，几大联赛唯一不败的就是巴萨曼城目前这个排名实至名归 三年两进欧冠决赛，这还叫虚高？ 到不了，如果去了煤球王的话，连前十都没戏 傻逼球盲鸟粪废物们和它们的废物嘢爹墓表怨妇一样，任人按在地上摩擦虐曹，没有能力只靠喷粪和旁门左道的阴笔小人，输球就是别人的问题，赢球就是自己的功劳，从意甲喷到西甲喷到英超，输球不反省自己的问题，甩锅喷对手，诋毁别人，现实里的阴笔废物鸟粪就是这样子，所以跪添废物墓表，物以类聚。坐等废物墓表打造6亿龟公脏笔大巴足球，任人按在地上摩擦，然后鸟粪们一片欢呼爽。 一楼就是一个瓜批：按你的逻辑曼城如果跟尤文一样联赛六连冠，进两次欧冠决赛岂不是要升天了？我们不要比历史，比历史曼城更是被尤文甩几条街，就比这些年的成绩曼城比得了尤文？恐怕曼城唯一秒尤文的就是投入了吧…… 凝聚力和教练的战术还有煤球王 有不要与一楼理论吗？？ 能给它屎都踢出来 足球就是金钱加上超级球星决定一切，如果梅西退役，那么巴萨也避免不了走下神坛，因为俱乐部没那么多钱。 巴萨现在论实力的话这不是不足榜首了。。。对支持的球队也得有清醒的认识 有几个队可以做到三年两进决赛 巴萨第一？巴萨第一？ 大黄蜂呢？居然跌出前20 三楼这理论那没进决赛的不应该更靠后？ 英超的上升，是有数据来支持的。 拿冠军了没 第29，顺便说一句，欧联对手亚特兰大第25 最近几年的统计不是就这一年的。巴黎欧战国内都算不上出色。只是今年一骑绝尘。 这一期的排名还算公道，基本反应了目前的实力 前五居然没大巴黎不科学 我小破文一直很稳定啊 看你发帖，我都同情你了。你过得是多累。 意甲水平低，没看头，靠意甲刷数据算个什么意思？布冯都要退了，谁还当尤文一回事？问问转会的球员，愿意去哪个球队？有想混尤文的不？ 这个应该是根据本赛季成绩和过往综合起来的，要不单论以前的成绩，曼城排不上第二，巴萨和曼城是欧洲本赛季欧冠和联赛仅有的不败的球队了吧？皇马沾了以前的光，否则也排不上前三！不知道这个排名究竟取的哪些参数 论商业价值和影响力，曼联难道会比皇马差。。好的战绩还是不可或缺的 两进欧冠决赛怎么刷？？你预言这些能说明什么？？ 前二位在联赛保持不败金身！ 恒蜜还说恒大在荷甲能前三甚至夺冠呢。 尤文前五妥妥的，降级后走了一批球星，第二年升回意甲又是夺冠行列队伍，这就是俱乐部的底蕴 吹风机手里曼联就是红魔，99年欧冠真特么有魔性，现在的曼联也就是公交站。 现在的米兰还不一定能赢恒大😂 你在黑恒大还是黑米兰呢？<br>要点脸吧，先亚冠小组出现再说。 皇马这个赛季结束之后能保住前十我就心满意足了<br>30年皇马球迷留 我鸡在宇宙排行榜上不在你这破榜单上 恭喜曼城！ 尤文加油啊，现在才排第五，继续拼吧！！ 六大名帅坐镇实力能不提高吗？曼城今年简直变态的存在 成绩可能差些，但是皇马跌出前五的可能性不大，毕竟商业价值和影响力在那里摆着的。 联赛输给巴萨 一个惨案一个法甲第二，就等今年翻身了 我想成上次排名了！ 米兰101，恒大124 真的高就是像曼城这样的？ 还夸鸟黑瓜呢？你得有多脑残啊？ 能给它屎都踢出来 欧冠小组第二两回合被热刺摩擦排第一太难了 恒大不一定是我们校队的对手 尤文图斯虚高 武术迷定律！ 米兰的排名连恒大都不如了吗？ 老妇人说实话一如既往的稳基本不会大起大落 我以为是上次排名 看你那个逼样的 别提99。拜仁铁粉 刚被3比0联赛那成绩欧冠还小组第二，怎么能排第一？ 如果如果，如果你爹去了，宇宙第一，倒数的 第六啊，差不多 那不是还升了一位,记得以前排11位滴 如果跟前三十年一样，肥料越位有效、假摔得点、伤人不犯规……，肥料还是有机会“赢”的。 夏天最惨现在缓过来了，几大联赛唯一不败的就是巴萨曼城目前这个排名实至名归 三年两进欧冠决赛，这还叫虚高？ 我米兰落魄到这地步！哎 第一居然不是皇马，去年欧冠冠军 到不了，如果去了煤球王的话，连前十都没戏 作为米兰老球迷，看到米兰的贴里连句骂街的都没有，很伤心。 要是11个人都可以上外援那准没问题 讲道理我小萨村排第一有点意外 别叫醒恒蜜。 我抬居然跌出前十[挨揍] 巴萨现在论实力的话这不是不足榜首了。。。对支持的球队也得有清醒的认识 我鸡宇宙第一，连年欧冠不败无失球。 尤文好像一直这样，除了电话门那几年，应该都是10名之内，稳定在前五 皇马这个赛季结束之后能保住前十我就心满意足了<br>30年皇马球迷留 巴萨第一？巴萨第一？ 大黄蜂呢？居然跌出前20 我擦，你不说我都没注意到，难道在欧洲国米不算豪门？ 我大国🐔在哪里？前五没有也就算了，米兰一百多都能提到为啥不提我🐔？ 瓜屌没来之前，曼城本来就是排名第一，连续2年英超冠军！！而曼联之前排名19，魔力鸟一来狂升9位！ 就算现在欧冠淘汰也是稳定十强。之前底子太好 不会的。不是哪个队的球迷留 呵呵 第29，顺便说一句，欧联对手亚特兰大第25 这个实话 最近几年的统计不是就这一年的。巴黎欧战国内都算不上出色。只是今年一骑绝尘。 前五居然没大巴黎不科学 滚nmlgb,我🐔做了两个星期的意甲冠军，外加年年三冠王，凭什么不能进前五？ 两进欧冠决赛怎么刷？？你预言这些能说明什么？？ 意甲水平低，没看头，靠意甲刷数据算个什么意思？布冯都要退了，谁还当尤文一回事？问问转会的球员，愿意去哪个球队？有想混尤文的不？ 我想问一下这个榜单要排到多少 看看排名啊老哥 哪个逼样？是不是比你帅啊？🤣 凝聚力和教练的战术还有煤球王 3比0历史最强皇马我们更意外。要不是大牙戈麦斯屡屡吐饼估计又是一个五指山，作为萨米真没想到现在的巴萨还能虐皇马。 实至名归 英超的上升，是有数据来支持的。 第6，没毛病 尤文前五妥妥的，降级后走了一批球星，第二年升回意甲又是夺冠行列队伍，这就是俱乐部的底蕴 尤文加油啊，现在才排第五，继续拼吧！！ [狗] 现在的米兰还不一定能赢恒大😂 前二位在联赛保持不败金身！ 嘴怎么那么贱呢？吃了屎没刷牙？ 曼城不知道为什么积分那么高。。 傻逼球盲鸟粪废物们和它们的废物嘢爹墓表怨妇一样，任人按在地上摩擦虐曹，没有能力只靠喷粪和旁门左道的阴笔小人，输球就是别人的问题，赢球就是自己的功劳，从意甲喷到西甲喷到英超，输球不反省自己的问题，甩锅喷对手，诋毁别人，现实里的阴笔废物鸟粪就是这样子，所以跪添废物墓表，物以类聚。坐等废物墓表打造6亿龟公脏笔大巴足球，任人按在地上摩擦，然后鸟粪们一片欢呼爽。 米兰越来越屌丝了[疲惫] 我鸡在宇宙排行榜上不在你这破榜单上 吹风机手里曼联就是红魔，99年欧冠真特么有魔性，现在的曼联也就是公交站。 智障 六大名帅坐镇实力能不提高吗？曼城今年简直变态的存在 你以为恒大都是外援？ 巴萨实在无解 上个赛季的欧冠冠军是巴萨? 第一居然不是皇马，去年欧冠冠军 巴黎，切尔西，曼城那么有钱的老板也不见得成绩有老牌强队的成绩好，这个东西就叫底蕴。不是光靠钱就能吸引巨星的。 三十年河西三十年河东 瓜迪奥拉执教过的球队都排进了4强 我破莉莉能排13？ 尤文图斯虚高 是不是联赛combo加分翻翻？ 恒大还不一定能赢中甲队 都是按三年的复合积分算的，跌的没那么快 阿森纳居然不是第四 巴黎的位置还是合适的。 你从哪看出巴萨没钱的？ 2楼这个贱麻批全家女人都被米兰球迷艹过，他就是我们射出来的 如果跟前三十年一样，肥料越位有效、假摔得点、伤人不犯规……，肥料还是有机会“赢”的。 最新排名还念叨昨年 热刺？罗马？波尔多？搞笑呢 这算撒曼城冠军还没摸到就第二了 前五居然没大巴黎不科学 足球就是金钱加上超级球星决定一切，如果梅西退役，那么巴萨也避免不了走下神坛，因为俱乐部没那么多钱。 看看联赛踢成什么样子 按近几年来看肯定不算虚高但只看这个赛季目前的状态确实有点高了 国🐔估计在五十左右 虎落平阳 傻逼球盲鸟粪废物们和它们的废物嘢爹墓表怨妇一样，任人按在地上摩擦虐曹，没有能力只靠喷粪和旁门左道的阴笔小人，输球就是别人的问题，赢球就是自己的功劳，从意甲喷到西甲喷到英超，输球不反省自己的问题，甩锅喷对手，诋毁别人，现实里的阴笔废物鸟粪就是这样子，所以跪添废物墓表，物以类聚。坐等废物墓表打造6亿龟公脏笔大巴足球，任人按在地上摩擦，然后鸟粪们一片欢呼爽。 恒大可是打过巴萨拜仁的球队，自知自明还是有的。 傻逼球盲鸟粪废物们和它们的废物嘢爹墓表怨妇一样，任人按在地上摩擦虐曹，没有能力只靠喷粪和旁门左道的阴笔小人，输球就是别人的问题，赢球就是自己的功劳，从意甲喷到西甲喷到英超，输球不反省自己的问题，甩锅喷对手，诋毁别人，现实里的阴笔废物鸟粪就是这样子，所以跪添废物墓表，物以类聚。坐等废物墓表打造6亿龟公脏笔大巴足球，任人按在地上摩擦，然后鸟粪们一片欢呼爽。 哈哈，你想多了 你说米兰踢得垃圾是事实踢个恒大踢不过？吹牛得有度 鸭血粉丝汤吃撑了？ 2楼宜昌鸡 有那不勒斯，没国际米兰？只能呵呵了。。 讲真话，每次只要是米兰的新闻还是很关注，真希望当年的米兰能回来！ 傻逼球盲鸟粪废物们和它们的废物嘢爹墓表怨妇一样，任人按在地上摩擦虐曹，没有能力只靠喷粪和旁门左道的阴笔小人，输球就是别人的问题，赢球就是自己的功劳，从意甲喷到西甲喷到英超，输球不反省自己的问题，甩锅喷对手，诋毁别人，现实里的阴笔废物鸟粪就是这样子，所以跪添废物墓表，物以类聚。坐等废物墓表打造6亿龟公脏笔大巴足球，任人按在地上摩擦，然后鸟粪们一片欢呼爽。 这毒奶巴萨不喝。给皇马吧😄 我大国🐔在哪里？前五没有也就算了，米兰一百多都能提到为啥不提我🐔？ 肯定是在黑恒大了！死垃圾 三年两进欧冠决赛，这还叫虚高？ 德甲就剩挖掘机了。 你在黑恒大还是黑米兰呢？<br>要点脸吧，先亚冠小组出现再说。 哎😣 内马尔：什么前三居然没有大巴黎 恒蜜还说恒大在荷甲能前三甚至夺冠呢。 这是什么性质的排名？烧钱量么？ 承认巴萨球迷真的不丢人 话说回来，踢中超球队还是可以让个人的。 现在的米兰还不一定能赢恒大😂 虎落平阳 俺小破仁天天在老四的位置上[可怜][可怜] 皇马这个赛季结束之后能保住前十我就心满意足了<br>30年皇马球迷留 本来就不科学，排名、评选这东西只是作为参考，谁相信谁脑子才真有问题 应该在米兰前面，因为鸡x应该就是在前面的吧，多正常的事。 恭喜曼城！ forzamilan 嗯，然后内马尔去了巴黎了，底蕴管球员吃饭不， 成绩可能差些，但是皇马跌出前五的可能性不大，毕竟商业价值和影响力在那里摆着的。 三年两进欧冠决赛，意甲N连冠，确实有点虚，但是这位置想让出去都没人接啊！把主力中卫国脚都送人了，结果人家连欧战区都进不了，也很无奈啊。还有年年争冠，年年冬歇开始掉队的。那不勒斯都表示现在保二争一了，别的队没压力啊。 我恒世界排名前二十。法甲仅次巴黎、英超前四、西甲中游的水平 坐井观天 拜仁干多了阿森纳也变阿森纳了 记得以前曼联一贯前三的吧？ 唉！ 欧冠有竞争优势才能排前面 现在的米兰还不一定能赢恒大😂 米兰好惨 爬得多高，摔得多惨。 巴萨模式的曼城升到第二，恭喜恭喜 就知道有傻逼这么说。还真把恒大当盘菜了。 你在黑恒大还是黑米兰呢？<br>要点脸吧，先亚冠小组出现再说。 病的不轻 罗马凭啥能排在利物浦前面 这一期的排名还算公道，基本反应了目前的实力 前五居然没大巴黎不科学 尤文图斯虚高 我小破文一直很稳定啊 红黑军团 三年两进欧冠决赛，这还叫虚高？ 米兰啥时候再度崛起哦[大哭] 米兰[大哭][大哭][大哭] 曼城就看看你今年能不能欧冠登顶 难说噢[窃笑] 法甲联赛水平低 曼城想篡位…… 昨天还有个SB说皇马是霸主。 就一个国王杯好意思第一？ 不会吧，皇马不是有玄学大师么？ 肥料是你爹啊，天天挂嘴边 一楼，傻逼[大笑] 热刺拿过啥冠军能排第七！ 皇马这个赛季结束之后能保住前十我就心满意足了<br>30年皇马球迷留 然并卵[狗][狗] 足球就是金钱加上超级球星决定一切，如果梅西退役，那么巴萨也避免不了走下神坛，因为俱乐部没那么多钱。 所以花一亿五买20岁的登贝莱博一把，看能不能接班梅西 恒大努把力超越米兰 不需要，不像巴萨只能指定冠军，心中冠军 如果跟前三十年一样，肥料越位有效、假摔得点、伤人不犯规……，肥料还是有机会“赢”的。 热刺，等踢淘汰赛就知道功底了。 ",
        "Link": "http://comment.sports.163.com/sports2_bbs/D77ED39R00058781.html",
        "Reply": 170,
        "Total": 1479
    },
    "KeyWords": "曼城,米兰,ac米兰",
    "PublishTime": "01/03/201809:26:22",
    "Title": "世界俱乐部排名:曼城狂升11位列第2 米兰跌出前100_网易体育",
    "Source": "Netease",
    "Article": "据数据网站footballdatabase报道，最新的世界俱乐部排名目前已出炉（截止2017年12月31日），巴萨稳居榜首，而曼城狂升11位排名第2，皇马位列第3。中超俱乐部恒大排名第124位，下降了57名。位列前五名的球队分别为巴萨、曼城、皇马、拜仁、尤文图斯，其中曼城凭借本赛季出色的状态狂升11位，排在第2位。英超球队本次进步明显，除了曼城进前5名外，切尔西、曼联、热刺、利物浦均有明显进步。AC米兰本赛季战绩不佳，最新排名排在第101位。AC米兰下降了32名，退步明显。亚洲方面，恒大在亚洲俱乐部排名第7位，世界排名为124位，较上次排名，恒大下降了57位。本文来源：肆客足球App责任编辑：刘頔_NS4812",
    "URL": "http://sports.163.com/18/0103/09/D77ED39R00058781.html"
}