{
    "Comment": {
        "Reply": 461,
        "Total": 9934,
        "Link": "http://comment.news.163.com/news_shehui7_bbs/D6U1BTF30001875P.html",
        "Content": "其实就是想被射下，满足了就回去了[挨揍] 港澳台看不上大陆鸡🐔，我高中同学，成绩也就三本，去了香港高考，连港大都上不了，结果厦门大学抢着要，我认识一个台湾男生，台大都上不了，结果北大清华抢着要，还各种福利。内地的大学，黑鬼可以拿着补助上学，也别怪全世界不承认中国学历，的确不怎么样。[鄙视] 不会，垂直方向加速度不变，很简单的物理问题 看见没，这才是喷子的实力！ 明天来编辑部报到 这下好了，湿身了！🤓️🤓️ 众筹你去试试 自己约得炮，再丑也要含泪打完 反重力救援 都是狗骗子的发源地， 我tm射爆？？？ 你不知道吗 这个办法很有创意 女孩千里迢迢赴约，虽然没见到网友，但还是被射了..... 被射回去了 做飞机送逼，被水枪射了回去！ 长的太丑！ 台湾的消防员值得我们学习 某报：出动高压水枪对付弱女子，台湾警方的做法令人不耻 我大环球就需要你这种人才明天来报道 超屌的诶 我第一次到廣州玩就被小偷扒了錢包，那小偷一定是台灣人對吧？ 井底之蛙 处女？幼儿园小朋友吗？ 射的好用力 不好意我们UC编辑部先看上了，诚招底薪20k不用面试了元旦后直接来上班吧 喷得好！ 女子万里里送炮，被警方与消防射了一身，原因是… 这波操作可以。 hello.湾湾的朋友.有空来厦门玩！福建欢迎你！ 不知道啊，老公告诉我 我有一个问题，如果高空坠落时用高压水枪喷射的话会影响坠落半径，但是坠落损伤程度会减轻吗？ 身材不错，目测处女 什么是坠落半径[惊讶] 台湾骗子最多，新加坡的还是没经验！！！ 当然是影响坠落半径。除非你是完全在坠落者的正下方，你的高压水枪喷射方向要跟坠落者成直线才没有影响。否则你从斜向射入，根据力的分解，一定有一个侧移的力。问题是谁会傻到站在坠落者正下方？既然如此，就一定是有侧移力，一定会影响坠落半径。 改下：女子万里送🅱，被射了一身，原因竟然是… 看这建筑楼还没有我们这小县城的好呢！哎！整天搞台独，把老百姓的生活都耽误了 马上升局长了，大家右上角帮帮忙，好吗？提前祝大家新年好，万事顺心。在2018年大吉大利！ 不远万里来送炮，你男友真不是东西！ 估计长得太丑！ 新加坡驻台代表处 正方向上射体位，来回300下应该能安全着陆 妈个逼的看体型是个美女啊干嘛要在一棵树上吊死啊！ 佩服，去编辑部报道吧 某报：出动高压水枪对付弱女子，台湾警方的做法令人深思 你自己看看每年都有的《人类发展报告》，那是联合国每年一份，也发至各成员国。你屌丝看不到而已 为什么不来见我 虽然夸张了些，如果你有良心那么你摸着你的良心说天朝国民素质如何？是，天朝人口多不假，可能素质差的多一些，但这也要有个比例吧！并不是说我妄自菲薄，瞧不起自己人，是特么全世界对我们都有看法了，我特么的急啊，我还想出去走走呢，动不动就让人家骂滚回中国去，这着实不怎么长脸！ 马上升局长了，大家右上角帮帮忙，好吗？提前祝大家新年好，万事顺心。在2018年大吉大利！ 哈哈哈 万里送批被拒的背后到底隐藏着什么不为人知的㊙️密？一切尽在今晚晚间黄金档；老王说故事 当去到台北来看雨 如果在地上喷可以让她一直悬浮，详见酒店里的在水上旋转的大理石球 这个真牛逼 真想死没人知道 就像你吸土一样，吸进去的时候口子的附近肯定会粘上土，粘上的这些土就和坠落半径的道理是一样的，相当于坠落范围是一个圆，坠落半径就是圆直径的一半。 66666 明天来网易总部上班 师傅！请受徒儿一拜 严厉打击违法行为 你应该去烧香去，这样寻死觅活的你敢碰啊？ 呆弯也有玩网易的啊 还带着口罩，这是死也不要脸了 作为一个元老，右上角之后再跟贴把你顶上去 ？？？？ 这不重要，人家坠落到一半你喷了她就是你的责任了，不管伤的重不重 你觉得台湾好，就说台湾好就完了，非要说比安徽好有什么意思吗？这里不说到底安徽好还是台湾好，因为我没去过台湾，也不想去，就算去了也要等到台湾回祖国怀抱里再去。就事论事，要是一楼不是安徽的，你肯定要说，台湾至少比一楼所在的地方好，对吗？你只不过想表达台湾确实好，顺便再告诉别人下你去过台湾，或者试图表现去过台湾，没必要贬低别人抬高自己的认知吧？ 男人硬到强奸，女人痒到跳楼。 :射得猛射得正，惬意！ 真爱啊！ 我第一次到廣州玩就被小偷扒了錢包，那小偷一定是台灣人對吧？ 井底之蛙 什么是坠落半径[惊讶] 71年了 压力够大就可以，落地毫无感觉，已经被喷死了 女子万里里送炮，被警方与消防射了一身，原因是… 70后看了沉默，80后看了后悔，90后看到流泪...... 不知道啊，老公告诉我 我有一个问题，如果高空坠落时用高压水枪喷射的话会影响坠落半径，但是坠落损伤程度会减轻吗？ 湾湾的房子好破啊 淫才啊，佩服了。。。 台湾骗子最多，新加坡的还是没经验！！！ 怎么射还不是射，祝大家新年快乐！ 呵呵 看这建筑楼还没有我们这小县城的好呢！哎！整天搞台独，把老百姓的生活都耽误了 被台湾人谝这不是很正常吗。 台湾爱咋样咋样，独了也不关我们事，还是关心一下你们自己吧 说的你好像看过一样，人类发展报告确实有，可什么国民素质排行那可是根本没有，说你无脑是真不冤 这话说的，好歹是条人命，咋没人赞消防员的机智灵活的处理呢 …… 来，大陆人 [色色][色色][色色] 这不是说的夸张，这就是个假新闻。中国国民素质确实不高，可提高国民素质也不是一代两代就能解决的问题，不过我觉得相比国民素质，国民智商、国民思维能力的提高也是个需要解决的问题，非黑即白，只愿意站队不愿意动脑子戾气十足这些其实比素质低下更可怕。 很TX 都像你似的拿个假新闻来说事，你说素质能好吗？一边干着没素质的事，一边恨铁不成钢似的嫌弃国人素质不好！不知道你会不会脸红？ 也是拼了 明天去震惊部报道 震惊！女子千里送比，竟被消防员给射了回去！ 女子满意的回去了 换个姿势死而已 妈的，今天UC主任亲自出手？？？？ 来大陆吧，我疼你 這種動不動就跳樓威脅，超恐怖的ㄚ 台湾消防太666了 呆丸冲击波 众筹你去试试 这得是多丑？白送的炮都不打[大笑][狗] 不要用建筑来比较，好吗 干嘛不见？？？？ 老司机耶。 好？！！！ 很有可能人在半空就重伤了，求这女子腹腔所承受的压力。 台湾怪事多， 明天来UC报道 我有一个问题，如果高空坠落时用高压水枪喷射的话会影响坠落半径，但是坠落损伤程度会减轻吗？ 易友们，这才叫射的有水平，喷的有技术。你们都是瞎几把喷………… 女孩千里迢迢赴约，虽然没见到网友，但还是被射了..... 小男人说安徽请把皖南皖北分开说，台湾比得上皖南，笑话 用坠落的速度，搭上水枪的速度，来减轻损伤程度？这两个一冲击。。。个人怀疑有点恐怖 😂😂😂 少了个竟。。 重点台湾省 被射的一刹那，该女子方才恍然大悟，原来这才是我想要的，谢谢消防叔叔，谢谢巨无霸水枪。 别管是哪，今天来上班 明天来上班 😂😂😂😂😂 飘洋过海来看你 呵呵，这问题太简单了，楼下回答 好你问这个问题太好了三楼请答题 明天网易报道 明天来编辑部上班。 女子万里里送炮，被警方与消防射了一身，原因是… 湾湾骗 井底之蛙 我第一次到廣州玩就被小偷扒了錢包，那小偷一定是台灣人對吧？ 可以做网易编辑了。 震惊，新加坡一女子在台湾被警察和消防人员射 台湾骗子最多，新加坡的还是没经验！！！ 改下：女子万里送🅱，被射了一身，原因竟然是… 东南亚国家，除了泰国，其它国家最好别去，那地方人都没什么道德的，说翻脸就翻脸。马来西亚、新加坡、菲律宾、印尼、越南都一个鸟样，今天你对他好，明天就他就要搞你。都很坏，泰国是例外，泰国真的是民风淳朴，东南亚国家稍微能信得过的也只有泰国。马来西亚文明程度那么高了，品德还是没有改善。 你在哪里，明天来接你上班 看这建筑楼还没有我们这小县城的好呢！哎！整天搞台独，把老百姓的生活都耽误了 下垂到肚脐 出钱，等着发起 台湾都是娘娘腔，奶茶塑化剂多了jj发育不良， 从初中物理可知，水枪给跳楼者施加一个水平方向的力，跟重力垂直，所以重力的影响并无改变 网易小编标题就交给你了 原因惊呆众人。。。 你们台湾人很机车诶 我也有个问题，要是水柱够大的话，人能抱着滑下来吗？ 怎么认识别地区的人 1楼根本不知道新加坡其实骗子多，只是在国内不敢，出了国彻底释放了。新加坡人其实素质人品不咋样。还不如台湾。台湾的强项是电信诈骗，技术是从日本人哪里学来的。国内电信诈骗技术大多是从台湾哪里学来的。 这几天去台湾玩，我的妈呀，涨见识，满街的蛇笼拒马，还带刀片的。26号看个三立新闻，还能看到被6个警员按倒剥光的女性。涨见识。 这下好了，湿身了！🤓️🤓️ 看样子身材不错的 减不减清不知道，家属会让你赔钱的我跟你讲 从下往上射她，不但死不了，弄不好还能悬浮空中 不会，垂直方向加速度不变，很简单的物理问题 厉害了 明天来编辑部报到 送妓院，让她爽个够 来编辑部报道 女子万里里送炮，被警方与消防射了一身，原因是… 脑残。 你们说说这男的什么原因？ 呵呵，楼上滴有才。 [可怜][可怜] 台湾还能和新加坡网友聊天约炮？ 这个是沒跳时射的 明天来网易上班。 明天来上班 网易需要你 都30多了，还…… 这个可以有，天天见情郎 这男的太怂，送上门都不露面，怕什么啊？ 喷子 果然能和弯弯交往的人水性一般很不错 这防跳楼技术要及时推广 我怕把她射穿了😄 贱人想死干嘛要拦着[狗] 某报：出动高压水枪对付弱女子，台湾警方的做法令人不耻 肯定不见的理由是丑 诈骗岛 为什么网易就不能弄个个动图呢？ 射得准就可以 持续射流顶在外墙不能坠落[大笑] 不远万里来送炮，居然没人要，这男的太虚了，枸杞走起 一般来说都是去接人偷看一下真人太丑，干脆不见了 女子居然被水炮打的起不来…… 还没摔死，就在空中解体了 真服你 我有一个问题，如果高空坠落时用高压水枪喷射的话会影响坠落半径，但是坠落损伤程度会减轻吗？ 真想死还怕水枪[微笑] 明天来uc震惊部报道 改下：女子万里送🅱，被射了一身，原因竟然是… 也有可能是早有家室，只想骗个玩玩，没想到人家找上门，这不穿帮了吗？ 这办法挺好，值得内地推广。 今晚来编🐔部。 妈的，还有这操作？ 坚持优生优育一百年绝不动摇!<br>1）、美女属于稀缺资源，禁止美女外嫁。谁家美女外流，罚其全家扫马路三年。<br>2）、取消美女计划生育，，每县的前100名，地级市的前1000名、直辖市省会的前10000名美女奖励豪宅一栋，现金百万，可以一妻多夫，终生生育。<br>3)、提高人口质量从生一个合格的孩子开始，每百名排名靠后的20位容貌身材欠缺人士有权结婚但不可以自身精、卵生育，必须接受身高、体型、容貌、智商等综合素质在每万名中排名前20者的精、卵捐献。不要有情绪，小孩生养下后所有权归受赠者。要备案以利其子女优婚优育。<br>4）、凡娶欧美白种美女(不能滥竽充数)的中国男人奖励住房一套现金50万娶日韩的奖励住房一套。凡娶嫁非洲南亚大小黑子的直接开除国籍驱逐出境，然后根据肤色深浅眼眉凹凸猴毛多少对其家人进行罚款并打扫公共厕所3年。 被射的好爽，满足了! [大笑][大笑][大笑] 谢谢！月新3万没问题吧 高压鼓风机能接住跳楼的人，就像模拟跳伞训练的那种大风扇 某报：出动高压水枪对付弱女子，台湾警方的做法令人深思 太饥渴……[狗] 取决于你射的力度和角度 其实就是想被射下，满足了就回去了[挨揍] 港澳台看不上大陆鸡🐔，我高中同学，成绩也就三本，去了香港高考，连港大都上不了，结果厦门大学抢着要，我认识一个台湾男生，台大都上不了，结果北大清华抢着要，还各种福利。内地的大学，黑鬼可以拿着补助上学，也别怪全世界不承认中国学历，的确不怎么样。[鄙视] 没死就好 女子万里里送炮，被警方与消防射了一身，冬季到台北来送炮 不要急，橘子马上就到 确实 年末支f宝给大家送个红包，开支f宝复制pArf1326J4，就可领取 女子求射不成，警方人性执法，找消防来射她。 陈独秀同志，明天到UC编辑部报道 有谁知道，除了新加坡驻台代表处，还有哪些代表处？ 19岁大学毕业那年找工作，面试我的人事经理是个漂亮的白富美，她肤白个高，长发长腿，不足之处是颧骨较高。她问我：你能干多长时间？我有些诧异，但还是老老实实回答：一般半个小时，状态好的时候四十分钟。她红着脸低声说：我是说你在这儿能干多久？我环顾四周，有些羞涩的说：这我可能放不开，我从没当着这么多人，真的不太习惯。三天后我被录取了，原来她是老板娘。她送给我一本《能量决定命运》，让我学习红浅学。三个月后她挺着肚子辞职离开公司，临行前嘱咐我一定认真学习，不学红浅学，赶不上马化腾，娶不起林志玲。不读《能量决定命运》，富不过刘强东，跑不过贾跃亭。二十年后孩子会来认你的。一个月后我也因肾病离职回乡休养。 超屌的诶 太厉害了。 这些人就是瞎闹腾，警方还得浪费人力和物力可气可恨，遭人烦。 我有一个问题，如果高空坠落时用高压水枪喷射的话会影响坠落半径，但是坠落损伤程度会减轻吗？ 这种嚷嚷着要跳楼的，大多数情况是不想跳的，真想跳的还等你来救，没人发现直接就跳下去了。 能不跳楼吗？从四川追到新加坡，又从新加坡追到宝岛。唉，千里送飞比啊。 有病，出门忘了带药。 你说是我们相见恨晚。 救了一条人命，阿弥陀佛 被射回去了 是滴 还有这操作[大笑][大笑][大笑][窃笑] 没想到被消防员射了。 年末支f宝给大家送个红包，开支f宝复制pArf1326J4，就可领取 这炮，挨的不对，剧本不应该是酱紫的 会。 回答很完整 ...亲爱的三楼.不要拐弯末角.更不要羞羞哒哒.你想要就直说呗.....忍痛割爱的老朽我.保证一分不要..... 来找我啊，我肯定见你 你不要模仿湾湾腔好吗？ 处理得当 老铁666 射了就回去了 300下就够了？如果是我的话至少得500下吧 这样的救援方法好吗？？可不可以间鉴 模仿怎么了 女子万里里送炮，被警方与消防射了一身，原因是… 当然会 女子万里送炮，竟被警方和消防喷飞天！湿身真相点击回复查看… 你能牛逼得过人家，人家可是在众目睽睽之下把女子喷得“死去活来”的😪 老司机射不动了 不会的，只会伤的更重 改正错别字就可以来UC面试[微笑] 射回去。 估计就因为不美，男友拒见！其实不必轻生，可以另约二楼见见面，很有可能成交的。 原因是老司机不在 国家太小，动不动就出国了，我们这里最多叫跨省 ....高压水枪救美.要不然摔死可惜了的.... 正方向上射体位，来回300下应该能安全着陆 。。。 是送炮台不是炮 膜呗颜色因毛眉毛也可以看出来好多方面 是我想太多了？ 其实就是想被射下，满足了就回去了[挨揍] 遇到台湾诈骗犯了，大卅碧 说的明白 得多丑，吓得不敢见 新加坡女子赴台惨遭颜射，不满情郎欲跳楼！！！ 警察机智 射的爽不爽 我大环球就需要你这种人才明天来报道 厉害了 明天来五道口报到。 那么大陆就是电信诈骗的温床。 脸不争气还想把逼摔扁 今日的头条 台湾是电信诈骗的发源地 喷更厉害、[窃笑][喷水] 贱，够贱！ 30多岁的老女人为约炮还千里迢迢.还不如就近找个方便多了 哈哈厉害 原因是见不到情郎 这射的有点太快了吧 说的明白 被台湾同胞诈骗到钱光光了 冬季到台北来送炮 我第一次到廣州玩就被小偷扒了錢包，那小偷一定是台灣人對吧？ 人心不古啊 同胞你好.哪里人有好有坏.来了请你吃茶叶蛋. 不好意我们UC编辑部先看上了，诚招底薪20k不用面试了元旦后直接来上班吧 女子万里里送炮，被警方与消防射了一身，原因是… 年末支f宝这里也给大家送个红包，开支f宝复制pArf1326J4，就可领取，每天可领一次 冬季到台北来看雨 我有一个问题，如果高空坠落时用高压水枪喷射的话会影响坠落半径，但是坠落损伤程度会减轻吗？ 台湾诈骗分子多，大陆受骗的多，无逻辑思维能力的人群太庞大 哦下午 好枪法 他不要你，来找我哦！ 会，不过人下坠的过程几乎不可能一直被你对着喷射，稍有偏离就空了 新加坡女子在光天化日之下被多名警察射了一身，真相竟然是这样………！ 台湾骗子最多，新加坡的还是没经验！！！ 当然是影响坠落半径。除非你是完全在坠落者的正下方，你的高压水枪喷射方向要跟坠落者成直线才没有影响。否则你从斜向射入，根据力的分解，一定有一个侧移的力。问题是谁会傻到站在坠落者正下方？既然如此，就一定是有侧移力，一定会影响坠落半径。 明天到养猪老板办公室报到 基本平常能见到的骗术就是台湾那边传过来的 多情自古空余恨此恨绵绵无绝期 明天到网易报道 5楼不怀好意不用理他。其实厦门的台湾人不要太多了。我住的小区边上有家卤肉饭很好吃，经常过去吃，跟老板也挺熟的，早些年手机支付还不流行时，偶尔忘带钱还能挂账的。有一次老板告诉我，过几天要关店回台湾投票，才知道原来老板是台湾人。不说看不出跟我们这边的有什么区别。 醍醐灌顶啊 明天到网易编辑部报到 ～～ 😃台湾省 这射的有点太快了吧 台湾的郎君啊！不是骗财就是骗色，咱就不能规规矩矩干干净净做人吗？ 射的量比预计的大多了 "
    },
    "Title": "新加坡女子飞台湾见不到情郎 跳楼被高压水枪喷回_网易新闻",
    "Article": "（原标题：女子飞台湾见不到情郎想跳楼被高压水枪喷回）女子站在停车场顶楼，欲寻短见海外网12月30日电28日，台湾省桃园市有女子企图从5楼跳下，警方与消防接报到场救援，期间女子情绪不稳，性命危在旦夕。最后消防员用高压水枪将她冲回天台范围，警察随即上前将该女子制服，才化解一场虚惊。消防人员参与救援据香港东网报道，今年30多岁的新加坡邱姓女子在网上认识一名台湾地区网友，并堕入爱河。谁知邱女来台后，网友却避而不见，邱女因此心情大受打击，一时想不开，28日中午走到桃园市中坜区延平路一个停车场的天台企图轻生。警方与消防接报赶赴现场，消防人员一边在地面铺开气垫，一边架起云梯准备救人。女子被水枪冲回画面当时警方派人到天台与邱女谈判，在警察的不断劝说下，邱女开始放下戒心，身体由坐在围墙外转成面向天台站面。这时警察继续利用对话令邱女分心，而另一方面，消防员利用云梯升到邱女背后并趁机射水，利用高压水柱将邱女冲回天台范围，之后警察一拥而上将邱女制服在地。邱女事后被送院，警方又通知“新加坡驻台代表处”处理后续事宜。救人画面上传到社交网站后，获不少网民大赞。本文来源：海外网责任编辑：邵小波_NN2479",
    "URL": "http://news.163.com/17/1230/17/D6U1BTF30001875P.html",
    "Source": "Netease",
    "KeyWords": "新加坡,水枪,跳楼",
    "PublishTime": "12/30/201717:45:21"
}