{
    "Article": "（原标题：日本水族馆30只企鹅正月前开始练习参拜神社）【环球网综合报道】据日本NHK电视台报道，日本福井县坂井市越前松岛水族馆里的企鹅们每年正月都会参拜神社。今年30只企鹅在正月之前开始了参拜的练习。报道称，体长约90厘米的7只王企鹅走到水族馆建造的神社前，时而用喙啄着挂在神社上的铃铛，时而从阶梯上滑下来，十分可爱。水族馆称，只有在气温较低时王企鹅才能出来散步，所以参拜神社对它们而言是项不错的运动。水族馆还称：“企鹅们对着天空大声鸣叫之后会低下头来，看上去就像是在参拜神社。”本文来源：环球时报-环球网。更多精彩，请登录环球网http://www.huanqiu.com责任编辑：黄哲程_B9302",
    "Title": "日媒:日本水族馆30只企鹅练习参拜神社_网易新闻",
    "PublishTime": "01/02/201816:13:00",
    "Source": "Netease",
    "Comment": {
        "Content": "明天开始全国抵制QQ。 麻花藤哭晕在厕所，腾讯新年第一黑。 水族馆还称：“企鹅们对着天空大声鸣叫之后会低下头来，看上去就像是在参拜神社。”<br><br>很明显，水族馆事在胡扯，企鹅明明是在呐喊，发泄对这个充满不公和腐败的社会的愤怒 灭了小日本！ 真想把这帮畜生皮扒了吃肉 腐败和愤怒跟战犯有什么关系?讲讲我听听。你可真能扯马卵子 水族馆还称：“企鹅们对着天空大声鸣叫之后会低下头来，看上去就像是在参拜神社。”<br><br>很明显，水族馆事在胡扯，企鹅明明是在呐喊，发泄对这个充满不公和腐败的社会的愤怒 水族馆建造的神社和靖国神社里的战犯有关系？讲讲我听听。你可真能扯马卵子 灭了小日本！ 明天开始全国抵制QQ。 小日本杂种！ 鲸鱼在哀鸣 麻花藤哭晕在厕所，腾讯新年第一黑。 有啥好喷的，想象一下咱们用鸡给祖宗百年，那是膈应祖宗呢，不尊重祖先啊，充分说明了日本人喜欢搞仪式内心其实毫无诚意的本质 日本人从未忘记拜鬼！ ",
        "Reply": 11,
        "Link": "http://comment.news.163.com/news2_bbs/D75JQB9F000187V9.html",
        "Total": 24
    },
    "KeyWords": "神社,企鹅,日本",
    "URL": "http://news.163.com/18/0102/16/D75JQB9F000187V9.html"
}