{
    "Comment": {
        "Link": "http://comment.news.163.com/news_shehui7_bbs/D6LMQ0D60001875P.html",
        "Reply": 149,
        "Content": "果然是钱宝，我当时就不明白了，钱宝凭啥就这么高调！原来是庞氏骗局，骗了钱到处撒！ 跑到半路，发现钱没了。想想还是回去吧 哪是自首，分明是安顿好家里面又没法外逃找警察求庇护。 希望通过整治不规范的违法互联网金融公司，来给大家营造一个好的投资理财环境。 这老板也是牛逼，坚持了7年 天台风光无限好 钱宝完了？之前那么吊 坚决打击，一个不要放过，保障国家正常经济秩序！支持公安机关严打！ 已经接棒了怎么办？ 支持公安机关依法打击违法犯罪 好多人还在死撑，只怕是不敢相信罢了 从源头治理，不能让不法分子有机可乘，定要严厉打击此类恶劣的金融犯罪！ 是没跑了，不是你不想跑。 我靠，满屏的轻松。多少人要跳楼啊！ 支持公安机关依法打击违法犯罪 贪心不足的后果，不要老想着天下掉馅饼，哪有那么好的事情呢？相信公安机关会依法处理的，受害者太多了 理性投资，天上不会掉馅饼 支持公安机关依法打击违法犯罪 监管部门在干什么？金融领域如此混乱。 想跑没跑了～[大笑] 支持公安依法打击犯罪 不信谣，不传谣！ 从源头治理，不能让不法分子有机可乘，定要严厉打击此类恶劣的金融犯罪！ 贫穷限制了我的冲动，保了我一条命 所谓宝粉和假药粉都是一路智商 相关部门已经很负责的处理这个事了 先找个工作，有单位座机的，然后办几张信用卡一年内提额最高的。把低额消卡。最高的以卡办卡，几张卡差不多有20万左右，自己去工商局注册个贸易类公司，有营业执照的。然后买套100万的房子首付20万。供房满6个月，银行能再贷款30万左右，做两家70，网贷做拉卡拉宜人贷，玖富万卡等，30万左右。100万现金在手，同样手法用你好朋友伙伴上，再套100万。200万现金，可以租个废弃的厂房，10万左右，买点旧机器设备装装样子，同时公司流水做大一点，公司用营业执照再贷款200万左右。400万，可以拉投资，3分的利益，10万每月3000，一年3.6万，从亲戚朋友开始借，每月按时还利息，借100万，每月才3.6万的利益，从之前的100贷款下来几天开始租车.十几万的车一般每月3000，到后面几十万的奔驰宝马每月也才万块。此时，你在你亲戚，朋友，老师，同学眼里，是大城市买了几套房的，开了公司。开了奔驰的老板，微信没事到处香港澳门。泰国，三亚到处旅游，发发朋友圈，记得你亲戚朋友的钱每月按时还利息，半年后，你才给20多万利息。这时候，你要继续问你亲戚的朋友，同学的朋友，你的圈子的朋友圈借钱，因为你生意做的大。按时还利息。大家觉得你靠谱。你平时大方点经常跟身边的人吃饭抢着把单买了。自然大家愿意投资你，融资第一波300万。半年后的第二波应该有一两千万。这时，把你最早那批亲戚朋友借的钱都还了。顺便办理国外移民。一定要那种跟中国没有签司法引渡的国家。比如美国。然后一两千万资产转到国外。人在国内，跟亲戚朋友说，你已经破包了。这时候把2套房子买了，拿个200万左右在国内做点实业比如开个大点的饭店。然后跟所有的借钱的人说你生意破产了。就剩这个饭店，每月能赚30万。每月还30万。这样大家知道你现在落魄了。生怕告你，你跑了一分都没有。这样最起码每月能还30万。你这样还个一年左右，最后说饭店经营不善。倒闭了。大家也就绝望了，基本也不会告你，就算告你。去法院起诉也有个过程，你全家早已移民，资产全在国外。真有风吹草动，直接飞往美国不回来。我前面的都做了。就是因为最后移民还没弄好。一千多万都在澳门输了。现在走也走不了。钱又没了。哎？ 支持公安机关依法打击。 终于！<br>坚持那么多年也不容易。 边上一同事85w一天利息1000一个月近利息4w凉凉 [微笑]这就是在赌自己不是最后接棒的一个 一比吊糟！ 不信谣，不传谣！ 对于球迷来说，钱宝真特么是一个传说！ 坚决打击，一个不要放过，保障国家正常经济秩序！支持公安机关严打！ 又一朵莲花 随便玩玩就年化50%，坚持了这么久也是不容易[狗] 没学会假布斯的金蝉脱壳还出来混了？ 坚持了5年，很多人靠这个也发家了，没跑的认命吧。 任何违法行为都要受到法律的制裁，支持警方打击此类非法经营融资。 支持公安机关依法打击。 之前就有网易大神说钱宝网要凉，佩服佩服 零距离做了很多钱宝网的广告，主持人面前的电脑上也贴着钱宝网的广告，看他们今晚怎么说。估计也没什么说法，和莎普爱思一个道理，有广告费拿就行，管它什么社会责任。 先找个工作，有单位座机的，然后办几张信用卡一年内提额最高的。把低额消卡。最高的以卡办卡，几张卡差不多有20万左右，自己去工商局注册个贸易类公司，有营业执照的。然后买套100万的房子首付20万。供房满6个月，银行能再贷款30万左右，做两家70，网贷做拉卡拉宜人贷，玖富万卡等，30万左右。100万现金在手，同样手法用你好朋友伙伴上，再套100万。200万现金，可以租个废弃的厂房，10万左右，买点旧机器设备装装样子，同时公司流水做大一点，公司用营业执照再贷款200万左右。400万，可以拉投资，3分的利益，10万每月3000，一年3.6万，从亲戚朋友开始借，每月按时还利息，借100万，每月才3.6万的利益，从之前的100贷款下来几天开始租车.十几万的车一般每月3000，到后面几十万的奔驰宝马每月也才万块。此时，你在你亲戚，朋友，老师，同学眼里，是大城市买了几套房的，开了公司。开了奔驰的老板，微信没事到处香港澳门。泰国，三亚到处旅游，发发朋友圈，记得你亲戚朋友的钱每月按时还利息，半年后，你才给20多万利息。这时候，你要继续问你亲戚的朋友，同学的朋友，你的圈子的朋友圈借钱，因为你生意做的大。按时还利息。大家觉得你靠谱。你平时大方点经常跟身边的人吃饭抢着把单买了。自然大家愿意投资你，融资第一波300万。半年后的第二波应该有一两千万。这时，把你最早那批亲戚朋友借的钱都还了。顺便办理国外移民。一定要那种跟中国没有签司法引渡的国家。比如美国。然后一两千万资产转到国外。人在国内，跟亲戚朋友说，你已经破包了。这时候把2套房子买了，拿个200万左右在国内做点实业比如开个大点的饭店。然后跟所有的借钱的人说你生意破产了。就剩这个饭店，每月能赚30万。每月还30万。这样大家知道你现在落魄了。生怕告你，你跑了一分都没有。这样最起码每月能还30万。你这样还个一年左右，最后说饭店经营不善。倒闭了。大家也就绝望了，基本也不会告你，就算告你。去法院起诉也有个过程，你全家早已移民，资产全在国外。真有风吹草动，直接飞往美国不回来。我前面的都做了。就是因为最后移民还没弄好。一千多万都在澳门输了。现在走也走不了。钱又没了。哎？ 又一朵莲花 理性投资，天上不会掉馅饼 哥们，我复制了。 呵呵呵，南京第一大牛逼 坚决打击，一个不要放过，保障国家正常经济秩序！支持公安机关严打！ 有力的保障了国家正常经济秩序，点赞！ 好多水军，哪派来的 支持公安机关依法打击违法犯罪 对于球迷来说，钱宝真特么是一个传说！ 从源头治理，不能让不法分子有机可乘，定要严厉打击此类恶劣的金融犯罪！ 钱还能提出来吗 支持警方打击此类非法经营融资，维护投资者的合法权益 舅服你 理性投资，天上不会掉馅饼 从源头治理，不能让不法分子有机可乘，定要严厉打击此类恶劣的金融犯罪！ 支持公安机关依法维护人民群众的切身利益 从源头治理，不能让不法分子有机可乘，定要严厉打击此类恶劣的金融犯罪！ 无论任何人凡是触犯法律都要收到相应的处罚，依法打击此类犯罪 支持公安机关依法打击。 支持公安依法打击犯罪 从源头治理，不能让不法分子有机可乘，定要严厉打击此类恶劣的金融犯罪！ 不信谣，不传谣！ 从源头治理，不能让不法分子有机可乘，定要严厉打击此类恶劣的金融犯罪！ 大家都知道是庞氏骗局，为啥人家是自首的？监管去哪了？ 边上一同事85w一天利息1000一个月近利息4w凉凉 🐂🐂🐂 哪是自首，分明是安顿好家里面又没法外逃找警察求庇护。 理性投资，天上不会掉馅饼 这老板也是牛逼，坚持了7年 触犯法律都要受到相应的处罚，依法打击此类犯罪 影响我国的金融市场秩序，坚决打击 坚决打击，一个不要放过，保障国家正常经济秩序！支持公安机关严打！ 能。。。<br>个<br>毛 爽歪歪啊，这下可以好好工作了 典型的庞式骗局，多少人被套在里面了啊，相信公安机关吧，现在还在不信官方消息的是真的脑子不好吧，支持警方打击此类一切传销集资骗局。 坚决打击，一个不要放过，保障国家正常经济秩序！支持公安机关严打！ 支持警方打击此类一切传销集资骗局 我们要相信司法机关，支持他们依法办案 维护金融稳定，共创和谐社会 希望通过整治不规范的违法互联网金融公司，来给大家营造一个好的投资理财环境。 请广大投资者提高风险意识。 这种互联网欺诈犯罪就有一定的欺骗误导性！大家要理性对待,支持打击 支持公安机关依法打击犯罪。为公安部门点赞 希望通过整治不规范的违法互联网金融公司，来给大家营造一个好的投资理财环境。 大家要理性对待,支持打击！ 我们要相信司法机关，支持他们依法办案 希望通过整治不规范的违法互联网金融公司，来给大家营造一个好的投资理财环境。 支持公安机关依法打击违法犯罪 希望通过整治不规范的违法互联网金融公司，来给大家营造一个好的投资理财环境。 支持公安依法打击! 影响我国的金融市场秩序，坚决打击 违法的坚决抵制，诚信经营的要支持！国家出炉相关政策监管，不要让市场监管出现空白！ 贪心不足的后果，不要老想着天下掉馅饼，哪有那么好的事情呢？相信公安机关会依法处理的，受害者太多了 都想着靠利息月入过万？还是警惕性太低，脚踏实地挣钱才是王道。 公安机关都发正式通告了，还有一堆人在说官方被盗号不肯信，还在幻想什么呢，这就是骗局啊 查得好，类似经融公司多如牛毛，严重扰乱市场经济 任何违法行为都要受到法律的制裁，支持警方打击此类非法经营融资，维护投资者的合法权益。 现在网上的投资理财平台太多了！大家一定要提高警惕以防上当！支持公安机关从严处理。 都有过前科的人，咋还这么信呢，都想着靠利息月入过万？你可曾想过给你的利息就是你自己的本金啊？ 我们要相信司法机关，支持他们依法办案 必须严厉打击扰乱国家金融资本市场秩序的违法行为。 这种互联网欺诈犯罪就有一定的欺骗误导性！大家要理性对待,支持打击 坚决打击，一个不要放过，保障国家正常经济秩序！支持公安机关严打！ 薅羊毛有风险，投资后就要经常关注公司的相关动态，钱宝网好几个月前就有跑路的消息了，看到今天都有人不信，怀疑南京警方，就知道人傻钱多是什么概念了。 希望通过整治不规范的违法互联网金融公司，来给大家营造一个好的投资理财环境。 现在网上的投资理财平台太多了！大家一定要提高警惕以防上当！支持公安机关从严处理。 无论任何人凡是触犯法律都要收到相应的处罚，依法打击此类犯罪 支持公安机关依法打击，投资者要提高警惕。 警察蜀黍辛苦了~维护金融稳定，共创和谐社会，天上不会掉馅饼，一夜暴富是陷阱。 支持公安依法打击! 投资有风险，还需谨慎啊，坚决打击此类犯罪行为，维护人民群众的切身利益 任何违法行为都要受到法律的制裁，支持警方打击此类非法经营融资，维护投资者的合法权益。 任何违法行为都要受到法律的制裁，支持警方打击此类非法经营融资。 希望通过整治不规范的违法互联网金融公司，来给大家营造一个好的投资理财环境。 支持公安依法打击! 希望公安部能够加紧追查，坚决打击罪行为 支持公安机关依法打击违法犯罪 相关部门已经很负责的处理这个事了 天上不会掉馅饼，想要贪便宜，就要承担随之而来的后果。 ...现在流行套国家扶持款，随便就是几个亿.西部基本都是 先找个工作，有单位座机的，然后办几张信用卡一年内提额最高的。把低额消卡。最高的以卡办卡，几张卡差不多有20万左右，自己去工商局注册个贸易类公司，有营业执照的。然后买套100万的房子首付20万。供房满6个月，银行能再贷款30万左右，做两家70，网贷做拉卡拉宜人贷，玖富万卡等，30万左右。100万现金在手，同样手法用你好朋友伙伴上，再套100万。200万现金，可以租个废弃的厂房，10万左右，买点旧机器设备装装样子，同时公司流水做大一点，公司用营业执照再贷款200万左右。400万，可以拉投资，3分的利益，10万每月3000，一年3.6万，从亲戚朋友开始借，每月按时还利息，借100万，每月才3.6万的利益，从之前的100贷款下来几天开始租车.十几万的车一般每月3000，到后面几十万的奔驰宝马每月也才万块。此时，你在你亲戚，朋友，老师，同学眼里，是大城市买了几套房的，开了公司。开了奔驰的老板，微信没事到处香港澳门。泰国，三亚到处旅游，发发朋友圈，记得你亲戚朋友的钱每月按时还利息，半年后，你才给20多万利息。这时候，你要继续问你亲戚的朋友，同学的朋友，你的圈子的朋友圈借钱，因为你生意做的大。按时还利息。大家觉得你靠谱。你平时大方点经常跟身边的人吃饭抢着把单买了。自然大家愿意投资你，融资第一波300万。半年后的第二波应该有一两千万。这时，把你最早那批亲戚朋友借的钱都还了。顺便办理国外移民。一定要那种跟中国没有签司法引渡的国家。比如美国。然后一两千万资产转到国外。人在国内，跟亲戚朋友说，你已经破包了。这时候把2套房子买了，拿个200万左右在国内做点实业比如开个大点的饭店。然后跟所有的借钱的人说你生意破产了。就剩这个饭店，每月能赚30万。每月还30万。这样大家知道你现在落魄了。生怕告你，你跑了一分都没有。这样最起码每月能还30万。你这样还个一年左右，最后说饭店经营不善。倒闭了。大家也就绝望了，基本也不会告你，就算告你。去法院起诉也有个过程，你全家早已移民，资产全在国外。真有风吹草动，直接飞往美国不回来。我前面的都做了。就是因为最后移民还没弄好。一千多万都在澳门输了。现在走也走不了。钱又没了。哎？ 相关部门已经很负责的处理这个事了 涉嫌违法经营活动，就该好好查一查，老百姓的钱不是那么好骗的 无论任何人凡是触犯法律都要收到相应的处罚，依法打击此类犯罪 我操我朋友投了50多万在里面呢 支持公安机关依法打击违法犯罪 支持公安机关依法打击违法犯罪 南京靠这个发家的不少 必须及时止盈，太贪就玩完 😭我28万没了 请广大投资者提高风险意识。 朋友，十万，拿了两万了把，还有八万，凉凉 忘了是西甲还是英超还有钱宝的球衣胸前赞助 南京啊，又要看法官表演咯。 贫穷限制了我的冲动，保了我一条命 准备实施了 终于雷了，喊了好几年了 网络时代发达，骗子的骗术也跟着涨，需要严厉打击此类犯罪。 您的跟贴正在审核中... 一比吊糟！ 坚持了5年，很多人靠这个也发家了，没跑的认命吧。 投资有风险，投资需谨慎，提高风险意识 天台风光无限好 想跑没跑了～[大笑] 唉，都是圈钱的套路啊 任何违法行为都要受到法律的制裁，支持警方打击此类非法经营融资，维护投资者的合法权益。 支持公安机关依法打击犯罪。 😃喜见乐闻？ 啦啦啦跟朋友一起四十万没啦 出来混早晚要还的 网络时代发达，骗子的骗术也跟着涨，需要严厉打击此类犯罪。 无论任何人凡是触犯法律都要收到相应的处罚，依法打击此类犯罪 好多人还在死撑，只怕是不敢相信罢了 两年多，投了十万都没有撤回来，血本无归，今天跟老公坦白了，说实话，想死的心都有了 支持公安机关依法打击违法犯罪 一定要稳下心来， 无论任何人凡是触犯法律都要收到相应的处罚，依法打击此类犯罪 钱宝经常听见这个词，但是还无了解过，这么坑？ 不信谣，不传谣！ 我同事靠这个在苏州再买两套房 边上一同事85w一天利息1000一个月近利息4w凉凉 政府部门已经很负责的处理这个事了 人啊，贪心啊，我也是受害者 所谓宝粉和假药粉都是一路智商 你牛 西甲，皇家社会俱乐部 支持公安依法打击 天啊您可以以此创作一篇小说啊小说的名字我都给你想好了《小人物践行实干兴邦》 我先来，充值0元，损失好几千钱宝币。[大哭] 果然是钱宝，我当时就不明白了，钱宝凭啥就这么高调！原来是庞氏骗局，骗了钱到处撒！ 注册了账号还好没买 二丫，我回帖不是为了充气娃娃，特此声明[羞羞]🙌 那是你没机会接触。接触的人都疯了 跑到半路，发现钱没了。想想还是回去吧 钱宝完了？之前那么吊 呵呵，完结撒花 从来没听说过 这个人也真是贱，比我大贱哥的名字还贱。 [微笑]这就是在赌自己不是最后接棒的一个 终于！<br>坚持那么多年也不容易。 随便玩玩就年化50%，坚持了这么久也是不容易[狗] 终于跑路了 是没跑了，不是你不想跑。 我靠，满屏的轻松。多少人要跳楼啊！ 监管部门在干什么？金融领域如此混乱。 没学会假布斯的金蝉脱壳还出来混了？ 已经接棒了怎么办？ ",
        "Total": 1230
    },
    "Article": "（原标题：钱宝网实际控制人张小雷投案曾因诈骗罪入狱录视频否认跑路传闻）12月27日，南京市公安局通过官方微博发布消息：钱宝网实际控制人张小雷因涉嫌违法犯罪，于2017年12月26日，向南京市公安机关投案。目前，南京市公安机关正在开展调查。至此，从今年年中就开始流传的钱宝网老板跑路传闻终于尘埃落定。讽刺的是，张小雷之前曾录视频“霸气”回应跑路传闻，声称悬赏10万寻找幕后爆料者，如今，他个人微博上的自白，“宁天下人负小雷，小雷必不负天下人，此乃家训，代代相传，刻骨铭心。”更显得尤为刺眼。钱宝网崩盘传闻疑坐实12月27日，南京警方发布张小雷投案的消息后，封面新闻记者尝试登陆钱宝网官网发现，这家标榜“基于高频流量入口和资本,发展以微商为核心,微商下乡和跨境电商并行的‘一体两翼’模式的国内微商平台”官网和其总部一样，已经“人去楼空”。钱宝网官网截图而在百度贴吧“钱宝网”吧里，面对突然曝光的消息，不少钱宝网的用户已开始讨论相关消息的真假和担心投资赎回问题。尽管不少用户都表示钱宝的客户端已经登录不上，但一些“乐观”的用户还是将南京警方发布相关消息所使用的手机与以往不同作为理由，相信所谓的投案并不属实，等待着张小雷的再一次辟谣。事实上，早在去年2月，有关钱宝网可能出现问题的传闻就开始屡屡传出。今年8月，一家自媒体发文曝出钱宝网资金出现问题，公司总部被搬空，一些大额投资人账户无法提现。随即，钱宝网通过官微发出所谓的辟谣声明，声称相关自媒体文章捏造事实，误导公众和媒体，对其进行攻击和抹黑。钱宝网称已委托律师调查取证，并于第一时间向公安机关报案，将追诉恶意诽谤者的法律责任。同时，张小雷还录制视频回应相关传闻，“这个事哥们你搞大了，你给自己惹了很大的麻烦，因为你惹上我了，我跟别人还不太一样，维不维权的我先不管，反正我一定要找到你，在这里我悬赏十万，人肉你找到你，好吗，你等着。找到你以后怎么办？法律有法律的办法，我基于法律框架之下也有我的办法。你这么伤害我的宝粉，我一定会让你痛不欲生，肯定会让你付出更惨烈的代价，为我的宝粉复仇。仅仅在不到4个月后，报案成了投案，复仇变成了“自首”。微商平台or庞氏骗局？据了解，2012年钱宝网正式成立，钱宝网的运营模式即当用户注册成为钱宝网会员并缴纳一定数额的保证金后，便能到“任务大厅”中领取诸如观看广告、填写问卷、试玩游戏等任务，完成任务后可以获得一定的收益。按照钱宝网资料内相关案例，如果用户能够缴纳10万元保证金，并保证每日完成一定量的“看广告”任务，每月可获最低4000元、最高过万元的收益。此外，网站还提供微商入驻平台，缴纳2万元抵押金即可开店营业。据钱宝网所属钱旺集团的介绍，钱宝网会员数突破1亿，入驻50万余商家，日活跃用户超过1000万，相关涉及资金数以亿计。在钱宝网上线伊始，便有声音质疑，这样的商业模式根本不足以支撑用户的高额收益，这样的操盘模式更像是一出典型的庞氏骗局，利用新进者的保证金来分发所谓的收益。只不过就在这样的质疑声中，钱宝网却越做越大，而且与之相关的公司如今只有数十个之多。根据媒体报道，钱旺集团涉足的领域包括游戏、自媒体、新能源、无人机，甚至足球。钱宝旗下的钱宝足球俱乐部筹备于2013年，并于2014年初正式注册成立，在连续两年的中国足球乙级联赛中，当时的南京钱宝俱乐部分别获得第六名、第四名的成绩。随后俱乐部由南京迁往成都，并正式改名为成都钱宝足球俱乐部。12月27日，记者从成都市足协相关负责人处了解到，针对张小雷投案事件可能带来的影响，成都足协将保持关注和介入了解。实控人曾因诈骗罪入狱张小雷似乎是真的酷爱足球，甚至也因为足球而入狱。据媒体报道，张小雷出生于1969年，在30岁以前就已是千万富翁。2003年，时任泛美亚公司CEO的张小雷以“向海外输送足球学员”的名义，先后将50多名小球员送到南美留学，并利用向小球员收取费用和向外界融资两条途径，总计获取资金约1000多万。最终，这个被其包装为与智利西班牙联盟俱乐部合作的计划只是个幌子，实际上只是与当地一家足球学校合作，在西班牙联盟队主场边角上训练。随后，此事经媒体曝光，张小雷挪用了相关资金，因诈骗罪被捕入狱。如今，张小雷的个人新浪微博“张小雷哥”已经有14天未更新，他的热门微博排名第一的是一条慷慨激昂的赌咒，“贫穷的解放者，苦难的终结者，正义的守望者，信仰的殉道者。今天，还要再加上一条，谣言的送葬者！黑心的自媒们，坐上被告席的时候，祈祷自己别尿裤子吧。”坐上被告席的到底是谁，如今似乎已有了答案。本文来源：封面新闻责任编辑：谷莹_NN6577",
    "PublishTime": "12/27/201712:06:53",
    "URL": "http://news.163.com/17/1227/12/D6LMQ0D60001875P.html",
    "Title": "钱宝网张小雷投案 曾因诈骗罪入狱录视频否认跑路_网易新闻",
    "KeyWords": "钱宝网,张小雷,诈骗罪,微商",
    "Source": "Netease"
}