{
    "Source": "Netease",
    "KeyWords": "乘务员,子弟兵,战士,进站口",
    "URL": "http://news.163.com/17/1225/08/D6G4OLC80001875P.html",
    "PublishTime": "12/25/201708:15:23",
    "Comment": {
        "Content": "穷苦子弟本来就是老百姓。 拥军爱民，国强民安！ 感动人心的一刻，温暖人心的一举。人民的子弟兵爱人民，人民的子弟兵人民爱！ 军人，实在是太伟大了，是我最为尊敬的职业。 这就是长城！坚不可摧！ 祖国的子弟兵，向你们敬礼！ 点赞 唯有人民子弟兵应有优良传统，值得报导！ 为人民子弟兵，点赞致敬！ 感动，毛爷爷创立的队伍。 一个字——震撼！ 人民的子弟兵，好样的 好样的 钢铁长城！向你们致敬！ 最可爱的人！ 人民解放军“爱民”，过去现在，无徽不至；但人民“拥军”，在新时期还要百尺竿头，更进一步！ 感动，人民军队为人民，人民也应为军队 钢铁长城，人民子弟兵！ 军队一定要保持人民子弟兵的的传统作风。 致敬我们伟大的军队！ 我的眼泪出来了！ 部队必须是一片净土 应该重提一个口号＂向解放军学习＂ 好样的 好样的！ 子弟兵好样的 可爱的人 平时想着老百姓、战时定能战无不胜。 中国目前最可靠的力量就中国军人 钢铁长城，人民子弟兵！ 人民子弟兵 中国人民解放军万岁 军民鱼水情 满满正能量 光荣传统需要继承 中国军人，民族之魂。赞颂解放军，弘扬和珍爱子弟兵精神，就是中国复兴的自信之标志。<br>向解放军学习！ 全体都有，该点顶的点个顶。。。 为子弟兵打call 为人民子弟兵，点赞致敬！ 守护我们平安的就是这些子弟兵而不是崇洋媚外的圣诞老人，向最可爱的人致致敬 拥军爱民，国强民安！ 感动人心的一刻，温暖人心的一举。人民的子弟兵爱人民，人民的子弟兵人民爱！ 为子弟兵点赞 这就是长城！坚不可摧！ 守护我们平安的就是这些子弟兵而不是崇洋媚外的圣诞老人，向最可爱的人致致敬 为人民子弟兵，点赞致敬！ 赞！！！ 唉，看着孩子们坐在冰凉的地上心疼， 必须点赞 穷苦子弟本来就是老百姓。 向最可爱的人致敬！ 素质就是不一样啊 必须点赞！为最可爱的人点赞！ 中国军队，冉冉升起！ 感动，人民军队为人民，人民也应为军队 钢铁长城，人民子弟兵！ 应该重提一个口号＂向解放军学习＂ 这才是人民子弟兵！这是一个由世界上素质最高的人组成的群体，这样的军队岂能没有战斗力？ 我们的军人都是热血好男儿 向军人致敬！向保家卫国的解放军致敬！ 这才是我们平安的保证！ 向人民子弟致敬！！！ 可爱的人 这才是为人民服务 平时想着老百姓、战时定能战无不胜。 向人民子弟兵致敬！！！ 当兵的，最底层都是冲在最前线的最可爱的人 暖暖的 这才是真正的人民子弟兵！这是一个由世界上素质最高的人组成的群体！这样的军队岂能没有战斗力？ 军民鱼水情 满满正能量 为中国军人点赞！ 应该依法保障军人的优先权利。<br>同时要完善军人退伍转业后的权益保障机制，免除他们的后顾之忧。 满满的正能量！ 人民的子弟兵。。。 全体都有，该点顶的点个顶。。。 为子弟兵打call 致敬，伟大的中国人民军队！！！ 绝对正能量！ 好！ 军人是我最尊敬和仰慕的人 军人，实在是太伟大了，是我最为尊敬的职业。 军队一定要保持人民子弟兵的的传统作风。 祖国的子弟兵，向你们敬礼！ 点赞 每次看到都会泪目。 可爱的人， 这就是中国的军人，有这样的军队，我们还怕谁。 都是人民的儿子，我泪奔了。 一个字——震撼！ 人民的子弟兵，好样的 好样的 钢铁长城！向你们致敬！ 致敬 好样的！ 好一个聚民心的资料 没当兵，可惜了。。 致敬我们伟大的军队！ 我的眼泪出来了！ 可爱的中国大兵！ 部队必须是一片净土 看谁带的兵，咱们子弟兵，就是亲人。 应该感激 支持！老百姓才是供养你们的衣食父母！！ 爱护我们的军人才是爱护我们的家！有他们的保护才有人们的安定！ 致敬！为有这样的子弟兵们骄傲自豪 钢铁长城！向你们致敬！ 子弟兵好样的 唯有人民子弟兵应有优良传统，值得报导！ 人民子弟兵！ 我们的军队，无往不利。<br>我们的军队，无坚不摧。 什么也别说了，向最可爱的人致敬！！ 中国多亏了这样的军人。解放军冲锋在抗险救灾的一线上，保家卫国更是离不开他们。军人致敬！ 好样的 致敬解放军 人民解放军“爱民”，过去现在，无徽不至；但人民“拥军”，在新时期还要百尺竿头，更进一步！ 致敬！ 军人优先，有法可依 为人民子弟兵，点赞致敬！ 人民子弟兵！大赞👍 人民子弟兵 好样的！ 子弟兵好样的 中国目前最可靠的力量就中国军人 感动，毛爷爷创立的队伍。 钢铁长城，人民子弟兵！ 好样的 人民军队在党的坚强领导下愈发钢强！ 中国人民解放军万岁 最可爱的人！ 光荣传统需要继承 中国军人，民族之魂。赞颂解放军，弘扬和珍爱子弟兵精神，就是中国复兴的自信之标志。<br>向解放军学习！ 军人的职责是保家卫国值得尊重 ",
        "Total": 4757,
        "Link": "http://comment.news.163.com/news_shehui7_bbs/D6G4OLC80001875P.html",
        "Reply": 93
    },
    "Article": "（原标题：“全体都有，把座位让给老百姓！”一进候车大厅就被震住了，这张照片感动无数人！）军报记者微博阅读量近3000万近日，这样一张照片感动无数人。拍照者说，这是12月20日下午的北京西站，一进候车大厅就被震住了！军官说：“全体都有，把座位让给老百姓！”士兵们齐刷刷地坐在候车座椅中间的空位上坐的是地上自己的棉被↓↓↓拍摄者后来补充说，临上车的时候，所有官兵都自觉地把身边的垃圾捡干净扔进垃圾桶。他们所过之处，一尘不染。“全体都有，把座位让给老百姓！”人民子弟兵这温暖一举激发了无数共鸣……更让人泪目的是，网友纷纷分享自己遇到的军人故事。每个故事都是亲身经历，每一段诉说都打动人心。↓↓↓@你看邻居家的：我在柳州站见过，大概是几百名士兵退役，车还没到，都把东西码好，排排坐着，在地上等车。那一刻我才理解，他们不是让座这么简单，他们是根本没想过要坐。@神似藏狐牛头梗：2008年汶川地震的时候，5000米跳伞的空降兵，大校带队，他说了句“党和人民考验我们的时刻到了！”就扭头跳下去了，那时候，我才发现这支军队是真的值得敬佩！@想乐微博：上礼拜回天津，硬座车上偶遇同行的队伍，看着都是二十来岁，吃个泡面还特意到车厢连接处没人的地方站着吃，而当列车员收垃圾的时候干脆直接接过列车员手中的垃圾袋帮着挨个座位收垃圾。说真的，这种情景必须亲眼看到才会有感触。@木曰勿o：记得哥哥今年休假带我出去玩，买票的时候我说不是有军人优先么，他说一般没什么紧急大事，该排队的还是要排队。（他们真的很不容易，休假在家都是随时待命。）@咦-好心：2013年春节回家，因为各种原因，到广州站时，离发车也就二十分钟，广场上站满了人，进站口的长队一眼都看不到头。直到我看见维护秩序的武警，说明情况之后，他在前面开路，我在后面跟着并向两旁人不断地说着谢谢，这才赶上了列车。四年了，我已经忘了那个军人的长相，也忘了当时进站时有没有对他说声谢谢，但我一直记着他一身戎装、高大伟岸的背影。@宇：我去年夏天在兰州站亲眼看见一位被召回的军官着急买票归队，被排队的人骂没素质，售票人员也不给优先。最后我就让他排我前面了。他们为国家人民付出太多，爱护军人，才是爱护自己。车站都有“军人优先”的通道标志，然而，巡逻站岗，他们优先！抗洪抢险，他们优先！抗震救灾，他们优先！舍身卫国，他们优先！……到了走方便通道的时候，到了有便捷服务的时候，他们却把优先“特权”留给了人民，把席地而坐的“特权”留给了自己！为人民子弟兵，点赞致敬！本文来源：成都商报责任编辑：邵小波_NN2479",
    "Title": "\"全体都有,把座位让给老百姓\" 这张照片感动无数人_网易新闻"
}