{
    "Title": "圣诞大联欢!C罗家族十五口合影 女友红裙身材好_网易体育",
    "URL": "http://sports.163.com/17/1225/09/D6G7JS0J00058781.html",
    "Source": "Netease",
    "Comment": {
        "Total": 2750,
        "Reply": 129,
        "Content": "圣诞节到了，迷你罗哭着问我罗:“我妈在哪？”我罗听了心里一片酸，说“你妈在你干爷爷床上，要不是献出去，我怎么拿金球啊。”说完之后我罗和迷你罗抱头痛哭。 虽然对C罗不太喜欢，但是一上来就问候别人过世的父亲，这未免太过了。 网易评论有些简直太低级了！ 你父亲死多少年了？还有你母亲…… ，，，满目梅毒 罪不及家人！楼上不是我小萨村的村民，自动滚粗！ 我更想知道哪个是迷你罗的妈。知道的告诉一下。 你母亲暴尸街头 你母亲死于艾滋病 跟你当祖奶奶 皇马和巴萨球迷团结起来，干死傻逼引战狗。 怪不得这坨💩上最佳没上场踢球！ 你是不是被驴从耳朵里日脑门把脑子日坏了？ 不是尼老母吗？c罗当年草完尼老母就走了，你从小没爹，所以恨罗。 只能说有些巴萨球迷真的是人渣，给巴萨招黑的就是这些吧？作为红军球迷都看不下去了 不喜欢丝袜罗，但我是迷你罗的球迷！[微笑] 亡父罗全家福还少了一个人！ 宇宙最强球神C罗 同意，现在热帖基本都是喷，没法看 你母亲的狗头被亡父罗剁下来当马桶 山东没你这种狗 刚参加完你爹的脏礼 真的是对西甲板块无语了，你请水军刷热度就刷吧，都是混口饭吃的。但是请这种**，只能说你们没有底线，你们的产品也就这样了，毫无态度。 跪下啊孩子，今天又满血复活了？ 哈哈哈哈，还差个双胞胎儿子的代孕亲妈🤣👏👏👏 我就知道每逢过节不可能没有我罗的新闻 一楼母亲暴尸街头，被野狗啃的只剩白骨[大笑][大笑] 少一个性奴，就是你妈！她回去给你们父子俩做饭去了。 皇马球迷都是狗 温馨的新闻一般在他低迷的时候发！都成规律了 你母亲的尸体碎尸万段剁成碎肉喂野狗 作为巴萨球迷，那些巴畜真是他妈傻逼 mini騾真可憐，媽媽都不知道是誰 可惜亡父不在 巴沟们真是一群恶心的生物👎👎👎 你父亲死了没？ 和骂梅西的人一个德行垃圾 哪个是C罗的父亲，知道的说一下 C罗自大的性格非常招黑 一楼母亲暴尸街头，被野狗啃的只剩白骨[大笑][大笑] 我罗真是人生赢家，儿子没妈。我罗没爹，妻子小姐，哈哈哈 巴萨球迷也看不下去了...你他妈拿孩子开玩笑是脑残么/? 我虽然是巴萨球迷，但也实在看不下去C罗被黑的太厉害了。 圣诞节到了，迷你罗哭着问我罗:“我妈在哪？”我罗听了心里一片酸，说“你妈在你干爷爷床上，要不是献出去，我怎么拿金球啊。”说完之后我罗和迷你罗抱头痛哭。 虽然对C罗不太喜欢，但是一上来就问候别人过世的父亲，这未免太过了。 网易评论有些简直太低级了！ 跪下啊孩子，今天又满血复活了？ 关键还有赞的，这些人真是毫无底线 你连亲生父亲都不知道是谁，不是更可怜？ 真球迷，支持👍 🇮🇹输给🇩🇪，🇩🇪输给🇫🇷，🇫🇷输给c罗，🇵🇹，所以C罗🐂🅱 皇马垃圾废物C罗吃狗屎垃圾废物C罗吃狗屎垃圾 你妈的球迷 你妈 当水军的教育跟道德修养能高到哪去？ 🇮🇹输给🇩🇪，🇩🇪输给🇫🇷，🇫🇷输给c罗，🇵🇹，所以C罗🐂🅱 你个狗一样的东西除了造谣还会什么？ 你真是翔吃多了 司马光 同意，现在热帖基本都是喷，没法看 孩子，给你家人积点德吧，提前祝你元旦快乐。 可怕，竟然有33只巴沟对着你狂吠，保重兄弟 真的是对西甲板块无语了，你请水军刷热度就刷吧，都是混口饭吃的。但是请这种**，只能说你们没有底线，你们的产品也就这样了，毫无态度。 垃圾废物C罗吃狗屎垃圾废物皇马垃圾废物 🇮🇹输给🇩🇪，🇩🇪输给🇫🇷，🇫🇷输给c罗，🇵🇹，所以C罗🐂🅱 我就知道每逢过节不可能没有我罗的新闻 圣诞节🎄快乐 变态！还很无聊！ 🇮🇹输给🇩🇪，🇩🇪输给🇫🇷，🇫🇷输给c罗，🇵🇹，所以C罗🐂🅱 宇宙最强球神C罗 我也是巴萨球迷也不喜欢皇马！但是我感觉做人的底线要有！这种道德败坏式的人身攻击不应该有！比侮辱还可耻 我梅的母亲默默点个赞 亡父罗真可怜 作为巴萨球迷，那些巴畜真是他妈傻逼 你爹迟早会被你克死的[大笑] 🇮🇹输给🇩🇪，🇩🇪输给🇫🇷，🇫🇷输给c罗，🇵🇹，所以C罗🐂🅱 我虽然是巴萨球迷，但也实在看不下去C罗被黑的太厉害了。 你父亲死了没？ 可是我就喜欢他们这样嘻嘻我是不是很变态 人生赢家。 已经不能用人来理解了 司马光 就当看笑话吧 巴沟们真是一群恶心的生物👎👎👎 国内喷子是真没素质没底线。悲哀 皇马垃圾废物C罗吃狗屎垃圾废物曼联穆鸟🐦🐦🐦🐦🐦都是垃圾废物 过分了 你能达到c罗一半的成就，做梦都会笑醒吧，二货 你父亲死多少年了？还有你母亲…… 有些所谓的巴萨梅西球迷真不知道是梅黑卧底还是什么难道真的是一粉抵十黑 🇮🇹输给🇩🇪，🇩🇪输给🇫🇷，🇫🇷输给c罗，🇵🇹，所以C罗🐂🅱 我更想知道哪个是迷你罗的妈。知道的告诉一下。 你母亲死于艾滋病 一群傻逼喷子 mini騾真可憐，媽媽都不知道是誰 不喜欢丝袜罗，但我是迷你罗的球迷！[微笑] 亡父罗全家福还少了一个人！ 这些都是我罗球迷吧[大笑] 🇮🇹输给🇩🇪，🇩🇪输给🇫🇷，🇫🇷输给c罗，🇵🇹，所以C罗🐂🅱 小编，问你个问题，多洛雷斯，能否翻译成杜蕾斯？ 你母亲的狗头被亡父罗剁下来当马桶 你爹和你母亲还有你全家其他人，在地震中砸死了吧。 🇮🇹输给🇩🇪，🇩🇪输给🇫🇷，🇫🇷输给c罗，🇵🇹，所以C罗🐂🅱 就是嘛.这么精简的裙子,大爱啊.看我以后减肥去 🇮🇹输给🇩🇪，🇩🇪输给🇫🇷，🇫🇷输给c罗，🇵🇹，所以C罗🐂🅱 四个孩子五个妈，关系好凌乱 少一个性奴，就是你妈！她回去给你们父子俩做饭去了。 我罗真是人生赢家，儿子没妈。我罗没爹，妻子小姐，哈哈哈 可惜亡父不在 司马光 1楼这种一般都是小便故意挑拨制造矛盾发出来的。。。 哪个是C罗的父亲，知道的说一下 哈哈你都让这么骂了，要脸吗 一楼母亲暴尸街头，被野狗啃的只剩白骨[大笑][大笑] 再不喜欢，攻击别人家人也是混账行为 一楼一直以为自己是迷你罗 圣诞节到了，迷你罗哭着问我罗:“我妈在哪？”我罗听了心里一片酸，说“你妈在你干爷爷床上，要不是献出去，我怎么拿金球啊。”说完之后我罗和迷你罗抱头痛哭。 我更想知道哪个是迷你罗的妈。知道的告诉一下。 你是不是被驴从耳朵里日脑门把脑子日坏了？ 跪下啊孩子，今天又满血复活了？ C罗的父亲不在了，但被梅吹搞得跟在一样。梅西的父亲在，但被梅西搞进去了。可见有没有父亲不应该被嘲讽。如何对待父亲才应该被反思。c罗凭借一己之力改变了家族的命运，我不知道梅吹奚落c罗的时候是一种什么心态？c罗在英超证明自己，在洲际杯证明自己，在欧冠证明自己，在西甲证明自己。我实在不知道梅吹们凭什么藐视c罗 非常好呢 在足球板块刷你们的道德底线，中国不光人多，人渣更多。 刚参加完你爹的脏礼 有点无语。。。何必了！ 亡父c罗 不是尼老母吗？c罗当年草完尼老母就走了，你从小没爹，所以恨罗。 靠发帖赚吃屎钱的水军又来了，网易请你这些垃圾刷热度真是恶心。 这网易都弄些什么JB玩意活宝来刷帖赚流量啊，楼上一个不知道自己的爹是谁，一个不知道自己的妈是谁… 回复两位他父亲早就去世了迷你罗的妈妈官方没有说出来。。<br><br><br>知道了吧？？两位蠢蠢的狗东西 怪不得这坨💩上最佳没上场踢球！ 哈哈哈哈，还差个双胞胎儿子的代孕亲妈🤣👏👏👏 我就知道每逢过节不可能没有我罗的新闻 前两天刚刚葬了你老母 网易就请楼上和一楼这类畜来刷热度，真下作！ 皇马球迷都是狗 巴沟们真是一群恶心的生物👎👎👎 过年？ 山东没你这种狗 那些黑C罗，黑梅西的停止一下好么？你要是在过中国春节的时候别人问候你妈你是什么心情？都理性点！ 一楼是水军，网易都请些什么垃圾来刷热度 我罗真是人生赢家，儿子没妈。我罗没爹，妻子小姐，哈哈哈 这认识个傻逼。和那个叫安东内拉…一个吊样 巴萨球迷愤怒也是有原因的，黄畜太招欠 ，，，满目梅毒 罪不及家人！楼上不是我小萨村的村民，自动滚粗！ 真的是对西甲板块无语了，你请水军刷热度就刷吧，都是混口饭吃的。但是请这种**，只能说你们没有底线，你们的产品也就这样了，毫无态度。 跟你当祖奶奶 这一大家子女人真多，男人少 皇马和巴萨球迷团结起来，干死傻逼引战狗。 只要能看的来点足球的，这场比赛就能看出梅西和C罗在场上的能力和作用对比。C罗纯碎就是个队友喂球才有威胁的球员，这场比赛亮点就是跑动积极点，主动要球欲望强；而梅西，不但传射，突破过人，串联组织，还积极和队友配合，传球为队友创造进攻空间，一拿球看看皇马球员的关注度，所以喜欢C罗的无非就是当个娱乐偶像而已，当然有一些是为了C罗的努力精神而来，而喜欢梅西的，则是为欣赏足球享受足球而来！ 祝福c罗，幸福的一家 编段子骂梅西的也是他们好不好…其实就那几条狗，换着IP咬，私下还一个群，堆一起想段子，好不容易想一个抢着用，拿那点可怜工资全家都不要了╮(￣⊿￣)╭ 这些都靠发帖吃饭的，网易请的水军，刷热度用这些方法，真下作。 网易故意放这种挑起是非的帖子不管你不用无语还得考着这些东西获得点击量 亡父罗全家福还少了一个人！ 只要能看的来点足球的，这场比赛就能看出梅西和C罗在场上的能力和作用对比。C罗纯碎就是个队友喂球才有威胁的球员，这场比赛亮点就是跑动积极点，主动要球欲望强；而梅西，不但传射，突破过人，串联组织，还积极和队友配合，传球为队友创造进攻空间，一拿球看看皇马球员的关注度，所以喜欢C罗的无非就是当个娱乐偶像而已，当然有一些是为了C罗的努力精神而来，而喜欢梅西的，则是为欣赏足球享受足球而来！ 这些既是巴🐶，又是网易请的水军，刷热度的。 哎。<br>和平，爱上帝和键康=家人。<br>一大家子，一堆没妈的婴儿。<br>这家人的称呼是不是也太靠前了。<br>没弄懂... 写这些内容的人爹妈一定是杂交出来的 幸福 3:0高不高兴啊 一楼母亲暴尸街头，被野狗啃的只剩白骨[大笑][大笑] 少一个性奴，就是你妈！她回去给你们父子俩做饭去了。 温馨的新闻一般在他低迷的时候发！都成规律了 你母亲狗头落地一命呜呼 罗总裁又垫脚尖了？ 我也来了 巴萨球迷也看不下去了...你他妈拿孩子开玩笑是脑残么/? 尼玛不是小姐吗？你老婆不是卖比的吗？ 和骂梅西的人一个德行垃圾 哪个是C罗的父亲，知道的说一下 对。一楼污染环境 安东内拉 你俩够了，别给巴萨召黑 只要能看的来点足球的，这场比赛就能看出梅西和C罗在场上的能力和作用对比。C罗纯碎就是个队友喂球才有威胁的球员，这场比赛亮点就是跑动积极点，主动要球欲望强；而梅西，不但传射，突破过人，串联组织，还积极和队友配合，传球为队友创造进攻空间，一拿球看看皇马球员的关注度，所以喜欢C罗的无非就是当个娱乐偶像而已，当然有一些是为了C罗的努力精神而来，而喜欢梅西的，则是为欣赏足球享受足球而来！ ",
        "Link": "http://comment.sports.163.com/sports2_bbs/D6G7JS0J00058781.html"
    },
    "Article": "网易体育12月25日报道：皇马在国家德比输了球，但球员们日子还得过。C罗是如何度过平安夜的？葡萄牙人的选择，是来了一次家庭大联欢。在社交媒体上，C罗贴出了一家人的合照。“圣诞快乐！和平、爱上帝和健康=家人。”C罗还写了这样一句话。在这张家庭合影中，向来是媒体焦点的C罗，这次站在了后排位置上。在C罗身前，则是母亲多洛雷斯和女友乔治娜。多洛雷斯抱着C罗二儿子马迪奥，乔治娜手中则抱着C罗二女儿阿拉娜-马尔蒂娜。这两人身前，站着C罗大儿子迷你罗。在合影中，C罗姐姐卡迪娅手中则抱着C罗大女儿伊娃。伊娃、马迪奥和阿拉娜-马尔蒂娜都还是婴儿，这三人都身穿红色圣诞装。乔治娜也穿上了一条红色连衣短裙，这名新妈妈显得相当性感。本文来源：网易体育作者：张琳责任编辑：朱楷正_NS4807",
    "PublishTime": "12/25/201709:05:11",
    "KeyWords": "平安夜,c罗,红衣,伊娃"
}