{
    "PublishTime": "12/30/201715:26:00",
    "Comment": {
        "Total": 25,
        "Reply": 7,
        "Link": "http://comment.news.163.com/news2_bbs/D6TPRQRD000187V5.html",
        "Content": "护照内页图样，图森破！ 美国华盛顿杜勒斯机场:怪我咯，弯弯你别改护照，我重新修还不行吗？ 免签美帝优 印自己领土的景观，本来是一种惯例而已，一没有规定不能印外邦，二就算非要解读也应解读为把美国作为台湾的一部分了，为啥非要反过来解读？ 这有多尴尬 顶礼膜拜到如此地步。 美国华盛顿杜勒斯机场:怪我咯，弯弯你别改护照，我重新修还不行吗？ 免签美帝优 弯弯菜菜就是来搞笑的！！！ 护照内页图样，图森破！ "
    },
    "Title": "台新版\"护照\"修改内页图样 预计2018年2月重新发行_网易新闻",
    "Source": "Netease",
    "KeyWords": "台湾地区,照片,设计,护照",
    "URL": "http://news.163.com/17/1230/15/D6TPRQRD000187V5.html",
    "Article": "（原标题：台湾地区新版“护照”修改内页图样预计2018年2月重新发行）台湾地区新版“护照”图样设计闹乌龙(图片来源：联合新闻网)【环球网综合报道】据台湾“中央社”12月30日报道，台湾地区第二代晶片“护照”误植类似美国华盛顿杜勒斯机场的图样，台当局涉外部门“领事事务局”今天(30日)表示，“中央印制厂”已根据桃园国际机场提供的照片，重新设计完成图样，将重新印制，希望2018年2月初可以重新发行。“领务局副局长”蔡幼文称，合作厂商“中央印制厂”已重新设计完成桃园印刷厂图案，“领务局”也向桃园机场确认授权没问题并已确认图样定案，“中央印制厂”将尽快重新印制。有关新版护照预计重新发行时间，她则表示，“我们希望2月上旬可以”。台湾地区第二代晶片“护照”误植类似美国华府杜勒斯机场的图样，日前经岛内网友发现后，“领务局”决定将第一批成本约新台币8000万元的新版“护照”20万本全部回收，另由“中央印制厂”重新设计桃机图样并重印。“领务局”称，事件发生后，已请桃园机场提供机场航厦现貌照片，供中央印制厂设计人员参考，以确保正确性。有关重新印制的成本问题，“领务局”表示，按合约应由厂商负责，但后续法律问题，双方还需进一步协商，目前当务之急是让新版“护照”尽快重新发行。另外，“领务局”也在网站上公告，继续发行第一代晶片“护照”，第二代晶片“护照”发行日期将另行公告。“领务局”表示，目前旧版晶片“护照”库存量约20万本，估计够使用到明年2月农历年前，民众不会有领不到“护照”的问题。至于“晶片”护照图样发生失误，领务局辩称，“中央印制厂”负责图稿设计人员参照以前自行拍摄的桃机航厦照片为底设计，但为“丰富构图”，参考网络图片，却被标示错误图片误导，设计出与美国弗吉尼亚州的华盛顿杜勒斯(Dulles)国际机场极为相似的手绘图。台涉外部门声称，第二代晶片“护照”参采国际先进护照防伪技术，包括增加持照人第3影像、防伪胶膜采用“金属化表面凸起”及全面更新“护照”内页图案等，纳入全台各县市特色景点地标及风土民情等主题。本文来源：环球时报-环球网。更多精彩，请登录环球网http://www.huanqiu.com责任编辑：乔敬_NN6607"
}