{
    "Title": "罗志祥：鬼节再放朱碧石出来“吓”大家_网易娱乐",
    "PublishTime": "12/31/201722:27:23",
    "URL": "http://ent.163.com/17/1231/22/D713T1KD000398K4.html",
    "Source": "Netease",
    "KeyWords": "罗志祥,朱碧石,鬼节,演唱会",
    "Comment": {
        "Reply": 22,
        "Content": "朱碧石，鸡条唯一常驻最佳女嘉宾 居然看不见那四个字了^_^ 这孩子也是逗逼 孩子？五十几岁的孩子？ 开始不了解他，后来看了鸡条后发现自身就带搞笑娱乐天赋，然后路转粉。 不好看 贼逗逼的人。心态年轻就是孩子 猪鼻屎💩 真唱！舞蹈还好！ 小猪79年的哪来的五十多？ 空虚公子 朱碧石，鸡条唯一常驻最佳女嘉宾 居然看不见那四个字了^_^ 小猪是真正的娱乐咖，又帅又搞笑 极限挑战 唱得还真不赖，舞蹈也棒 孩子？五十几岁的孩子？ 真唱！舞蹈还好！ 不好看 cmkm？ 艹🐴狂魔 怪事是?我居然?不知道是鬼节 什么虚？肾虚？ 小猪79年的哪来的五十多？ 🐷改走谐星路线了，感觉回不来了 这孩子也是逗逼 是肾虚 猪鼻屎💩 肾虚公子吧 贼逗逼的人。心态年轻就是孩子 太垃圾了。还亚洲舞王？谁封的？歌曲从来就没有像样的，除了耍帅…… 空虚公子 ",
        "Total": 294,
        "Link": "http://comment.ent.163.com/ent2_bbs/D713T1KD000398K4.html"
    },
    "Article": "罗志祥湖南卫视跨年演唱会表演现场网易娱乐12月31日报道湖南卫视跨年演唱会直播现场。罗志祥带来一连串经典舞曲以及和Henry的合作舞台。表演结束后来到采访间接受群访。有记者问及新年“朱碧石”会出现吗？罗志祥表示：“朱碧石”现在还在泰国，搞定自己的个人专辑后，再考虑将朱碧石在鬼节放出来“吓一吓”大家。罗志祥称：专辑或在2018年底制作结束。本文来源：网易娱乐责任编辑：张楠_NK4501"
}