{
    "Article": "【荷兰女孩7次回国寻亲：想让他们知道我过得很好】2017年12月30日，荷兰女孩王甫意和养母依莲以及男友第7次来到襄阳寻亲。王甫意说：“我想找到我的亲生父母，让他们知道我过得很好。”她的养母说，这趟旅程主要是享受和放松，也想要王甫意的男友了解一下她出生的城市。本文来源：梨视频责任编辑：邵小波_NN2479",
    "URL": "http://news.163.com/18/0104/09/D7A009U90001875P.html",
    "KeyWords": "荷兰,女孩,襄阳,放松",
    "PublishTime": "01/04/201809:12:26",
    "Title": "荷兰女孩7次回国寻亲：想让他们知道我过得很好_网易新闻",
    "Comment": {
        "Content": "让他们羞愧，让他们知道被抛弃的亲骨肉过的比他们好 让他们羞愧，让他们知道被抛弃的亲骨肉过的比他们好 ",
        "Link": "http://comment.news.163.com/news_shehui7_bbs/D7A009U90001875P.html",
        "Total": 13,
        "Reply": 1
    },
    "Source": "Netease"
}