{
    "Comment": {
        "Content": "巴基斯坦没这么大的胆吧？f16还想不想起飞？ 如果真断了粮那也痛苦啊！ 自媒体报道也相信，看来脑子坏了 简直扯淡，要不是巴基斯坦提供情报和军事基地，你美国隔着千上万水的怎么调查？如何快速反应？，小小的阿富汗政府都能保护拉登周全，更别说巴基斯坦！ 巴基斯坦总算是纯的民主吧？和伊朗不一样吧？米狗怎么喷 我只记得杀本拉登的时候，米国军人都不敢告诉巴基斯坦，要是事先通知的话，估计又像前几次，扑了个空 简直扯淡，要不是巴基斯坦提供情报和军事基地，你美国隔着千上万水的怎么调查？如何快速反应？，小小的阿富汗政府都能保护拉登周全，更别说巴基斯坦！ 你脑子怕也是坏了，出过国门么？就网上喷？巴基斯坦是不怎么样，但确实是民选政府。 “你个白眼狼！” 巴基斯坦医生因间接医疗情报至拉登被美军击毙，巴国医生因出卖拉登情报被巴官方抓捕，可确定巴国是恐怖分子庇护国。 你美国爹那么厉害，想杀本拉登几十年前就杀了，只是后来没利用价值了，棋走完了，又有ISIS的后路旗子，卸磨杀驴而已，你真以为美国抓不住一个本拉登？ 中东国家，长期战乱，人不狡猾难以生存 我只记得杀本拉登的时候，米国军人都不敢告诉巴基斯坦，要是事先通知的话，估计又像前几次，扑了个空 如果真断了粮那也痛苦啊！ 自媒体报道也相信，看来脑子坏了 当年毛子入侵阿富汗，米帝大力支持灯大爷，现在米帝也入侵阿富汗，中国为什么不？ 简直扯淡，要不是巴基斯坦提供情报和军事基地，你美国隔着千上万水的怎么调查？如何快速反应？，小小的阿富汗政府都能保护拉登周全，更别说巴基斯坦！ 巴基斯坦总算是纯的民主吧？和伊朗不一样吧？米狗怎么喷 你要是敢给老子停了，老子说中国人来飞！ 巴基斯坦没这么大的胆吧？f16还想不想起飞？ 简直扯淡，要不是巴基斯坦提供情报和军事基地，你美国隔着千上万水的怎么调查？如何快速反应？，小小的阿富汗政府都能保护拉登周全，更别说巴基斯坦！ 你脑子怕也是坏了，出过国门么？就网上喷？巴基斯坦是不怎么样，但确实是民选政府。 “你个白眼狼！” 巴基斯坦医生因间接医疗情报至拉登被美军击毙，巴国医生因出卖拉登情报被巴官方抓捕，可确定巴国是恐怖分子庇护国。 你美国爹那么厉害，想杀本拉登几十年前就杀了，只是后来没利用价值了，棋走完了，又有ISIS的后路旗子，卸磨杀驴而已，你真以为美国抓不住一个本拉登？ 中东国家，长期战乱，人不狡猾难以生存 ",
        "Link": "http://comment.news.163.com/news_guoji2_bbs/D77H9C900001875O.html",
        "Reply": 14,
        "Total": 145
    },
    "KeyWords": "巴基斯坦,特朗普,反恐,美国",
    "PublishTime": "01/03/201810:16:45",
    "Title": "特朗普批巴基斯坦反恐不力 巴基斯坦:你个白眼狼_网易新闻",
    "Source": "Netease",
    "Article": "（原标题：特朗普批巴基斯坦反恐不力，巴基斯坦：你个白眼狼）【特朗普批巴基斯坦反恐不力，巴基斯坦：你个白眼狼！】美国总统特朗普1日在他新年第一条“推特”中炮轰巴基斯坦，称巴方反恐不力，庇护美国追捕的恐怖分子，暗示要中断对巴援助。面对指责，巴基斯坦国防部长回应说，作为美国反恐盟友，巴基斯坦过去16年向美国开放陆路和空中交通，提供军事基地和情报合作，如今却换来美国的谩骂和质疑。巴方已召见美国大使，提出抗议。本文来源：新华视点作者：王逸君责任编辑：乔敬_NN6607",
    "URL": "http://news.163.com/18/0103/10/D77H9C900001875O.html"
}