{
    "Title": "8岁女孩玩游戏花掉父亲9千元治疗费 家人要求退款_网易新闻",
    "URL": "http://news.163.com/17/1229/14/D6R5E8G5000187VE.html",
    "Source": "Netease",
    "Article": "（原标题：8岁女孩玩游戏花掉父亲9000元治疗费）支付宝为游戏充值记录楚天都市报图28日，看着手机里的支付记录，41岁的武汉男子张新文（化名）又生气又发愁。气的是8岁的女儿竟然用他支付宝的钱偷偷买了9000多元的游戏装备，愁的是这是他治病的钱，不知道如何才能要回来。发现孩子偷偷花钱买装备还是一次偶然。张新文说，12月2日中午，妻子见女儿正在玩手机，便问孩子在干什么，谁知女儿竟将手机藏在身后，这引起妻子的怀疑。妻子拿过手机突然发现支付宝发来的支付成功信息，细看才知道，孩子当天花了1200多元，用于购买一款名为“叶罗丽”的手机游戏“装备”。张新文随后和支付宝客服联系得知，原来孩子从11月12日就开始玩这款游戏，总共购买9054元的游戏“装备”，钱都支付给了北京瓦力网络科技有限公司。张新文是咸宁人，和妻女一起租住在武昌中华路的一居室里，平日靠摆摊挣钱。“这些钱原本是我用来治病的。”张新文说，今年10月，省肿瘤医院确诊他肝部长了恶性肿瘤，当月做了手术。11月13日开始，他第二次住院治疗4天，支付宝中的那一万元是他哥哥借给他的治病钱。住院期间，他的手机留在家里，不想竟被孩子用来玩游戏，买“装备”。张新文的妻子患有糖尿病，张新文说，夫妻两人摆摊收入只够他们维持基本生活和看病吃药。张新文的女儿告诉记者，游戏是从爸爸的手机里下的，因为没有装备无法过关，她才花钱买装备，支付宝的密码是她看见爸爸输密码时偷偷记下的。张新文认为，孩子只有8岁，对钱根本没概念，而且购买装备根本没和家长说，游戏公司应该将这些钱退还给他。此后，他与北京瓦力网络科技有限公司联系，但对方却不同意退款。昨日，记者多次拨打该公司电话，但电话始终无人接听。湖北诚明律师事务所许高真律师认为，从法律角度看，张新文无法拿出证据证明到底是谁在购买游戏装备，因此游戏运行商才不退款。但张新文家庭贫困，不可能花很多钱给孩子买游戏“装备”。他认为游戏运营商应人性化考虑，退还张新文部分费用。本文来源：楚天都市报责任编辑：李天奕_NN7528",
    "PublishTime": "12/29/201714:42:00",
    "Comment": {
        "Total": 456,
        "Content": "所以我的从来不输支付密码，直接指纹支付！小子有本事就趁我睡着了，拿我的左手食指来完成支付！ 不会退的。。这种事儿多了 我孩子9岁了，给他钱他都不要，也不要零花钱 2018网易新闻标题：海口某少年趁父睡觉，砍下其手指竟为了干这个！！！ 8岁能怎么懂事？<br>还是怪家长不会管孩子<br>才8岁就让她沉迷游戏 张新文认为，孩子只有8岁，对钱根本没概念<br>8岁怎么就对钱没概念了？我8岁偷两块钱买棒棒糖都胆战心惊… 亡者农药是哪个公司开发的，你心理没点Ｂ数？ 手机游戏遗害青少年，十恶不赦！ 游戏装备对游戏公司来说就是一组数据，对这家确实救命钱。自己掂量掂量吧 又见数据论，手机还是一堆金属呢，就按金属来算价格？游戏不需要开发、运营、推广？还有人员和服务器成本。<br>支付密码这些就不能告诉小孩！ 百度(毛卑零），就明白大幂幂为什么会火，不知道被多少个名导给潜了，那里真的是黑，去瞧瞧 看金额，目测游戏是亡者农药 无民事行为能力人做出的效力待定行为，监护人肯定是可以认定无效的，但是现在关键就是证明不了是小朋友买的而不是大人买的，只能协商处理咯。这种可以花钱的密码还是不能让小孩子知道啊 哈哈活该，谁叫你们给小孩玩手机，一句话活该给小孩玩的b手机 这个瓦力科技公司真是太可恶了，同样有小孩玩了他们的什么飚车扣了我差不多两百多块，实在可恶。 怪谁这？自己不设密码？还有没开通扣款提示？自己孩子沉迷游戏都不知道？怎么管教孩子 哪像这种情况，要是谁玩游戏充了钱后，完了是不是可以说是孩子沉迷游戏趁大人不在充的，要人家退钱呢，这说不过去啊。。。 估计你还没有孩子吧？ 治病是个好理由，孩子小不懂事也是好理由，博取同情心嘛，就这点事。当家长的早干嘛去了？ 也不能这么说，这一组组数据是养了一群人的。况且随便改所谓的数据，会让其他人感到不公的。熊孩子是坑爹，但怎么证明这回真的是熊孩子坑爹呢？银行密码丢失，被ATM取了钱，是不是银行退回呢。 只要能证明是这个女孩充的，就可以要回来！ 也许是自己玩的，现在找个理由 人人都这样所有游戏可以关服务器了，爽完之后都说是孩子充的。 不懂事的小女孩！ 所以我的从来不输支付密码，直接指纹支付！小子有本事就趁我睡着了，拿我的左手食指来完成支付！ 必须全部退还，还要另救助3000元。 不会退的。。这种事儿多了 我孩子9岁了，给他钱他都不要，也不要零花钱 2018网易新闻标题：海口某少年趁父睡觉，砍下其手指竟为了干这个！！！ 游戏是个好东西用来淘汰部分垃圾 百度(姚漫奴），就明白大幂幂为什么会火，不知道被多少个名导给潜了，那里真的是黑，去瞧瞧 无民事行为能力人做出的效力待定行为，监护人肯定是可以认定无效的，但是现在关键就是证明不了是小朋友买的而不是大人买的，只能协商处理咯。这种可以花钱的密码还是不能让小孩子知道啊 张新文认为，孩子只有8岁，对钱根本没概念<br>8岁怎么就对钱没概念了？我8岁偷两块钱买棒棒糖都胆战心惊… 网游毒害青少年 亡者农药是哪个公司开发的，你心理没点Ｂ数？ 手机游戏遗害青少年，十恶不赦！ 游戏装备对游戏公司来说就是一组数据，对这家确实救命钱。自己掂量掂量吧 你儿子拿着保鲜膜笑而不语 平安1768游戏平台！！！ 怪谁这？自己不设密码？还有没开通扣款提示？自己孩子沉迷游戏都不知道？怎么管教孩子 看金额，目测游戏是亡者农药 做个调查物，价油价房价上涨工资不涨感觉生存压力越来越大的点支持 哪像这种情况，要是谁玩游戏充了钱后，完了是不是可以说是孩子沉迷游戏趁大人不在充的，要人家退钱呢，这说不过去啊。。。 哈哈活该，谁叫你们给小孩玩手机，一句话活该给小孩玩的b手机 这个瓦力科技公司真是太可恶了，同样有小孩玩了他们的什么飚车扣了我差不多两百多块，实在可恶。 又见数据论，手机还是一堆金属呢，就按金属来算价格？游戏不需要开发、运营、推广？还有人员和服务器成本。<br>支付密码这些就不能告诉小孩！ 百度(毛卑零），就明白大幂幂为什么会火，不知道被多少个名导给潜了，那里真的是黑，去瞧瞧 估计你还没有孩子吧？ 治病是个好理由，孩子小不懂事也是好理由，博取同情心嘛，就这点事。当家长的早干嘛去了？ 8岁能怎么懂事？<br>还是怪家长不会管孩子<br>才8岁就让她沉迷游戏 只要能证明是这个女孩充的，就可以要回来！ 也许是自己玩的，现在找个理由 人人都这样所有游戏可以关服务器了，爽完之后都说是孩子充的。 也不能这么说，这一组组数据是养了一群人的。况且随便改所谓的数据，会让其他人感到不公的。熊孩子是坑爹，但怎么证明这回真的是熊孩子坑爹呢？银行密码丢失，被ATM取了钱，是不是银行退回呢。 不懂事的小女孩！ ",
        "Reply": 31,
        "Link": "http://comment.news.163.com/news2_bbs/D6R5E8G5000187VE.html"
    },
    "KeyWords": "游戏,手机,支付宝,付款"
}