{
    "Article": "（原标题：深圳一女子警局当众脱衣小便踢打民警！只为男老师“顶包”！）#endText.video-infoa{text-decoration:none;color:#000;}#endText.video-infoa:hover{color:#d34747;}#endText.video-listli{overflow:hidden;float:left;list-style:none;width:132px;height:118px;position:relative;margin:8px3px0px0px;}#entText.video-lista,#endText.video-lista:visited{text-decoration:none;color:#fff;}#endText.video-list.overlay{text-align:left;padding:0px6px;background-color:#313131;font-size:12px;width:120px;position:absolute;bottom:0px;left:0px;height:26px;line-height:26px;overflow:hidden;color:#fff;}#endText.video-list.on{border-bottom:8pxsolid#c4282b;}#endText.video-list.play{width:20px;height:20px;background:url(http://img1.cache.netease.com/video/img14/zhuzhan/play.png);position:absolute;right:12px;top:62px;opacity:0.7;color:#fff;filter:alpha(opacity=70);_background:none;_filter:progid:DXImageTransform.Microsoft.AlphaImageLoader(src=\"http://img1.cache.netease.com/video/img14/zhuzhan/play.png\");}#endText.video-lista:hover.play{opacity:1;filter:alpha(opacity=100);_filter:progid:DXImageTransform.Microsoft.AlphaImageLoader(src=\"http://img1.cache.netease.com/video/img14/zhuzhan/play.png\");}if(/(iPhone|iPad|iPod|Android|NETEASEBOBO|blackberry|bbd+)/ig.test(navigator.userAgent)||/safari|chrome|firefox/i.test(navigator.userAgent)&&navigator.plugins&&!navigator.plugins[\"ShockwaveFlash\"]){varstr1='<videocontrols=\"controls\"preload=\"auto\"width=\"100%\"poster=\"http://vimg3.ws.126.net/image/snapshot/2018/1/M/8/VD69N5VM8.jpg\"style=\"max-height:100%\">';varstr2='<sourcetype=\"video/mp4\"src=\"http://flv.bn.netease.com/videolib3/1801/03/rsKPl5341/SD/rsKPl5341-mobile.mp4\">您的浏览器暂时无法播放此视频.</video>';document.getElementById(\"FPlayer1404863609673\").parentNode.innerHTML=str1+str2;}深圳女子警局当众脱衣小便踢打民警！只为男老师“顶包”！（来源：~）window.NTES&&function(d){varf=function(c){varb=c.getAttribute(\"flashvars\"),a=c.getAttribute(\"repovideourl\").replace(\".flv\",\"-mobile.mp4\");h=d(c.parentNode.parentNode.parentNode),g='<embedsrc=\"http://v.163.com/swf/video/NetEaseFlvPlayerV3.swf\"flashvars=\"'+b+'\"allowfullscreen=\"true\"allowscriptaccess=\"always\"quality=\"high\"wmode=\"opaque\"width=\"100%\"height=\"100%\"type=\"application/x-shockwave-flash\"/>';if(/(iPhone|iPad|iPod|Android|NETEASEBOBO|blackberry|bbd+)/ig.test(navigator.userAgent)){g='<videocontrols=\"controls\"preload=\"auto\"width=\"100%\"height=\"100%\"><sourcetype=\"video/mp4\"src=\"'+a+'\">您的浏览器暂时无法播放此视频.</video>';}h.$(\".video\")[0].innerHTML=g;},e=function(b){vara=d(b.parentNode.parentNode.parentNode);a.$(\"li\").removeCss(\"on\"),b.addCss(\"on\"),a.$(\".video-title\")[0].innerHTML=\"string\"==typeofb.textContent?b.textContent:b.innerText,a.$(\".video-title\")[0].setAttribute(\"href\",b.getAttribute(\"url\")),a.$(\".video-from\")[0].innerHTML=\"（来源：\"+b.getAttribute(\"source\")+\"）\",f(b);};window.continuePlay=function(){vara,b=d(d(\".video-list.on\")[0].nextSibling);3==b.nodeType&&(b=d(b.nextSibling));if(b&&d(\".video-innerinput\")[0].checked){e(b);}},function(){vara={init:function(){if(d(\".video-listli\")[0]){d(d(\".video-listli\")[0]).addCss(\"on\"),this.eventBind();}},eventBind:function(){d(\".video-listli\").addEvent(\"click\",function(b){e(d(this)),b.preventDefault();});}};a.init();}();}(NTES);南都讯记者陈文才“酒，真不是个好东西，”相信很多喝酒驾车被交警查获的醉猫事后都会这样想，酒后那个失态的自己更是会让人不敢直视。新年头一天，深圳一女子就因仗义顶包、酒后失态轻松驾驭豪车、醉驾、顶包、当众小便、脱衣等引爆眼球的关键词而成为热搜，女子因妨碍公务将面临牢狱之灾。2018年1月1日凌晨2时30分许，深圳市交警支队机动训练大队在宝安区107国道路段“猎虎”设卡查处酒驾时，发现一辆橙色奔驰小轿车在距离卡点50米处突然停靠在路边，行驶路径非常可疑，引起了现在交警民警的注意，随后对该车辆进行拦截。交警发现，车上有4名乘客，女子陈某在驾驶位上，副驾驶位是乘客梁某，其余两名乘客在车厢被拦停后便强行离开了。随后交警准备带司机陈某和梁某前往医院进行血液酒精浓度检测，但交警执法却遭到女子陈某的抗拒，女子除言语不配合，还踢打执法民警，在强行对女子进行血液检测带回交警大队后，女子竟在众人面前站在原地小便，遂又将裤子脱下，之后情绪失控的陈某还将上衣一脱到底，试图对抗执法。深圳交警经进一步审讯和指数侦查发现，副驾驶梁某实为该豪车车主，是某高中教师，当日梁某与陈某等聚会饮酒后，驾车从南山蛇口返回宝安，在行经宝安区107国道上川人行天桥底段时发现前方正在有交警查车，为保住自己的教师岗位，梁某要求陈某帮忙顶替驾驶车辆，之后被交警拦下顶包伎俩被现场执法人员识破，过程中陈某为了阻碍民警对梁某进行酒精检测，遂做出脱裤、小便等让人难以理解的过激行为。事后，梁某因涉嫌醉驾，且梁某与陈某妨碍公务人员执法，现已将两人扣押起来，案件正在进一步处理。经查，陈某之前还有过贩毒前科和吸毒史。本文来源：南方都市报责任编辑：邵小波_NN2479",
    "PublishTime": "01/03/201810:07:19",
    "URL": "http://news.163.com/18/0103/10/D77GO3JC0001875P.html",
    "Source": "Netease",
    "Comment": {
        "Content": "老湿啊 泼妇 真是个好学生[窃笑] 交警还挺有眼福 光荣的人类灵魂工程师。 这种臭煞笔，不应该打码，应该让他父母都看看，多长脸 她敢尿，我就敢堵上 这样的人居然还是老师？师德是怎么过关的？ 这他妈奔驰豪车是高中老师的？这老师这么有钱还怕失去教师工作？ 这些人为什么要打马赛克？就是要曝光他们、让他们得到教训… 我会站一旁，看她慢慢表演，反正又不收费 直接拿屌把洞塞上 曾经贩毒吸毒的娘们儿你也敢堵你的工作是疏通下水道吧 我是来看脱衣小便的，图呢 看看现在与老师为伍的都是些什么人！都沦落了。 站着撒尿是条汉子 这种打什么码啊 只准老师吸毒不准学生🚬 高中教师是这逼样？ 应该拍个特写视频，让大家看看 交给我，包治百病 看看网易大部分评论，估计这app用户各种穷凶极恶的人都有，这是实话 开车的才是老师，这个只是同行的，有可能是炮友或者毒友 行侠仗义实堪敬，顶包醉驾替师行。<br>宽衣解带耍聪明，鸡飞蛋打两头空。 教师中的败类 年轻老师还能买豪车 这些女人的思维真是奇葩，凭什么认为大闹一通就能让你混过去？ 真不是个好东西… 就是啊！转着圈全方位无死角观看啊 贩毒和吸毒进去后就别在放出来了免得祸害别人！ 吸过毒的怪不得这么开放 深圳交警部门还招聘协警吗？不要工资，只查年轻女司机酒驾的那种 吸毒贩毒的，都不在乎这个，吸毒的人都乱的很 卧槽，尼玛这件古驰的外套就得七八千吧。 这都什么社会了还有这种盲流➕流氓➕泼妇➕荡妇➕法盲？ 收拾这样的泼妇就应该抓住上面的两个重点，堵住下面的漏洞！ 几张图片把我看[微笑] 这么亢奋肯定是吸毒了 好，好恶心，广东话没那么难听吧！怎么就她的声音听了想吐！我没兴趣看你裸体，不过你真的恶心到我了，什么人啊！ 母虎车前放大招，脱衣撒尿满街臊。<br>替师顶罪人识破，落入囚笼变醉猫。 有师德这回事吗？ 交警还挺有眼福 意外收获 这是打记号吗[窃笑] 这样的人居然还是老师？师德是怎么过关的？ 这些人为什么要打马赛克？就是要曝光他们、让他们得到教训… 高中教师与吸毒、贩毒、当众拉尿、脱裤女子，是怎么成为同车好友的？ 本是佳人，奈何如此。 别打码啊[狗][狗] 这种女人你也上，你他妈的还真是饥不择食。 素质呢？ 只准老师吸毒不准学生🚬 酒真不是好东西 高中教师是这逼样？ 是的，是的所以昨天打死了学生 备胎 妈蛋小编什么意思人家敢脱为什么你要打码[鄙视] 真不要个脸，不是什么好货。 现在的老师有几个懂师德这两个字？就这群人还天天喊着要涨工资！ 这么闹有用吗？闹大才不怕你呢 估计是他学生 我帮你推 你敢脱，我就敢看；你敢尿，我就敢……敢……不敢了…… 为什么要打马赛克？差评…… 林子大了什么鸟都有！ 果然一家人 卧槽，尼玛这件古驰的外套就得七八千吧。 我帮你扶手 首先酒驾顶包性质严重，其次吸毒人员怎么去当了教师。建议后面对社会公开犯罪人员信息记录。 谁TM打的马赛克 大脑是个好东西嘞 这女的长的因该还行 她敢尿，我就敢堵上 高中教师与吸毒、贩毒、当众拉尿、脱裤女子，是怎么成为同车好友的？ 太蠢了。你就算脱光也没用，人家最多笑笑 行侠仗义实堪敬，顶包醉驾替师行。<br>宽衣解带耍聪明，鸡飞蛋打两头空。 曾经贩毒吸毒的娘们儿你也敢堵你的工作是疏通下水道吧 深圳哪个学校的？ 高中教师，豪车 这些女人的思维真是奇葩，凭什么认为大闹一通就能让你混过去？ 胸前白兔软绵绵，芳草萋萋妙无边。<br>只为顶替老师罪，脱衣甩裤尿警员。 是的 我是女的，你跟我较什么真啊！没出息 快用你的針赶紧的 有教师的这个职位才能给学生补课，才能赚到不菲的补课费，如果不当老师了，那就赚不到钱了。 这高中教师像个痞子 年轻老师还能买豪车 就是有奇葩的广大网民支持，这件事还是没执法录像，被口诛笔伐的还是交警！ 母虎车前放大招，脱衣撒尿满街臊。<br>替师顶罪人识破，落入囚笼变醉猫。 说的就是那个男的 没有图片没有真相，要不屁个你看? 我是来看脱衣小便的，图呢 泼妇 交警还挺有眼福 扬眉吐气站着尿。 这种臭煞笔，不应该打码，应该让他父母都看看，多长脸 这样的人居然还是老师？师德是怎么过关的？ 就她那个逼玩意有什么看的 视频模糊不清怎么作为证据？请公布完整视频让广大人民群众谴责她 看看现在与老师为伍的都是些什么人！都沦落了。 既然吸过毒，直接验尿吧[狗] 我也想有这样的学生[大笑] 那个老师真是个垃圾！ 不好意思，忍不住笑了 原味 交给我，包治百病 本来今晚就要脱，换了个地方[惊讶] 回去之后去老师寝室补习功课 哈哈，第一次就这么为人家牺牲，结果名分没有捞到，还把自己赔进去。 你怎么说什么都有人挺？新闻都没注意看 收拾这样的泼妇就应该抓住上面的两个重点，堵住下面的漏洞！ 几张图片把我看[微笑] 干嘛要打马赛克，她敢脱难道我们还不敢看吗 好，好恶心，广东话没那么难听吧！怎么就她的声音听了想吐！我没兴趣看你裸体，不过你真的恶心到我了，什么人啊！ 少年强则少女扶墙，少年弱则少女失落<br>少女强则少年平躺，少女弱则少年惆怅 隔着屏幕都有股尿骚味…假酒害人啊 真是个好学生[窃笑] 该死的马克赛 直接按住她，还能让她又脱裤子，又耍泼妇？ 一个傻叉 打码了差评 用嘴堵？ 她敢尿，我就敢堵上 我会站一旁，看她慢慢表演，反正又不收费 下次遇到这种直接喊精神病医院来拉走就是了 有个女生在你面前撒泼脱衣服，你是按住不让她脱，还是不管在旁边看着？ 应该拍个特写视频，让大家看看 真细 这种打什么码啊 看看网易大部分评论，估计这app用户各种穷凶极恶的人都有，这是实话 开车的才是老师，这个只是同行的，有可能是炮友或者毒友 噗嗤[喷水][喷水][喷水][喷水][喷水][喷水] 这老师还是开了吧！<br>师德让人堪忧！ 牛逼 教师中的败类 吸过毒的怪不得这么开放 这都什么社会了还有这种盲流➕流氓➕泼妇➕荡妇➕法盲？ 大晚上的加上一堆毛，能看到个大白屁股而已 有这样的老师才有这样的学生，这女的让人恶心，应该全脱游街，再送进牢里。 必须大补特补[羞羞] 你敢喝吗 交警还挺有眼福 有情况[疑问][疑问][疑问] 站着撒尿是条汉子 这么亢奋肯定是吸毒了 笑晕我 这种傻b被教师蒙了，这种教师可以下岗了 站着尿爽吧？😊 中国工薪阶层的孩子不能上大学的话，就会被送进工厂，做苦工！中国工薪阶层的孩子不能上大学的话，就会被送进工厂，做苦工！ 开眼了 楼下，视频中哪句话是假话？ 社会毒瘤 教师会玩 脱光才最好！ 妈的小编个狗比玩意儿，看完了就打马赛克， 好好好，滚回去重新做人吧 深圳交警部门还招聘协警吗？不要工资，只查年轻女司机酒驾的那种 吸毒贩毒的，都不在乎这个，吸毒的人都乱的很 这些老师真有钱，居然还可以买豪车 陈老师？ 真爱，真爱！ 貌似身材还不错，人家都不怕，小编看完撸完后就打马赛克，无耻啊。 老湿啊 这要是在阿三的警局试试包你怀疑人生 马赛克 吃狗人士家的母大狗当街赖尿 万恶的马赛克 这他妈奔驰豪车是高中老师的？这老师这么有钱还怕失去教师工作？ 她敢尿，我就敢堵上 直接拿屌把洞塞上 人师德丧耍阴招，酒驾香车过小桥。<br>愚女不知君计毒，罗裙夜解放秋潮。 她敢尿，我就敢堵上 真是厉害了！ 行侠仗义实堪敬，顶包醉驾替师行。<br>宽衣解带耍聪明，鸡飞蛋打两头空。 人师德丧耍阴招，酒驾香车过小桥。<br>愚女不知君计毒，罗裙夜解放秋潮。 几杯洋酒下肚，<br>二人欢喜约炮，<br>凌晨查酒驾，<br>渣男让她顶包，<br>胡闹、胡闹<br>皆因几杯猫尿。<br>.<br>.<br>流浪扯淡瞎编 用嘴吗？ 光荣的人类灵魂工程师。 是的 这些女人的思维真是奇葩，凭什么认为大闹一通就能让你混过去？ 这女的以后可以当妇女主任。 贩毒和吸毒进去后就别在放出来了免得祸害别人！ 这女的连脸都不要了 马赛克 站着尿 喝醉了，撒酒疯，平时不敢的。 就是啊！转着圈全方位无死角观看啊 马赛克啊，马赛克！我操你姥姥 母虎车前放大招，脱衣撒尿满街臊。<br>替师顶罪人识破，落入囚笼变醉猫。 怎么还有傻逼酒驾，是觉得自己运气好还是关系硬？ 等你一顶。 包养的小三而已 真不是个好东西… 霸气。。。 脱裤子的视频呢？ 大姐，你这招在校长屋里还有点用，不是所有地方都管用。 老师？贩毒？吸毒？撒泼？什么节奏？ 喝大了 这老师当的可以啊 厉害了 智商是个好东西 没清晰可辩之视频，差评，不过我还是要向这个女的👍👏爱抚友 顶我新的一年中5000万 我想问一下，关键的那几张图呢，都被小变吃了 ",
        "Reply": 157,
        "Total": 1998,
        "Link": "http://comment.news.163.com/news_shehui7_bbs/D77GO3JC0001875P.html"
    },
    "Title": "女子警局当众脱衣小便踢警察 只为给男老师\"顶包\"_网易新闻",
    "KeyWords": "小便,交警,警局,男老师"
}