{
    "Title": "赴澳国际留学生伪造成绩屡禁不止 校方严打诈骗行为_网易新闻",
    "URL": "http://news.163.com/17/1226/10/D6IT9RQH00018AOQ.html",
    "Source": "Netease",
    "Comment": {
        "Total": 0,
        "Reply": 0,
        "Content": "",
        "Link": "http://comment.news.163.com/news2_bbs/D6IT9RQH00018AOQ.html"
    },
    "Article": "（原标题：赴澳国际留学生伪造成绩屡禁不止校方严打诈骗行为）中新网12月26日电澳洲《星岛日报》近日刊文称，国际留学生及不法留学中介伪造文件或非法购买医生证明等情况，在澳大利亚各高校屡见不鲜。有校方指出，一旦发现这些有诈骗行为的学生，校方会迅速采取行动，将他们开除。资料图为悉尼大学校园。中新社记者陶社兰摄文章摘编如下：据报道，有海外留学生及不法留学中介，涉嫌以伪造的高中及大学成绩表报读悉尼的大学，为求入读分数高的商科、工程及法律系。上述情况在新南威尔士大学(UNSW)甚为猖獗。根据《信息自由法》公开的大学违规纪录显示，新南威尔士大学在过去3年曾开除54名国际学生，原因是校方复核他们的纪录时，发现伪造文件。大部分违规的学生考进了商科，其余还包括工程、法律和科学系。新南威尔士大学一名女性发言人称：“新南威尔士大学在几年前引进一套缜密的系统去查核虚假的证书。一旦发现这些学生，校方会迅速采取行动，将他们开除。”由于目前并无学业文件的国际标准，让不法分子容易欺骗负责收生的大学职员。报道指，伪造报读文件是全澳各省地所有顶尖高等学府学生，被停学或开除的首要原因。澳大利亚教育及培训部发言人称，联邦政府已经要求高等教育监测组织研究订立新法例，打击学生的诈骗行为。“所有海外留学生涉嫌违规的个案，均被他们报读的院校认真处理。政府已经指示高等教育标准委员会研究方法，确保澳洲高等教育界的廉洁，包括立法针对打击作弊和欺诈行为。”在麦考瑞大学(MacquarieUniversity)，今年有5名海外留学生涉嫌伪造报读成绩表等文件而被开除。校方发言人称：“导致学生被停学或开除的虚假文件当中，包括涉及报名所需的成绩表和考试合格证书等。”悉尼科技大学(UTS)也有学生涉嫌伪造文件，不过大部分是涉及强制实习的虚假出席纪录。至于在悉尼大学，过去3年有65名学生涉及伪造或非法购买医生证明，以获取学科上的特别待遇，而被停学或开除。本文来源：中国新闻网责任编辑：姬雪莹_NN6784",
    "PublishTime": "12/26/201709:52:00",
    "KeyWords": "大学,商科"
}