{
    "URL": "http://news.163.com/17/1228/01/D6N4DI8B00018AOQ.html",
    "Comment": {
        "Reply": 4,
        "Content": "那么多地震 地震何其多. 挽尊 最近怎么了这是,老是频发地震啊 ",
        "Total": 4,
        "Link": "http://comment.news.163.com/news2_bbs/D6N4DI8B00018AOQ.html"
    },
    "Title": "新疆和田地区发生3.0级地震 震源深度31千米_网易新闻",
    "Source": "Netease",
    "KeyWords": "和田地区,于田县,地震,新疆",
    "PublishTime": "12/28/201701:22:14",
    "Article": "（原标题：12月28日1时11分新疆和田地区于田县发生3.0级地震）据中国地震台网测定，北京时间2017年12月28日1时11分在新疆和田地区于田县(北纬38.19度，东经81.78度)发生3.0级地震，震源深度31千米。本文来源：地震局网站责任编辑：黄哲程_B9302"
}