{
    "URL": "http://news.163.com/17/1229/09/D6QI05KB0001875P.html",
    "Article": "（原标题：大雾橙色预警！全国多地高速公路局部路段封闭）",
    "Source": "Netease",
    "PublishTime": "12/29/201709:19:05",
    "KeyWords": "高速公路,大雾,封闭",
    "Comment": {
        "Content": "何方神怪降凡间，蔽日遮云气盖天<br>人影依稀仙界若，蜃楼吐结海隅然<br>早车灯色飘磷火，邻犬吠声自乌团<br>常愿尘世清氤氲，九州处处北京蓝 雾跟霾都分不清楚都好意思bb 兴师动众，多年，天意安排。<br>狗屎们纯属一群狗屁不通的白痴。 这是雾了，长江以南这边要下雨下雪了 全文不见一个“霾”字，看来是彻底被消灭了 有道理，那就它们说话还不如放屁。😀 指鹿为马，看我ID！ 顺应天意，上天最全知，如果上天有参与，会最英明的帮助人们。<br>也祝福所有有良知的人们。 哎。哪里是雾。明明是霾 昨天环保部还在说入冬以来北方的良好大气主要得益于煤改气，这今天就打脸了……去问环保部东改西关闭的，到底搞明白雾霾的成因了没有？！ 雾是灰色的？ 谁再说霾！就按造谣论处！抓起来！那明明是雾不是霾！我说是雾就是雾！ 谁再说霾！就按造谣论处！抓起来！那明明是雾不是霾！我说是雾就是雾！ 官窑和民谣是有区别的，猫神。 我们这里公布的是大雾橙色警报[大笑] 看空气质量监测数据。吹没用的 你说我像雾<br>忽远又忽近 确实不懂，黄山这边的只有雾，没有工业 通篇不见一个霾字，需要扭头看看窗外才能补上…… 它们说话和放屁差不多。 没有霾全是雾对吧傻逼 说是雾就是雾不相信国家滚出中国[微笑] 天气好坏全靠老天爷，这两天没刮风就不行了 …… 123 德州啥也看不见了 日北方雾快到中午还存在[微笑] 你们那还特色雾 放屁不过只是臭，却不骗人。 好的 管煤不是说不让烧煤环境好了么？ 坐标安徽蚌埠，早上六七点钟能见度10米都没有，我们家口停车都看不见。现在10点多依然看不见对面的楼。 眼前十米路，全被雾挡住，车行一二档，不敢超十速，路上见行人，都把嘴捂住，这是在人间，还是在仙处？ 雾霾还是雾，砖家求解！最近雾霾这个词好像消失了。 限行了也关厂了甚至有的地方禁煤了，然并卵，雾霾还是这么大 这个世道那些垃圾们确实太离谱了。他们都好自为之吧。 本地打烧饼的炉子，烤地瓜的炉子给贴上封条了，怎么还那么多雾~（手动）滑稽 你拉倒吧，这边方圆几百公里，一家大型工厂都没有，人口才一百来万，哪来的雾霾，都是山区，别地的雾霾吹都吹不过来 前几天群里好几个北京的不知道真傻还是装傻居然说今年雾霾治理好多了。。。[喷水][喷水][喷水]没准是高端黑吧，自嘲哈哈 雾霾就雾霾还特么大雾？大雾能呛嗓子？ 这是大雾霾，不是大雾，无良媒体别洗地了 把霾说的这么清新 就是，雾霾就雾霾嘛，我们都习惯了 元旦佳节要来了，大家出行一定要注意行车安全！ 半个月，一个月，之后，逐渐会知道有是什么 天意不可违，不可抗拒。只有傻逼才多年任性求重罚。 同时还有的那个时候的新文，装提，要环保。<br>私下里，不是挺兴奋的吗？ 讲真，只有非常疯非常傻的才会多年那样，而且还在耍。一群饭桶。 爱国的就把口罩拿了，为领导吸霾 这么大面积，又弄什么了？ 我觉得不是雾吧。应该是霾 最好做手术，不然怀孕时太吓人，我那会就胎停育了 大家都注意身体年底了医院都按计划接收病人了病不起[车珠子] 顺应天意，上天最全知，如果上天有参与，会最英明的帮助人们。<br>也祝福所有有良知的人们。 关没的话你也信 过滁州之后就什么都看不见了 昨天环保部还在说入冬以来北方的良好大气主要得益于煤改气，这今天就打脸了……去问环保部东改西关闭的，到底搞明白雾霾的成因了没有？！ 到处都是雾霾。 昨天环保部还在说入冬以来北方的良好大气主要得益于煤改气，这今天就打脸了……去问环保部东改西关闭的，到底搞明白雾霾的成因了没有？！ 这回是天然气干的！ 具体如何，顺应天意，认真转变，不是个人的感情用事，或过家家的家天下那么幼稚的事！一群俗不可耐的饭桶，真是无聊！ 去年天ya还无所谓的训佳丽们，什么就算她家娃对不起谁，也轮不到那些女的说。<br>就算她家，对不起谁。它家说的理解的，太轻巧了。吧里还喷，什么不可逆转。<br>一群任性的狗屁不通的饭桶。 这是大雾霾，不是大雾，无良媒体别洗地了 去年天ya还无所谓的训佳丽们，什么就算她家娃对不起谁，也轮不到那些女的说。<br>就算她家，对不起谁。它家说的理解的，太轻巧了。吧里还喷，什么不可逆转。<br>一群任性的狗屁不通的饭桶。 昨天环保部还在说入冬以来北方的良好大气主要得益于煤改气，这今天就打脸了……去问环保部东改西关闭的，到底搞明白雾霾的成因了没有？！ 我的天哪，这天气。 说是雾就是雾不相信国家滚出中国[微笑] 确实是雾，呛得老子嗓子都疼. 去年底，有过，连续多天，室外，“白茫茫一片”。当时新文，几分之一，都一样场景，但是，它们却都兴高采烈！ 12月10号，掩盖不了的，还有新的猛追，一群疯子。 请教猫头哥，我媳妇26岁，还没有生育过，上个月四维彩超体检发现卵巢囊肿5.7厘米，无血流反应。这个大小是继续保持观察还是果断做手术开掉？当地医生的建议是8厘米再开。还没生宝宝，不知是否会影响要宝宝。谢谢猫头哥 日北方雾快到中午还存在[微笑] 见怪不怪了。 …… 不是它们控的不可逆转。 管煤不是说不让烧煤环境好了么？ 天气好坏全靠老天爷，这两天没刮风就不行了 兴师动众，多年，天意安排。<br>狗屎们纯属一群狗屁不通的白痴。 小时候晴天的雾中午前后必散且清新湿润！<br>现在雾凝固厚重久久不能散去且得等风来！ 这个世道那些垃圾们确实太离谱了。他们都好自为之吧。 昨天环保部还在说入冬以来北方的良好大气主要得益于煤改气，这今天就打脸了……去问环保部东改西关闭的，到底搞明白雾霾的成因了没有？！ 各种破正常，虐正能量，却捧了大量狗屎随便疯，这个世道如它们所愿。 雾霾就雾霾还特么大雾？大雾能呛嗓子？ 各种缺德造孽，罪孽滔天。<br>善恶终有报。好自为之。 这样不容易发生交通事故 之前别的各种坑，不说。一个死，估计弄2年，所以一年半都在被坑。一群疯狂造孽的垃圾。 限行了也关厂了甚至有的地方禁煤了，然并卵，雾霾还是这么大 123 昨天环保部还在说入冬以来北方的良好大气主要得益于煤改气，这今天就打脸了……去问环保部东改西关闭的，到底搞明白雾霾的成因了没有？！ 100%纯霾，醇厚，浓呛！源自侏罗纪的馈赠！ 这种天，司机们注意行车安全。路人们也都走人行横道，文明过马路。注意安全。 地产惹的！转嫁一下不行？ 想起以后广东如果也这样的话…唉，健康活着也是奢侈！ 何方神怪降凡间，蔽日遮云气盖天<br>人影依稀仙界若，蜃楼吐结海隅然<br>早车灯色飘磷火，邻犬吠声自乌团<br>常愿尘世清氤氲，九州处处北京蓝 天灵灵，地灵灵，老天显灵，天天吹南风 雾跟霾都分不清楚都好意思bb 限行蓝服不服？ 你们在没有证明的情况下就能把新闻说的雾变成霾，还有什么是你们不会歪曲的 测试新武器 这是雾了，长江以南这边要下雨下雪了 是房地产造成的 这部雾霾吗 京珠北高速没雾吗？ 他们就是瞎几把喷，我大黄山安徽省环保厅发的通告，全省唯一净土，怎么说都不听，傻逼一样 有道理，那就它们说话还不如放屁。😀 哈哈 治理空气全靠风吹 煤：tnd这锅没背好。 南边污染重 全文不见一个“霾”字，看来是彻底被消灭了 把劫道的给治了！😄!没人上路没有收入了！😭！<br>真希望天天活在仙境里啊！😄！ 我们这里公布的是大雾橙色警报[大笑] 谁再说霾！就按造谣论处！抓起来！那明明是雾不是霾！我说是雾就是雾！ 偶的天！西风不与俺周郎便~~😭💀☠️ 前阵子空气好，没雾霾，我说跟今年的气候有关而不是煤改气的成果，还有人喷我，问我什么气候雾霾都没了，我说气候恢复正常你在看，被他一顿喷，如果你看见我发的这个帖子，请出来给我道个歉，谢谢 官窑和民谣是有区别的，猫神。 嘿嘿 前几天群里好几个北京的不知道真傻还是装傻居然说今年雾霾治理好多了。。。[喷水][喷水][喷水]没准是高端黑吧，自嘲哈哈 大雾预警,出行请小心 什么是雾什么是霾，傻傻分不清楚，我宁愿相信今天就是雾 通篇不见一个霾字，需要扭头看看窗外才能补上…… 它们说话和放屁差不多。 德州仪器是挺有名的场子。 安全第一，预防为主。 猫神，脂溢性脱发有什么好治疗方法 限单行眼皮呼吸吧 空气湿度有点大。 昨天我看天气就不对了，关停的钢铁，化工厂又都复工了吧 德州啥也看不见了 放屁不过只是臭，却不骗人。 你在德克萨斯还怕国内的雾霾啊 流星月亮地球太阳系有发动机么？没有!他们却高速在宇宙中运行!为什么？因为他们的运行轨道本身就是太空高速时空隧道!他们的运行路线一半为去路一半为来路，周而复始地运行着!地球自转公转着，本就没有东西南北上下左右等方位!谁定的？我们的天父啊!目的只有一个，告诉人类我们天父的星座方位!所以九曲桥的方向始终对着东北方!在宇宙一切物质中，永远是子体围绕母体运动，这是恒定的!所以地球自转并围绕太阳公转!因地球是自转公转的，所以根据地球的东西南北是找不到星外文明的星座方位的!只有找到太阳的上下前后东西南北才能准确地给天父星座方位定位!我们天父星座方位在太阳系东北上方第九颗恒星那里!那里以双伴恒星为中心带动周围108颗恒星运动着! 管煤不是说不让烧煤环境好了么？ 坐标安徽蚌埠，早上六七点钟能见度10米都没有，我们家口停车都看不见。现在10点多依然看不见对面的楼。 眼前十米路，全被雾挡住，车行一二档，不敢超十速，路上见行人，都把嘴捂住，这是在人间，还是在仙处？ 雾霾还是雾，砖家求解！最近雾霾这个词好像消失了。 就是那个放断头台的德克萨斯之手的老家？ 前几天群里好几个北京的不知道真傻还是装傻居然说今年雾霾治理好多了。。。[喷水][喷水][喷水]没准是高端黑吧，自嘲哈哈 今天的确是天不好 雾霾就雾霾还特么大雾？大雾能呛嗓子？ 是好多了，但是肯定不是治理好的，因为从11月份起北风就没停过，一直吹。。。然后长江流域就没好过，一直100多200多的PM2.5，这两天不刮风了。。。 路过 你石家庄的就别笑话北京了，北京今年冬天冷空气很频繁，得有连续一个多月的蓝天白云了，比你们那里强太多了 把霾说的这么清新 就是，雾霾就雾霾嘛，我们都习惯了 元旦佳节要来了，大家出行一定要注意行车安全！ 大家开车小心，有雨雾 限产限号有意思吗 人艰不拆 卧槽 很多雾 完美解决雾霾问题，给尼玛一万个赞👍 你说我像雾<br>忽远又忽近 大雾弥漫 再BB就喂你服雾 我们这里也封高速路了，江苏如皋，，下路大堵车 最后一天了舍不得你们走[微笑] 你让霾的脸放哪里？ 没有 广告公司老同学中弄 好的 指鹿为马，看我ID！ 车主背锅 雾是雾，霾是霾 大雾，大悟 哎。哪里是雾。明明是霾 看不清 嚴重污染環境。 治理雾霾 把霾说的这么清新 是雾吗 ",
        "Total": 2041,
        "Link": "http://comment.news.163.com/news_shehui7_bbs/D6QI05KB0001875P.html",
        "Reply": 137
    },
    "Title": "大雾橙色预警！全国多地高速公路局部路段封闭_网易新闻"
}