{
    "Comment": {
        "Content": "",
        "Link": "http://comment.news.163.com/news2_bbs/D77UJ27B000187VE.html",
        "Reply": 0,
        "Total": 1
    },
    "KeyWords": "金正恩,新年,朝鲜,韩国",
    "PublishTime": "01/03/201813:50:00",
    "Title": "金正恩改穿浅色西服作新年致辞 专家读出这些信号_网易新闻",
    "Source": "Netease",
    "Article": "（原标题：金正恩今年改穿浅色西服作新年致辞，韩国专家读出了这些信号）在2018年1月1日的新年致辞中，朝鲜最高领导人金正恩一改过去几年常常穿深色服装的习惯，转而换上了浅灰西服，并扎上了浅灰领带。美国《纽约时报》1月2日报道，对于朝鲜领导人金正恩在新年祝辞时的新着装，韩国专家认为很可能是为了释放软化、轻松的信号，配合他出人意外地宣布愿意与韩国会谈。浅灰西装可能是要帮助其摆脱在核武器与导弹试验问题上在国际上的负面形象。金正恩当天在致辞中，出人意外地呼吁就朝鲜参加今年二月在韩国举办的冬季奥运会的可能性进行磋商。除了服饰的色调选择了更加柔和的浅灰西服，其标志性的发型也被精心修饰过，《纽约时报》报道称，金正恩耳朵上方的头发被剃掉，形成了“梯形”发型。韩国釜山国立大学(PusanNationalUniversity)政治学教授罗伯特凯利(RobertKelly)对《纽约时报》表示：“很多人猜测，他试图让朝鲜看起来更现代，与世界的联系更密切。”凯利表示，金正恩之前穿过类似的衣服——打扮得像一个穿着阿玛尼的银行家，这使得他看起来更加现代化。报道称，曾在瑞士读书的金正恩精心打扮，可能是源自他的祖父金日成的教诲。金日成偶穿西式服装，常有传闻称，年轻的金正恩模仿了金日成，甚至包括祖父的体型和发型。报道还称，人们还注意到金正恩在今年发表新年贺词的时候比往年显得更有信心。2013年他首次发表新年祝辞时，“声音不稳定”。本文来源：澎湃新闻责任编辑：邵小波_NN2479",
    "URL": "http://news.163.com/18/0103/14/D77UJ27B000187VE.html"
}