{
    "PublishTime": "12/30/201719:01:44",
    "Comment": {
        "Total": 10900,
        "Reply": 144,
        "Link": "http://comment.news.163.com/news_guonei8_bbs/D6U5NOO40001875N.html",
        "Content": "小伙子们都是很棒的 祖国万岁 威武之师！ 威武霸气 祝福祖国！ 祖国美好 祖国万岁 厉害 威武、雄壮、霸气、整齐划一的国旗护卫队每每迎着朝阳升起国旗的那一刻，我们每个中国人都会倍感豪迈与骄傲！衷心祝愿我们伟大的祖国繁荣昌盛、祝福我们伟大的中华民族永远屹立在世界的东方！祖国万岁！中国共产党万岁！中国人民解放军万岁！ 中国共产党万岁！ 祝福祖国 伟大祖国 威武之师！展现中国军人的风彩！ 祖国万岁，敬礼 祖国繁荣昌盛，解放军威武！ 壮我军威666 支持中央决定 扬我国威，壮我军威 点赞 这些小伙子，真帅！ 好👏👍 战士们辛苦啦！ 愿祖国强大！ 伟大祖国万岁。 五星红旗迎风飘扬 大家新年快乐 祖国万岁 棒棒哒 新年快乐！新年新气象！ 威武雄壮，太帅了 祝愿伟大的祖国繁荣昌盛！ 中国共产党万岁！ 祝愿我伟大的祖国繁荣昌盛！ 愿祖国更加繁荣富强!!! 祖国万岁 军人精神 五星红旗迎风飘扬，胜利的歌声多么嘹亮，歌唱我们伟大的祖国，从今走向繁荣富强！ 好好 国旗护卫队应直属国防部管 加油中国 祝福我们伟大的祖国！ 祖国越来越好 厉害 致敬 威武雄壮，为你点赞。 扬我国威 厉害👍 致敬 敬礼！！！辛苦了！ 威武霸气 赞！ 永远的国旗护卫队！ 扬我国威，壮我军威 祖国万岁！威武霸气！ 加油 威武 祖国万岁 更加威武，更加雄壮 2018年祖国更加繁荣昌盛！国泰民安！ 赞一个 威武，雄壮，霸气与骄傲！ 有希望了 支持！ 敬礼 帅气 祖国万岁 祖国万岁！👍👍👍 壮我军威666 祖国万岁 赞！ 国家的强大表现 祖国您好，我们爱你！ 太帅了 愿祖国更加繁荣富强!!! 祝愿祖国繁荣昌盛 帅爆了！ 很赞 为你们点赞， 威武！ 赞一个 威武！ 由解放军护卫比较好。威武之师 威武霸气 新年新气象 给一百个赞！ 新年快乐！新年新气象！ 祝愿我伟大的祖国繁荣昌盛！ 祖国万岁！ 战士们辛苦啦！ 为国家点赞！赞👍！ 威武雄壮 祖国万岁 威武霸气十足！祖国昌盛繁荣 祝福祖国 不错 厉害 点赞 扬我国威 点赞 威武霸气！！！！！！！ 威武 祝愿伟大的祖国繁荣昌盛！ 知道了 应该 一切都是值得的 祖国万岁 威武霸气 祝福祖国！ 厉害！ 解放军威武 棒棒哒 祖国万岁 这个必须点赞 这是一次伟大的改革！必将载入史册！千古流传！ 军人精神 厉害了我的国 保家卫国靠你们了！！！ 敬礼 国旗护卫队应直属国防部管 一定会更好！！！ 厉害 威武雄壮，太帅了 加油 支持 祖国美好 世界上最庄严的升旗仪式莫过于中国！！ 威武之师！展现中国军人的风彩！ 继续努力！ 光荣，自豪，伟大 祖国万岁 繁荣富强 小伙子们都是好样的 伟大祖国 祖国万岁，敬礼 给他们点赞 大国威严！ 太帅了 帅气 真帅 都是子弟兵！支持！ 国旗班的战士，帅气、威风、霸气，点赞👍！ 致敬！ 这些小伙子，真帅！ 厉害了 战士们辛苦啦！ 愿祖国强大！ 伟大祖国万岁。 威武霸气更漂亮！ 大家新年快乐 很棒 祖国威武！ 这个！确实厉害 中国人民解放军万岁！ 牛逼 为祖国骄傲 威武！ 看升国旗浑身热血沸腾 又迎来新的一年 厉害了 辛苦了，同志们 小伙子们都是很棒的 祖国万岁 威武之师！ 祖国万岁！ 我们的军队永远强大，我们的祖国永远倡盛! 祖国万岁，人民生活安居乐业，就好了！ 厉害 中国共产党万岁！ 支持一下 五星红旗迎风飘扬，胜利的歌声多么嘹亮，歌唱我们伟大的祖国，从今走向繁荣富强！ 祖国繁荣昌盛，解放军威武！ 支持中央决定 赞👍 点赞 好👏👍 威武、雄壮、霸气、整齐划一的国旗护卫队每每迎着朝阳升起国旗的那一刻，我们每个中国人都会倍感豪迈与骄傲！衷心祝愿我们伟大的祖国繁荣昌盛、祝福我们伟大的中华民族永远屹立在世界的东方！祖国万岁！中国共产党万岁！中国人民解放军万岁！ 五星红旗迎风飘扬 好好 中国万岁！ 祝愿伟大的祖国繁荣昌盛！ 加油中国 祖国万岁 扬我国威，壮我军威 中国共产党万岁！ "
    },
    "Title": "明年元旦7时36分升国旗，不再归武警管了_网易新闻",
    "Source": "Netease",
    "KeyWords": "武警,天安门广场,天安门,三军仪仗队",
    "URL": "http://news.163.com/17/1230/19/D6U5NOO40001875N.html",
    "Article": "新华社刚刚发布消息，经党中央批准，自2018年1月1日起由人民解放军担负国旗护卫和礼炮鸣放任务。2018年元旦7时36分，天安门广场升国旗仪式，首次由人民解放军仪仗队和军乐团执行。政知圈注意到，在此之前，天安门国旗护卫队的队员身着臂章为“中国人民武装警察部队”的制服，显示国旗护卫队隶属于我国武警部队。这是一次重要的变动。1天27000步上个月，国旗护卫队小伙子，登上了综艺节目《挑战不可能》。在节目中，他们从金水桥起点，通过一百步正步+一百步齐步精准到达国旗杆下的精准点位，完成升旗护卫任务。节目中，这个挑战的难点在于，其一，从起点至终点，要想凑齐两个“一百步”，队员们的步伐相比以往需要稍作调整，保证每一步都是精准的75厘米才可以准确到达固定点位；其二，全程路径并不全是直线，需要拐3个直角弯，这对步幅、步数和整齐度均有极高要求的挑战更可谓“雪上加霜”。而延续了逾两万次升旗零失误的护卫队成功挑战，源于其“台下”常人难以想象的刻苦训练。国旗护卫队指导员彭凯介绍称，首先小伙子们选拔标准就是“万里挑一”：“国旗护卫队的选拔每年从上万人中挑50人，身高形象动作都有严格要求，可以说是万里挑一。”其次，训练中付出了常人难以想象的汗水甚至是血水。“来到中队后，还需要强化训练4个月。在此期间，要过好几道关，考核过关后才能成为一名真正的国旗护卫队队员。新战士在训练中，每天平均要行进27000步。”成为正式队员后并不意味着“好日子”来了，实际上考验才刚刚开始。练形体：为了练就良好的形体，战士们在脖颈上插上扑克牌练习站功。练站功、眼功：顶着大风练“站功”，迎着太阳练“眼功”。战士们腰间插上木制的“十字架”，领口别上大头针，一站就是大半天。练步伐：练步伐，白天绑沙袋练踢腿，用尺子量步幅，用秒表卡步速，一踢就是成百次、上千次。供电局也曾负责天安门升旗回溯历史，天安门广场的升降国旗和国旗哨位守卫任务再次由解放军承担，实际上是一种“回归”。政知圈查阅资料显示，武警天安门国旗班从1982年12月28日接替中国人民解放军卫戍区部队，正式担负天安门广场升降国旗和国旗哨位守卫任务。27年前，国务院、中央军委授给天安门国旗班“国旗卫士”荣誉称号，1991年5月1日国旗班扩编为武警天安门国旗护卫队。此次解放军接手，相信小伙子们仍会保持零失误的纪录护送国旗伴随朝阳升起。此外，政知君注意到，除了解放军和武警部队，曾经负责过天安门广场升旗任务的单位，竟然还有北京市供电局，这又是咋回事？1949年建国后，天安门广场升降国旗一直没有特别的规定和要求。因为广场升降国旗的电动设备是北京市供电局设计的，于是就把升降国旗的任务交给了供电局。开国大典的第二天，供电局职工陈红年就接过了升降国旗的任务，他是我国建国后第一个负责升降国旗的工作人员。一年后，胡其俊接替了他的工作，他一干就是26年。不过，当时在天安门广场也不是每天都升国旗，只在几个重大节日才升国旗比如，“五一”升一天，“十一”升两天，元旦升一天，春节升三天。直到武警国旗班接过这项任务后，逐渐确定了人数、步伐等诸多规则并不断完善。此外，我们从小就知道的“国旗伴随朝阳一同升起”，同样是国旗班战士找到北京天文台，按照一年四季日出日落的时间编出来的升旗时刻表。礼炮鸣放任务同样交由解放军国旗护卫队、三军仪仗队，虽然从性质而言均属于仪仗部队，但实际上区别并不少。首先，此前的国旗护卫队隶属于北京市武警总队，而三军仪仗队隶属于解放军北京卫戍区某师。另外，不论是日常训练还是在其执行司礼任务时，二者的仪仗动作也不一样。比如，国旗护卫队的步速是每分钟112步，三军仪仗队一般在116步。当然，这也并不是一成不变的，不过要保证“零失误”，步速调整后小伙子们总需要集训一阵子。政知圈注意到，实际上除了国旗护卫队，另一个隶属于武警部队的“国字号”部队同样将成为历史——负责迎宾礼炮勤务的礼炮中队。资料显示，上世纪六七十年代期间被取消的礼炮鸣放仪式，在1984年重新恢复并交由随之成立的礼炮中队担负。恢复至今，礼炮中队共完成礼炮鸣放任务602次，迎接国家元首325名、政府首脑277名。而此后的礼炮鸣放任务同样将交由解放军担任。政知君也是查阅资料后才知道，礼炮的鸣放有着这么多讲究：21响为迎送国家元首或其他相应级别的人；19响为迎送政府首脑或其他相应级别的人；17响为迎送副总理级官员。上述标准符合目前的国际惯例，鸣炮的时间则一般在贵宾到达或离开时进行。为外国领导人来访而鸣放礼炮的礼仪，我国从1961年6月正式开始，1966年后取消，1984年2月后又恢复。有意思的是，我国礼炮所用炮弹也同样经历了“老中青”三代。第一代是拆去弹头的实弹；第二代是锯末弹；第三代礼炮，即目前所采用的真空弹只有2.5公斤重，弹壳内是真空，现场不会留下任何废弃物，对大气也没有污染，每个弹壳能重复使用100次，炮声洪亮悦耳。解放军仪仗队军乐团将开始升国旗告别\"国字号\"在中国人民武装警察部队有两支执行特殊任务的部队，他们的一举一动都关系到国家的威仪和荣誉，因此被称为“国字号”的特殊队伍，他们就是国旗护卫队和共和国礼炮部队。日前，经党中央批准，自2018年1月1日起由人民解放军担负国旗护卫和礼炮鸣放任务，历史开始了新的一页。本文来源：政知圈责任编辑：邵小波_NN2479"
}