{
    "URL": "http://news.163.com/17/1231/09/D6VNFTRH00018AOR.html",
    "Article": "（原标题：拉斯维加斯酒店再传枪击案两名保安人员遭枪击）图片来源：CBS新闻海外网12月31日电美国拉斯维加斯当地时间周六（30日）再次发生枪击案。警方表示，当地一家酒店赌场某房间发生骚乱，两名保安人员在进入房间查看时遭枪击造成致命伤，随后嫌犯枪手向自己头部开枪，伤势危急。目前枪手动机不明，但调查人员认为这是一起孤立事件。据美国哥伦比亚广播公司报道，枪击事件发生于当地时间周六（30日）上午7点左右，地点位于拉斯维加斯大道西侧的亚利桑那·查理·迪凯特酒店（ArizonaCharlie'sDecatur）。据警方消息，嫌犯开枪后逃出酒店向附近民居跑去，他试图进入两户民居，但居民阻止他进入。据警方介绍，嫌犯试图进入第一户民居时，目的是偷车，此外，他还试图开走街上停着的一辆车。他通过第二户民居的车库进入一家洗衣房，由于他开枪击中了自己的头部，警方最终在该洗衣房找到了他。在枪击现场外，罗伯特·普卢默警长对记者表示，“我想让各位了解的是，目前为止，该事件与恐怖主义无关。”据报道，枪手目前状况不明，但警方称，他的伤势有生命危险。调查人员称，嫌犯恐难存活。受害者的身份目前没有公布。警方表示，两名身着制服的保安人员一男一女，年龄约40多岁，其中一人持枪。酒店房间中发生的具体情形目前不得而知，酒店方面暂未回应。报道称，在此次枪击案发生一天之前，拉斯维加斯执法人员预计新年夜将会有成千上万的狂欢者聚集在拉斯维加斯大道，当地官员正努力让居民和游客相信该城市是安全的。此外，就在3个月前，该城市发生了美国现代历史上最惨重的枪击案。当地时间2017年10月1日晚10时许，64岁的白人枪手史蒂芬·帕多克从对面曼德勒海湾宾馆的32层向楼下观看演唱会的观众开枪扫射，导致59人死亡527人受伤，随后向自己开枪身亡。本文来源：海外网责任编辑：李天奕_NN7528",
    "KeyWords": "枪击案,美国,保安,拉斯维加斯",
    "Source": "Netease",
    "Comment": {
        "Reply": 10,
        "Content": "人类的希望国又出事了 小李，赶紧通知他们25小时轮番滚动 天天枪击，很热闹 跨世纪 只能说可惜但是没什么用 天天枪击，很热闹 然并卵。将来还会发生的。 世界核平 安全点敢不敢 小李，赶紧通知他们25小时轮番滚动 逝者安息，愿天堂一切安好 人类的希望国又出事了 有点小希望的2018年新年最好不要降旗 ",
        "Total": 43,
        "Link": "http://comment.news.163.com/news2_bbs/D6VNFTRH00018AOR.html"
    },
    "PublishTime": "12/31/201709:13:45",
    "Title": "美国拉斯维加斯发生枪击案 2名酒店保安人员遭枪击_网易新闻"
}