{
    "PublishTime": "12/28/201708:26:06",
    "Source": "Netease",
    "Comment": {
        "Link": "http://comment.tech.163.com/tech_bbs/D6NSIE1J00097U7T.html",
        "Total": 99,
        "Reply": 23,
        "Content": "有这么多钱？今天收购这个，明天收购那个！亲戚了不起？ 亲戚就是流弊 为什么会这么说？ 牛逼了，沃尔沃卡车业务可是世界五百强 1楼就是开出租车的命，总是瞎找关联，看到吉利，就想到亲戚关系，看到永辉超市的新闻，就想到福建。真的很low 这就是你人云亦云的原因？别人的成功都是关系造成的，你自己的失败都是运气不好。你开心就好。 有关系的那么多，为啥只有一个吉利！ 因为爱情最伟大 人云亦云…… 除了吉利，你再也不会看到第二个民企在外收购 因为爱情最伟大 看好沃尔沃 牛逼了，沃尔沃卡车业务可是世界五百强 为什么会这么说？ 沃尔沃这么垃圾！？质量可以，营销白痴，最终会被吉利控制，变成国有企业！ 欧卡神教的老司机在哪里？ 看破不说破！亲戚就是牛逼！咬我？ 你试试彭，li娟 嗯。有些人就是武侠小说看多了，看到海外的新闻，就瞎找关联。弄的神神秘秘，好像多么牛逼一样。北京的出租车司机，满嘴跑火车，还不是开出租车的命。 …… 有这么多钱？今天收购这个，明天收购那个！亲戚了不起？ 亲戚就是流弊 沃尔沃的卡车技术可是牛逼 赞你！不过以前我也跟他们辩驳，后来发现，你永远叫不醒装睡的人，或者说拿钱的人，咱自己心里明白就行 嘿呦，精神病 500强？你说世界5强都不过分 近几年进口车头好像是多了些 人家股票涨了十倍，为什么会没钱 人云亦云…… 除了吉利，你再也不会看到第二个民企在外收购 "
    },
    "Article": "（原标题：VolvoCars'Chineseparentcompanybuys$3.3billionworthofABVolvo）网易科技讯12月28日消息，据国外媒体CNET报道，吉利斥资33亿美元向欧洲基金公司CevianCapital购买了沃尔沃集团8.2%的股份。沃尔沃集团曾拥有轿车、卡车等诸多业务。1999年，福特购买了沃尔沃的轿车业务。2010年，吉利再以18亿美元从福特手中买走沃尔沃轿车。吉利表示，并未正式计划重组沃尔沃品牌，但可以看出，吉利董事长李书福对沃尔沃这个品牌兴趣浓厚。沃尔沃集团目前主要生产卡车，而且是世界领先的重型卡车制造商之一，但它需要吉利的协助才能更好地在快速发展的中国市场中占据一席之地。吉利恰恰能满足这一需求。在自动驾驶卡车和电动重型车辆方面，吉利拥有丰富的专业知识，这两方面都是沃尔沃集团非常感兴趣的业务。李书福在一份声明中表示，“鉴于我们与沃尔沃汽车的合作经验，我们认可并重视沃尔沃集团傲人的斯堪的纳维亚历史和文化、领先的市场地位、突破性的技术以及环保能力。”吉利这一举措延续了公司过去数年的收购趋势。吉利已收购伦敦电动汽车以及马来西亚宝腾汽车和路特斯汽车的大部分股份。吉利购买沃尔沃汽车后，沃尔沃已成为德国和日本汽车以外的一个独特品牌，利润在不断增加。据路透社报道，2017年前三个季度沃尔沃汽车的收入达12.6亿美元的收入，而2011年的全年收入仅为1.93亿美元。（惜辰）本文来源：网易科技报道责任编辑：王凤枝_NT2541",
    "Title": "看好卡车 吉利再花33亿美元拿下沃尔沃8.2%股份_网易科技",
    "URL": "http://tech.163.com/17/1228/08/D6NSIE1J00097U7T.html",
    "KeyWords": "沃尔沃,卡车,汽车,轿车"
}