{
    "URL": "http://news.163.com/17/1228/10/D6O2TP6T0001899N.html",
    "Article": "（原标题：全国已有107城启用新能源汽车专用号牌，共发放26万余副）12月28日，澎湃新闻从公安部获悉，今日，北京市正式启用新能源汽车专用号牌。至此，全国已有107个城市启用新能源汽车专用号牌，覆盖31个省(自治区、直辖市)。2018年上半年，全国范围内全面启用新能源汽车专用号牌。公安部交管局有关负责人介绍，截至目前，全国已发放新能源汽车专用号牌26.57万副，其中纯电动汽车18.95万副，其他燃料电池及混合动力汽车7.62万副。新号牌中，小型新能源汽车专用号牌底色采用渐变绿色，大型新能源汽车专用号牌底色采用黄绿双拼色。与普通汽车号牌相比，新能源汽车专用号牌号码增加一位，由5位升为6位，可以满足“少使用字母、多使用数字”的编排需要。公安部交管局有关负责人介绍，为规范号牌发放，保证公平公正、阳光透明，公安部部署全面应用统一的号牌选号系统，实现号牌发放的“三个统一”，即统一号牌号码发放，号码资源全部通过计算机系统公开向社会发放，号牌发放方式全国统一;统一号池维护管理，设立统一的号码号池，号池号码全部由计算机随机投放、自动增补;统一号码资源监管，号牌号码资源由省级公安机关交通管理部门负责统一备案监管，健全监管制度机制。同时，公安部还在全国推广应用了统一的号牌生产管理系统，推行号牌制作全过程留痕监管，所有号牌签注唯一的生产序列标识，实现号牌唯一性和可溯源性，提升查处和打击假牌假证信息化、精准化能力。为满足群众需求，公安部交管局还推出了网上选号、“50选1”等选号服务新举措。新号牌启用后，对办理新能源汽车注册登记、转移登记的，将全部核发新号牌。群众可通过计算机随机选号、网上自编自选方式选号，其中，计算机随机选号实行“50选1”。对已登记的新能源汽车，按照“自愿换领”原则，由车主自主选择是否换领新号牌。为避免集中换牌导致的拥挤排队，公安交通管理部门将开通“网上预约换牌服务”，提供网上预约选号、网上预约换牌时间和地点等服务，群众可通过互联网服务平台预约办理换发号牌。新能源汽车专用号牌工本费不变，仍执行现行国家规定的普通汽车号牌收费标准，每副号牌100元。据公安部交管局统计，目前，全国已登记的新能源汽车保有量达144万辆。根据国务院《节能与新能源汽车产业发展规划(2012―2020年)》，到2020年，纯电动汽车和插电式混合动力汽车累计产销量将超过500万辆。本文来源：澎湃新闻作者：邢丙银责任编辑：黄哲程_B9302",
    "Source": "Netease",
    "PublishTime": "12/28/201710:17:09",
    "KeyWords": "新能源,汽车,牌照",
    "Comment": {
        "Content": "好啊！支持新能源！！！ 本来就是骗补的。<br>20多万的所谓新能源车，配置不如五六万的汽油车，你买啊？ 鼠目寸光 鸵鸟虽然在地上走，它还是鸟 充满电只能开四五十公里，全靠加油 20多万的所谓新能源车，配置不如五六万的汽油车，你买啊？<br>20多万的所谓新能源车，配置不如五六万的汽油车，你买啊？<br>20多万的所谓新能源车，配置不如五六万的汽油车，你买啊？ 新能源车放在现在就是一个伪命题，生产电池的能源从何而来，充电的电是哪来的 白底绿帽真难看[微笑] 一张贴片100元，这个钱真的好赚 基建跟上了吗，统一标准制定了吗，电能的主要来源是否清洁，电池报废后的处理怎么办?一切核心问题没有解决，强行推行，2楼才是鼠目寸光，不是说技术不好，而是很多问题没有解决就推行，有点“大岳近”，步子大了扯着蛋，最后浪费的是国家资源，污染的是环境，受伤的是用户。 我这大排量的油电混合的车都上了那个绿牌，然并卵还是烧油多！ 大势所趋 好啊！支持新能源！！！ 流星月亮地球太阳系有发动机么？没有!他们却高速在宇宙中运行!为什么？因为他们的运行轨道本身就是太空高速时空隧道!他们的运行路线一半为去路一半为来路，周而复始地运行着!地球自转公转着，本就没有东西南北上下左右等方位!谁定的？我们的天父啊!目的只有一个，告诉人类我们天父的星座方位!所以九曲桥的方向始终对着东北方!在宇宙一切物质中，永远是子体围绕母体运动，这是恒定的!所以地球自转并围绕太阳公转!因地球是自转公转的，所以根据地球的东西南北是找不到星外文明的星座方位的!只有找到太阳的上下前后东西南北才能准确地给天父星座方位定位!我们天父星座方位在太阳系东北上方第九颗恒星那里!那里以双伴恒星为中心带动周围108颗恒星运动着! 有相当大一部分人，每天用车也就四五十公里 楼上举个例来说明一下？ 一张贴片100元，这个钱真的好赚 新能源最大的优点是骗补，其他的优点是限牌的地区能弄到一个车牌。 新建了一个陕汽淮南新能源专用汽车有限公司的贴吧,如果大家有什么问题的话,可以进吧内讨论 三桶油，岂不是要失业了？ 新能源车放在现在就是一个伪命题，生产电池的能源从何而来，充电的电是哪来的 主要就是废弃蓄电池如何销毁或者再利用？这可是很大的基数。也没有哪个专家出来说说废弃蓄电池处理方法如何，对环境影响如何……不能一窝蜂地上马电能车 作为一个年老色衰的电工，我是不会去买这种新能源汽车的。 北京市机动车新号牌都是由市交管局来发放,石景山区没有发放机动车新号牌的权利. 反正在摊大饼式的大都市里全改用电动车，市中区的空气质量要好几倍 鼠目寸光 挽尊 本来就是骗补的。<br>20多万的所谓新能源车，配置不如五六万的汽油车，你买啊？ 卢浮宫里那张叫什么丽莎的纸片价值连城 充满电只能开四五十公里，全靠加油 赶快上，有一批好号码选，豹子，顺子 现在新能源车技术已经成熟了吗？ 20多万的所谓新能源车，配置不如五六万的汽油车，你买啊？<br>20多万的所谓新能源车，配置不如五六万的汽油车，你买啊？<br>20多万的所谓新能源车，配置不如五六万的汽油车，你买啊？ 白底绿帽真难看[微笑] 无所谓 基建跟上了吗，统一标准制定了吗，电能的主要来源是否清洁，电池报废后的处理怎么办?一切核心问题没有解决，强行推行，2楼才是鼠目寸光，不是说技术不好，而是很多问题没有解决就推行，有点“大岳近”，步子大了扯着蛋，最后浪费的是国家资源，污染的是环境，受伤的是用户。 充满电只能开四五十公里，全靠加油 电动四轮。 车牌将来必将又统一！这个单独车牌暂时有点象征意义，但长久来说没什么可取之处. 一楼和四楼，那所有问题都解决了，那还有什么问题，什么事都有好有不好的一面，你吃饭又拉屎，难道你不吃饭 130元。 所以就是信口开河了<br>江淮还没有300公里的纯电车，最好的车型也不过10万多，配置一般般不算太差。<br>而且江淮也不是什么代表性的新能源品牌吧。 ",
        "Total": 220,
        "Link": "http://comment.news.163.com/news2_bbs/D6O2TP6T0001899N.html",
        "Reply": 35
    },
    "Title": "全国107城启用新能源汽车专用号牌 共发放26万余副_网易新闻"
}