{
    "KeyWords": "特朗普,巴基斯坦,美国,美国总统",
    "PublishTime": "01/02/201808:09:24",
    "Comment": {
        "Link": "http://comment.news.163.com/news2_bbs/D74QES0B00018AOR.html",
        "Content": "很多东突分子也躲藏在巴基斯坦山区，所以，中国才跟巴基斯坦很好？不懂。。 快！我等着！ 打死拉登的时候，米国军人都不敢跟巴基斯坦通风，假如通风，估计像前几次那样，又白费时间了 包庇本拉登这么多年，最后还是美国特种部队偷偷摸进去毙掉的……巴基斯坦装什么装？在我们家身边支持恐怖分子，啥铁也白搭 打死拉登的时候，米国军人都不敢跟巴基斯坦通风，假如通风，估计像前几次那样，又白费时间了 巴美一直不协调，当初国际恐怖头目本拉丹一直躲在巴基斯坦境内，美国特种部队要收寻，巴基斯坦一直不允许...如今很多东突分子也躲藏在巴基斯坦山区... 特朗普的长相跟言论都一样:霸气，这叫表里如一吧 川普敢于说真话，巴基斯坦就是培养收藏恐怖分子的基地，表面合作，实质要钱。 戏子=妓女=明星当道毁国导致雾霾天灾人祸灾难不看明星不下贱不低俗ps诈骗真人丑烂臭恶毒虚荣淫贱虚伪禁止恶发菩提心放下字体. 谁不还原真相谁是小狗，用实事说话才具话语权 巴基斯坦一直都是支持恐怖份子的国家，早就不能放任它了。不过光用钱来要挟没用，你不给钱有人送的更多 一个给世界制造恐怖总统，说别人支持恐怖分子 拿人家的钱白拿了啊白眼狼 特朗普加油吧 在你们眼里，我们都是异教徒，所以巴护那些教友很正常 东突和兔子巴铁选哪个？ 快！我等着！ 挽尊 谁不还原真相谁是小狗，用实事说话才具话语权 无错误就是发菩提心放下吃素持戒慈悲平等心空不要伤害一切不要破坏大自然不要结怨不要干扰正法传递唯一免费无错误正法不结怨因果自己了不破坏大自然不破坏龙脉给鸟自由不伤害害虫不伤害吃素不用动物成分禁止恶不杀放下发菩提心无错误的传递无错误免费正法健康快乐不老好。 巴美一直不协调，当初国际恐怖头目本拉丹一直躲在巴基斯坦境内，美国特种部队要收寻，巴基斯坦一直不允许...如今很多东突分子也躲藏在巴基斯坦山区... 美国样的干儿子IS急了！ 一个给世界制造恐怖总统，说别人支持恐怖分子 打死拉登的时候，米国军人都不敢跟巴基斯坦通风，假如通风，估计像前几次那样，又白费时间了 特朗普加油吧 川普敢于说真话，巴基斯坦就是培养收藏恐怖分子的基地，表面合作，实质要钱。 很多东突分子也躲藏在巴基斯坦山区，所以，中国才跟巴基斯坦很好？不懂。。 拿人家的钱白拿了啊白眼狼 包庇本拉登这么多年，最后还是美国特种部队偷偷摸进去毙掉的……巴基斯坦装什么装？在我们家身边支持恐怖分子，啥铁也白搭 打死拉登的时候，米国军人都不敢跟巴基斯坦通风，假如通风，估计像前几次那样，又白费时间了 特朗普的长相跟言论都一样:霸气，这叫表里如一吧 戏子=妓女=明星当道毁国导致雾霾天灾人祸灾难不看明星不下贱不低俗ps诈骗真人丑烂臭恶毒虚荣淫贱虚伪禁止恶发菩提心放下字体. 哈哈，巴铁没毛病，双击666😂😂😂 谁不还原真相谁是小狗，用实事说话才具话语权 这标题真是.... 巴基斯坦一直都是支持恐怖份子的国家，早就不能放任它了。不过光用钱来要挟没用，你不给钱有人送的更多 在你们眼里，我们都是异教徒，所以巴护那些教友很正常 ",
        "Total": 494,
        "Reply": 22
    },
    "Title": "特朗普言论惹怒\"巴铁\" 巴外长:要让世界了解真相_网易新闻",
    "Article": "（原标题：特朗普言论惹怒\"巴铁\"巴外长:要让世界了解真相）美国总统特朗普海外网1月2日电1日，美国总统特朗普发推特指责美国援助巴基斯坦330多亿美元的行为十分“愚蠢”，并称巴基斯坦只回报了美国“谎言和欺骗”。此言一出立刻引发巴方的不满，巴基斯坦外交部当晚就召见美大使表示抗议，而外长阿西夫也强硬表态称，巴基斯坦要让世界了解到事实的真相，并将对特朗普的推特予以回应。据巴基斯坦地理新闻网等媒体报道，当地时间1日，美国总统特朗普发出了其2018年的第一条推文，矛头直指巴基斯坦。这条推文写道：“过去15年来，美国愚蠢地向巴基斯坦提供了超过330亿美元的援助，他们只给了我们谎言和欺骗，把我们的领导人当成笨蛋。他们给我们搜捕的阿富汗恐怖分子提供安全的天堂。他们没有什么帮助。不能再这样！”此言一出，立刻引发巴基斯坦方面的抗议。当天傍晚，巴基斯坦外交部召见了美国驻巴大使。消息人士表示，巴方就特朗普的此番言论向美大使表示抗议。据悉，为了讨论美国总统的这条推文内容，巴基斯坦总理阿巴西还召开了国家安全委员会会议。此外，针对特朗普的言论，巴基斯坦外交部长阿西夫强硬表示，巴基斯坦要让世界了解真相，并会对特朗普的推文予以回应。“事实和虚构之间是有区别的。”阿西夫这样说。据海外网早前报道，《纽约时报》12月29日报道，特朗普正在“认真考虑”是否停止向巴基斯坦提供2.55亿美元的援助。特朗普曾于2017年8月表示，将推迟向巴基斯坦提供2.55亿美元的援助。报道还称，美国驻阿富汗最高将领约翰·尼科尔森曾在2017年11月表示，虽然特朗普对巴基斯坦采取了更强硬的立场，但他并未看到巴基斯坦对极端分子采取更有力的处置措施。对此，巴基斯坦方面反驳称，巴基斯坦政府一直通过军事行动不断地将伊斯兰极端分子从其国土上赶走。自2001年以来，该国已有17000人死于伊斯兰极端分子的袭击。巴基斯坦外交部发言人也在12月30日回应称，巴基斯坦不在乎美国的资金援助。“如果美国想要掐断对我们的资金援助，我们会大声回答悉听尊便，我们不在乎，我们不需要美国的资金援助。”巴基斯坦外交部发言人费萨尔说。本文来源：海外网责任编辑：程钢_NN7377",
    "Source": "Netease",
    "URL": "http://news.163.com/18/0102/08/D74QES0B00018AOR.html"
}