{
    "Title": "一图看懂监委“询问”证人的6个步骤_网易新闻",
    "URL": "http://news.163.com/17/1225/16/D6H0V4SQ0001899N.html",
    "Source": "Netease",
    "Comment": {
        "Total": 2,
        "Reply": 2,
        "Content": "如果，如果他们能照章办事 如果，如果他们能照章办事 ",
        "Link": "http://comment.news.163.com/news2_bbs/D6H0V4SQ0001899N.html"
    },
    "Article": "（原标题：【一图看懂】监委\"询问\"，怎么询？）监委\"询问\"，怎么询？本文来源：中央纪委监察部网站作者：王婵责任编辑：李杭_BJS4645",
    "PublishTime": "12/25/201716:28:15",
    "KeyWords": "询问,证人,监察"
}