{
    "Article": "（原标题：震天撼地！统帅令出，三军开训风雷动）2018年1月4日《解放军报》3版这注定是一个载入军史的新起点：1月3日，中央军委举行2018年开训动员大会，习主席首次向全军发布开训动员训令。殷殷期许向打赢。领袖的沙场动员，统帅的强军号令，是练兵备战新的时代号角，是强军新征程上奋发前进的第一道命令。习主席和中央军委率领全军将士以新气象新作为的坚定决心，全面加强实战化训练，全面提高新时代打赢能力。一声令下风雷动。从冰天雪地的北疆边陲到烈日炎炎的南海之滨，从波浪滔天的东海海域到层峦叠嶂的雪域高原，全军官兵聆听主席训令，无不备受鼓舞、士气高涨，各部队闻令而动、遵令而行，练兵场上处处呈现出生龙活虎、热火朝天的训练景象。起步就上“快车道”，开训就训“高险难”。循着三军统帅瞩望的目光，本报记者深入6个通过视频接受习主席校阅的部队开训现场，采写了一组目击式新闻。从中，我们可以看到我军实战化训练蓬勃开展的崭新气象，感受到三军将士聚焦能打仗、打胜仗的强劲脉动。新时代，新起点。让我们在崭新的起点上，常备不懈、苦练不怠，以练兵备战、不辱使命的实际行动，向党和人民交上一份过硬答卷。陆军记者刘建伟、通讯员许地理发自陆军第78集团军某合成旅新年开训现场——铁甲卷起千堆雪隆冬的雪原，火热的沙场。1月3日上午，林海雪原深处某陌生地域，陆军第78集团军某合成旅数千名官兵、上百台装备集结列阵，犹如一道钢铁长城巍然矗立。聆听习主席开训动员讲话后，全旅官兵群情激昂。“各分队带开训练！”随着旅长李明一声令下，集结地域瞬间马达轰鸣、冰雪翻飞，官兵驾驭装备奔向各自训练场，拉开了新年度军事训练大幕。“一开训就挺进雪野真打实抗。”记者现场跟训看到，身为坦克特级驾驶员的四级军士长徐吉强驾驶头车，以锐不可当之势冲击，履带卷起一米多高的雪浪。说话间，空中又传来铁翼飞旋声。记者极目远眺，只见3架武装直升机超低空疾飞而来，掩护坦克群碾冰破雪向前疾驰。“陆军训练正在由平面作战走向立体攻防！”连续15年参加开训的徐吉强，今年尤为激动：开训当天就与某陆航部队联训，这在过去不可想象！有了空中力量的支援，徐吉强的视野大大延伸，在沟壑遍布的山林间，总能事先选择最优通道。这边联训势若雷霆，那边演练如火如荼。记者透过中军帐监控屏幕看到，在烟雾掩护下，装甲步兵连官兵向“敌”发起攻击。短短数百米冰雪路上，不断上演着冲击与反冲击、夺占与反夺占的较量。循着一阵此起彼伏的口令声，记者在野战指挥所看到，信息参谋王家海正娴熟敲击键盘，将各种战场信息输入系统，很快提出辅助决策意见。一扫屏幕上方时间显示，王参谋惊喜发现，指挥效率比之前又有提高。他感慨，这既体现了重型合成旅新编制的优势，更折射了改革对指挥模式的优化。雪疾风刀冷，难阻练兵热。望着冰天雪地中汗透衣衫的官兵，该旅领导告诉记者，陆军部队改革后，组织指挥更加高效、作战编组更加精细、武器火力更加强大，突击能力大幅提升，可要真正担负起新时代历史使命，依然山水迢迢，仍需闯关夺隘。下一步，他们将牢记统帅号令，锻造首战用我、用我必胜的陆战先锋。海军记者陈国全、通讯员廖志勇发自海军陆战队某旅新年开训现场——战舰劈开万重浪1月3日上午，南海之滨，云飞浪卷。某军港码头，战舰昂然列阵，悄然隐藏的装甲登陆战车蓄势待发……聆听习主席向全军发布的训令，经过简短动员后，参训的海军登陆舰、直升机、海军陆战队等部队官兵群情激奋，他们决心把满腔政治热情化为备战打仗的昂扬斗志。“按计划开始训练！”随着指挥员一声令下，一场实战化背景下的联合装载登陆兵力、紧急离码头、联合防空反导演练拉开了序幕。各个指挥部位的电子屏信息闪烁，作战态势瞬间形成，联合指挥决策中心的作战指令一道道快速下达。“防空兵群构建防空预警系统，实施联合空情预警，防范敌机突袭”“炮兵群运用远程火力摧毁岸滩火力点”……井冈山舰徐徐打开舱门，老铁山舰在海上游弋待机，直升机快速升空警戒，素有“海上蛟龙，陆地猛虎”之称的海军陆战队某旅的装甲车辆快速沿海机动，防空分队抢占有利阵地，陆战步兵快速向装载码头隐蔽集结……“抢修车前出抢修，炮兵分队加强火力掩护！”位于海边的两栖装甲指挥车内，弥漫着浓浓“火药味”，电脑屏幕上红灯频闪，警报不断，营长郭智钢既兴奋又紧张。合成营兵种专业多，武器装备全，加强兵种协同、力量调配、综合保障是演练的难点和重点。郭智钢密切关注着训练实时动态，紧盯实时刷新的战场信息，认真研判战场态势，及时向分队发出指令。突然，车载电脑屏幕上一片雪花。遭遇电磁干扰！两栖步兵战车车长张亚会没有片刻迟疑，立即启用备用频道。与此同时，海面上由破障车、突击车、抢修车等多型装备组成的登陆分队，依次泛水。一时间，海面上浪奔浪涌，各型战车按照战斗编组踏浪前行，快速有序地实施装载……郭智钢所在的两栖装甲指挥车最后一个驶进井冈山舰庞大的舰舱，抬手看表，24台战斗车辆完成浮渡装载用时，比以往快了近三分之一。一声汽笛，井冈山舰犁波斩浪，在空中直升机护送下，快速机动，驶向大海……空军记者李建文、通讯员黄子岳发自空军某飞行试验训练基地新年开训现场——雷霆出击啸长空1月3日，华北某机场，寒风凛冽。数十架战机一字排开，蓄势待战。上午10时许，习主席的开训动员训令通过视频直播响彻机场上空，令现场指战员的“战斗指数”迅速飙升。“带开准备！”随着空军某飞行试验训练基地司令员张伟林一声令下，一场空战对抗、对地实弹突击的基地开训演练拉开帷幕。启动、滑跑、加速……2架歼-11B战机发出怒吼直刺苍穹。紧接着，担负红蓝双方不同训练任务的4架歼-11B和2架教-10战机相继升空。随后，2架担负战术导航任务的歼-11B超低空通场飞行，而红方担负夺取制空权任务的1架歼-11B遭到蓝方1架歼-11B的空中拦截。跟踪、咬尾、锁定、摆脱……2架歼-11B展开一对一对抗空战，双方从中距打到近距，杀得难解难分。红方挂载实弹的另2架歼-11B乘势成功突防，2架挂载火箭弹的教-10也在空中掩护下突破蓝方防线。此时，蓝方指挥所、机场飞机、车队等目标隐隐暴露在了红方战机的杀伤区内。转弯、修正、跃升、俯冲，2架歼-11B战机一系列连贯动作，蓝方目标被锁定。“嗖、嗖、嗖！”十余枚火箭弹喷吐着蓝色的火焰直奔目标而去。短暂静默后，爆炸声接连响起，蓝方指挥所被炸得灰飞烟灭。2架教-10战机也迅速加入攻击航线，只见一枚枚火箭弹弹射而出，蓝方机场顿时一片火海。“只有训练敢打实弹，才能真正练就飞行员一剑封喉的本领。”塔台指挥员感慨道，“开训就打实弹，树立的是‘升空就是作战、起飞就是迎敌’的训练导向，考验的是指挥员和飞行员心理和技战术水平，有助于把空军实战化训练进一步推向深入。”起飞、起飞、又起飞；攻击、攻击、再攻击！目睹新年训练场上尚未飘散的阵阵“狼烟”，记者有理由相信，以该基地为代表的空军部队必将遵照习主席关于大抓实战化训练的指示，在新时代的强军实践中飞出崭新航迹！火箭军记者王卫东、通讯员邓东睿发自火箭军“常规导弹第一旅”新年开训现场——长剑昂首向九天资料图。南国腹地，长剑昂首。“号手就位！”随着旅长石鸿雁一声令下，火箭军“常规导弹第一旅”列队战阵迅即兵分多路，奔向各自战位。1月3日上午，在聆听习主席开训动员训令之后，作为战略导弹部队第一个“百发百中旅”，该旅官兵满怀豪情打响了新年实战化训练“第一枪”。没有锣鼓响，不见彩旗飘。不远处指挥车内，作训参谋梅旭正通过荧屏上数十个监控画面，察看各点位实时训练情况。“开训如开战！”他眼中今年开训最大的亮点，就是融入训练计划、紧贴作战流程、突出真打实备。在此起彼伏的口令声中，十余枚导弹相继竖起。去年亲手将该旅第200发导弹送上蓝天的指挥长莫徐建告诉记者，以前同时下口令让导弹整齐划一起竖的“假把式”，早已被赶出了训练场。贴实战布阵，设危局练兵。记者来到导弹交接转载现场，但见模拟实战化环境装置生成的“大雨”、不期而来的各种特情，使号手们置身“枪林弹雨”。战罢车离，督战的发射四营营长陈雷相掐表一看，转载时间比上一次再次缩短——转载时间越短，意味着连续火力突击“空档”越少。大山无言，弹道有痕。记者了解到，近年来该旅围绕“随时能战、准时发射、有效毁伤”的核心能力要求，实现了从单纯实弹发射到复杂困难条件下战斗发射、从抽组骨干发射到随机抽点发射、从“点火”发射到集群控制发射的跃升，快速反击、战略打击能力有效提高。长剑昂首向九天，凝神苦练任风寒。时近正午，官兵训练热情丝毫未减。有过多次参加开训经历的该旅二级军士长王光庭，还沉浸在三军统帅亲自发布开训训令的激动中，带领发射单元号手一次次重来。新时代，新征程。观一招一式，闻一号一令，穿行在如火如荼的训练场，记者不禁被官兵对实现强军目标的憧憬与自信所感染：在习近平强军思想指引下，“常规导弹第一旅”必将在全面建成世界一流战略军种进程中写下更多“第一”，在九天之上划出更加壮美的强军弹道。战略支援部队记者邹维荣、通讯员王玉磊发自战略支援部队某基地新年开训现场——无形战场砺锋芒资料图。“我是中国人民解放军军人，我宣誓……”1月3日上午，战略支援部队某基地360余名官兵代表精神抖擞地列队看齐，在鲜红的军旗面前庄严宣誓，拉开新年度军事训练的序幕。“×××重大任务实战化训练开始！”10时21分，随着基地指挥员一声令下，官兵们迅速奔向各自战位。该基地作为承担实战任务的新质作战力量，执行高密度重大任务已成常态。指挥所内，键盘声声，荧屏闪烁，各种数据、画面不停地刷新着，官兵们目光专注。记者置身其中，仿佛进入了一场无形的“战场”厮杀。基地邓参谋长向记者介绍说：“实战化训练和实战任务高度一致，是战略支援部队训练的一大特点。”桌面任务计划书显示，此项重大任务已经进入倒计时，每天30余项任务流程精确到秒。“雷达发现目标”“角度跟踪正常”……某综合机房内传来了岗位操作手沙广源清脆明亮的声音。他说，今天是阴雨天，正是锤炼岗位操作手在复杂天气条件下完成任务能力的好机会。忽然，一阵急促的铃声响起。“报告，某新型设备出现高压故障！”电话那头传来岗位操作手董苏皖焦急的声音。“启动掉高压应急预案，处置情况及时报告！”吴高杨工程师没有片刻犹疑，迅即下达命令。经过苦战，故障最终定位在某一路高压电源组合，更换备份组合后，设备终于工作正常。进了实验室就是上战场。连续执行重大任务的系统工程师盛午刚介绍，为提升岗位人员应急处置能力，演训任务专门增加故障演练环节，旨在考验各个系统应对最恶劣、最极端突发情况的能力。实案实训，实装操作，实时完成，分秒不差。观战一天，走出任务训练场，该部领导的一句话让记者心潮澎湃：“作为习主席亲自决策缔造的一支新型作战力量，只有在训练中坚持‘标准高于实战、要求严于实战’，早一天形成实战能力，才会在应对现实威胁上多一分主动……”武警部队记者赵波、特约记者武炎龙发自武警北京总队新年开训现场——一路敌情练打仗天寒地冻北风啸，厉兵秣马正当时。1月3日上午10时，武警北京总队训练基地，首长机关射击训练方阵、冬季野营大拉练方阵、特战魔鬼周极限训练方阵、应急保障训练方阵等8个方阵数千名官兵以及由综合指挥车、装甲车、运兵车、运输车等组成的装备方阵，群情激昂，聆听习主席开训动员训令。就在2天前，1月1日零时起，中国人民武装警察部队由党中央、中央军委集中统一领导。新时代新使命。聆听习主席开训动员，武警部队官兵练兵备战的意志空前凝聚，谋战思训的热情高涨。立身为旗，行胜于言。武警部队党委常委带领北京总队首长机关人员打响了新年实战化训练的“第一枪”。命令下达，首长机关方阵冲向射击点：卧倒、装弹、上膛、瞄准、击发，动作迅速利落、一气呵成……言武备者，练为最要。训练场上，该总队机动支队、执勤支队和总队后勤“一组五队”官兵们开展各种着眼实战的特战基础、专业和小组协同等训练，有的部队直接向山区拉动开展野营拉练。无独有偶，他们几乎都是新调整组建的单位，面对高强度、高难度的训练课目，官兵们始终斗志昂扬，倾情投入。快一分是胜，慢一分是败。机动支队的特战大队将开展为期7天的“魔鬼周”极限训练。面对开进路上“恐怖分子”接连袭扰，官兵们快速应对、见招拆招。在执勤第九支队勤务反袭击、武装巡逻实兵对抗训练场，指挥员迅速通过屏幕收集信息，在最短时间下达战斗命令。记者看到，“不法分子”手段极端，执勤哨兵挺身迎击；“肇事车辆”疯狂冲闯，处置力量迎面拦截。激烈的对抗此起彼伏，爆震弹不时响起，硝烟战尘始终弥漫……一场战斗结束，下一场战斗的号令响起：某地发生劫持“人质”事件，指挥部命令特战分队火速增援。已连续训练多时的特战队员们如闪电一般出击……看着他们远去的身影，记者感触颇深：反恐处突战场就需要这样一群有血性的兵！本文来源：解放军报责任编辑：邵小波_NN2479",
    "URL": "http://news.163.com/18/0104/09/D79VNC5N0001875N.html",
    "KeyWords": "空军,海军陆战队,实弹,指挥官",
    "PublishTime": "01/04/201809:07:33",
    "Title": "统帅令出后三军开训就训 空军对抗对地实弹突击_网易新闻",
    "Comment": {
        "Content": "",
        "Link": "http://comment.news.163.com/news_guonei8_bbs/D79VNC5N0001875N.html",
        "Total": 6,
        "Reply": 0
    },
    "Source": "Netease"
}