{
    "Article": "狐界与猫界的会面刘亦菲暖阳下慵懒撸猫近日，刘亦菲曝光了一组宠物主题的写真大片。照片中，刘亦菲一改天仙攻、高冷画风，身穿简单舒适的白色T恤和衬衫，在暖阳下和自家领养的猫咪们或趴在地毯或侧卧在懒人沙发上互动，配上蓬松卷发，气质慵懒暖心，宛若邻家少女；而其干净明亮的眼神及温暖浅笑，让人即使身处寒冬，亦感受到暖意。",
    "Source": "Netease",
    "KeyWords": ",刘亦菲,",
    "Title": "狐界与猫界的会面 刘亦菲暖阳下慵懒撸猫_网易娱乐",
    "Comment": {
        "Total": 150,
        "Content": "很漂亮 挺漂亮的 她不介意土猫也确实是真心爱猫人士。 刘亦菲也是网易💎VIP 嗯。。养了30多只啊。。。 好看 最近应该冲了不少钱！ 赞，弘扬中国文化，增强中国文化自觉性，从关爱中华田园猫和中华田园犬开始。BTW，我家收养3只猫咪和两只狗狗，都很聪明。山东临清狮子猫咪和小胖橘。 那只黑猫哪是土猫那可是御猫🐱 她不介意土猫也确实是真心爱猫人士。 丑比 好好 很漂亮 [被黑] 最近应该冲了不少钱！ 挺漂亮的 刘亦菲啊切实很诱人啊！！！ 有冲动?好奇怪? 不要整天上头条秀自己，生米煮成熟饭接受事实都一把年纪岁数大的女人，有本事儿赶紧让你男朋友宋承宪他迎娶进门啊，回家生小孩儿去哇！刘亦菲哈哈 好看 万年不变的造型，演技也就一般 可爱的猫 刘亦菲也是网易💎VIP 嗯。。养了30多只啊。。。 [被黑] 结婚结婚早点让你男朋友宋承宪他迎娶进门吧，早日步入婚姻殿堂呗！刘亦菲哈哈 赞，弘扬中国文化，增强中国文化自觉性，从关爱中华田园猫和中华田园犬开始。BTW，我家收养3只猫咪和两只狗狗，都很聪明。山东临清狮子猫咪和小胖橘。 ",
        "Reply": 19,
        "Link": "http://comment.ent.163.com/ent2_bbs/PHOTJNM1000300AJ.html"
    },
    "PublishTime": "12/28/201708:31:20",
    "URL": "http://ent.163.com/photoview/00AJ0003/646849.html"
}