{
    "Article": "（原标题：韩国首尔市长：日韩慰安妇问题重新交涉不可避免）中新网1月4日电据外媒报道，韩国首尔市市长朴元淳表示，日韩有关慰安妇问题的重新交涉不可避免。据报道，韩国去年12月27日公布了有关慰安妇问题的日韩共识检证结果报告，该报告指出，对日有关慰安妇问题的谈判由前总统朴槿惠身边人士主导，核心部分自始至终秘密推进。驻韩日本大使馆前的慰安妇少女铜像。报告还透露，日韩共识存在韩国政府对原慰安妇支援团体进行说服等“非公开部分”。对此，朴元淳对日韩共识进行了批判，朴元淳指出：“虽然是政府之间已经达成的协议，重新交涉不容易，但是不能表达国民想法的协议，怎么能承认呢？”朴元淳认为，2015年日韩达成的慰安妇问题共识不完善，强调“需要国民能够接受的新共识”。韩国总统文在寅向政府下达指示，要求提出新的对策。总统府高官在去年年底就新方针表示，有必要倾听受害者们的意见，预计或在明年1月上旬决定。日本外相河野太郎去年12月19日在东京都内的饭仓公馆与韩国外长康京和举行会谈，要求韩方切实履行确认慰安妇问题最终解决的2015年日韩共识。本文来源：中国新闻网责任编辑：王征_NN7526",
    "URL": "http://news.163.com/18/0104/08/D79V7UIR00018AOQ.html",
    "KeyWords": "慰安妇,韩国,朴槿惠",
    "PublishTime": "01/04/201808:45:00",
    "Title": "韩国首尔市长：日韩慰安妇问题重新交涉不可避免_网易新闻",
    "Comment": {
        "Content": "",
        "Link": "http://comment.news.163.com/news2_bbs/D79V7UIR00018AOQ.html",
        "Total": 0,
        "Reply": 0
    },
    "Source": "Netease"
}