{
    "PublishTime": "12/30/201708:57:00",
    "Source": "Netease",
    "Comment": {
        "Content": "中国共产党是团结一切爱国力量的 祝福卢教授。我爱祖国，也爱台湾。 都知道共产党好了哈哈哈哈。。。。。 都是中国人要和平相处不要战争！ 能文统最好，不能放弃武统。 卢丽安是最美中国人 台湾同胞的先行者，身在大陆，安居乐业，现在站出来说实话，对争取和平统一祖国贡献大! 目光长远 共同富裕 早日统一台湾 姐，我今天特地回来登录后顶你的。 继续努力！ 祖國經濟發展這麼好，令台灣民眾羨慕啊！ 加油。 入党好 多多益善！ 聪明人 点赞。伟大的党！！！ 这是好苗头！不用武力，和平统一！ 爱台湾，更爱祖国 支持祖国统一 欢迎台湾同胞！ 盼台湾早已回到祖国怀抱！ 这女人不错，务实 为卢教授点赞 厉害 两岸一家亲 卢教授光宗耀祖 藏不住的好^_^ 实力已经发生根本性的变化，台湾唯一的出路就是和平谈判统一！ 欢迎加入 中国共产党是团结一切爱国力量的 祝福卢教授。我爱祖国，也爱台湾。 都知道共产党好了哈哈哈哈。。。。。 都是中国人要和平相处不要战争！ 支持。 能文统最好，不能放弃武统。 卢丽安是最美中国人 台湾同胞的先行者，身在大陆，安居乐业，现在站出来说实话，对争取和平统一祖国贡献大! 目光长远 共同富裕 早日统一台湾 欢迎加入 祖國經濟發展這麼好，令台灣民眾羨慕啊！ 加油。 入党好 赞赞 多多益善！ 聪明人 点赞。伟大的党！！！ 继续努力！ 这是好苗头！不用武力，和平统一！ 爱台湾，更爱祖国 支持祖国统一 欢迎台湾同胞！ 盼台湾早已回到祖国怀抱！ 这女人不错，务实 为卢教授点赞 厉害 两岸一家亲 卢教授光宗耀祖 藏不住的好^_^ 实力已经发生根本性的变化，台湾唯一的出路就是和平谈判统一！ 姐，我今天特地回来登录后顶你的。 ",
        "Link": "http://comment.news.163.com/news2_bbs/D6T3MO92000187VE.html",
        "Total": 2189,
        "Reply": 33
    },
    "Article": "（原标题：卢丽安：在大陆读书的台湾学生要多读历史，看大陆的实际成就）眼前的卢丽安淡定、从容、自信。在今年10月的中共十九大期间，她因为在“党代表通道”上的一番话而迅速成为海峡两岸的“网红”。卢丽安资料图在十九大开幕当天的“党代表通道”上，这位从台湾南部小镇走出来的中共党代表面对媒体说：“我以身为台湾的女儿为荣，我以身为中国人为傲！”她还用普通话和闽南方言说出“爱台湾，也爱祖国大陆”。一时间，卢丽安在台湾成长、先后在英国爱丁堡大学和格拉斯哥大学获得硕士、博士学位，与夫婿定居上海并在复旦大学任教以及成为中共十九大党代表的经历被人们广泛讨论，一些在大陆学校就读的台湾博士生还表达了加入中共的意愿。接受中新社记者采访时，卢丽安讲起接到过的一通电话：“对方说是从台湾打过来的，说他要加入中国共产党。”卢丽安向他简要介绍了加入中共的基本程序，“他很惊讶，他以为加入中国共产党跟在台湾加入党派一样，就是到服务处填个表，顶多交个钱就好了。”卢丽安鼓励这位身在台湾的同胞先了解中国共产党的党史、党章，十八大、十九大以来的重要工作报告以及相关的基础理论知识。卢丽安表示，她“充分肯定了他的想法，肯定他重新认识中国共产党和大陆的发展”，但不容否认的是，他要实现自己的“理想”会面临一定的困难。十九大闭幕后回到上海，卢丽安一直在研读十九大报告，对于其中800余字的对台方针，卢丽安“印象十分深刻”，她说：“在民族复兴这条道路上，台湾民众一直都有在场感、分享感和参与感。”作为上海市台湾同胞联谊会会长，推动对台交流是卢丽安的重要工作。消弭两岸间的“他者”意识、凝聚厚植“我们”的情感联结，也是她最为关切的课题。卢丽安呼吁在大陆读书的台湾学生多读历史，多看看大陆所取得的实际成就，“两岸一家亲，共圆中国梦不只是口号，而是可以落实到生活，落实到个人生命发展中的一种目标理想，并且两岸都能于此受益”。卢丽安说：“两岸的关系目前有点胶着，我希望两岸关系能早日回到良性互动的轨道上。青年人的未来不能虚耗下去，台湾乡亲的未来也不能再耗在这些没有意义的折腾里。”本文来源：中国新闻网责任编辑：张宪超_NN9310",
    "URL": "http://news.163.com/17/1230/09/D6T3MO92000187VE.html",
    "Title": "卢丽安:有人从台湾打电话给我要加入中国共产党  _网易新闻",
    "KeyWords": "卢丽安,台湾,联谊会,十九大"
}