{
    "Comment": {
        "Content": "赶紧跑 去第三世界建摩天大楼，不是洗钱吧？ 傻大送钱送上瘾了...恶性循环 跑路吧😄 赶紧跑 去第三世界建摩天大楼，不是洗钱吧？ 傻大送钱送上瘾了...恶性循环 跑路吧😄 ",
        "Link": "http://comment.news.163.com/news2_bbs/D77THAL5000187V9.html",
        "Reply": 4,
        "Total": 77
    },
    "KeyWords": "科伦坡,斯里兰卡,港口,增建",
    "PublishTime": "01/03/201813:35:00",
    "Title": "外媒：中企将投资10亿美元 在科伦坡增建三座高楼_网易新闻",
    "Source": "Netease",
    "Article": "（原标题：外媒：中企将投资10亿美元，要在科伦坡增建三座高楼）【环球网综合报道】综合英国路透社与《印度时报》报道，斯里兰卡一名政府官员2日表示，由中国港湾工程有限公司领头的一个财团将投资10亿美元，在斯里兰卡首都科伦坡通过填海形成的土地上打造三座60层楼高的办公楼。斯地区发展官员钱皮卡?拉纳瓦卡当天陪同总理维克勒马辛哈检验“港口城”开发进度时，对媒体记者透露了上述消息。他说：“这将是新的金融城市的一部分。投资额度将是10亿美元，我们预计本月在北京会签署合同。”他还表示，这三座60层高的楼房将能够吸引更多外国公司来到斯里兰卡。据报道，此次投资是科伦坡“港口城”开发活动的一部分。“港口城”项目在2016年开工，是由中国海湾工程有限公司的母公司中国交通建设股份有限公司投资14亿美元，通过填海造地的方式开发的。斯里兰卡目前正计划通过有税收刺激政策的立法，为港口城项目吸引投资。斯里兰卡总理维克勒马辛哈2日访问时表示，该国将很快立法把这里打造成“像欧洲和新加坡一样的金融中心”。中国交通建设股份有限公司之前曾表示，该项目将创造8.3万个就业岗位，帮助斯里兰卡吸引130亿美元的直接投资。本文来源：环球时报-环球网。更多精彩，请登录环球网http://www.huanqiu.com责任编辑：邵小波_NN2479",
    "URL": "http://news.163.com/18/0103/13/D77THAL5000187V9.html"
}