{
    "URL": "http://ent.163.com/17/1227/09/D6LEE2OO00038FO9.html",
    "Comment": {
        "Total": 170,
        "Reply": 30,
        "Link": "http://comment.ent.163.com/ent2_bbs/D6LEE2OO00038FO9.html",
        "Content": "男朋友挺帅啊 喜欢娄艺潇 恩恩爱爱 去趟跑男吧，什么都不用干，骂陈赫就行。 有情人终成眷属，祝:娄艺潇和李川他你们二个人永远幸福快乐，恩恩爱爱，白头偕老，好好在一起一辈子，好好珍惜彼此，一生难得找到真爱，总之恭喜恭喜祝福！哈哈 不要整天上头条秀自己，有本事儿赶紧迎娶你女友娄艺潇她进门啊，回家生小孩儿去哇！李川哈哈 结婚结婚早点迎娶你女友娄艺潇她进门吧，早日步入婚姻殿堂呗！李川哈哈 眉毛画的好假 李川挺帅就是不红 挺配的 羡煞旁人呀 越来越美了啊 好女人，会幸福的 彪悍的人生不需要解释[狗] 男友好帅~ 爱情公寓里的女的都变了，以前胡一菲表情多灵动，现在僵成啥了 可以的皓哥 挺配的 秀..死.. 呀挺帅呀 娄艺潇性格不错 哭唧唧 不要整天上头条秀自己，有本事儿赶紧迎娶你女友娄艺潇她进门啊，回家生小孩儿去哇！李川哈哈 漏点了吗？[大笑][大笑] 李川挺帅就是不红 眉毛画的好假 羡煞旁人呀 越来越美了啊 好女人，会幸福的 有情人终成眷属 净白师太 美美美 喜欢娄艺潇 美美美 长的很帅 恩恩爱爱 去趟跑男吧，什么都不用干，骂陈赫就行。 有情人终成眷属，祝:娄艺潇和李川他你们二个人永远幸福快乐，恩恩爱爱，白头偕老，好好在一起一辈子，好好珍惜彼此，一生难得找到真爱，总之恭喜恭喜祝福！哈哈 我的小菲菲😡 男的还挺帅的，长得小哎 挺配的 结婚结婚早点迎娶你女友娄艺潇她进门吧，早日步入婚姻殿堂呗！李川哈哈 男朋友挺帅啊 彪悍的人生不需要解释[狗] "
    },
    "Article": "娄艺潇李川截图网易娱乐12月27日报道12月27日是演员娄艺潇的生日。凌晨零点，娄艺潇男友李川便在微博上准时送出了第一份祝福：“生日快乐。”并配了个心的表情，细心又温柔。粉丝们也纷纷跟随偶像的脚步送上了自己的祝福，如：“祝人美声甜的潇姐生日快乐！！”“那就祝小姐姐生日快乐啦！”本文来源：网易娱乐责任编辑：李彤_NK4455",
    "KeyWords": "娄艺潇,李川,演员",
    "Source": "Netease",
    "Title": "娄艺潇生日男友李川零点送祝福 恩恩爱爱羡煞旁人_网易娱乐",
    "PublishTime": "12/27/201709:40:34"
}