{
    "Title": "富翁私人飞机被吹出跑道撞进办公楼 机头嵌进墙内_网易新闻",
    "URL": "http://news.163.com/17/1228/20/D6P5LU6R0001875O.html",
    "Source": "Netease",
    "Article": "（原标题：风太大！私人飞机被吹出跑道撞进机场附近办公楼机头完全嵌进大墙）据英国《每日邮报》12月28日报道，英国亿万富翁阿什克罗夫特勋爵的一架私人飞机，日前在马耳他国际机场被狂风吹出跑道。飞机随后冲破机场围栏，一头撞进附近一座办公楼的大墙里。所幸飞机上当时没有人。这架私人飞机是法国生产的达索猎鹰7X飞机，据说是以阿什克罗夫特勋爵的名义在百慕大注册的。事发后，有网友在推特上向阿什克罗夫特勋爵求证飞机是否是他拥有的。阿什克罗夫特勋爵在推特上回答说，不是的。不过，这条推特随后被删除。目前，这位亿万富翁还没有对这起事故发表正式声明。现年71岁的阿什克罗夫特勋爵曾担任过英国保守党前副主席，其个人资产估计在10.32亿英镑，是保守党最知名的捐赠者之一。当晚，马耳他军方派出军队前往现场施救，被撞大楼附近的道路临时被封闭。初步调查认为，飞机是因狂风将轮挡吹走后，飞机滑行中正好遇到一个坡面，之后撞进大楼。这座大楼是马耳他一家建筑公司的办公楼。公司方面称，大楼没有在这次事故中遭到严重损坏，但飞机受损严重。本文来源：看看新闻Knews责任编辑：赵亚萍_NN9005",
    "PublishTime": "12/28/201720:24:32",
    "Comment": {
        "Total": 155,
        "Content": "海南航空是国有的还是私有的？ 没拉手刹，司机全责 飞机:刮风的时候为什么不考虑老子的感受 是以国有的名义私有。 飞机:我只想找个洞插插~~ 插的好深 10亿英镑在我们这也就个要饭的！玩什么破飞机！ 扎楼了 百慕大影响 意外事故 有意思。 [窃笑] 又特么得找个师傅做钣金了 这就是我不买私人飞机的理由 外国企业 插的好深 跑道区大门被砸是由于天气原因航班延误,一些旅客情绪激动所为,与昨晚的飞机迫降无关. 飞机:我只想找个洞插插~~ 航空公司会有完全私营的吗？在这里可能吗？ 海南航空是国有的还是私有的？ 没拉手刹，司机全责 里面的东西飞出去...从物理学角度来看流速快压强小..由于机外空气流速快于机内..此时内压大于外压..所以向外飞... 飞机:刮风的时候为什么不考虑老子的感受 得瑟得瑟。 是以国有的名义私有。 太尴尬了。 停车的时候不锁上了吗？ 10亿英镑在我们这也就个要饭的！玩什么破飞机！ 扎楼了 ",
        "Reply": 21,
        "Link": "http://comment.news.163.com/news_guoji2_bbs/D6P5LU6R0001875O.html"
    },
    "KeyWords": "私人飞机,英国,办公楼,富翁"
}