{
    "Source": "Netease",
    "KeyWords": "桃江县,清代,湖南,咸丰",
    "Title": "湖南桃江县发现清代一品夫人墓 保存状况完好_网易新闻",
    "PublishTime": "12/25/201713:23:00",
    "URL": "http://news.163.com/17/1225/13/D6GMU96500018AOQ.html",
    "Article": "（原标题：湖南桃江县发现清代一品夫人墓保存状况完好(图)）古墓现场符博摄中新网益阳12月25日电(刘鹏符博)日前，湖南益阳市桃江县文物管理所在文物调查中，发现一座保存完好的清代墓葬，墓主是清代湘军将领丁义方的母亲——一品夫人黄老夫人。古墓现场符博摄此次发现的墓葬位于浮邱山乡人行山村鸣石滩，占地面积272平方米，墓前神道两侧有保存完好的石象生(指墓葬神道两侧的石人、石兽)六个、华表一对。黄老夫人墓是桃江县境内目前发现的唯一一座保存完好的一品夫人墓，对研究清代的等级制度与丧葬礼制等有着很大的意义。古墓现场符博摄丁义方，字燕山，桃江县人，生于1820年。清咸丰年间，投军入曾国藩创立的湘军，因在一次军队哗变中，仗剑击退叛军，搭救了曾国藩而深得器重。不久后，他到水师营担任千总，咸丰六年率水师随彭玉麟进占石钟山，在战役中夺取敌军战船，占领湖口，攻取小姑山，立功升官，统领内湖水师。咸丰七年后，他与太平军大小数十次战斗，同治二年(1863)皇帝赐号壮勇巴图鲁(满语，勇士的最高称号)，同治七年(1868)任湖口总兵(正二品)，光绪十九年(1893)病逝于军中。本文来源：中国新闻网责任编辑：邵小波_NN2479",
    "Comment": {
        "Content": "对于没有太大文化价值的东西研究个差不多就可以了，没必要重复研究，太浪费资源了，多关注活人，少关注点死人。 正部级享受副国级待遇。 这下毛都没了 儿子是正二品，为什么老娘是一品？ 对内无敌，对外软蛋 又一座祖坟不保 追封，应该是 又准备挖别人祖坟了。悲哀！ 抢救性保护 后人还在吗？祖坟被挖了 完了，又要保不住了! 没多久年代啊，这都不放过？ 湘军无敌 又要挖人祖坟了吗 对于没有太大文化价值的东西研究个差不多就可以了，没必要重复研究，太浪费资源了，多关注活人，少关注点死人。 正部级享受副国级待遇。 这下毛都没了 儿子是正二品，为什么老娘是一品？ 汉奸奴才的墓，扒掉 对内无敌，对外软蛋 挖了 又一座祖坟不保 追封，应该是 保存的不错嘛 抢救性保护 后人还在吗？祖坟被挖了 完了，又要保不住了! 开挖 又准备挖别人祖坟了。悲哀！ 没多久年代啊，这都不放过？ 湘军无敌 又要挖人祖坟了吗 ",
        "Reply": 18,
        "Link": "http://comment.news.163.com/news2_bbs/D6GMU96500018AOQ.html",
        "Total": 191
    }
}