{
    "Source": "Netease",
    "PublishTime": "12/26/201708:36:42",
    "KeyWords": "学区房,二手房,二手房市场,房价",
    "Title": "北京三环已现单价低于6万学区房 超8成二手房降价_网易新闻",
    "Comment": {
        "Link": "http://comment.news.163.com/news_guonei8_bbs/D6IOCDFP0001875N.html",
        "Total": 2082,
        "Content": "不可能·北平至少能涨到1000万一平方英尺·才能对得起“首陪”二字😂 我对我老婆说:我要在北京买两套四合院，种种花养养鸟多惬意.......忽觉脸上一热，耳畔传来老婆那温柔的大骂声.....还睡觉？快去搬砖去........... 那套报价6万的，你尽管去买，买的到算我输 普通老百姓在北京能买的起房吗？ 快點實施空置税 有希望了 为什么那么便宜 哈哈，楼上把二楼扇得晕头转向了吧 你们东北的土鳖到哪都是被人讨厌的货，小偷小摸投机取巧，你们永远买不起 花几百万去北京吸霾，这钱不是风刮来的就是给拆迁户专门印的 二环广华轩就7万左右 这是不是要可喜可贺下？ 跟贴被火星网友带走啦~ 别说了，我们接盘还不行吗[微笑] 如果16万买的，不叫爹吗，傻逼 跟贴被火星网友带走啦~ 你孩子在起跑线时，人家孩子都到终点了，还自欺欺人的去挤买学区房，是钱太多了吧。 今天纪念那些在各次运动中死去的人们[蜡烛][蜡烛][蜡烛] 你有病吧？我家也是山东青岛的！只不过在牡丹江工作！那地方得罪你了？每个地方有好人坏人！你这样评论东北人合适吗！？就象青岛天价大虾一样！年轻人好好想一想吧！ 输一oppo? 那套报价6万的，你尽管去买，买的到算我输 北京共有产权房都4万5了，房价还能降吗？ 这是跟双十一学到的新技能，先提价再打折，以便搞促销。还是马老板的锅呀 感谢特朗普。 那是一部分先富起来的人玩的游戏，用来刺激穷人神经的…… 2套四合院，才4亿多。 当初哪些脑梗的说一线城市不会跌的，尤其是市中心更有升值空间的？ 现在中介卖房比开发商都贵，即便降也是持平偏高。 南二环，本来就便宜啊。你怎么不说说北二环啊？蒙人家外地网友 骗人的，我们家附近的中介机构一点也没有降 实际情况是什么样的？有人知道么？ 能买得起16万的，跌2万算个毛？再说了以后不会涨回来？ 以后必须翻倍涨 先乘3，再乘0.8，相当于依然翻到2.4倍。简直是大降促销！ 北三环学区房确定六万？总价900万？真的话我立马卖房子去买 房价暴涨，民怨沸腾！应学徳国，让房价几十年稳定，收入增长远高于房价增长。放弃土地财政，才能让社会真正稳定，人民安居乐业。本不应该让抄房得利，不劳坐享巨额社会财富。安得广厦千万间，大庇天下寒士尽欢颜！ 你那房100万不到，那什么凑900万，拿命？ 香港中环30万每平，房山的房价也要30万每平才合理！加油＾０＾~！ 5万涨到16万，回调到14万，你叫爹？ 呵呵，北三环，出了东城西城，就不是什么好学区了。本来也就七八万，他这个150平米的大户型，单价低一些正常。别危言耸听了。一堆不了解行情的人跟着瞎欢呼 一线风险是最大的因为总价高套现欲望强烈小城市一套房50万跌了也没人卖， 说到点子上了，勒紧裤腰带提着脑袋买了套学区房，以为孩子赢了，可人家卖学区房的带着孩子移民了。 有没有听过媒体一直强调一个词语:涨幅回落！知道啥意思不？就是去年涨了2万，今年涨了1.5万，我朋友他们一直研究房价的,直接告诉我，等房价降下来无异于痴人说梦，售价和租金都会继续上涨，你能做的要么赶快买下来，要么埋头挣钱 关键是买了入不了户，买房能入户，后面再加个0 不能让你买 房子价格是料工费税组成的。 加我，送你5000 对于15、16万买房的人来说，这算涨了？ 还买啥，供出来一辈子能赚到这么多钱不？ 你不就在青岛嘛，你有什么资格讨论一线房价。有句话叫皇帝不急 输一oppo? 2套四合院，才4亿多。 还在后面 你别在我的回帖里面说啊 傻逼，青岛的房子去年到今年涨了一倍吧，现在跌了吗 我对我老婆说:我要在北京买两套四合院，种种花养养鸟多惬意.......忽觉脸上一热，耳畔传来老婆那温柔的大骂声.....还睡觉？快去搬砖去........... 让一个城市的教育资源均衡发展，让学区房这种现象无处炒作，这样才能让房价回归理性。 你们东北的土鳖到哪都是被人讨厌的货，小偷小摸投机取巧，你们永远买不起 花几百万去北京吸霾，这钱不是风刮来的就是给拆迁户专门印的 青岛人有钱我们都是没钱的 皇城根下都是非富即贵，皇亲国戚，八旗子弟，你个屁民回家住草棚子吧[大笑] 好消息 买不起，现在北京能买的起的要不把旧的卖了添钱买新的，要不家里特有钱，要不买套小户型总价低先有个落脚地 别说了，我们接盘还不行吗[微笑] 涨一波停一波能套几波是几波 涨一波停一波能套几波是几波 你有病吧？我家也是山东青岛的！只不过在牡丹江工作！那地方得罪你了？每个地方有好人坏人！你这样评论东北人合适吗！？就象青岛天价大虾一样！年轻人好好想一想吧！ 普通老百姓在北京能买的起房吗？ 那套报价6万的，你尽管去买，买的到算我输 能买到，只是先：替交300万解抵押，然后不满2，不唯一，20％税，最后是小产权 这是不是要可喜可贺下？ 这是跟双十一学到的新技能，先提价再打折，以便搞促销。还是马老板的锅呀 北京共有产权房都4万5了，房价还能降吗？ 北三环，6万？呵呵 没人跳楼，砸售楼处都不叫跌 还他妈的离婚了不然也费劲要多花20多万 没砸售楼部，没排队跳楼，说明价格还可以。 这不扯淡嘛 屌丝果然是没文化没脑子，随便个小手段就能忽悠。房价为什么跌？因为利率涨了，以前买一套房单价15万，贷款利息10万，现在买一套房单价10万，贷款利息20万，你特么告诉我这叫跌了？别谈全款，全国能全款买房的不到万分之一，绝大部分人都是祖孙三代或双方父母子女三个家庭只能凑个首付款。 你这数学没学好啊 市中心就是交通堵塞的梗，看了都怕 当初哪些脑梗的说一线城市不会跌的，尤其是市中心更有升值空间的？ 那套报价6万的，你尽管去买，买的到算我输 青岛大虾事件把你扯进去！你乐意吗？ 北京房价逆天。跌了也买不起。 真学区还是抗跌。金融街学区降完价还是16万，高不可攀 最看不起你的就这种装逼货，还高杠杆，老子买房的时候，估计你还是液体呢。 毛毛雨耶[鄙视][鄙视][鄙视] 开什么玩笑，怎么能让普通老百姓在帝都买的起房！ 先乘3，再乘0.8，相当于依然翻到2.4倍。简直是大降促销！ 屌丝果然是没文化没脑子，随便个小手段就能忽悠。房价为什么跌？因为利率涨了，以前买一套房单价15万，贷款利息10万，现在买一套房单价10万，贷款利息20万，你特么告诉我这叫跌了？别谈全款，全国能全款买房的不到万分之一，绝大部分人都是祖孙三代或双方父母子女三个家庭只能凑个首付款。 买学区房前先看看你家孩子是不是这块料 那套报价6万的，你尽管去买，买的到算我输 房价波动是正常现象，你这么激动一定是用了高杠杆，等着跳楼吧，希望明年这个时候还能出现在我跟帖里！ 5万涨到16万，回调到14万，你叫爹？ 限购后天津本地没有那么强的购买需求。武清更是全都是北京的过去炒起来的。 涨一波停一波能套几波是几波 二环广华轩就7万左右 今天纪念那些在各次运动中死去的人们[蜡烛][蜡烛][蜡烛] 有没有听过媒体一直强调一个词语:涨幅回落！知道啥意思不？就是去年涨了2万，今年涨了1.5万，我朋友他们一直研究房价的,直接告诉我，等房价降下来无异于痴人说梦，售价和租金都会继续上涨，你能做的要么赶快买下来，要么埋头挣钱 好便宜哦，买到就是赚到 屌丝果然是没文化没脑子，随便个小手段就能忽悠。房价为什么跌？因为利率涨了，以前买一套房单价15万，贷款利息10万，现在买一套房单价10万，贷款利息20万，你特么告诉我这叫跌了？别谈全款，全国能全款买房的不到万分之一，绝大部分人都是祖孙三代或双方父母子女三个家庭只能凑个首付款。 北二环，你说的东直门？国子监雍和宫？安定门地坛公园？鼓楼大街？后海？什刹海？德胜门积水潭？还是西直门？7万？你呀不说去故宫买房子呢！南二环的确很远，都到北京南站了，在天坛公园南边，不过7万的房价我猜也是极个别，个人觉着不可能，南四环都已经过了8万了，均价早就过了7万了，普遍10万以上,二环基本都在12万以上 3楼脑子进水了，移民了还回来吃屎啊 输一oppo? 快點實施空置税 应该放开!既然是市场经济.就该市场说了算.为什么人为控制市场 低于六万很骄傲似的 苦了你了 一楼有北京的购房资格？ 那些地理位置垃圾泡沫炒的又凶的楼盘可就按耐不住了，继续忽悠最后一棒。现在东直门、朝阳门都有六七万的楼盘了，还不是一个两个 油价是不是也这个路数？ 买房干嘛啊？做好××梦要什么房子？ 呵呵，北三环，出了东城西城，就不是什么好学区了。本来也就七八万，他这个150平米的大户型，单价低一些正常。别危言耸听了。一堆不了解行情的人跟着瞎欢呼 当初哪些脑梗的说一线城市不会跌的，尤其是市中心更有升值空间的？ 你买到降价的了？ 你孩子在起跑线时，人家孩子都到终点了，还自欺欺人的去挤买学区房，是钱太多了吧。 普通老百姓在北京能买的起房吗？ 都是一路的你拿手机就是oppor11s当然我的也是 跌跌涨涨都没有关系，有资格买么？ 中心城区买得起的是普通老百姓？ 感谢特朗普。 你他妈是不是个彪子 但是你怎么保证一定低位购入？如果你16万入手的，现在不就是跌了？就算14万入手的，现在都是跌了不少 说到点子上了，勒紧裤腰带提着脑袋买了套学区房，以为孩子赢了，可人家卖学区房的带着孩子移民了。 放屁，昨天刚去咨询过。还涨价了 不控制人口数量，什么都是白搭！ 艹🥚的 那套报价6万的，你尽管去买，买的到算我输 新闻为了响应号召降价了！ 现在中介卖房比开发商都贵，即便降也是持平偏高。 全款，看到了吗。 有国外户口，谁还回来呼吸雾霾和吃地沟油？没看到二代都在国外吗？ 天津房价也低的离谱了。估计要大涨 骗人的，我们家附近的中介机构一点也没有降 输个鸡煲 实际情况是什么样的？有人知道么？ 能买得起16万的，跌2万算个毛？再说了以后不会涨回来？ 6万一平米，好便宜啊！ 以后必须翻倍涨 所以最近总再说的北京市清理外地人这个说法是有误的应该是清理穷人才对管你有没有户口有钱你前门都可安家没钱你祖宗那代就住前门又怎样别说外地户口你就是外国户口京城遍地产业谁也轰不走你 北三环学区房确定六万？总价900万？真的话我立马卖房子去买 补社保就可以你补吗找我 一楼好鸡动，三叩九拜谢主隆恩了没？ 为什么那么便宜 呵呵，北三环，出了东城西城，就不是什么好学区了。本来也就七八万，他这个150平米的大户型，单价低一些正常。别危言耸听了。一堆不了解行情的人跟着瞎欢呼 房价暴涨，民怨沸腾！应学徳国，让房价几十年稳定，收入增长远高于房价增长。放弃土地财政，才能让社会真正稳定，人民安居乐业。本不应该让抄房得利，不劳坐享巨额社会财富。安得广厦千万间，大庇天下寒士尽欢颜！ 你那房100万不到，那什么凑900万，拿命？ 香港中环30万每平，房山的房价也要30万每平才合理！加油＾０＾~！ 5万涨到16万，回调到14万，你叫爹？ 6千也买不起，还6万晕 你放开限购试试，连续三个涨停版等你 一线风险是最大的因为总价高套现欲望强烈小城市一套房50万跌了也没人卖， 二环广华轩就7万左右 你是不是傻，现在房价不可能跌，只能是不涨 有钱买房吗你 便宜的又好的房源只存在新闻里 病来如山倒病去如抽丝 呵呵，北三环，出了东城西城，就不是什么好学区了。本来也就七八万，他这个150平米的大户型，单价低一些正常。别危言耸听了。一堆不了解行情的人跟着瞎欢呼 不可能·北平至少能涨到1000万一平方英尺·才能对得起“首陪”二字😂 那套报价6万的，你尽管去买，买的到算我输 输一oppo? 有希望了 拿一套来说事，呵呵。先不说有没有，那个地段6w的房子你敢住吗？去看了吗？ 有1000万，还在乎那点钱？ 真便宜 普通老百姓在北京能买的起房吗？ 实际情况是什么样的？有人知道么？ 略降一点而已，鉴于利率涨幅，买房成本没降低。 乡下人理解不了 房价跌百分之十，绝对会有神仙来救市。 你应该和2000年再比一比价！ 哦哦哦，这幅度 这个标题就是安慰大家的。 谁调得？ 一楼买房没多久，可以理解 哪有六万的？让他出来走两圈 不限购的话，我们这的房子卖都卖不掉。 关键是买了入不了户，买房能入户，后面再加个0 新闻看多了吧，实际情况呢？ 之后20个跌停板等着你，去看看全通教育 当初哪些脑梗的说一线城市不会跌的，尤其是市中心更有升值空间的？ ರ_ರ 5万涨到16万，回调到14万，你叫爹？ 你放开限购试试，连续三个涨停版等你 6万很便宜吗 放屁！已经按造谣举报 买房不知道，租房现在今年12月比今年6月，一套两室一厅大概涨了1500，，， 既然降价了那就放开限购呗，不放开限购TMD你们糊弄鬼呢？ 不能让你买 趋势，对于炒房客来说趋势最重要。 北京三环内学区房六至八万，你信么？ 哈哈，怎么滴，你没资格买 那是一部分先富起来的人玩的游戏，用来刺激穷人神经的…… ",
        "Reply": 145
    },
    "Article": "（原标题：北京部分二手房出现降价）12月25日，多家房地产研究机构的最新数据表明，截至12月中旬，北京新房和二手房成交量依旧低迷。伟业我爱我家市场研究院总监孔丹对中国证券报记者表示，从统计数据看，北京二手房市场价格整体回调10%以上，超过8成二手房房源出现降价。记者调查发现，学区房价格出现一定程度跌幅。学区房价回调幅度不一中国证券报记者调查发现，长椿街地铁附近学区房均价维持在14万元/平方米左右。房产中介对中国证券报记者表示，最高时达到16万元/平方米，目前回调了2万元/平方米左右，回调幅度不算大。记者在西城区宏庙学区调查了解到，丰汇园目前成交均价约17万元/平方米。有业主表示，目前房价跌至去年10月份的水平。同样属于宏庙学区房的宏英园，80平米两居室中介报价1500万元，并表示实际签约价可谈。值得注意的是，北三环学区房已出现低于6万元/平方米的价格。位于北三环附近的一套150平方米的三居室学区房报价为900万元。据中介介绍，总价高、单价低的房子，存在近50万元的讨价空间。而知春路、海淀黄庄、中关村附近的学区房，成交均价约在11万元/平方米左右，相比最高点回调20%以上。相比之下，六环外房价较为坚挺。较新的小区每平方米均价维持在4万-4.5万元之间。以昌平区龙山华府为例，二手房均价约4.4万元/平方米。年代较为久的小区报价在3.7万元/平方米以上。对于距离市中心更远的亦庄地区，二手房均价维持在4.5万元/平方米。以亦庄经济技术开发区的林肯公园为例，目前二手房均价达6.5万元/平方米。一位居住在林肯公园的业主对中国证券报记者表示，亦庄的房子普遍比较新。经历了2016年底的房价上涨，这里的房子每平方米普遍上涨2万元以上。新楼盘的二手房比较抢手，房源少。伟业我爱我家市场研究院总监孔丹对中国证券报记者表示，老旧差学区房领跌，不少老学区房价格跌回到去年三季度。但有少数二手房价出现上涨，主要以次新房为主，且配套设施先进、交通方便。业主心态出现变化位于北三环的一套70平方米的学区房报价吸引了中国证券报记者的注意。该学区房于2017年7月份在中介销售平台挂网，最初报价为660万元，在下调至600万元、再上调至630万元后，便一路下调。截至10月份，报价调至580万元。目前业主报价为520万元，并备注价格还可以谈。中介对中国证券报记者解释称，“最初业主报价660万元。但我们结合大环境和成交价，建议业主如果想尽快出手应下调价格。调至600万元后，看房人增多，业主心态出现了变化，强烈要求上调到630万元，看房人自然就少了。由于一直没有合适买主，业主着急出手，于是心理预期一路下调。如果全款买价格还可以再低。”记者随中介前往看这套房子。该业主表示，想卖了房子跟儿子去杭州住。杭州的房子一天一个价，早就过了5万元/平方米。这套房子卖不掉，杭州的房子就买不了。该业主透露，如果将房子出租，租金在6500元-7000元/月。易居研究院研究总监严跃进对中国证券报记者表示，北京楼市降温，二手房价格下跌，这是多个调控政策的综合效应。而交易价格低迷，反过来使得很多房东脱手时犹犹豫豫，错过转手机会。临近年底，发现真正的买家其实并不多，只能不断下调价格。不过，很多看似价格不断调低的二手房，其实相比去年还是明显上升，无非就是获利空间收窄。不管怎样，价格下调说明二手房房东对未来价格走势出现动摇。随着一线城市房价出现回落，预计会有不少城市将跟进。实行差别化调控在日前召开的全国住房城乡建设工作会议上，住建部部长王蒙徽提出，2018年要抓好房地产市场分类调控，针对各类需求实行差别化调控政策，满足首套刚需、支持改善需求、遏制投机炒房。库存仍然较多的部分三四线城市和县城要继续做好去库存工作。从北京二手房市场看，据伟业我爱我家市场研究院数据统计，2017年12月上中旬，全市二手住宅网签共5769套，与11月中上旬相比增加9.8%，相比2016年12月中上旬下降45.6%。截至12月20日，全市今年二手住宅共网签131761套，较2016年同期下降50.3%。孔丹对中国证券报记者表示，总体看，北京二手房价格从2016年初开始上涨，到3月30日加速上涨，直到9月30日的调控前一直没有回头。9月30日以来，市场开始下跌。不过，2017年3月，市场开始爆发，不到一个月时间普遍上涨20%，很多学区房价格上涨40%-50%；之后便进入下行通道。目前二手房市场主要有两类人群，一类是首次置业买房者。这些购房者在下行市场可选择范围较大。还有一类是换房者，由于上一套房购买时间通常较久，在大幅获利的前提下，需要忍痛让出一部分利。对于2018年的市场情况，孔丹预计，月均交易量将比2017年11月、12月份要高，主要在于需求的合理释放。通常而言，新政发布后，市场会有一个季度以上的观望期。预计明年北京二手房市场整体稳中有降，但降幅逐渐缩小。交易量则慢慢释放。本文来源：中国证券报·中证网责任编辑：杨强_NN6027",
    "URL": "http://news.163.com/17/1226/08/D6IOCDFP0001875N.html"
}