{
    "Comment": {
        "Total": 285,
        "Reply": 20,
        "Link": "http://comment.sports.163.com/sports2_bbs/D75RG3JS00058781.html",
        "Content": "富士康北门的艺剪坊（清湖形象店）<br>坑爹五步曲————————————坑爹的理发店<br>第一步，装热情——刚一走到门口，几个人围着你上来，那叫一个热情啊。只要你说了一句“洗剪吹”，全部人都散了……（钱少啊）<br>第二步，套关系——那个理发师（我们暂且叫他SB）会主动问你是哪里的人，但不管你说自己是哪里的人，SB都会说“哦，老乡啊”，然后会编出一个跟你同省的城市（最有可能的就是省府），让你放松警惕，开始下手宰你……<br>第三步，故意下套，让你钻——洗完头发，他会问你：“你头发有点弯，要不要梳直？”刚洗完头发，这么乱，当然要梳直啦。你中了，不是中奖，而是中了他的套套。里面的人马上又“热情”起来，两三个人会迫不及待的拿药水给你涂上，这就是钱啊……<br>第四步，“教导”你——等你发现后，店长（暂且就叫GRD吧）说这是你无知，不懂理发店的潜规则（靠，听起来怎么像圈圈里面的事），然后还教师口气的对你说，这次他“好心”告诉你，下次你就不会上当了（来他那里就是买教训的？），FUCK，强盗还讲起理来了！！！<br>第五，威逼胁迫——几个人“围着”你，然后绞尽脑汁给你“想办法、出主意”，押厂牌啊，押手机啊，“陪”你去取钱啊，真感觉自己处在Hongkong电影里<br>同仁们，希望大家记住富士康北门这个店——艺剪坊（清湖形象店）。现在我们被无数的无良商家残害，毒害、欺诈，我们这些“上帝”再也伤不起了，我们不能严惩他们，但至少可以抵制他们。 没错，如果和盛世美颜促膝长谈可能就不会搞得那么僵，这也能扯到穆鸟可以看出那些鸟黑有多么无耻了！ 孔蒂情商低的都是人云亦云的小学生。孔蒂是情商虽不是最高，起码比某邪教教主高。只是孔蒂的粉丝没邪教那么不要脸。 这件事明显孔蒂有错，科斯塔这种级别的前锋，这么搞肯定不合适，自己错了还怪穆里尼奥。。。是穆里尼奥让孔蒂发这种短信的？ 鸟粪多，很正常，不然科斯塔怎么反穆里尼奥的，鸟粪恨孔蒂是因为联赛4比0点操，又让孔蒂初来英超就拿了个冠军，肯定看不下去啊，不就是当你们主人面庆祝了一下。 这事主要是孔二愣子的错，直接短信让人走人，高层都不知情 你的鸟有情商么，哈哈哈😄 第一孔蒂情商没问题。<br>第二木鸟情商问题待定<br>第三科斯塔和木鸟闹掰了又和孔蒂闹掰了。谁有问题 鸟粪高见，这会不抓内奸了，所谓敌人的敌人就是朋友 卧槽，哥们好久不见 孔二楞子情商堪忧科斯塔也情商堪忧有必要短信内容公布出去吗？做事留一线日后好相见不是很好吗 富士康北门的艺剪坊（清湖形象店）<br>坑爹五步曲————————————坑爹的理发店<br>第一步，装热情——刚一走到门口，几个人围着你上来，那叫一个热情啊。只要你说了一句“洗剪吹”，全部人都散了……（钱少啊）<br>第二步，套关系——那个理发师（我们暂且叫他SB）会主动问你是哪里的人，但不管你说自己是哪里的人，SB都会说“哦，老乡啊”，然后会编出一个跟你同省的城市（最有可能的就是省府），让你放松警惕，开始下手宰你……<br>第三步，故意下套，让你钻——洗完头发，他会问你：“你头发有点弯，要不要梳直？”刚洗完头发，这么乱，当然要梳直啦。你中了，不是中奖，而是中了他的套套。里面的人马上又“热情”起来，两三个人会迫不及待的拿药水给你涂上，这就是钱啊……<br>第四步，“教导”你——等你发现后，店长（暂且就叫GRD吧）说这是你无知，不懂理发店的潜规则（靠，听起来怎么像圈圈里面的事），然后还教师口气的对你说，这次他“好心”告诉你，下次你就不会上当了（来他那里就是买教训的？），FUCK，强盗还讲起理来了！！！<br>第五，威逼胁迫——几个人“围着”你，然后绞尽脑汁给你“想办法、出主意”，押厂牌啊，押手机啊，“陪”你去取钱啊，真感觉自己处在Hongkong电影里<br>同仁们，希望大家记住富士康北门这个店——艺剪坊（清湖形象店）。现在我们被无数的无良商家残害，毒害、欺诈，我们这些“上帝”再也伤不起了，我们不能严惩他们，但至少可以抵制他们。 科斯塔对孔蒂和鸟，对谁更不满些？ 老哥，好久不见 这事主要是孔二愣子的错，直接短信让人走人，高层都不知情 有果必有因！ 够了狗剩 你的鸟有情商么，哈哈哈😄 怀念DC 卧槽，哥们好久不见 脾气是够大的 这件事明显孔蒂有错，科斯塔这种级别的前锋，这么搞肯定不合适，自己错了还怪穆里尼奥。。。是穆里尼奥让孔蒂发这种短信的？ 你这说的，卖的了什么好价钱，最多卖中超好价钱还差不多，买他的时候就没花大价钱，更别说年龄还大了几岁。 是非不分的傻逼 科斯塔这种前锋如果搞好关系必然是世界级的表现，退一步讲即使不想要了，商量着兜售也能卖个好价钱不是。 孔二楞子情商堪忧科斯塔也情商堪忧有必要短信内容公布出去吗？做事留一线日后好相见不是很好吗 "
    },
    "Title": "仍难释怀!DC谈蓝军时光:主要在学英语 不提孔蒂_网易体育",
    "KeyWords": "孔蒂,科斯塔,切尔西,英语",
    "Article": "网易体育12月2日报道：回到了盼望已久的马德里竞技，迭戈-科斯塔的脸上终于恢复了笑容，他走出了2017年夏天在切尔西遇到的阴霾。回顾切尔西的时光，科斯塔似乎难以释怀，他称学英语是他在切尔西的主要成就，只字未提所获得的荣誉以及孔蒂。在切尔西的三年，科斯塔帮助球队拿到2次联赛冠军，但他已不想再提这些。“我在切尔西的最大成就？学英语吧。”科斯塔表示。上赛季夺冠后，孔蒂通过短息的方式告知科斯塔已不在球队计划内，这让科斯塔很诧异。科斯塔和孔蒂都是倔脾气，此事发生后，二人已不可能再共事。2017年9月21日，切尔西宣布科斯塔离队。虽然不愿再提孔蒂，但科斯塔对切尔西俱乐部还是尊重的。“切尔西是一家伟大的俱乐部，我在那里有很多不错的回忆。”科斯塔说道。受FIFA引援禁令的影响，科斯塔前半个赛季都在坐球监。如今，他终于可以重返赛场。“我需要踢比赛。这半年，我是一个旁观者，我遭受了别人难以想象的事情。我已经等待这个时刻很久了。我希望尽快融入球队，我已经受够无聊的训练了。”科斯塔浑身是劲。作为另一个当事人，孔蒂如今也不想卷入太多的是非。在谈到科斯塔的时候，孔蒂感谢对方曾经的奉献。“现在谈论一个不在球队中的球员并不合适。但是，我得感谢他上赛季做出的贡献。我们一起赢得了冠军，我会一直用一个积极的方式来记住他。”蓝军主帅表示。本文来源：网易体育作者：风过乡责任编辑：郑鑫桐_BJS5086",
    "URL": "http://sports.163.com/18/0102/18/D75RG3JS00058781.html",
    "PublishTime": "01/02/201818:36:43",
    "Source": "Netease"
}