{
    "URL": "http://news.163.com/17/1231/20/D70U90PU0001899N.html",
    "Article": "（原标题：超收实锤！去哪儿网自营店300张机票多收2.4万，被罚10万）北京市发改委官网公告。12月28日，北京市发改委官网公布一条行政处罚单，称根据群众举报，“去哪儿网”自营店有307张机票违规超收机票费用，多收了乘客24980元，违反了民航局和《价格法》等相关法规。北京市发改委要求“去哪儿网”自营店退还消费者多收价款，并没收其违法所得1070元，罚款99920元。北京市发改委公布的这一价格处罚单显示，根据群众举报，北京市发改委于2017年4月14日至2017年10月16日对北京市嘉信浩远信息技术有限公司的价格行为进行了检查。经查，该公司于2015年3月30日至2017年6月15日，通过“去哪儿网”航空机票销售平台，在乌鲁木齐—长沙航段超出航空运输电子客票行程单标示价格，向消费者销售航空机票155张，多收金额12590元；在长沙—乌鲁木齐航段超出航空运输电子客票行程单标示价格向消费者销售航空机票152张，多收金额12390元。共计超出航空运输电子客票行程单标示价格向消费者销售航空机票307张，多收金额24980元。北京市嘉信浩远信息技术的股权结构。南都记者查询发现，被罚的北京市嘉信浩远信息技术有限公司是北京趣拿信息技术有限公司的全资子公司，也就是说，这家公司是“去哪儿网”的自营店。北京市发改委公告称，该公司的行为违反了《中华人民共和国价格法》第十二条的规定，构成“超出政府指导价浮动幅度制定价格”的价格违法行为，该价格违法行为导致消费者多付价款24980元。值得注意的是，被罚的北京市嘉信浩远信息技术有限公司在案件调查期间，提供了虚假的、不完整的证据材料，符合从重处罚情形。根据这份“罚单”，北京市发改委做出了三项行政处罚：1.责令立即改正超出政府指导价浮动幅度制定价格的价格违法行为；2.没收违法所得1070元；3.罚款99920元。南都记者查询，中国民用航空局在《关于国内航空旅客运输销售代理手续费有关问题的通知》中规定：“销售代理企业不得向旅客额外加收客票价格以外的任何服务费，不得通过恶意篡改航空运输企业按规定公布的客票价格及适用条件、捆绑销售等违规手段，侵害消费者和航空运输企业权益。”2017年10月，南都记者曾测试16家知名机票销售平台，发现总共8家存在搭售现象。其中，去哪儿网的捆绑服务费在多家app中位列第一，其默认勾选的搭售金额为109元。本文来源：南方都市报作者：申鹏责任编辑：徐萌_NN7485",
    "KeyWords": "去哪儿网,航空,北京市发改委,自营店",
    "Source": "Netease",
    "Comment": {
        "Reply": 69,
        "Content": "携程好得多 你说，你很难受。你在下头，他在上头。<br>我说，我更难受。你在里头，我在外头。<br>谁扯碎你的衣袖？谁嘬着你的肉？谁在你身上趴着？姿势像狗。<br>你说为了艺术，不管美丑。你说干这一行，不分夜昼。<br>你的哪儿像球！你的哪儿在流！你的什么没放好，说是要丢。<br>凸起的喉，微微的抖。在最后的最后------是什么进了你的口。<br>你说味道有些馊，你说感觉像喝粥，<br>你问这个比喻会不会荒谬？<br>我不置可否。<br>你是神是仙是个诅咒，你像风像雨像杯白酒。<br>谁解过你的衣扣？谁和你玩过六九？<br>谁在你身上当过公狗？谁请你喝过稀粥？<br>多少次你解着衣扣！多少次你扯他裤头！多少个男生曾坚信：“一射解千愁”。<br>五粒花衣扣，两条灰裤头，<br>一渠春江水没命东流！<br>该肥的地方肥，该瘦的地方瘦，<br>该用口的地方绝不用手！<br>你欲叫未还休，便可轻易写春秋。<br>谁说女子要腐朽？且看你名扬神州，迎着狂风嘶吼，不枉做鸡头！<br>女子莫愁，君子何忧。。。。。。<br>六九之后，一醉方休。。。。。。 14年前一直用去哪，太垃圾了，后来改携程，国内还行。出国Booking也不错 微软小冰不多，不少，自带一百赞。 垃圾客户端就是垃圾！你还拿到5元呢？我特么返现金额就再也找不到了！卧槽！😱 奸商 去哪网的机票挺便宜的,我每次都是在那上面买的打折机票.. 乱像 应该重罚 老板说，唉呀妈呀，吓坏我了，才罚10万呀，哥们一天流水几百万 无耻商家！除了处罚外，应该在查实后补偿给消费者！ 百度系就是贪腐窝 早不用这个垃圾软件了 罚得好！支持！ 十万？应该至少十倍罚款 应该重罚，违法成本低，还有没逮到的时候呢？ 这是鼓励多收呢？还是鼓励多收呢？还是鼓励多收啊？ 15年在去哪儿卖高铁票，取消行程，不给我退钱。 至少应该罚一千万！以往多的的还少了吗？ 作死，顶风作案属于 垃圾 活该！ 才罚款10万，没几天就能赚回来了 这个诈骗网站怎么还活着 飞猪没被罚？ 处罚太轻！ 去哪儿非常无耻，返现的钱超过200元才能无手续费提现到银行卡，否则的话手续费一次5元，我提10元给我拿走5元手续费。。。呵呵。。。 中国就是对这种企业处罚力度太小，一次罚一个亿，你看它还敢不敢这么欺诈 远离百毒 违法成本低，还有没逮到的时候呢 携程好得多 你说，你很难受。你在下头，他在上头。<br>我说，我更难受。你在里头，我在外头。<br>谁扯碎你的衣袖？谁嘬着你的肉？谁在你身上趴着？姿势像狗。<br>你说为了艺术，不管美丑。你说干这一行，不分夜昼。<br>你的哪儿像球！你的哪儿在流！你的什么没放好，说是要丢。<br>凸起的喉，微微的抖。在最后的最后------是什么进了你的口。<br>你说味道有些馊，你说感觉像喝粥，<br>你问这个比喻会不会荒谬？<br>我不置可否。<br>你是神是仙是个诅咒，你像风像雨像杯白酒。<br>谁解过你的衣扣？谁和你玩过六九？<br>谁在你身上当过公狗？谁请你喝过稀粥？<br>多少次你解着衣扣！多少次你扯他裤头！多少个男生曾坚信：“一射解千愁”。<br>五粒花衣扣，两条灰裤头，<br>一渠春江水没命东流！<br>该肥的地方肥，该瘦的地方瘦，<br>该用口的地方绝不用手！<br>你欲叫未还休，便可轻易写春秋。<br>谁说女子要腐朽？且看你名扬神州，迎着狂风嘶吼，不枉做鸡头！<br>女子莫愁，君子何忧。。。。。。<br>六九之后，一醉方休。。。。。。 14年前一直用去哪，太垃圾了，后来改携程，国内还行。出国Booking也不错 才罚款10万，没几天就能赚回来了 去哪网的机票挺便宜的,我每次都是在那上面买的打折机票.. 这种行为要重重处罚 1楼是sb你也跟着sb吗？去哪儿现在是携程的了 处罚太轻！ 现在都用飞猪 老板说，唉呀妈呀，吓坏我了，才罚10万呀，哥们一天流水几百万 直接收手续费就好了，骗人就不对了 百度系就是贪腐窝 呵呵🤭 不看那些小说了，这些小说都带着垃圾目标很难烂，还是我自己来写：<br>1、女：你看那个女的了哦。<br>男：看了，咋的，你想这样满足我？<br>女：鬼才想。<br>----------<br>男：你看那男的了哦。<br>女：看了，咋了，你想这样满足我？<br>男：没那本事，视角人文之喜好何其多也，1J1B较为公频，而引诱之力，是相互需要时努力做出来的结果，找个地儿来1下？<br>========================<br>那里有地主，灭之。<br>那里有个农民，给点技术。<br>那价值如何引导？<br>农民连开个路边店的钱劳动的资格权的钱都不发，这叫什么社会？地主不劳实际劳动，却把价值引导方向取向多搞女人，这是什么定价社会？ 活该！ 违法所得1070元什么鬼 你还要坐飞机买票？ 所以1楼就是个无知的sb喷子 罚的少，还多收了我二次钱呢！一共四十块钱！ 这个诈骗网站怎么还活着 一点脸都不要了。 当你在去哪儿网绑定了银行卡之后……你从此操作就要小心点了，去哪儿网有点无耻。楼上说的那个红包问题也是坑！ 罚款有毛用，又没有把钱返给我们消费者 美国的尊重示威权的确是好的，打得伊朗这类不良国家直跳。<br>=================================================<br>从权利上来说，民众之众音总是显示在公频、正义等人类正面价值上，这本是定价权引导的好事，但是：<br>1、美国是选的，有这上街引导了好的，又可以不好的选不上。<br>2、而伊朗这种弱国，以权利获利的地主式国家，想想要正义肯定不干得对打，用枪相互打起来，结果搞烂了伊朗，所以“美国是在送好的，烂国却受不起这份礼”也。<br>3、话又说回来，真的受得起这份“礼”的国家，美国又不给了，这就是所谓的奸计？？？？？？？ 应该重罚，违法成本低，还有没逮到的时候呢？ 中国就是对这种企业处罚力度太小，一次罚一个亿，你看它还敢不敢这么欺诈 微软小冰不多，不少，自带一百赞。 由于五一长假的缘故一之后的机票也不会太便宜如果现在看价格还可以的话建议现在就买下 按理由来说，印度应当更在意中俄美欧，却反其道行之，1天玩中，这种虚假的战略又骗取不了人，毫无用处却还玩得非常给力，应当是无聊的讹诈类，<br>====================<br>因为基于定价权来说：<br>1、一个国家的内部定价权想玩多好就玩多好，这事他人管不了，比如原社和现在的美欧。<br>2、而一个国家的外部定价权是合作得利，讹诈欺骗等都毫无意义，瞎玩什么呢？ 罚款我认可，但罚的钱去哪了？<br>吃亏的大众有补偿吗？ 不可饶恕。 真的没有好人。 黑心企业 买卖自由 罚得好！支持！ 远离百毒 现在是携程的了 坚决取缔一切代理售票，降低成本 说的对 才罚十万？ 这是鼓励多收呢？还是鼓励多收呢？还是鼓励多收啊？ 别无知了，现在都是携程的，去哪儿也是携程的了。 特价机票是看时间性的,去网上都是统一价格的 去哪儿非常无耻，返现的钱超过200元才能无手续费提现到银行卡，否则的话手续费一次5元，我提10元给我拿走5元手续费。。。呵呵。。。 这就是我为什么反感瞎说运10这类东西1样的道理，1开始哪个国家能r“手工做出来运10、或者DOS”，那可这个国家懂了原理的好经验，为什么却受到打击呢，这打击能骗到起什么人呢？有什么好处呢？？？ 无耻奸商，惩罚太轻了。 现在是携程的了。而且携程不算百度系的，就知道喷的sb。 去哪儿网绑定了银行卡之后，操作要小心了！ 才罚10万？ 15年在去哪儿卖高铁票，取消行程，不给我退钱。 至少应该罚一千万！以往多的的还少了吗？ 作死，顶风作案属于 垃圾 垃圾客户端就是垃圾！你还拿到5元呢？我特么返现金额就再也找不到了！卧槽！😱 ！? 十万？应该至少十倍罚款 奸商 飞猪没被罚？ 处罚太轻！ 这是得罪谁了 无耻商家！除了处罚外，应该在查实后补偿给消费者！ 着过[微笑] 去哪儿非常无耻，返现的钱超过200元才能无手续费提现到银行卡，否则的话手续费一次5元，我提10元给我拿走5元手续费。。。呵呵。。。 携程呢 早不用这个垃圾软件了 欺骗 乱像 坚决抵制去哪儿！！！我因病退票，在出具医院证明后，居然拒绝退票！！！！ 应该重罚 违法成本低，还有没逮到的时候呢 ",
        "Total": 737,
        "Link": "http://comment.news.163.com/news2_bbs/D70U90PU0001899N.html"
    },
    "PublishTime": "12/31/201720:49:04",
    "Title": "实锤!去哪儿网自营店307张机票多收2.4万 被罚10万_网易新闻"
}