{
    "URL": "http://war.163.com/photoview/4T8E0001/2287298.html",
    "Article": "“歼31”战机罕见现身成都街头背后真相？12月30日，成都市锦江区一商城外，一架复制的某新型战斗机模型亮相街头，吸引了不少路人眼球。张浪摄",
    "KeyWords": "中国,歼31,",
    "Source": "Netease",
    "Comment": {
        "Reply": 55,
        "Content": "这么说你承认是俄孙了？ 这是去歼20的地盘挑衅？ 是想表明造的房子可以飞上天？ 呵呵～2018年快到了，六楼你这头猪还是准备以吃屎维持生计啊？！这能有出路吗？！ 多的不说，就看看发动机推动力，F-22一个就是够这两个了，那里来的自信，能别吹，踏实点么？受不了了，风向标都变了，各种吹嘘。。。 真尼玛难看 保利搞这种宣传涉嫌非法持有仿真武器把，仿真枪都判刑了，仿真战斗机怎么算啊 你母亲还是充气的。 一个壳子称霸宇宙 歼31也是航模。二楼傻狗。 新年快到了，你还接着吃屎吗？！ 保利楼盘，懂的点赞 都快2018年了，你这只贱狗还在发贴赚美分？？怎么你美爹还没来接走你？说话还算数不？ 搞笑，保利是当年总参下海办的企业，主业就是倒腾军火。 你是最窝囊又一事无成的傻逼 呵呵～牛逼战机是飞起来看滴，不是在大街上停着看啊～花费那么多血汗金钱不能跟豪车去比吧，得与世界五代战机去比吧？！ 傻逼沈飞没本事还去砸场子？ 你爹李连生都被我抽怕了吧。德阳傻狗。 真你妈相没人在乎的 歼28可拯救太阳系，搞歼31是浪费。 成飞：在我家门口放沈飞的东西，搞事情啊？！ 歼什么都抵不过一个疯犬吴远殊 怎么今天用回这个老马甲了吗？福州烂仔王宝贱。 没看正文就开始喷了吧？ 挖槽造竟敢在领道的眼皮底下造战斗机？前几天那个卖仿真枪的都被判了十几年，这个不得把牢给坐穿了[骷髅] 大哥这盘是万达的 都快2018年了，怎么你美爹还没来接走你？说话还算数不？ 宇宙第一的感觉你们凡人是不懂的,宇宙第一好空虚好寂寞 不是航模你就吃我热翔哦？哈嘛批 呵呵～可能是天气冷啊，狗窝没通暖气，昨天、今天一群奴才走狗都出来咬人啊。这两天都遛狗呐。。。。 拯救宇宙的终极武器都祭出来了 搞个模型去歼20地盘示威，有本事飞个真的过去 沈飞的飞机跑到成飞的地盘。 宇宙第一的感觉你们凡人是不懂的,宇宙第一好空虚好寂寞 在国内，吃屎的美国狗挺多 真尼玛难看 保利搞这种宣传涉嫌非法持有仿真武器把，仿真枪都判刑了，仿真战斗机怎么算啊 周围人都没有，还吸引眼球 这么说你承认是俄孙了？ 跑到611门口示威去了？ 保利楼盘，懂的点赞 这模型还不错 准备领先300亿光年！外星人惨遭打脸，中国或成为最大赢家😄 大哥这盘是万达的 军队背景。 傻逼沈飞没本事还去砸场子？ 这两款战机，可见中国军工神话。 真你妈相没人在乎的 Sb这是二环路，锦华万达广场，都摆了好几个月了，而且现在大家并不觉得新鲜了，还是个模型 成飞：在我家门口放沈飞的东西，搞事情啊？！ 煞笔喷子，你分得清四代机五代机吗？你说的美国的F-22是五代机是按俄罗斯的标准来的，你说的三代半的俄罗斯苏-35是按美国的标准来的，你脑子装的都是什么？ 锦华万达广场[窃笑][窃笑][窃笑][挨揍][挨揍][挨揍]不用谢！ 都快2018年了，怎么你美爹还没来接走你？说话还算数不？ 不知道要多少钱 搞笑，保利是当年总参下海办的企业，主业就是倒腾军火。 呵呵～可能是天气冷啊，狗窝没通暖气，昨天、今天一群奴才走狗都出来咬人啊。这两天都遛狗呐。。。。 颜值有了 你是最窝囊又一事无成的傻逼 是想表明造的房子可以飞上天？ 呵呵～2018年快到了，六楼你这头猪还是准备以吃屎维持生计啊？！这能有出路吗？！ 你爹李连生都被我抽怕了吧。德阳傻狗。 细节特别好 一个壳子称霸宇宙 挖槽造竟敢在领道的眼皮底下造战斗机？前几天那个卖仿真枪的都被判了十几年，这个不得把牢给坐穿了[骷髅] 新年快到了，你还接着吃屎吗？！ 哗伪960、970都是比高通和苹果的要高，至于性能嘛，肯定也是比高通和苹果的要高出好多哈，， 银河系的死活咱们能不管？ 农民工仿制的 保利人家本来就是倒腾军火的... 等着挨干吧。 呵呵～牛逼战机是飞起来看滴，不是在大街上停着看啊～花费那么多血汗金钱不能跟豪车去比吧，得与世界五代战机去比吧？！ 万达已经被吃了 不是航模你就吃我热翔哦？哈嘛批 感觉特别逼真 歼28可拯救太阳系，搞歼31是浪费。 做得好逼真 呵呵～五代机人家都造了几百架了，另一边还在进口三代半战机呐，能有多强啊?--------就算是忽悠傻逼也得问问大专文凭是毕业还是结业吧？结果，跟个菜贩子聊了半天，他说自己中专生，把个垃圾“侧卫-E”介绍了一遍～我很惊异：我每天替天朝吹牛逼都没好好查过“雪豹-e”数据，这哥们说了一群数据。其实这战机的有些性能数据我也没记得很清楚，回家一查，小数点都没错！你说这特么忽悠咋整啊？！ 歼什么都抵不过一个疯犬吴远殊 没看正文就开始喷了吧？ 你母亲还是充气的。 哈哈哈哈哈哈哈 用的是自喷漆。 拯救宇宙的终极武器都祭出来了 航模 这是去歼20的地盘挑衅？ ",
        "Total": 542,
        "Link": "http://comment.news.163.com/photoview_bbs/PHOT25PM200014T8.html"
    },
    "PublishTime": "12/31/201711:49:52",
    "Title": "“歼31”战机罕见现身成都街头 背后真相？_网易军事"
}