{
    "Comment": {
        "Link": "http://comment.war.163.com/news_junshi_bbs/D6IT2REF000181KT.html",
        "Reply": 98,
        "Content": "环球屎报 唉，我们也这样啊 应该把它们全部送去见马克思！ 一天不如一天了有个好儿子输血苟延残喘 逼近了 介绍大家看看2017年的根据真实事件改编影片（苦难的收获）看完心情会很沉重的屎大淋就是个暴君不把乌克兰人民当个人这就是为什么乌克兰抓到机会要脱离俄罗斯2013年是1933年乌克兰大饥荒事件80周年，乌克兰共和国首都基辅，民众举行仪式纪念乌克兰大饥荒事件，追悼遇难的数百万同胞。乌克兰大饥荒是出现在斯大林农业集体化背景下的灾难，据不同的统计数字，有240万至1500万人死于这一事件 这个真实的历史事件从哪里看？谁写的？ 俄罗斯现在什么样有目共睹你在美化也没用 环球时报一直像赞美亲爹一样赞美着俄罗斯~ 我真的好希望每天都看见活的毛子变成好毛子 把你装鹅杂的核弹头上地球就没了 你发这贴减刑几个小时啊 这是普京为了转移国内的注意力而故意而为之的但是以现在俄罗斯的综合国力这样的行为未免太不自量力了！ 都是美国佬搞的 不如看看九十年代的影片（伊拉克----上帝赐给地球上的花园）精彩。 美帝在家门口转悠，阿三在餐桌上拉屎<br>毛子的子孙遍布大地 很乐意看到俄罗斯和北约磕碰！ 你这人渣活着就是贵州人的耻辱。 卡廷惨案 那是防的墨的人toudu到美国吧！你这概念偷换得可以哦！ 芬兰500来万人口，重工业是木材，轻工业是纸浆。做饺子馅估计都不够。 其他没有实际例子不敢说，芬兰分分钟教鹅毛怎么做人。还有最近的沿海三国，都是被荼毒过的，肯定死磕到底。 三战开打，地球上就没有英美日澳和以色列鸟！ 普京有个黄恶儿 中国，是全体中国人的中国，她只属于炎黄子孙而非其他子孙！<br>谁想代表中国，必须经过全体中国人的投票授权！<br>未经授权，任何一个中国人也无权代表另一个中国人，更何况非炎黄子孙。<br>国家的未来和发展道路，应该由全体中国人票决，不需要其他非炎黄子孙来代表！ 它们说了是人民爱穿这只鞋子 逼近家门口，这有什么好怕的<br><br>毛子还住在我们家里呢 怎么办 你是想说胡适大喷子二年后被光头赐杯毒酒下黄泉的事？ 让毛子回去见马克思 老俄被周边国家提防，是活该的，看看历史就知道。 黔驴这反人类的货脑子里都成了胶泥，一条道走到黑最后结束了罪恶的一生！ 自己看一下2017的影片你难道不会看 亮几把 美日惊呼，混球屎报吓尿了 为什么苏俄被国际称之为灰色牲口！因为俄国人上战场要面对两个战场，前方的和后方的，你不是在打仗，你是进入了屠宰区！ 你玛当年怎么不把你弄死 把乌克兰路踢走后毛子才发现原来是割了个恶性肿瘤，身体很快强壮起来健康如初了。 臭名昭著 很好，你们打吧。 翻开毛子历史充满了侵略暴力专政谎言还有一堆死心塌地的黄毛子无脑追随 额螺丝，人类的公敌。 胡锡进的老母习惯了流氓。。。 你被洗脑了 它正宗的亲爹应该是输廉 是啊，能把一个2000多万平方公里，物产富饶的国家弄到目前的惨不忍赌，不能不说普京的确有一套！ 翻开毛子历史充满了侵略暴力专政谎言还有一堆死心塌地的黄毛子无脑追随 早期鹅很弱，被随便那个邻國都能去踩一下，像什么瑞典波兰没事就欺负它一下，鹅后来做蒙古人代理人开始实力强起来 它的IP好像天天变~并不是贵州的。像是发帖公司用黑科技发帖。 1948年，海牙国际法学院评出比较法学专家，全世界共50人当选，中国仅有两人:王宠惠和杨兆龙。后来，一人去台湾，一人留大陆。命运结局大不一样 因为没有亲爹俄罗斯就没有屎报集团们 环球屎报 俄罗斯历史的公称“北极熊”；在欧洲的称呼：“欧洲宪兵”，“镇压东南欧人民革命的刽子手”；在中国东北的称呼：“吃人的生番”（即“食人魔”-17世纪，曾在东北吃了50多个中国人尸体），“老毛子”，“大鼻子”-深受其害的东北人都知道大鼻子要比小鼻子（日本）坏的多。——只是现今张口闭口“中俄、中俄”的爱国贼们，偏偏称它为“战斗的民族”，认它做爹。 应该把它们全部送去见马克思！ 一天不如一天了有个好儿子输血苟延残喘 逼近了 介绍大家看看2017年的根据真实事件改编影片（苦难的收获）看完心情会很沉重的屎大淋就是个暴君不把乌克兰人民当个人这就是为什么乌克兰抓到机会要脱离俄罗斯2013年是1933年乌克兰大饥荒事件80周年，乌克兰共和国首都基辅，民众举行仪式纪念乌克兰大饥荒事件，追悼遇难的数百万同胞。乌克兰大饥荒是出现在斯大林农业集体化背景下的灾难，据不同的统计数字，有240万至1500万人死于这一事件 很乐意看到俄罗斯和北约磕碰！ 你牛你牛好吧！toudu居然都不防的，那当年dataogang的时候，你们为什么要kaiqiang？ 我觉得吧，凡事你要放到历史环境里，看问题才完整。<br>苏联早在沙皇俄国时候在西方就是破鼓万人捶，也只能在土耳其和清朝身上找找优越感，<br>连日本这种芝麻绿豆大小的国家都可以让俄国的远东太平洋舰队全军覆没，<br>即使是沙俄认输了退出一次大战，马上一大堆国家跑过来瓜分他，法国英国占领了塞瓦斯托波尔，和敖德萨，日本甚至占领整个远东地区，连波兰这种刚刚复国的手下败将都跑过来占领了乌克兰，最让人意想不到的是懦弱无能的北洋政府居然也趁机收复了蒙古，<br>对中国人来说当然是欢欣鼓舞，笑逐颜开了，但是假如你是斯大林你会怎么想？<br>…………落后就要挨打。。如果你是个小国，落后并不一定挨打，但如果你是大国，周围又都是德国日本这种对领土虎视眈眈的国家，只要你落后，一定就会挨打。<br>怎么摆脱俄国落后挨打的命运？俄国贫穷落后的根源又在哪里？你们考虑过吗。<br><br>根源就是俄国是个农业国，工业基础薄弱。<br>怎么提升工业基础？就需要建设大量钢铁厂，煤矿，机械设备生产厂，铁路，公路，发电厂，水泥厂。<br>建设这些东西需要很多的钱和人，人从哪里来？没办法只能从农民里来，而在化肥没有发明的年代，，想要保证粮食产量，唯一的办法就是保证农业人口，商鞅深谙此道。<br>人口都被抽走去建设水电站火电站钢铁厂去了，粮食产量必然下降。饥荒的根源就在这里。<br><br>我们横向看一看1933年世界都发生了什么<br><br>1月份德国的希特勒当了总理。此人言论造就尽人皆知了。<br>1933年世界经济危机到了最低谷的时候，美国人也是排队领面包，<br>3月份日本退出国联，开始备战。再加上1931年日本就占了整个东北。变成了一个大陆国家，时刻威胁苏联的远东。<br>法国人正在大张旗鼓的修马奇诺防线，英国人也是焦头烂额的，英法德意签订了四国公曰。<br>面对着未来马上就要爆发的下一场世界大战，如果你是1931-1933年的斯大林，你能怎么办？让其他国家把苏联瓜分了？？<br><br>反正斯大林的选择是顶住一切压力，拼命发展工业化。<br>——至于乌克兰饥荒是不是可以避免，各位见仁见智吧，我只是讲了一下大环境。<br><br>我接下来说一说成效如何，，<br>1939年苏联和日本打了一场，日本军官想要效仿918事变，突然进攻了苏联，结果苏联用了几倍的工业实力拍死了日本，打垮了日本最精锐的坦克部队。而苏联这时候已经拥有1万多多t26坦克，<br>这其实就是妈和老婆同时掉河里你救哪一个的问题，斯大林毫不犹豫的救老婆，放弃他妈。仅此而已。 美帝国主义都是纸老虎！底气足么？ 环球时报一直像赞美亲爹一样赞美着俄罗斯~ 谁把战争强加于中俄，谁就是反人类。 我真的好希望每天都看见活的毛子变成好毛子 把你装鹅杂的核弹头上地球就没了 你发这贴减刑几个小时啊 连续追击70个1小时，把潜艇逼出水面 大西洋是北约的内海吗？ 俄罗斯历史的公称“北极熊”；在欧洲的称呼：“欧洲宪兵”，“镇压东南欧人民革命的刽子手”；在中国东北的称呼：“吃人的生番”（即“食人魔”-17世纪，曾在东北吃了50多个中国人尸体），“老毛子”，“大鼻子”-深受其害的东北人都知道大鼻子要比小鼻子（日本）坏的多。——只是现今张口闭口“中俄、中俄”的爱国贼们，偏偏称它为“战斗的民族”，认它做爹。 这是普京为了转移国内的注意力而故意而为之的但是以现在俄罗斯的综合国力这样的行为未免太不自量力了！ 都是美国佬搞的 不如看看九十年代的影片（伊拉克----上帝赐给地球上的花园）精彩。 美帝在家门口转悠，阿三在餐桌上拉屎<br>毛子的子孙遍布大地 呵呵，有意思。 它们一定要让P民明白绑定跟班孝顺干爹107的重要性和正确性，这其实只是这里物业的一厢情愿，过去约定海军联合演习，中方要求定在黄海或东海或台海峡演习，鹅毛不同意，只能在符拉迪沃斯托克港口海域 最近特意看了些俄国新拍的电影，如《危楼愚夫》、《12怒汉：大审判》，国家的问题的确还很多，但也开始反省了，只是反省只限于国内，而没有看到国际关系的反省。 可怜了。 前提是能硬 俄罗斯现在什么样有目共睹你在美化也没用 你这人渣活着就是贵州人的耻辱。 能不能不打谐音字 卡廷惨案 这报有点太低三下气无骨气没底线了！ 芬兰500来万人口，重工业是木材，轻工业是纸浆。做饺子馅估计都不够。 其他没有实际例子不敢说，芬兰分分钟教鹅毛怎么做人。还有最近的沿海三国，都是被荼毒过的，肯定死磕到底。 三战开打，地球上就没有英美日澳和以色列鸟！ 普京有个黄恶儿 中国，是全体中国人的中国，她只属于炎黄子孙而非其他子孙！<br>谁想代表中国，必须经过全体中国人的投票授权！<br>未经授权，任何一个中国人也无权代表另一个中国人，更何况非炎黄子孙。<br>国家的未来和发展道路，应该由全体中国人票决，不需要其他非炎黄子孙来代表！ 一个国家好不好，就看边防是重点防自己人出去，还是防别人进来。 这个真实的历史事件从哪里看？谁写的？ 毛子说气闸轻轻一扭，鸟克烂立马回到冰河世纪。现在还欠五年的煤气费呢。哈哈哈哈 疳儿也正需要疳爹。 怎么办 美帝在家门口转悠，阿三在餐桌上拉屎<br>毛子的子孙遍布大地 让毛子回去见马克思 我觉得吧，凡事你要放到历史环境里，看问题才完整。<br>苏联早在沙皇俄国时候在西方就是破鼓万人捶，也只能在土耳其和清朝身上找找优越感，<br>连日本这种芝麻绿豆大小的国家都可以让俄国的远东太平洋舰队全军覆没，<br>即使是沙俄认输了退出一次大战，马上一大堆国家跑过来瓜分他，法国英国占领了塞瓦斯托波尔，和敖德萨，日本甚至占领整个远东地区，连波兰这种刚刚复国的手下败将都跑过来占领了乌克兰，最让人意想不到的是懦弱无能的北洋政府居然也趁机收复了蒙古，<br>对中国人来说当然是欢欣鼓舞，笑逐颜开了，但是假如你是斯大林你会怎么想？<br>…………落后就要挨打。。如果你是个小国，落后并不一定挨打，但如果你是大国，周围又都是德国日本这种对领土虎视眈眈的国家，只要你落后，一定就会挨打。<br>怎么摆脱俄国落后挨打的命运？俄国贫穷落后的根源又在哪里？你们考虑过吗。<br><br>根源就是俄国是个农业国，工业基础薄弱。<br>怎么提升工业基础？就需要建设大量钢铁厂，煤矿，机械设备生产厂，铁路，公路，发电厂，水泥厂。<br>建设这些东西需要很多的钱和人，人从哪里来？没办法只能从农民里来，而在化肥没有发明的年代，，想要保证粮食产量，唯一的办法就是保证农业人口，商鞅深谙此道。<br>人口都被抽走去建设水电站火电站钢铁厂去了，粮食产量必然下降。饥荒的根源就在这里。<br><br>我们横向看一看1933年世界都发生了什么<br><br>1月份德国的希特勒当了总理。此人言论造就尽人皆知了。<br>1933年世界经济危机到了最低谷的时候，美国人也是排队领面包，<br>3月日本退出国联，开始备战。1931年日本就占了整个东北。变成了大陆国家，时刻威胁远东。<br>法国人正大张旗鼓修马奇诺防线，英国人也是焦头烂额，英法德意签订了四国公曰。<br>面对着未来马上就要爆发的下一场世界大战，如果你是1931-1933年的斯大林，你能怎么办？让其他国家把苏联瓜分了？？<br><br>反正斯大林的选择是顶住一切压力，拼命发展工业<br>——至于乌克兰饥荒是不是可以避免，各位见仁见智我只讲大环境。<br><br>我接下来说一说成效如何，，<br>1939年苏联和日本打了一场，日本军官想要效仿918事变，突然进攻了苏联，结果苏联用了几倍的工业实力拍死了日本，打垮了日本最精锐的坦克部队。而苏联这时候已经拥有1万多多t26坦克，那个日本军官切腹了<br>这其实就是妈和老婆同时掉河里你救哪一个的问题，斯大林毫不犹豫的救老婆，放弃他妈。仅此而已。 饿毛子人类公敌、狗类希望！ 石敬瑭 这点简单事你都没弄清，黔驴顶自己的贴是反复进入退出文章点顶弄的！ 抢了你的活了吧 那是防的墨的人toudu到美国吧！你这概念偷换得可以哦！ 还真是第三次世界大战英美日澳和以色列鸟估计会没，还不服不行 亮几把 为什么苏俄被国际称之为灰色牲口！因为俄国人上战场要面对两个战场，前方的和后方的，你不是在打仗，你是进入了屠宰区！ 你玛当年怎么不把你弄死 把乌克兰路踢走后毛子才发现原来是割了个恶性肿瘤，身体很快强壮起来健康如初了。 臭名昭著 其实，毛子就像耍弄傻子一样的对待他干儿！除了坑干儿的钱财，再就是拉个垫背的！ 对。 额螺丝，人类的公敌。 好像扭的那个自己不会完蛋一样，一扭就没有赢家，所以谁都不敢扭 我也支持美和俄开打，咱们看看就好 主要是怕破潜艇带着核武器沉在家门口，是个大麻烦。 以为你这人渣能苟且偷生似的。 它正宗的亲爹应该是输廉 是啊，能把一个2000多万平方公里，物产富饶的国家弄到目前的惨不忍赌，不能不说普京的确有一套！ 这只是欧洲北约炒作而已！现在谁也不敢第三次世界大战！俄毛子不傻屌，第三世界大战，俄毛子也就消失了！[微笑][微笑][微笑][微笑] 轻轻一扭，乌克兰和整个欧洲重新回到了冰河世纪。 美帝在家门口转悠，阿三在餐桌上拉屎<br>毛子的子孙遍布大地 早期鹅很弱，被随便那个邻國都能去踩一下，像什么瑞典波兰没事就欺负它一下，鹅后来做蒙古人代理人开始实力强起来 你说的在弯弯的表现并不让人满意。就一条捷运修个二十年你等的了本人等不了 翻开毛子历史充满了侵略暴力专政谎言还有一堆死心塌地的黄毛子无脑追随 因为没有亲爹俄罗斯就没有屎报集团们 唉，我们也这样啊 它们说了是人民爱穿这只鞋子 逼近家门口，这有什么好怕的<br><br>毛子还住在我们家里呢 还家门口美帝都给乌克兰提供武器了这才是你家门口哦 好戏连台啊 你是想说胡适大喷子二年后被光头赐杯毒酒下黄泉的事？ 翻开毛子历史充满了侵略暴力专政谎言还有一堆死心塌地的黄毛子无脑追随 熊出没，注意 环球时报一直像赞美亲爹一样赞美着俄罗斯~ 难道北约的军队就没逼近俄罗斯家门口了么？？？ 好好好 美日惊呼，混球屎报吓尿了 把乌克兰路踢走后毛子才发现原来是割了个恶性肿瘤，身体很快强壮起来健康如初了。 很好，你们打吧。 它爹毛子和中国广东一个省差不多 俄狗无时无刻不在怀念乌克兰的出海口，然并卯最后终于把克里米亚吞了 国际海域谁都有航行自由权，这可是美国老大说的理论和正在做的事 胡锡进的老母习惯了流氓。。。 以色列也有潜射洲际导弹，你毛蝶敢打以色列就请先吃100枚核弹。 介绍大家看看2017年的根据真实事件改编影片（苦难的收获）看完心情会很沉重的屎大淋就是个暴君不把乌克兰人民当个人这就是为什么乌克兰抓到机会要脱离俄罗斯2013年是1933年乌克兰大饥荒事件80周年，乌克兰共和国首都基辅，民众举行仪式纪念乌克兰大饥荒事件，追悼遇难的数百万同胞。乌克兰大饥荒是出现在斯大林农业集体化背景下的灾难，据不同的统计数字，有240万至1500万人死于这一事件 毛子的大黑阳具一露，北约这个婊子吓得飚卵子受精了。哈哈哈哈 三战开打，地球上就没有英美日澳和以色列鸟！ 1948年，海牙国际法学院评出比较法学专家，全世界共50人当选，中国仅有两人:王宠惠和杨兆龙。后来，一人去台湾，一人留大陆。命运结局大不一样 ",
        "Total": 2535
    },
    "Article": "资料图【环球时报综合报道】“准备进行第三次世界大战？”英国《每日快报》24日的这个大标题，说的是北约和俄罗斯之间的新一轮角力。当天，北约秘书长斯托尔滕贝格主动告诉媒体，俄潜艇愈发频繁地在地中海、大西洋等水域活动，活跃程度已相当于冷战时期。这是北约秘书长近年来首次就俄罗斯潜艇对媒体发表看法。斯托尔滕贝格接受了德国《法兰克福汇报》、美国《华盛顿邮报》和英国《金融时报》的联合采访，发出“俄罗斯潜艇越来越接近北约”的警告。德国《法兰克福汇报》24日援引他的话说，“近年来，俄罗斯投入大量资源用于建设海军，尤其是潜艇部队。2014年至今，已有13艘新潜艇服役。俄罗斯潜艇的活跃程度现在正处于冷战以来的最高水平”。“德国之声”惊呼“熊出没，注意!”在斯托尔滕贝格看来，与俄罗斯相比，冷战结束后，北约削减了海上作战能力，尤其是应对潜艇的能力。“我们减少了训练，并丧失作战能力。”他称俄罗斯这些潜艇“在整个大西洋运行，也靠近我们的海岸线”，欧洲和北美盟国之间的连接存在被切断的危险。“北约是一个跨大西洋联盟，因此，我们必须具备跨大西洋运送部队及装备的能力。我们需要保证安全和开放的航道。”北约潜艇部队司令、美国海军少将安德鲁·列农则将这种威胁具体化。德国《明镜》周刊25日报道称，大西洋底部铺设着重要的数据电缆，而俄罗斯潜艇越发频繁地出现在这些电缆附近。“这是我们以前从未见到过的”，列农说，俄罗斯对于北约及其成员国的海底基础设施具有明显的兴趣。《华盛顿邮报》称，可能受到攻击的光缆属于私人公司，沿着1858年跨越大西洋发出首封电报的老线路铺设，传递着今天互联网上的几乎全部通信，确保欧洲和北美之间的电话业务，关系到数以万亿美元的商业交易。一旦被切断，整个网络都会瘫痪，将给全球经济造成严重后果。如果被窃听监控，俄罗斯就能获取极具价值的信息。不过，列农拒绝透露北约是否已确信俄碰过这些海底电缆。“冷战后近30年，北约从未对俄罗斯的潜艇如此紧张”，德国新闻电视台25日评论说，近年来俄罗斯军力正在复苏，尤其是潜艇领域。德国《柏林日报》称，俄罗斯正通过潜艇走向更广阔的海洋。该报认为，目前北约与俄罗斯的紧张关系已加剧到极其危险的程度。从边界军演，到空中战机相遇，现在又是潜艇接近海底电缆……每一个意外都可能发生直接冲突。【环球时报驻德国特约记者青木环球时报特约记者柳玉鹏甄翔】本文来源：环球时报-环球网。更多精彩，请登录环球网http://www.huanqiu.com责任编辑：马超_NBJ9865",
    "PublishTime": "12/26/201709:58:51",
    "URL": "http://war.163.com/17/1226/09/D6IT2REF000181KT.html",
    "Title": "熊出没，注意！北约惊呼俄军潜艇逼近家门口 _网易军事",
    "KeyWords": "北约,俄罗斯,潜艇",
    "Source": "Netease"
}