{
    "Comment": {
        "Content": "演艺明星会唱国歌？ 杨千嬅和郑秀文，不唱歌一直分不清楚。 余文乐：我不要紧的 中国明星就是遭惯出来了 我看成了送炮 艺人多封建。以目前的社会经济环境，如果停止动迁、征地，肯定会影响人民币汇率；土地征收、动迁，注意识别封建社会意识形态，不要上当受骗。杨幂什么时候饰演居里夫人。如果居里夫人的故事能搬上荧屏、居里夫人的著作能够让大家熟知或者我国与居里夫人有关的人或物成为人民币的标志性图案，那也肯定会对人民币汇率产生辐射影响的。动迁、居里夫人是人民币汇率的相关因素。 最怕空气突然安静 老是笑的那么猥琐 应该成为居里夫人那样的人。一小部分人通过不健全的法律阻止普通人民从事生产研究，而另一方面又把众多已经公开的化学知识封锁起来，不让人民进一步了解科技的真相、学习知识，一项基本的获取技能权利丧失了。 如果拍古装剧一定要注意，众多古装影视作品过度描写了封建社会的不平等的等级制度以及封建主夸张的物质生活条件，其中自然会折射出封建社会的腐朽王朝土地所有权关系。这些应该被批判，而不是赞美。不应该过度反映封建社会的意识形态和生活方式。 乐哥这盘接的稳哈[大笑] 乐哥这盘接的稳哈[大笑] 唉千嬅也老了 不要整天上头条秀自己，既然已经成为人夫了，那就好好回家生小孩儿去吧！余文乐哈哈 在一起吧 余文乐：我不要紧的 杨千嬅歌还可以听一下 风光66 不会是杨千嬅的弟弟或经纪人吧 继续唱... 怎么看上去像梅艳芳 这个角度怎么把陆叔拍的那么丑啊 我知道你们在想什么 最怕空气突然安静 应该成为居里夫人那样的人。一小部分人通过不健全的法律阻止普通人民从事生产研究，而另一方面又把众多已经公开的化学知识封锁起来，不让人民进一步了解科技的真相、学习知识，一项基本的获取技能权利丧失了。 如果拍古装剧一定要注意，众多古装影视作品过度描写了封建社会的不平等的等级制度以及封建主夸张的物质生活条件，其中自然会折射出封建社会的腐朽王朝土地所有权关系。这些应该被批判，而不是赞美。不应该过度反映封建社会的意识形态和生活方式。 这个这个这个照片小编不能挑挑嘛。 演艺明星会唱国歌？ 杨千嬅和郑秀文，不唱歌一直分不清楚。 我看成了送炮 艺人多封建。以目前的社会经济环境，如果停止动迁、征地，肯定会影响人民币汇率；土地征收、动迁，注意识别封建社会意识形态，不要上当受骗。杨幂什么时候饰演居里夫人。如果居里夫人的故事能搬上荧屏、居里夫人的著作能够让大家熟知或者我国与居里夫人有关的人或物成为人民币的标志性图案，那也肯定会对人民币汇率产生辐射影响的。动迁、居里夫人是人民币汇率的相关因素。 最怕朋友突然的关心 真爱 老是笑的那么猥琐 中国明星就是遭惯出来了 要唱歌么[窃笑][窃笑] ",
        "Link": "http://comment.ent.163.com/ent2_bbs/PHOTJNU0000300AJ.html",
        "Reply": 25,
        "Total": 1027
    },
    "KeyWords": "余文乐,",
    "PublishTime": "01/03/201807:55:03",
    "Title": "余文乐婚后首度亮相 力挺杨千嬅合唱送拥抱_网易娱乐",
    "Source": "Netease",
    "Article": "余文乐婚后首度亮相力挺杨千嬅合唱送拥抱2018年1月2日，香港，一连十一场的杨千嬅圣诞跨年演唱会今晚在红馆举行尾场，之前十场都没有邀请演唱嘉宾，不过尾场就由余文乐担任特别嘉宾跟千嬅合唱《当我想起你》及独唱《Mr.》，此时千嬅趁机恭喜乐仔新婚之喜，这次亦是乐仔新婚后首次公开露面，有传怀孕的王棠云和乐仔妈妈亦分别坐在台下支持，另外，老公丁子高和一班圈中好友包括汪明荃和梁咏琪等人也现身支持。",
    "URL": "http://ent.163.com/photoview/00AJ0003/647104.html"
}