{
    "PublishTime": "12/30/201723:36:23",
    "Comment": {
        "Total": 1324,
        "Reply": 61,
        "Link": "http://comment.sports.163.com/sports2_bbs/D6ULELAH00058781.html",
        "Content": "切尔西的进攻就是简单暴力 阿扎尔跟374都属于拖慢整体节奏只会单干那种。 尴尬了 估计是杀全家的那种，切尔西的新闻都进来喷。 威廉真大腿 恭喜我佩刀 喝水哥比巴卡约科厉害啊 孔二愣子真心是个好教练，作为多年的车迷，希望能长久蓝桥 说句实话就有仇了？ 上半场这三球真的无解。 哈特哭晕在厕所 凡事有因有果…<br>😄<br>我xl<br>我看网易以来，热帖几乎都是巴🐶<br>没有任何鸟粪会在过年诅咒别人…唯有理性客观中立的巴萨球迷 最尴尬是赛季初讽刺孔蒂蓝军的鸟大师。。。 这帮热评得多二逼？不知道马上要客场打阿森纳了？ 煞笔逻辑 原來你媽和隔壁老王嘿咻的事情被你撞見了，怪不得尷尬。 这下扎球王估计要去皇马了 真蓝军球迷是不会这么说的，肯定巴沟咯 孔二愣子愣起来谁都可以去预备队休养！ 曼联新闻，里面评论热帖全部都是黑子<br>我也是醉了<br>唯有巴萨新闻和曼城新闻和谐一片<br>其他都在骂鸟粪<br>哈哈哈哈 对面都替䃼，留着扎扎打阿森纳 看看佩刀的表现，木鸟是真不会用进攻球员 最終比分5：0 其实我想知道阿扎尔真这么牛吗 当初破车开局不顺，蓝军新闻都是内鬼活该，孔二愣子下课，还抱美颜大腿。那时候的曼联顺风顺水，结果主场被干，现在已然落后蓝军，这也是钱的问题吗？<br>现在蓝军新闻是会有不少瓜迷和萨迷借机嘲讽，但凡事都有因有果。残酷的事实是，穆帅正在失去魔力。<br>欧冠赛程蓝军难度比曼联高得多，真有本事就用比赛成绩证明英超不是菜鸡互啄。 那你太年轻，来得晚，没赶上防水狗，王者之师那些喷狗 五蕴皆空女 马竞现在就是西甲兵工厂，切尔西买下马竞的后防线 这不废话嘛:萨拉赫，夸德拉多，德布劳内表示认同。法布雷加斯说🐦大师叫他拿球就大脚找前锋，只有这招了😂 不过后来有了你，就不尴尬了[狗] 帅帅帅！ 赛程密集，安排轮休很正常 你是傻逼么？阿扎尔休息是轮换臂展娜娜，这你也你能喷！ 佩德罗真的不容易 多大仇？ 本来阿扎尔就是拖慢节奏的人，类似伊斯科 进球个个精彩飘逸 对面也是大轮换，赢了很正常 切尔西的进攻就是简单暴力 阿扎尔跟374都属于拖慢整体节奏只会单干那种。 估计是杀全家的那种，切尔西的新闻都进来喷。 威廉真大腿 日大侠 我他妈以为是扎哈维呢 傻逼，把你操死估計你最開心 扎球王？渣球王八😄 这帮热评得多二逼？不知道马上要客场打阿森纳了？ 煞笔逻辑 其实可以进多几个的，只是车子昨晚太能浪费机会了 看到大结局的时候就 111 3345 我觉得374比阿扎尔强不少，切尔西阵容比阿森纳好，374不容易 孔二愣子愣起来谁都可以去预备队休养！ 阿扎尔脚下技术出众，传带突破对比赛的帮助有限，拖沓冗余。个人感觉球商一般，被唯技术论之流吹捧高估。如果有了好的价钱可以出手。 勤奋又不缺乏天份，上天总会眷顾的 其实我想知道阿扎尔真这么牛吗 恭喜我佩刀 那你太年轻，来得晚，没赶上防水狗，王者之师那些喷狗 五蕴皆空女 马竞现在就是西甲兵工厂，切尔西买下马竞的后防线 这不废话嘛:萨拉赫，夸德拉多，德布劳内表示认同。法布雷加斯说🐦大师叫他拿球就大脚找前锋，只有这招了😂 沙币皮克 这脚球真是有点漂亮了 孔二愣子真心是个好教练，作为多年的车迷，希望能长久蓝桥 吕迪格是中国的吧，哈哈哈 上半场这三球真的无解。 阿扎尔还是比较水的，二流 你是傻逼么？阿扎尔休息是轮换臂展娜娜，这你也你能喷！ 佩德罗真的不容易 对面也是大轮换，赢了很正常 切尔西下次什么时候来中国在辱华一次啊？ 就是，扎扎场场拼命，轮休一下很正常。 888 莫拉塔堪比武磊 喝水哥比巴卡约科厉害啊 凡事有因有果…<br>😄<br>我xl<br>我看网易以来，热帖几乎都是巴🐶<br>没有任何鸟粪会在过年诅咒别人…唯有理性客观中立的巴萨球迷 最尴尬是赛季初讽刺孔蒂蓝军的鸟大师。。。 远射全都进了[微笑][微笑][微笑]这运气也是没谁 原來你媽和隔壁老王嘿咻的事情被你撞見了，怪不得尷尬。 真蓝军球迷是不会这么说的，肯定巴沟咯 曼联新闻，里面评论热帖全部都是黑子<br>我也是醉了<br>唯有巴萨新闻和曼城新闻和谐一片<br>其他都在骂鸟粪<br>哈哈哈哈 看看佩刀的表现，木鸟是真不会用进攻球员 圣诞赛程轮休下也可以的。 尴尬了 777896 应该是黄沟吧 不过后来有了你，就不尴尬了[狗] 对面都替䃼，留着扎扎打阿森纳 本来阿扎尔就是拖慢节奏的人，类似伊斯科 进球个个精彩飘逸 多大仇？ 哈特哭晕在厕所 这下扎球王估计要去皇马了 帅帅帅！ 赛程密集，安排轮休很正常 最終比分5：0 "
    },
    "Title": "没扎球王也这么猛!蓝军23分钟3连击 缺谁谁尴尬_网易体育",
    "Source": "Netease",
    "KeyWords": "蓝军,佩德罗,切尔西",
    "URL": "http://sports.163.com/17/1230/23/D6ULELAH00058781.html",
    "Article": "网易体育12月30日报道：切尔西在斯坦福桥球场面对斯托克城，卷入和皇马转会传闻的阿扎尔没有首发，但是孔蒂的蓝军反倒在比赛中势如破竹，踢出了本赛季的最佳开局，他们在23分钟的时间内就连下三城，德林克沃特和佩德罗还都轰出了世界波。今天早些时候，很多英媒都爆料称，阿扎尔拒绝了切尔西的续约合同，阿扎尔的父亲在接受采访时也指出，他的儿子希望加盟皇马。孔蒂也回应了阿扎尔父亲的言论，他希望比利时球星专注于蓝军，并且帮助球队多进球。有些意外的是，本场比赛，孔蒂让阿扎尔出现在替补席，比利时人没有代表蓝军首发。没有了进攻端最为犀利的王牌球星，切尔西反倒踢得更加流畅。第3分钟，在接到威廉任意球传中后，吕迪格在禁区内头球破门，帮助蓝军取得梦幻开局。第9分钟，切尔西在进攻中再度收获进球，当时德林克沃特在禁区外右脚凌空撩射，喝水哥射出了神仙球，皮球直入死角，蓝军很快两球领先。这还不算完，第23分钟，威廉分球，佩德罗在禁区外轻松摆脱防守，随后佩刀右脚远射破门，帮助蓝军三球领先。在上半场刚刚进行一半的情况下，切尔西就杀死了比赛，而斯托克城的部分球迷甚至已经开始退场，这还是非常的罕见。缺少了阿扎尔，切尔西反倒踢得顺风顺水，这样的比赛进程让人非常的意外，对于阿扎尔本人来说，这也是有些尴尬。虽然切尔西主帅孔蒂让他替补也有轮休的意味，但是在比利时人和皇马有转会传闻的情况下，这样的安排也似乎有另外的深意，不过孔蒂成为赢家，他证明了缺少了阿扎尔，蓝军照样玩得转。本文来源：网易体育作者：头狼责任编辑：冯昊天_NSJS2656"
}