{
    "Title": "苹果提前1月实行手机电池更换折扣政策:需付29美元_网易新闻",
    "PublishTime": "12/31/201716:58:00",
    "URL": "http://news.163.com/17/1231/17/D70HEUMI000187VE.html",
    "Source": "Netease",
    "KeyWords": "苹果公司,电池,手机,苹果",
    "Comment": {
        "Reply": 33,
        "Content": "美国190，中国218？ 就信西方的这类大公司，因为他们从不拿信誉开玩笑 贵个jb加上税31326.7的汇率自己算 建议苹果允许7以下的用户重新退回1033 这就是被无数人推崇的“促进人类文明进步”的负责任公司？ 你怎么就不说ios11加了多少新功能，没新功能你升级个毛线 收税啊 幸好10.3.3的时候就下载描述文件防止更新和提示。一点也不卡 比美国多增值税 知足吧！俺们什么都吃亏 开放降级通道 升级到11.，就几分钟时间，升级了ApplePay（明显想做移动支付业务）。升级前后就几分钟，手机卡顿、掉电明显、流量增加，你特么说是电池的问题？我的电池几分钟就迅速老化了？电池老化费流量？iCloud为何极端活跃？就是不肯承认ISO11.版本问题… 又卖一波电池，库基不愧为营销🐔 库克就一垃圾 国内那个手机商给你优惠了？ 10.0.1路过 反正我是不用苹果了，这个逼谁爱装谁装😏 原来换电池是生意不是售后 我靠米国3小时工资而已～是因为你穷 是这样啊 我还是9.3.3的系统。当时升到10.0.1就好了。6S。不过两年了依然流畅 人民币对美元都升值这么多了，国内还是218，还是太贵 官老爷不用喝茅台？真是的 美国190，中国218？ 6p用的8.3.4，卡顿非常严重。 作死的节奏 就信西方的这类大公司，因为他们从不拿信誉开玩笑 智商税交多少都不为过 贵个jb加上税31326.7的汇率自己算 建议苹果允许7以下的用户重新退回1033 这就是被无数人推崇的“促进人类文明进步”的负责任公司？ 国内那个手机商给你优惠了？ 收税啊 幸好10.3.3的时候就下载描述文件防止更新和提示。一点也不卡 又卖一波电池，库基不愧为营销🐔 比美国多增值税 奥，原来如此[窃笑] 知足吧！俺们什么都吃亏 我的小6用了三年多了，升级过一次，就没有在升级了，不卡还是很好用的，但是，下次不用用苹果了 开放降级通道 升级到11.，就几分钟时间，升级了ApplePay（明显想做移动支付业务）。升级前后就几分钟，手机卡顿、掉电明显、流量增加，你特么说是电池的问题？我的电池几分钟就迅速老化了？电池老化费流量？iCloud为何极端活跃？就是不肯承认ISO11.版本问题… 我靠米国3小时工资而已～是因为你穷 库克就一垃圾 你怎么就不说ios11加了多少新功能，没新功能你升级个毛线 知足常乐[大笑] 10.0.1路过 反正我是不用苹果了，这个逼谁爱装谁装😏 原来换电池是生意不是售后 不要290美元就是看不起中国人。。。。。老子不要面子啊。。。 反正我是不用苹果的，这个逼谁爱装谁装😏 是这样啊 我还是9.3.3的系统。当时升到10.0.1就好了。6S。不过两年了依然流畅 给别人获取锁屏密码，然后刷死了，因为更换了山寨电池，有比这货混账的吗？ 上班 人民币对美元都升值这么多了，国内还是218，还是太贵 ",
        "Total": 1001,
        "Link": "http://comment.news.163.com/news2_bbs/D70HEUMI000187VE.html"
    },
    "Article": "（原标题：苹果公司提前一月施行手机电池更换折扣政策，需支付29美元）在遭遇到来自多方面的批评声音之后，美国苹果公司决定提前施行手机电池更换的折扣政策。据美国有线电视新闻网（CNN）12月30日报道，目前苹果公司正在紧急应对大量愤怒的苹果手机用户。苹果公司因此决定比原计划提前一个月施行手机电池更换的折扣政策，使用第六代苹果手机（iphone6）以及后续机型的用户仅需支付29美元（约合人民币190元）便可更换手机电池，苹果公司方面也确认这一政策将于美国时间本周六开始在全球施行。苹果公司发言人在一份声明中表示，“我们本希望更多的时间做准备，但我们更乐意现在立刻给用户更实惠的价格。不过最初一批更换电池的供给上可能会有限制。”此前12月29号，苹果公司正式就降低老款iPhone手机速度一事进行详细回应。据澎湃新闻此前报道，苹果公司在发给澎湃新闻的一份声明中称，已经了解到用户对于苹果在老款iPhone降速门事件中的反馈，“有些用户因此对苹果感到失望。我们道歉。”同时，苹果强调，该公司从来没有、也永远不会通过任何手段来有意缩短任何苹果产品的使用寿命，更不会降低用户体验来迫使大家升级设备。苹果重申，他们的目标是创造备受用户喜爱的产品，尽可能延长iPhone的使用寿命，正是其中的重要一环。较老的电池在某些情况下，可能会导致设备突然意外关机，苹果认为这是不可接受的。为防止意外关机，大约一年以前，在苹果推送的iOS10.2.1中，推出了一项软件更新，以避免iPhone6、iPhone6Plus等机型意外关机，但在某些情况下，用户可能会发现有些app的启动时间变长了，有些性能表现变弱了。苹果公司也曾在公开信中表示，未来将更换过了保修期电池的价格降低了50美元，从79美元降到29美元。中国区的降幅为390元人民币，从608元降到218元。本文来源：澎湃新闻责任编辑：徐萌_NN7485"
}