{
    "PublishTime": "12/27/201715:37:00",
    "Source": "Netease",
    "Comment": {
        "Link": "http://comment.war.163.com/news_junshi_bbs/D6M2QN42000181KT.html",
        "Total": 49,
        "Reply": 6,
        "Content": "黄金实物支付更可靠！ “人无德，走不远；国无德，自取亡。”美国政府是个强盗，无义无德，干尽坏事，无耻无聊且无畏，是世界战乱的祸根，是世界动乱的根源，是世界和平的绊脚石。 白送？？？？ 成为储备货币消息已销声匿迹。 不愧是土鸡！没有永远的朋友，只有永远的利益！ 不愧是土鸡！没有永远的朋友，只有永远的利益！ 土耳其这是要闹哪样? 成为储备货币消息已销声匿迹。 黄金实物支付更可靠！ “人无德，走不远；国无德，自取亡。”美国政府是个强盗，无义无德，干尽坏事，无耻无聊且无畏，是世界战乱的祸根，是世界动乱的根源，是世界和平的绊脚石。 白送？？？？ "
    },
    "Article": "（原标题：绕过美国？俄媒称土耳其采购S-400系统不使用美元）【环球网报道记者严翔】俄罗斯《生意人报》12月27日报道称，俄罗斯国家技术集团公司总裁切梅佐夫日前接受该报采访时证实称，俄罗斯和土耳其已就25亿美元采购4套S-400防空系统一事完成相关谈判。切梅佐夫称，俄罗斯和土耳其已经完成了4套S-400防空系统采购事宜的相关谈判，合同总价达25亿，双方目前只需批准最终文件，首批供应预计将于2020年3月开始。他补充道：“土耳其支付合同总价的45%作为预付款，剩余55%由俄方提供的贷款资金支付。”“绕过美国购买S-400”，俄新社援引土耳其《国民报》报道称，俄罗斯和土耳其已就采购S-400防空系统制定了“联合支付计划”。土耳其将使用本国货币支付俄土S-400防空系统采购合同，而非美元或者欧元，以防美国通过系统环球银行间金融通信协会(SWIFT)“拦截”此笔支付。本文来源：环球时报-环球网。更多精彩，请登录环球网http://www.huanqiu.com责任编辑：姚文广_NN1682",
    "Title": "绕过美国?俄媒称土耳其采购S-400系统不使用美元_网易军事",
    "URL": "http://war.163.com/17/1227/15/D6M2QN42000181KT.html",
    "KeyWords": "s-400,土耳其,美元,美国"
}