{
    "Article": "（原标题：美国多个机场移民柜台电脑宕机入境旅客大排长龙）中新网1月2日电据“中央社”报道，根据美国海关与边境保护局和社群网站的贴文，年终假期结束后，1日，美国多个主要机场移民柜台计算机宕机2小时，造成入境美国的旅客大排长龙，有旅客直呼现场一片混乱。资料图：纽约肯尼迪机场的滞留旅客。中新社发魏晞摄报道称，美国海关与边境保护局(CustomsandBorderProtection)在声明中表示，旅客审查系统于美东时间晚间7时30分左右宕机，但已于晚间9时30分左右解决问题，所有机场的系统均恢复正常。声明补充说：“目前并无发现恶意攻击的迹象。”海关与边境保护局没有解释造成这次系统宕机的原因，并表示已指引旅客通过替代程序通关。入境旅客纷纷将机场大排长龙的照片上传到社群网站，包括纽约肯尼迪国际机场和哈特斯杰克森亚特兰大国际机场。丹佛国际机场、洛杉矶国际机场和迈阿密国际机场等也受到影响。一年前曾发生类似的计算机宕机事件。(原标题：美国多个机场移民柜台电脑宕机入境旅客大排长龙)本文来源：中国新闻网责任编辑：谷莹_NN6577",
    "Title": "美国多个机场移民柜台电脑宕机 入境旅客大排长龙_网易新闻",
    "PublishTime": "01/02/201814:40:00",
    "Source": "Netease",
    "Comment": {
        "Content": "万恶的美帝，你到底还要将这个世界欺骗多久，还要诱拐多少人投入你的水深火热！！！ 入境旅客大排长龙的照片呢？ 万恶的美帝，你到底还要将这个世界欺骗多久，还要诱拐多少人投入你的水深火热！！！ 某个暗世界大人物入境了 入境旅客大排长龙的照片呢？ 万恶的美帝，你到底还要将这个世界欺骗多久，还要诱拐多少人投入你的水深火热！！！ 万恶的美帝，你到底还要将这个世界欺骗多久，还要诱拐多少人投入你的水深火热！！！ 报导内容与图片不符，是瞪眼说瞎话 ",
        "Reply": 5,
        "Link": "http://comment.news.163.com/news2_bbs/D75E9SQA00018AOQ.html",
        "Total": 90
    },
    "KeyWords": "宕机,美国,机场,移民",
    "URL": "http://news.163.com/18/0102/14/D75E9SQA00018AOQ.html"
}