{
    "Source": "Netease",
    "KeyWords": "乌克兰,美国,武器",
    "URL": "http://news.163.com/17/1224/04/D6D530Q100018AOQ.html",
    "PublishTime": "12/24/201704:13:00",
    "Comment": {
        "Content": "现役军人，现役。 贼喊捉贼，古典套路，，， 我就喜欢看美国收拾流氓😅 流氓一票否决 唯有战争才能打破铁桶一样的统治，人民才有翻身的机会！俄罗斯是这样，朝鲜也是这样，还有很多非民主的政体也必须靠战争解决掉！<br>比如台湾就需要打的！ 没有战争打破旧体制人类就没有机会进步！打！俄罗斯方块要塌陷了 鹅毛在乌克兰领土问题上已超出做人的底线 战争让人热血沸腾啊！打！<br>朝鲜也逃不掉的，任何企图阻碍美军的阴谋诡计都不会得逞！<br>发动圣诞攻势！ 支持大恐怖分子巴沙尔才是越线 煞笔，，还是回去玩你直播吧 加上“人民”两个字就更加完美了 狗东西吞并克里米亚时，小绿人在东乌到处乱窜时，你已经越了底线。现在讲别人越线，臭不要脸！ 鹅毛不要脸，派退伍军人在乌克兰东部挑起战争。 贼喊捉贼，古典套路，，， 向台湾军售，向乌克兰提供武器，令澳日印抗衡中国。。。。。。<br>谁是无底线的流氓？ 怎么1楼你不服想和美国干啊？不是已经突破你的底线了吗？还不还手打啊？不打可就是怂逼了。。。。。。。。。。 人家是自愿军 成吉思汗长子术赤建立金帐汗国，金帐汗国崩溃之后，术赤后裔在克里米亚半岛地区建立克里米亚汗国，要说自古以来的话，老毛子滚远点 不要脸俄方，俄方侵略叫危机，也门胡赛暴乱叫危机，叙政府枪杀百姓叫危机，选择性失明，掩盖真想太可怕 为中华民族保留抿住火种 美国和北约为什么不将克里米亚问题提交联合国来讨论和定性然后形成决议制裁俄罗斯而愿意单枪匹马支持乌克兰？美国有难言之隐还是心怀鬼胎？ 流氓逻辑，联合国确定俄罗斯侵略占领克里米亚。 现役军人，现役。 贼喊捉贼，古典套路，，， 我就喜欢看美国收拾流氓😅 流氓一票否决 唯有战争才能打破铁桶一样的统治，人民才有翻身的机会！俄罗斯是这样，朝鲜也是这样，还有很多非民主的政体也必须靠战争解决掉！<br>比如台湾就需要打的！ 没有战争打破旧体制人类就没有机会进步！打！俄罗斯方块要塌陷了 卖给古巴导弹吧，这样才扯平，怼上啦 鹅毛在乌克兰领土问题上已超出做人的底线 米国到处煽风点火，可以联合起来敲打敲打一下了 战争让人热血沸腾啊！打！<br>朝鲜也逃不掉的，任何企图阻碍美军的阴谋诡计都不会得逞！<br>发动圣诞攻势！ 支持大恐怖分子巴沙尔才是越线 煞笔，，还是回去玩你直播吧 加上“人民”两个字就更加完美了 狗东西吞并克里米亚时，小绿人在东乌到处乱窜时，你已经越了底线。现在讲别人越线，臭不要脸！ 怎么1楼你不服想和美国干啊？不是已经突破你的底线了吗？还不还手打啊？不打可就是怂逼了。。。。。。。。。。 人家是自愿军 向台湾军售，向乌克兰提供武器，令澳日印抗衡中国。。。。。。<br>谁是无底线的流氓？ 鹅毛不要脸，派退伍军人在乌克兰东部挑起战争。 成吉思汗长子术赤建立金帐汗国，金帐汗国崩溃之后，术赤后裔在克里米亚半岛地区建立克里米亚汗国，要说自古以来的话，老毛子滚远点 不要脸俄方，俄方侵略叫危机，也门胡赛暴乱叫危机，叙政府枪杀百姓叫危机，选择性失明，掩盖真想太可怕 为中华民族保留抿住火种 贼喊捉贼，古典套路，，， 俄杂入侵乌克兰就不是越线，流氓逻辑 美国和北约为什么不将克里米亚问题提交联合国来讨论和定性然后形成决议制裁俄罗斯而愿意单枪匹马支持乌克兰？美国有难言之隐还是心怀鬼胎？ 流氓逻辑，联合国确定俄罗斯侵略占领克里米亚。 ",
        "Total": 882,
        "Link": "http://comment.news.163.com/news2_bbs/D6D530Q100018AOQ.html",
        "Reply": 25
    },
    "Article": "（原标题：俄方：美国向乌克兰提供武器的做法已“越线”）中新社莫斯科12月23日电针对美国决定向乌克兰提供武器一事，当地时间12月23日，俄罗斯方面表示，美国做法已“越线”，对和平解决乌东部地区问题造成了破坏。俄副外长里亚布科夫23日通过外交部网站发表声明称，此前美国通过公司以商业合同的形式向乌克兰提供武器。而现在美国直接向乌出售武器，其举动已经“越过了线”。里亚布科夫说，美国被反俄情绪“蒙蔽了眼睛”，“乐于为乌克兰民族主义者鼓掌”。里亚布科夫认为，美国试图在调解乌东部问题中扮演中间人的角色，但实质上扮演的是“挑起战争的帮凶”的角色。俄副外长卡拉欣当天表示，美国的这一决定实际上中断了明斯克协议的执行工作，“把赌注下到了武力解决顿巴斯(乌东部)地区问题的政治力量一边”。卡拉欣说，国际社会应全力促使乌克兰当局与乌东部地区展开对话。俄联邦委员会(议会上院)主席马特维延科说，美国这一决定是错误的，把自己卷入了乌克兰内战当中。对和平解决乌东部地区问题造成了破坏。美国国务院22日宣布，美国已决定向乌克兰提供装备，增强防御能力，并称美国对乌克兰的协助完全属于“防御性质”，美国依然支持通过明斯克协议解决乌东部地区问题。2014年乌克兰爆发政治危机。乌东部顿涅茨克与卢甘斯克两州自行宣布成立“人民共和国”，并各自组织武装力量。乌克兰政府军随后对两个“人民共和国”展开了军事行动，但未取得预期效果。后在俄罗斯、德国等方面协调下，乌克兰当局与两个“人民共和国”在白俄罗斯首都明斯克达成了明斯克协议。协议规定各方停火并逐渐降低冲突等级。协议签署后，双方仍不时爆发冲突。本文来源：中国新闻网作者：王修君责任编辑：李杭_BJS4645",
    "Title": "俄方：美国向乌克兰提供武器的做法已“越线”_网易新闻"
}